14.0021438599 13.7904586792 13.0581588745 11.8908491135 11.0982589722 11.0989294052 11.8937282562 13.0607156754 13.7917108536 14.0021619797 21.9914703369 21.614233017 20.5556583405 18.8821563721 17.739818573 17.7406902313 18.8864116669 20.5592670441 21.6161365509 21.9915599823 29.9816360474 29.5330905914 28.5623989105 27.175365448 26.2031936646 26.2039451599 27.1788978577 28.5654735565 29.5350284576 29.9817829132 37.9828414917 37.6455116272 37.0051994324 36.1661949158 35.5872650146 35.587726593 36.1682853699 37.0071296692 37.6468429565 37.9829826355 45.9988479614 45.8730888367 45.6506271362 45.3744773865 45.1856651306 45.1858139038 45.3751602173 45.6512794495 45.8735656738 45.9989013672 54.0212059021 54.1476593018 54.3713531494 54.6490211487 54.8391189575 54.8389549255 54.6483345032 54.3707008362 54.1471786499 54.0211524963 62.0371742249 62.3749465942 63.0163536072 63.8568305969 64.4368743896 64.436416626 63.8547401428 63.0144271851 62.3736228943 62.0370330811 70.0383453369 70.4869613647 71.4582977295 72.8471221924 73.8192443848 73.8185882568 72.8436431885 71.4552612305 70.4850234985 70.0382003784 78.028503418 78.4052810669 79.4636001587 81.1378097534 82.280456543 82.2795639038 81.1336975098 79.4599685669 78.4033889771 78.0284118652 86.0178375244 86.2290267944 86.9595947266 88.1238632202 88.9118881226 88.9118041992 88.1214370728 86.956993103 86.2277603149 86.0178146362 
14.0010452271 13.7827033997 13.0441608429 11.8670330048 11.0710964203 11.0717716217 11.869934082 13.0467405319 13.7839698792 14.0010671616 21.9901676178 21.6027870178 20.5292053223 18.8303413391 17.6665725708 17.6674690247 18.8346595764 20.5328712463 21.6047210693 21.9902629852 29.9803791046 29.5202331543 28.5305347443 27.1074676514 26.0874481201 26.0882453918 27.1111221313 28.5336666107 29.5222072601 29.9805335999 37.981880188 37.6354446411 36.9800682068 36.1100082397 35.5014457703 35.5019378662 36.1121902466 36.9820594788 37.6368141174 37.9820251465 45.9984817505 45.8692131042 45.640838623 45.3533706665 45.1555938721 45.1557502747 45.3540840149 45.6415100098 45.8697052002 45.9985427856 54.0215682983 54.151550293 54.3812065125 54.670249939 54.8694763184 54.869304657 54.6695213318 54.3805274963 54.151058197 54.0215072632 62.0381317139 62.3850212097 63.0415115356 63.9130706787 64.5227508545 64.5222625732 63.9108963013 63.0395355225 62.3836708069 62.0379905701 70.0395965576 70.4998092651 71.4901580811 72.9150543213 73.9348831177 73.9341583252 72.9114608765 71.4870681763 70.4978408813 70.0394668579 78.0298080444 78.4167251587 79.4900512695 81.1895751953 82.3535614014 82.3526535034 81.1853942871 79.4863357544 78.4147949219 78.0297088623 86.018951416 86.2367706299 86.9735565186 88.147605896 88.9389801025 88.938911438 88.1451644897 86.9709243774 86.2354812622 86.0189056396 
14.0009975433 13.7823677063 13.0435438156 11.8659896851 11.0699110031 11.0705833435 11.8688907623 13.0461244583 13.7836332321 14.0010223389 21.990114212 21.6022834778 20.5280303955 18.8280487061 17.6634292603 17.6643333435 18.8323688507 20.5316963196 21.6042156219 21.9902095795 29.9803218842 29.5196628571 28.5291213989 27.1044521332 26.0817584991 26.0825595856 27.1081104279 28.5322589874 29.5216388702 29.9804763794 37.981842041 37.6350097656 36.9789428711 36.1073684692 35.4967384338 35.4972229004 36.1095581055 36.9809379578 37.6363716125 37.9819831848 45.9984588623 45.8690452576 45.640422821 45.3523521423 45.1540527344 45.154209137 45.3530578613 45.6410827637 45.8695297241 45.9985198975 54.0215873718 54.1517295837 54.3816413879 54.6712799072 54.8710746765 54.8708763123 54.6705589294 54.3809623718 54.1512374878 54.0215339661 62.0381736755 62.3854751587 63.0426254272 63.9157180786 64.5274581909 64.5269775391 63.9135398865 63.0406494141 62.3841056824 62.038028717 70.0396652222 70.5003890991 71.4915847778 72.9180679321 73.9405593872 73.9398345947 72.9144744873 71.488494873 70.4984130859 70.0395202637 78.0298538208 78.4172286987 79.4912109375 81.1918640137 82.3566970825 82.3557891846 81.1876831055 79.4875106812 78.4152984619 78.0297622681 86.0189819336 86.2370986938 86.9741973877 88.148651123 88.9401626587 88.9400939941 88.1461868286 86.971534729 86.2358093262 86.0189590454 
14.000995636 13.782327652 13.0434703827 11.8658638 11.0697612762 11.070432663 11.8687648773 13.0460519791 13.7835950851 14.0010194778 21.9901065826 21.6022281647 20.5278949738 18.8277816772 17.6630687714 17.6639671326 18.8321056366 20.5315647125 21.6041603088 21.9902038574 29.9803161621 29.5195980072 28.5289573669 27.1041183472 26.0811100006 26.0819072723 27.1077747345 28.5320949554 29.5215759277 29.98046875 37.9818344116 37.6349563599 36.9788131714 36.1070556641 35.4961547852 35.4966430664 36.1092414856 36.9808082581 37.6363220215 37.9819755554 45.9984664917 45.8690261841 45.64037323 45.352230072 45.1538848877 45.1540336609 45.352935791 45.6410369873 45.86951828 45.9985198975 54.0215873718 54.1517448425 54.3816795349 54.6714019775 54.8712348938 54.8710708618 54.6706809998 54.3810081482 54.1512489319 54.0215339661 62.0381736755 62.3855209351 63.0427589417 63.9160270691 64.5280380249 64.5275421143 63.9138526917 63.0407791138 62.3841629028 62.0380363464 70.0396728516 70.5004501343 71.4917373657 72.9183959961 73.9412002563 73.9404754639 72.9148025513 71.4886322021 70.4984893799 70.0395202637 78.0298614502 78.4172897339 79.4913406372 81.1921234131 82.3570632935 82.3561477661 81.1879501343 79.4876403809 78.4153442383 78.0297622681 86.018989563 86.2371520996 86.9742660522 88.1487731934 88.9403076172 88.940246582 88.1463165283 86.9716262817 86.2358551025 86.0189590454 
14.0009918213 13.7823209763 13.0434513092 11.8658275604 11.0697097778 11.0703840256 11.8687286377 13.0460367203 13.7835874557 14.0010156631 21.9901065826 21.6022167206 20.5278663635 18.82771492 17.6629734039 17.6638755798 18.8320388794 20.5315322876 21.6041488647 21.9902038574 29.9803161621 29.5195884705 28.52891922 27.1040344238 26.0809574127 26.0817584991 27.1076984406 28.5320549011 29.5215644836 29.9804668427 37.9818344116 37.6349487305 36.9787864685 36.1069793701 35.4960289001 35.4965171814 36.1091651917 36.9807777405 37.6363067627 37.9819755554 45.9984664917 45.8690185547 45.6403617859 45.3521995544 45.1538467407 45.1539993286 45.3529052734 45.6410217285 45.8695144653 45.9985198975 54.0215911865 54.1517448425 54.3817024231 54.6714401245 54.8712806702 54.8711013794 54.670715332 54.3810195923 54.1512527466 54.0215377808 62.0381736755 62.3855323792 63.0427932739 63.9161109924 64.5281677246 64.5276794434 63.9139251709 63.0408096313 62.3841705322 62.0380363464 70.0396728516 70.5004577637 71.4917831421 72.91847229 73.9413452148 73.9406433105 72.9148788452 71.4886856079 70.4984970093 70.0395278931 78.0298614502 78.4172973633 79.4913864136 81.1921920776 82.3571472168 82.3562393188 81.1880187988 79.4876708984 78.4153594971 78.0297622681 86.018989563 86.2371444702 86.9742889404 88.1487960815 88.9403686523 88.9402999878 88.1463470459 86.9716339111 86.2358703613 86.0189743042 
14.0009899139 13.7823200226 13.0434436798 11.8658075333 11.0696773529 11.070350647 11.8687057495 13.0460252762 13.7835865021 14.0010156631 21.9901065826 21.6022090912 20.52784729 18.8276786804 17.6629276276 17.6638278961 18.8320007324 20.5315151215 21.60414505 21.9902000427 29.9803161621 29.5195789337 28.5289001465 27.1039905548 26.0808849335 26.0816822052 27.1076545715 28.532037735 29.5215568542 29.9804668427 37.9818344116 37.6349411011 36.9787750244 36.1069450378 35.495967865 35.4964599609 36.1091308594 36.9807624817 37.636302948 37.9819755554 45.9984664917 45.8690185547 45.6403541565 45.352191925 45.1538314819 45.1539840698 45.352897644 45.6410217285 45.8695068359 45.9985198975 54.0215911865 54.1517486572 54.3816986084 54.6714515686 54.871295929 54.8711166382 54.6707267761 54.381023407 54.1512527466 54.0215377808 62.0381736755 62.3855400085 63.0428009033 63.9161376953 64.5282211304 64.5277252197 63.9139633179 63.0408248901 62.3841781616 62.0380363464 70.0396728516 70.5004577637 71.4918136597 72.9185180664 73.9414215088 73.9407043457 72.914932251 71.4886856079 70.4984970093 70.0395278931 78.0298614502 78.4172973633 79.4914016724 81.1922302246 82.3572006226 82.3562774658 81.1880493164 79.487701416 78.4153594971 78.0297622681 86.018989563 86.237159729 86.9742889404 88.1488342285 88.9403991699 88.9403305054 88.1463775635 86.9716491699 86.2358703613 86.0189743042 
14.0009899139 13.7823181152 13.0434350967 11.8657884598 11.0696487427 11.0703210831 11.8686876297 13.0460157394 13.7835845947 14.0010147095 21.9901065826 21.6022052765 20.5278339386 18.8276519775 17.6628856659 17.6637859344 18.8319778442 20.53150177 21.6041412354 21.9902000427 29.9803161621 29.519575119 28.5288848877 27.1039619446 26.080827713 26.0816268921 27.1076221466 28.5320224762 29.5215530396 29.9804668427 37.9818344116 37.6349372864 36.9787635803 36.106918335 35.4959335327 35.496421814 36.1091079712 36.9807510376 37.636302948 37.9819755554 45.9984588623 45.8690185547 45.6403465271 45.3521766663 45.1538162231 45.1539726257 45.3528823853 45.6410140991 45.8695068359 45.9985198975 54.0215911865 54.1517486572 54.3817024231 54.6714630127 54.871307373 54.8711242676 54.6707305908 54.3810348511 54.1512680054 54.0215377808 62.0381736755 62.3855400085 63.0428199768 63.9161682129 64.5282516479 64.5277709961 63.9139785767 63.0408287048 62.3841819763 62.0380363464 70.0396728516 70.5004653931 71.4917984009 72.9185409546 73.9414825439 73.9407577515 72.9149551392 71.4887237549 70.4985046387 70.0395278931 78.0298614502 78.4172973633 79.4914016724 81.1922531128 82.3572311401 82.3563232422 81.1880874634 79.4876937866 78.4153671265 78.0297622681 86.018989563 86.237159729 86.9742889404 88.1488494873 88.9404373169 88.9403686523 88.1463928223 86.9716644287 86.2358703613 86.0189743042 
