2.26550388336 3.87079715729 6.78446483612 9.50920677185 11.0411319733 11.0399227142 9.50333881378 6.7769613266 3.86408758163 2.26539039612 2.29155230522 5.06988620758 9.78782081604 14.2170505524 16.6840457916 16.6820907593 14.2076015472 9.77568531036 5.05880880356 2.29123592377 2.31508517265 5.95252037048 11.8643789291 17.3509178162 20.5468635559 20.5443191528 17.3389511108 11.8494195938 5.93836116791 2.31458687782 2.3315486908 6.47745132446 13.0297393799 19.0726642609 22.6058006287 22.6030025482 19.0594367981 13.0132799149 6.46155834198 2.33092522621 2.34039092064 6.73944234848 13.5989084244 19.8946495056 23.5676288605 23.5647354126 19.8808822632 13.5817461014 6.72272491455 2.33970022202 2.3403840065 6.73923826218 13.5984745026 19.8940219879 23.5669059753 23.5640163422 19.8802623749 13.5813150406 6.72252416611 2.33969378471 2.33151340485 6.47640752792 13.0274448395 19.0692958832 22.6018257141 22.5990371704 19.0561027527 13.0110111237 6.46053123474 2.33089065552 2.31503462791 5.95072221756 11.8603525162 17.3448352814 20.5388412476 20.5363750458 17.3329391479 11.8454561234 5.93659257889 2.31453680992 2.2914814949 5.06724214554 9.78129482269 14.2073936462 16.6717414856 16.6698417664 14.1981296539 9.76926994324 5.05623626709 2.29116773605 2.26545572281 3.86744570732 6.77573108673 9.49412059784 11.0225315094 11.0216159821 9.48826408386 6.76853656769 3.8608443737 2.2653427124 
2.26549720764 3.85428380966 6.74947690964 9.46527767181 10.9937362671 10.9925251007 9.45942497253 6.74200630188 3.84763026237 2.26538467407 2.29135274887 5.05008459091 9.74928665161 14.172085762 16.6388225555 16.6368637085 14.1626358032 9.73717975616 5.03906822205 2.29103851318 2.31478047371 5.93326425552 11.8279647827 17.3095760345 20.5130176544 20.5104579926 17.2975997925 11.813035965 5.91915750504 2.31428599358 2.33124899864 6.46039533615 12.997959137 19.0436973572 22.6107330322 22.607875824 19.0304298401 12.9815254211 6.44454813004 2.3306286335 2.34015154839 6.72435188293 13.5716943741 19.8796005249 23.6047515869 23.6017780304 19.865737915 13.5545463562 6.70767402649 2.33946371078 2.34014487267 6.72414588928 13.5712575912 19.8789615631 23.6039924622 23.6010284424 19.8651065826 13.5541133881 6.70747184753 2.33945727348 2.33121371269 6.45934724808 12.9956541061 19.0402946472 22.6066513062 22.603805542 19.0270576477 12.9792451859 6.44351530075 2.33059430122 2.31473064423 5.93146276474 11.8239278793 17.3034687042 20.5049324036 20.5024528503 17.2915687561 11.8090667725 5.91738653183 2.31423568726 2.29128193855 5.04744529724 9.74275875092 14.1624250412 16.6264705658 16.6245746613 14.1531686783 9.73077011108 5.03650093079 2.29097080231 2.2654504776 3.85095977783 6.74079704285 9.45020484924 10.9751663208 10.9742507935 9.44436073303 6.73364591599 3.84441876411 2.26533794403 
2.26549720764 3.8541841507 6.7492723465 9.46502494812 10.9934635162 10.9922561646 9.45917415619 6.7418012619 3.84753155708 2.26538491249 2.29135131836 5.04997014999 9.74906730652 14.1718378067 16.6385707855 16.6366157532 14.1623868942 9.73696231842 5.03895282745 2.29103732109 2.3147790432 5.93315887451 11.8277702332 17.3093566895 20.5128326416 20.5102672577 17.2973861694 11.8128395081 5.91905450821 2.31428432465 2.33124780655 6.460313797 12.9978160858 19.043592453 22.6108150482 22.6079597473 19.0303211212 12.9813814163 6.44446754456 2.33062744141 2.34015107155 6.72429037094 13.5715970993 19.8796253204 23.605298996 23.6023235321 19.8657627106 13.5544500351 6.70761203766 2.33946347237 2.34014415741 6.7240858078 13.5711593628 19.8789863586 23.6045455933 23.6015701294 19.8651332855 13.5540180206 6.7074098587 2.33945679665 2.3312125206 6.45926523209 12.9955120087 19.0401878357 22.6067390442 22.6038856506 19.0269508362 12.9791030884 6.44343614578 2.33059310913 2.3147289753 5.93135786057 11.8237361908 17.3032512665 20.5047454834 20.5022659302 17.291349411 11.8088731766 5.91728258133 2.31423425674 2.29128098488 5.04733085632 9.74253845215 14.1621742249 16.6262187958 16.6243209839 14.1529178619 9.73055076599 5.03638648987 2.29097032547 2.2654504776 3.85086107254 6.74059295654 9.44995307922 10.9748973846 10.9739837646 9.44410896301 6.73344039917 3.84432029724 2.26533794403 
2.26549720764 3.85419178009 6.74929094315 9.46505355835 10.9934949875 10.9922885895 9.45920276642 6.74181985855 3.84753847122 2.26538515091 2.29135203362 5.04998254776 9.74909591675 14.1718759537 16.6386165619 16.6366596222 14.1624279022 9.73699092865 5.03896522522 2.29103755951 2.31477975845 5.93317651749 11.8278074265 17.3094100952 20.5128917694 20.5103282928 17.2974357605 11.8128767014 5.91907119751 2.31428480148 2.33124828339 6.46033525467 12.9978628159 19.0436592102 22.6109046936 22.6080474854 19.0303916931 12.9814300537 6.4444899559 2.33062815666 2.3401517868 6.72431516647 13.5716495514 19.8797130585 23.6054191589 23.6024513245 19.8658485413 13.5545024872 6.70763683319 2.33946418762 2.34014487267 6.72410964966 13.5712118149 19.879070282 23.6046676636 23.6016998291 19.8652133942 13.554069519 6.70743465424 2.3394575119 2.33121347427 6.45928573608 12.995557785 19.0402565002 22.6068267822 22.603975296 19.0270195007 12.9791488647 6.44345617294 2.33059382439 2.31472921371 5.9313750267 11.8237724304 17.3033046722 20.5048046112 20.502325058 17.2913990021 11.8089094162 5.91729974747 2.31423449516 2.2912812233 5.04734230042 9.74256801605 14.1622152328 16.6262645721 16.6243667603 14.1529588699 9.7305803299 5.03639888763 2.29097032547 2.2654504776 3.8508682251 6.74061107635 9.44998073578 10.9749307632 10.9740142822 9.44413757324 6.73345899582 3.84432721138 2.26533794403 
2.26549744606 3.85420250893 6.74931669235 9.46509075165 10.9935379028 10.9923305511 9.45923995972 6.74184560776 3.84754896164 2.26538515091 2.29135203362 5.04999876022 9.74913311005 14.1719245911 16.6386680603 16.6367111206 14.1624736786 9.73702716827 5.03898048401 2.29103779793 2.31477999687 5.93319654465 11.8278532028 17.3094711304 20.5129623413 20.51039505 17.2974967957 11.8129234314 5.91909217834 2.31428527832 2.33124923706 6.46035861969 12.9979143143 19.0437355042 22.6109905243 22.6081371307 19.0304641724 12.9814796448 6.44451332092 2.33062911034 2.34015250206 6.72434139252 13.5717058182 19.8797950745 23.6055412292 23.6025619507 19.8659362793 13.5545597076 6.70766544342 2.3394651413 2.34014558792 6.72413730621 13.5712690353 19.87915802 23.6047801971 23.601808548 19.8652992249 13.5541286469 6.70746231079 2.33945798874 2.33121395111 6.45931053162 12.9956083298 19.0403327942 22.6069164276 22.6040630341 19.0270957947 12.9792013168 6.44347953796 2.33059453964 2.31472969055 5.9313955307 11.8238162994 17.3033638 20.5048751831 20.5023899078 17.2914600372 11.8089532852 5.91731929779 2.31423449516 2.29128146172 5.04735898972 9.74260425568 14.1622629166 16.6263179779 16.6244182587 14.1530036926 9.73061561584 5.03641462326 2.29097056389 2.2654504776 3.85087895393 6.74063777924 9.45001792908 10.9749708176 10.9740571976 9.44417476654 6.73348617554 3.84433746338 2.26533818245 
2.26549744606 3.85421180725 6.74934148788 9.4651260376 10.9935798645 10.9923706055 9.45927524567 6.74187135696 3.84755897522 2.26538515091 2.29135227203 5.05001449585 9.749168396 14.1719713211 16.6387195587 16.6367645264 14.162522316 9.73706150055 5.03899669647 2.29103803635 2.31478047371 5.93321657181 11.8278951645 17.3095321655 20.5130233765 20.5104618073 17.2975578308 11.8129634857 5.91911220551 2.31428551674 2.3312497139 6.46038341522 12.997964859 19.0438079834 22.6110801697 22.6082267761 19.0305366516 12.9815301895 6.44453716278 2.33062958717 2.34015345573 6.72436904907 13.5717639923 19.8798809052 23.6056442261 23.6026725769 19.8660202026 13.5546178818 6.70769119263 2.33946561813 2.34014630318 6.72416305542 13.5713253021 19.8792419434 23.604888916 23.6019153595 19.8653831482 13.5541801453 6.70748806 2.33945894241 2.33121466637 6.45933437347 12.9956607819 19.0404033661 22.607006073 22.6041526794 19.0271644592 12.9792509079 6.44350385666 2.33059501648 2.31473016739 5.93141651154 11.8238611221 17.3034229279 20.5049438477 20.502456665 17.2915229797 11.8089981079 5.91734027863 2.31423521042 2.29128170013 5.0473742485 9.74263858795 14.1623106003 16.6263694763 16.6244735718 14.15305233 9.73065185547 5.03643083572 2.29097056389 2.2654504776 3.85088920593 6.74066162109 9.4500541687 10.9750127792 10.9740962982 9.44421100616 6.73351097107 3.84434771538 2.26533794403 
2.26549768448 3.85422277451 6.74936532974 9.46516418457 10.9936199188 10.9924125671 9.45931053162 6.74189662933 3.84756994247 2.26538515091 2.29135251045 5.05003070831 9.74920272827 14.1720180511 16.6387729645 16.6368160248 14.1625728607 9.7370967865 5.03901290894 2.29103827477 2.31478095055 5.93323707581 11.8279390335 17.3095932007 20.513092041 20.5105304718 17.2976169586 11.8130092621 5.91913223267 2.31428647041 2.33125019073 6.46040773392 12.9980192184 19.0438785553 22.6111736298 22.6083164215 19.0306072235 12.9815816879 6.44456195831 2.33063030243 2.34015417099 6.72439479828 13.5718173981 19.8799648285 23.6057567596 23.6027832031 19.8661060333 13.5546731949 6.70771884918 2.33946633339 2.34014725685 6.72419023514 13.5713806152 19.8793258667 23.6049995422 23.6020278931 19.8654708862 13.5542373657 6.70751523972 2.33945965767 2.3312151432 6.45936012268 12.9957113266 19.040473938 22.6070919037 22.6042423248 19.0272407532 12.9793024063 6.44352817535 2.33059573174 2.31473064423 5.93143701553 11.8239040375 17.303483963 20.5050067902 20.5025234222 17.2915840149 11.8090410233 5.91736078262 2.31423544884 2.29128217697 5.04739093781 9.74267482758 14.1623592377 16.6264209747 16.6245231628 14.1531000137 9.73068618774 5.03644561768 2.29097080231 2.2654504776 3.85089898109 6.74068689346 9.45009040833 10.9750537872 10.9741401672 9.44424724579 6.7335357666 3.84435796738 2.26533818245 
