2.26313495636 4.14691257477 7.28344345093 10.0848770142 11.7369308472 11.7356204987 10.0787258148 7.27568006516 4.1393456459 2.26301145554 2.28948092461 5.36081790924 10.2954177856 14.8654899597 17.4631156921 17.4611701965 14.8554506302 10.282989502 5.34890985489 2.28914451599 2.30876541138 6.24515962601 12.3387975693 17.9332389832 21.1717681885 21.1693382263 17.9208526611 12.3236131668 6.230219841 2.30826854706 2.32240581512 6.76044464111 13.4420948029 19.5253448486 23.0563087463 23.0536766052 19.5119056702 13.4255456924 6.74391937256 2.32179117203 2.32920956612 7.01187992096 13.9630804062 20.2669391632 23.9276161194 23.9249000549 20.2530136108 13.9459161758 6.99463701248 2.32853412628 2.32920455933 7.01168298721 13.9626817703 20.2663402557 23.9269809723 23.9242630005 20.2524147034 13.9455184937 6.99444293976 2.32852911949 2.32237887383 6.75941181183 13.4399290085 19.5221385956 23.0525588989 23.0499210358 19.5087242126 13.4234046936 6.74290418625 2.3217651844 2.30872488022 6.24333238602 12.3348045349 17.9274997711 21.1635818481 21.1612663269 17.9151878357 12.319694519 6.22842216492 2.30822896957 2.28941869736 5.35805130005 10.2886810303 14.8553371429 17.451166153 17.449213028 14.8454580307 10.2762374878 5.34614276886 2.28908348083 2.26307296753 4.14311647415 7.27377700806 10.068860054 11.7155275345 11.7146692276 10.0624485016 7.26586580276 4.13551950455 2.26294851303 
2.26473641396 4.01420640945 7.03063297272 9.786195755 11.4245815277 11.4232597351 9.78014373779 7.0230474472 4.0070605278 2.2646150589 2.29158067703 5.22582054138 10.0526342392 14.6517829895 17.3165225983 17.3145160675 14.6415233612 10.0403118134 5.21429681778 2.29124736786 2.31599283218 6.1237039566 12.1589393616 17.8380737305 21.1873264313 21.184803009 17.8253440857 12.1437129974 6.10908031464 2.31546926498 2.33209133148 6.65794610977 13.3418216705 19.5257358551 23.1654167175 23.1626777649 19.5119304657 13.3251304626 6.64157056808 2.33144235611 2.34000134468 6.92597341537 13.9086074829 20.3157043457 24.080783844 24.0779781342 20.3014354706 13.8912620544 6.9087677002 2.33928823471 2.33999490738 6.92575740814 13.9081602097 20.3150653839 24.0800971985 24.0772838593 20.3007984161 13.8908233643 6.90855407715 2.33928203583 2.33206105232 6.65685129166 13.3394565582 19.5223140717 23.1614551544 23.1587181091 19.5085391998 13.3227949142 6.64049530029 2.33141326904 2.31593775749 6.12182092667 12.1547107697 17.8319644928 21.1787185669 21.176322937 17.8193016052 12.1395654678 6.10722637177 2.31541514397 2.29150700569 5.22294855118 10.0456380844 14.6412334442 17.3037223816 17.3017425537 14.6311416626 10.0332612991 5.21140527725 2.29117441177 2.26467728615 4.01043128967 7.02082109451 9.76973819733 11.403421402 11.4025878906 9.76326560974 7.01299285889 4.00322532654 2.26455402374 
2.26546239853 3.92287540436 6.85669088364 9.58300971985 11.2038593292 11.2025470734 9.57702255249 6.84922075272 3.91602039337 2.26534342766 2.29122233391 5.12458610535 9.87928581238 14.4723396301 17.1698417664 17.1677837372 14.4620428085 9.86704826355 5.11333942413 2.29090023041 2.31527233124 6.02541637421 11.9859418869 17.7115497589 21.1667671204 21.1641407013 17.6985092163 11.9707870483 6.01104784012 2.31476426125 2.33288311958 6.56135320663 13.1823616028 19.460893631 23.223575592 23.2207221985 19.4466991425 13.1656427383 6.54524230957 2.33224058151 2.3423666954 6.83009290695 13.7730360031 20.2879905701 24.1768608093 24.1739253998 20.2733211517 13.7555971146 6.81314754486 2.34165120125 2.34235954285 6.82987594604 13.772562027 20.2873268127 24.1761245728 24.1731891632 20.2726612091 13.7551298141 6.81293392181 2.34164404869 2.33284568787 6.56023788452 13.1799077988 19.4573383331 23.2194576263 23.2165966034 19.4431762695 13.1632213593 6.54414367676 2.33220410347 2.31521391869 6.02343702316 11.9815254211 17.7051486969 21.1578960419 21.1554012299 17.6921596527 11.9664173126 6.00907850266 2.31470561028 2.29114818573 5.12159395218 9.8719701767 14.4615440369 17.1563606262 17.1543655396 14.4514083862 9.85959720612 5.11029243469 2.29082679749 2.26540398598 3.91911649704 6.84682369232 9.56625080109 11.182800293 11.1819400787 9.55972003937 6.83904409409 3.91217494011 2.26528120041 
2.2658162117 3.86964511871 6.75508642197 9.46559524536 11.0742845535 11.072977066 9.45964717865 6.74768161774 3.86296129227 2.26569843292 2.2909514904 5.0645737648 9.7764787674 14.3603820801 17.0622196198 17.0601387024 14.350107193 9.76428890228 5.05349206924 2.29063677788 2.31458258629 5.96504211426 11.8812274933 17.6100139618 21.1367778778 21.1340656281 17.5968723297 11.8661394119 5.95083189011 2.31408452988 2.33205747604 6.50029420853 13.0722122192 19.3898868561 23.2536067963 23.2506465912 19.3754119873 13.0555524826 6.48434305191 2.33142614365 2.34139108658 6.76918983459 13.6614055634 20.2380542755 24.2362136841 24.2331619263 20.2230606079 13.6439933777 6.7524023056 2.34068775177 2.34138393402 6.76897192001 13.6609277725 20.2373809814 24.2354469299 24.2324008942 20.2223911285 13.6435241699 6.75218963623 2.34068155289 2.332020998 6.4991774559 13.0697669983 19.3862781525 23.2493877411 23.246427536 19.3718338013 13.0531349182 6.48324394226 2.33139061928 2.31452417374 5.96304750443 11.8768014908 17.6034870148 21.1276741028 21.1250934601 17.5903739929 11.8617601395 5.94884347916 2.31402587891 2.29087877274 5.06153678894 9.76905822754 14.3495483398 17.0484313965 17.046421051 14.3394346237 9.75670814514 5.0503911972 2.29056477547 2.26575946808 3.86589288712 6.74514102936 9.44865894318 11.0532398224 11.0523643494 9.44209384918 6.73738527298 3.85910868645 2.26563835144 
2.26598119736 3.84199786186 6.70225811005 9.40531539917 11.0068559647 11.0055541992 9.39938545227 6.69488763809 3.83540391922 2.26586413383 2.29079413414 5.03329563141 9.72284889221 14.3022232056 17.0004119873 16.9983253479 14.2919588089 9.71068668365 5.0222992897 2.29048299789 2.31419968605 5.93382930756 11.8268289566 17.5502166748 21.1072349548 21.1044597626 17.5370674133 11.8117752075 5.91969919205 2.31370711327 2.33160185814 6.46872472763 13.0150909424 19.341342926 23.2672615051 23.2642250061 19.3267536163 12.9984750748 6.45285701752 2.33097600937 2.34092473984 6.7374792099 13.6029968262 20.1988182068 24.2712078094 24.2680740356 20.1836452484 13.5856304169 6.72077703476 2.34022784233 2.3409178257 6.73726320267 13.6025209427 20.198141098 24.2704257965 24.2672920227 20.1829681396 13.5851631165 6.72056436539 2.34022092819 2.33156490326 6.46760845184 13.0126533508 19.3377094269 23.2629718781 23.2599334717 19.3231544495 12.9960641861 6.45175743103 2.330940485 2.31414198875 5.93182516098 11.8223962784 17.5436477661 21.0979785919 21.0953407288 17.5305290222 11.8073892593 5.91770076752 2.31364941597 2.29072141647 5.03023481369 9.7153673172 14.2913837433 16.9865283966 16.9845237732 14.2812767029 9.70303630829 5.01916885376 2.29041099548 2.26592516899 3.83825087547 6.6922826767 9.38831043243 10.9858522415 10.9849739075 9.3817281723 6.68453884125 3.83154964447 2.26580452919 
2.26605153084 3.82982492447 6.67900514603 9.37889480591 10.9770698547 10.9757728577 9.37297153473 6.67164754868 3.82327055931 2.26593565941 2.29071784019 5.019490242 9.69915103912 14.2766265869 16.9725379944 16.9704532623 14.2663650513 9.68699932098 5.0085310936 2.29040813446 2.31403946877 5.92006540298 11.8029327393 17.5228881836 21.0876159668 21.0848064423 17.5097427368 11.7878952026 5.90597105026 2.31354856491 2.33137726784 6.45477485657 12.9898939133 19.316324234 23.2717266083 23.2686462402 19.3017120361 12.9732942581 6.43894290924 2.33075404167 2.34070253372 6.72335720062 13.5767688751 20.1774578094 24.2887897491 24.2856025696 20.1622180939 13.5594272614 6.70669126511 2.34000730515 2.34069561958 6.72314071655 13.5762968063 20.1767730713 24.2879943848 24.2848129272 20.1615428925 13.5589570999 6.70648002625 2.34000134468 2.33134055138 6.45365667343 12.9874572754 19.3126850128 23.2674026489 23.2643241882 19.2981109619 12.9708852768 6.43784379959 2.33071875572 2.31398224831 5.9180560112 11.7984972 17.5163097382 21.0783195496 21.0756454468 17.5031890869 11.7835025787 5.90396881104 2.31349110603 2.29064559937 5.01641893387 9.69164466858 14.2657814026 16.9586238861 16.9566192627 14.2556800842 9.67931938171 5.0053896904 2.29033613205 2.26599597931 3.82608056068 6.6690158844 9.36186122894 10.9560928345 10.9552125931 9.35527133942 6.66127729416 3.81941556931 2.26587605476 
2.26607632637 3.82526254654 6.67029285431 9.36902618408 10.9659337997 10.964635849 9.36310482025 6.66294050217 3.81872272491 2.26596045494 2.29068851471 5.01430177689 9.69023990631 14.2670059204 16.9621047974 16.96002388 14.2567491531 9.67809200287 5.00335836411 2.29037952423 2.3139770031 5.91490364075 11.7939691544 17.5126438141 21.0789222717 21.0761051178 17.4994983673 11.7789363861 5.90082263947 2.31348729134 2.33129239082 6.44955968857 12.9804973602 19.3062858582 23.272480011 23.2693824768 19.2916736603 12.9639034271 6.43374204636 2.33067035675 2.34060835838 6.71807384491 13.5669145584 20.1679954529 24.2961330414 24.2929210663 20.1527500153 13.5495786667 6.70142316818 2.33991503716 2.34060144424 6.717856884 13.5664377213 20.1673145294 24.2953338623 24.2921257019 20.1520652771 13.5491104126 6.70121002197 2.33990836143 2.33125591278 6.44844245911 12.9780597687 19.3026447296 23.2681369781 23.2650356293 19.288066864 12.9614963531 6.4326415062 2.33063530922 2.31391954422 5.91289234161 11.7895317078 17.5060577393 21.0695972443 21.0669212341 17.4929389954 11.7745437622 5.89881849289 2.31342959404 2.29061627388 5.01122713089 9.68272781372 14.2561607361 16.948179245 16.9461765289 14.2460594177 9.67040348053 5.00021076202 2.29030799866 2.26602053642 3.82151865959 6.66029691696 9.35197734833 10.9449663162 10.9440870285 9.3453874588 6.65256166458 3.81486749649 2.26590132713 
