1.0 1.00000011921 1.00000023842 1.00000011921 1.053358078 1.05334019661 1.0 1.00000023842 1.0 1.0 0.999999940395 1.00000011921 1.05498754978 1.18908464909 1.29663228989 1.2966029644 1.18900215626 1.00255250931 1.0 1.0 1.0 1.03727626801 1.16700708866 1.29967045784 1.4081184864 1.40809118748 1.29959177971 1.10100185871 1.03720569611 1.00000011921 1.0 1.08250057697 1.21040868759 1.32898330688 1.42124795914 1.42122352123 1.32890176773 1.14711427689 1.08244156837 1.00000011921 1.0 1.11854553223 1.24724495411 1.35827672482 1.43076598644 1.43074786663 1.35819983482 1.18461883068 1.11848652363 1.00000011921 1.0 1.11853444576 1.24723207951 1.35825657845 1.43085181713 1.43082880974 1.35817265511 1.18461072445 1.11847507954 1.00000011921 1.0 1.08244514465 1.21036636829 1.32887864113 1.42134690285 1.42131304741 1.32879042625 1.14706945419 1.08238470554 1.0 1.0 1.00473964214 1.12430918217 1.25569033623 1.37659955025 1.37659239769 1.25559437275 1.05965995789 1.00467097759 1.00000011921 1.0 1.0 1.05486619473 1.18916141987 1.2967621088 1.29666519165 1.18917393684 1.0024895668 1.0 1.00000011921 1.0 1.00000011921 1.00000011921 1.0 1.05314397812 1.05326581001 0.999999940395 1.00000011921 1.0 0.999999940395 
1.0 1.00000011921 1.00000023842 1.00000011921 1.053358078 1.05334019661 1.0 1.00000023842 1.0 1.0 0.999999940395 1.00000011921 1.05498754978 1.18908464909 1.29663228989 1.2966029644 1.18900215626 1.00255250931 1.0 1.0 1.0 1.03727626801 1.16700708866 1.29967045784 1.41982471943 1.41979908943 1.29959177971 1.10100185871 1.03720569611 1.00000011921 1.0 1.08250057697 1.21040868759 1.32898330688 1.43941342831 1.43938934803 1.32890176773 1.14711427689 1.08244156837 1.00000011921 1.0 1.11854553223 1.24724495411 1.36015212536 1.45986521244 1.45984518528 1.36008095741 1.18461883068 1.11848652363 1.00000011921 1.0 1.11853444576 1.24723207951 1.36012840271 1.46005535126 1.46002542973 1.36004924774 1.18461072445 1.11847507954 1.00000011921 1.0 1.08244514465 1.21036636829 1.32887864113 1.43961775303 1.43957829475 1.32879042625 1.14706945419 1.08238470554 1.0 1.0 1.00473964214 1.12430918217 1.25569033623 1.37670862675 1.3767015934 1.25559437275 1.05965995789 1.00467097759 1.00000011921 1.0 1.0 1.05486619473 1.18916141987 1.2967621088 1.29666519165 1.18917393684 1.0024895668 1.0 1.00000011921 1.0 1.00000011921 1.00000011921 1.0 1.05314397812 1.05326581001 0.999999940395 1.00000011921 1.0 0.999999940395 
1.0 1.00000011921 1.00000023842 1.00000011921 1.053358078 1.05334019661 1.0 1.00000023842 1.0 1.0 0.999999940395 1.00000011921 1.05498754978 1.18908464909 1.29663228989 1.2966029644 1.18900215626 1.00255250931 1.0 1.0 1.0 1.03727626801 1.16700708866 1.29967045784 1.41982471943 1.41979908943 1.29959177971 1.10100185871 1.03720569611 1.00000011921 1.0 1.08250057697 1.21040868759 1.32898330688 1.43941342831 1.43938934803 1.32890176773 1.14711427689 1.08244156837 1.00000011921 1.0 1.11854553223 1.24724495411 1.36015212536 1.45986521244 1.45984518528 1.36008095741 1.18461883068 1.11848652363 1.00000011921 1.0 1.11853444576 1.24723207951 1.36012840271 1.46005535126 1.46002542973 1.36004924774 1.18461072445 1.11847507954 1.00000011921 1.0 1.08244514465 1.21036636829 1.32887864113 1.43961775303 1.43957829475 1.32879042625 1.14706945419 1.08238470554 1.0 1.0 1.00473964214 1.12430918217 1.25569033623 1.37670862675 1.3767015934 1.25559437275 1.05965995789 1.00467097759 1.00000011921 1.0 1.0 1.05486619473 1.18916141987 1.2967621088 1.29666519165 1.18917393684 1.0024895668 1.0 1.00000011921 1.0 1.00000011921 1.00000011921 1.0 1.05314397812 1.05326581001 0.999999940395 1.00000011921 1.0 0.999999940395 
1.0 1.00000011921 1.00000023842 1.00000011921 1.053358078 1.05334019661 1.0 1.00000023842 1.0 1.0 0.999999940395 1.00000011921 1.05498754978 1.18908464909 1.29663228989 1.2966029644 1.18900215626 1.00255250931 1.0 1.0 1.0 1.03727626801 1.16700708866 1.29967045784 1.41982471943 1.41979908943 1.29959177971 1.10100185871 1.03720569611 1.00000011921 1.0 1.08250057697 1.21040868759 1.32898330688 1.43941342831 1.43938934803 1.32890176773 1.14711427689 1.08244156837 1.00000011921 1.0 1.11854553223 1.24724495411 1.36015212536 1.45986521244 1.45984518528 1.36008095741 1.18461883068 1.11848652363 1.00000011921 1.0 1.11853444576 1.24723207951 1.36012840271 1.46005535126 1.46002542973 1.36004924774 1.18461072445 1.11847507954 1.00000011921 1.0 1.08244514465 1.21036636829 1.32887864113 1.43961775303 1.43957829475 1.32879042625 1.14706945419 1.08238470554 1.0 1.0 1.00473964214 1.12430918217 1.25569033623 1.37670862675 1.3767015934 1.25559437275 1.05965995789 1.00467097759 1.00000011921 1.0 1.0 1.05486619473 1.18916141987 1.2967621088 1.29666519165 1.18917393684 1.0024895668 1.0 1.00000011921 1.0 1.00000011921 1.00000011921 1.0 1.05314397812 1.05326581001 0.999999940395 1.00000011921 1.0 0.999999940395 
1.0 1.00000011921 1.00000023842 1.00000011921 1.053358078 1.05334019661 1.0 1.00000023842 1.0 1.0 0.999999940395 1.00000011921 1.05498754978 1.18908464909 1.29663228989 1.2966029644 1.18900215626 1.00255250931 1.0 1.0 1.0 1.03727626801 1.16700708866 1.29967045784 1.41982471943 1.41979908943 1.29959177971 1.10100185871 1.03720569611 1.00000011921 1.0 1.08250057697 1.21040868759 1.32898330688 1.43941342831 1.43938934803 1.32890176773 1.14711427689 1.08244156837 1.00000011921 1.0 1.11854553223 1.24724495411 1.36015212536 1.45986521244 1.45984518528 1.36008095741 1.18461883068 1.11848652363 1.00000011921 1.0 1.11853444576 1.24723207951 1.36012840271 1.46005535126 1.46002542973 1.36004924774 1.18461072445 1.11847507954 1.00000011921 1.0 1.08244514465 1.21036636829 1.32887864113 1.43961775303 1.43957829475 1.32879042625 1.14706945419 1.08238470554 1.0 1.0 1.00473964214 1.12430918217 1.25569033623 1.37670862675 1.3767015934 1.25559437275 1.05965995789 1.00467097759 1.00000011921 1.0 1.0 1.05486619473 1.18916141987 1.2967621088 1.29666519165 1.18917393684 1.0024895668 1.0 1.00000011921 1.0 1.00000011921 1.00000011921 1.0 1.05314397812 1.05326581001 0.999999940395 1.00000011921 1.0 0.999999940395 
1.0 1.00000011921 1.00000023842 1.00000011921 1.053358078 1.05334019661 1.0 1.00000023842 1.0 1.0 0.999999940395 1.00000011921 1.05498754978 1.18908464909 1.29663228989 1.2966029644 1.18900215626 1.00255250931 1.0 1.0 1.0 1.03727626801 1.16700708866 1.29967045784 1.41982471943 1.41979908943 1.29959177971 1.10100185871 1.03720569611 1.00000011921 1.0 1.08250057697 1.21040868759 1.32898330688 1.43941342831 1.43938934803 1.32890176773 1.14711427689 1.08244156837 1.00000011921 1.0 1.11854553223 1.24724495411 1.36015212536 1.45986521244 1.45984518528 1.36008095741 1.18461883068 1.11848652363 1.00000011921 1.0 1.11853444576 1.24723207951 1.36012840271 1.46005535126 1.46002542973 1.36004924774 1.18461072445 1.11847507954 1.00000011921 1.0 1.08244514465 1.21036636829 1.32887864113 1.43961775303 1.43957829475 1.32879042625 1.14706945419 1.08238470554 1.0 1.0 1.00473964214 1.12430918217 1.25569033623 1.37670862675 1.3767015934 1.25559437275 1.05965995789 1.00467097759 1.00000011921 1.0 1.0 1.05486619473 1.18916141987 1.2967621088 1.29666519165 1.18917393684 1.0024895668 1.0 1.00000011921 1.0 1.00000011921 1.00000011921 1.0 1.05314397812 1.05326581001 0.999999940395 1.00000011921 1.0 0.999999940395 
1.0 1.00000011921 1.00000023842 1.00000011921 1.053358078 1.05334019661 1.0 1.00000023842 1.0 1.0 0.999999940395 1.00000011921 1.05498754978 1.18908464909 1.29663228989 1.2966029644 1.18900215626 1.00255250931 1.0 1.0 1.0 1.03727626801 1.16700708866 1.29967045784 1.41982471943 1.41979908943 1.29959177971 1.10100185871 1.03720569611 1.00000011921 1.0 1.08250057697 1.21040868759 1.32898330688 1.43941342831 1.43938934803 1.32890176773 1.14711427689 1.08244156837 1.00000011921 1.0 1.11854553223 1.24724495411 1.36015212536 1.45986521244 1.45984518528 1.36008095741 1.18461883068 1.11848652363 1.00000011921 1.0 1.11853444576 1.24723207951 1.36012840271 1.46005535126 1.46002542973 1.36004924774 1.18461072445 1.11847507954 1.00000011921 1.0 1.08244514465 1.21036636829 1.32887864113 1.43961775303 1.43957829475 1.32879042625 1.14706945419 1.08238470554 1.0 1.0 1.00473964214 1.12430918217 1.25569033623 1.37670862675 1.3767015934 1.25559437275 1.05965995789 1.00467097759 1.00000011921 1.0 1.0 1.05486619473 1.18916141987 1.2967621088 1.29666519165 1.18917393684 1.0024895668 1.0 1.00000011921 1.0 1.00000011921 1.00000011921 1.0 1.05314397812 1.05326581001 0.999999940395 1.00000011921 1.0 0.999999940395 
