0.982231378555 1.02021408081 1.05541169643 1.12222886086 1.20056819916 1.20053732395 1.12213933468 1.04248058796 1.02016532421 0.982283890247 0.97362446785 1.0681347847 1.18648576736 1.30200433731 1.36779248714 1.36776387691 1.30190956593 1.12276566029 1.0680617094 0.973682463169 0.971671164036 1.15744102001 1.27777349949 1.37338769436 1.42552638054 1.42549943924 1.37327611446 1.22010481358 1.15735828876 0.971709012985 0.970343232155 1.20165133476 1.30846345425 1.39153170586 1.43672800064 1.43671071529 1.3914359808 1.26290857792 1.20158648491 0.970373809338 0.969148218632 1.23512470722 1.32829403877 1.40397882462 1.44205987453 1.44204938412 1.40389478207 1.29107797146 1.23506033421 0.969177782536 0.969149827957 1.23511445522 1.32828497887 1.40396916866 1.44209516048 1.44208228588 1.40388286114 1.29107058048 1.23505020142 0.969179451466 0.970346331596 1.2016017437 1.30842483044 1.39146161079 1.43673968315 1.43671905994 1.3913640976 1.26286280155 1.20153796673 0.970376849174 0.972085356712 1.12874138355 1.25230610371 1.35924494267 1.42008459568 1.42007386684 1.3591299057 1.18926227093 1.12866842747 0.972124755383 0.97362947464 1.06804132462 1.18637692928 1.30197310448 1.36783611774 1.36777186394 1.30190527439 1.12267804146 1.06797075272 0.973686993122 0.982258379459 1.02016270161 1.05536794662 1.12206268311 1.20029866695 1.20037281513 1.12192511559 1.04245996475 1.02011489868 0.982309401035 
0.98150241375 1.0081410408 1.03864526749 1.10043656826 1.17789566517 1.17787027359 1.10035598278 1.02568864822 1.00810670853 0.981555044651 0.972557067871 1.05247187614 1.16861867905 1.28822934628 1.38975596428 1.38973200321 1.28814935684 1.10536730289 1.05241072178 0.972616076469 0.969885230064 1.14002418518 1.2725353241 1.40111231804 1.50193369389 1.50190961361 1.40103244781 1.20489883423 1.13994908333 0.969926059246 0.96813595295 1.18376076221 1.3162804842 1.43165624142 1.51980185509 1.51978063583 1.43158531189 1.24831700325 1.18369293213 0.96816945076 0.966646492481 1.21797120571 1.35368835926 1.45968425274 1.53256499767 1.53254842758 1.45961904526 1.28406500816 1.21790015697 0.96667778492 0.966648042202 1.21796131134 1.35367846489 1.45966541767 1.53263807297 1.53261685371 1.45959556103 1.28406262398 1.21789038181 0.966679394245 0.968139827251 1.18371319771 1.31623959541 1.43156433105 1.5198636055 1.51983428001 1.43148934841 1.24828135967 1.18364679813 0.968173325062 0.970389962196 1.11130166054 1.23592579365 1.35643935204 1.47255599499 1.47254669666 1.35635745525 1.17239928246 1.11123788357 0.970432579517 0.97256320715 1.05238437653 1.16849589348 1.28825902939 1.38987565041 1.38979780674 1.28821885586 1.10526740551 1.05232608318 0.972621560097 0.98152834177 1.00810027122 1.03862333298 1.1002304554 1.17766952515 1.17775666714 1.10009181499 1.02568352222 1.00806713104 0.981578588486 
0.981429040432 1.00631225109 1.03609752655 1.09705173969 1.17395198345 1.17392659187 1.09697341919 1.02313041687 1.00628018379 0.981481552124 0.972458362579 1.05005538464 1.16580057144 1.28514564037 1.38671767712 1.38669502735 1.28506481647 1.10259950161 1.04999625683 0.972517549992 0.969696998596 1.13733804226 1.26977169514 1.39841330051 1.51894593239 1.51892852783 1.39833188057 1.20233225822 1.13726401329 0.969738125801 0.96787405014 1.18105554581 1.31341099739 1.43073344231 1.54213750362 1.54211914539 1.43066895008 1.24587798119 1.18098723888 0.967908024788 0.966302752495 1.21536314487 1.35170221329 1.46663117409 1.56396567822 1.56395232677 1.46657836437 1.28263449669 1.21529150009 0.96633464098 0.966304302216 1.21535313129 1.35169160366 1.46660912037 1.5640989542 1.56407737732 1.46654903889 1.28263223171 1.21528172493 0.966336369514 0.967878222466 1.1810079813 1.31337046623 1.43063902855 1.54227602482 1.54224514961 1.4305690527 1.24584150314 1.18094110489 0.967912077904 0.970215916634 1.10861134529 1.23301768303 1.35264122486 1.47270989418 1.47270727158 1.35256016254 1.16955089569 1.10854887962 0.970258653164 0.972464561462 1.04996871948 1.16567611694 1.28517985344 1.38682961464 1.38675308228 1.28514027596 1.10249853134 1.0499124527 0.972522735596 0.981454789639 1.00627303123 1.0360789299 1.09684145451 1.17373073101 1.17381966114 1.09670305252 1.02312791348 1.00624227524 0.981504678726 
0.981424212456 1.00616335869 1.03588712215 1.09676980972 1.17361748219 1.17359244823 1.09669172764 1.02291786671 1.0061314106 0.981476545334 0.972451686859 1.04985678196 1.16556477547 1.28487694263 1.38644218445 1.38641953468 1.28479611874 1.10236537457 1.04979777336 0.972510933876 0.969683408737 1.13711798191 1.26954936981 1.39812672138 1.51948070526 1.5194631815 1.39804518223 1.20210957527 1.13704383373 0.969724416733 0.967853665352 1.18083524704 1.31319093704 1.43049740791 1.54384601116 1.54382908344 1.43043291569 1.24567592144 1.18076694012 0.96788752079 0.966277778149 1.21515583992 1.3514893055 1.46683061123 1.56810462475 1.56809222698 1.46677839756 1.28247117996 1.21508419514 0.966309785843 0.966279506683 1.21514618397 1.35147845745 1.46681010723 1.56826400757 1.56824243069 1.46675002575 1.28246903419 1.21507441998 0.966311514378 0.967857837677 1.18078792095 1.31315088272 1.43040382862 1.54400992393 1.54397892952 1.43033385277 1.24563932419 1.18072092533 0.967891693115 0.970203101635 1.10838878155 1.23277390003 1.35235071182 1.47246003151 1.47245788574 1.35226964951 1.16931211948 1.10832631588 0.970246016979 0.972458064556 1.04977011681 1.16543996334 1.28491151333 1.38655340672 1.38647687435 1.28487205505 1.10226464272 1.04971408844 0.972516238689 0.981449842453 1.00612401962 1.03586876392 1.09655928612 1.173396945 1.17348575592 1.09642100334 1.02291595936 1.00609362125 0.98149985075 
0.981423735619 1.0061532259 1.03587329388 1.09675145149 1.17359578609 1.17357063293 1.09667336941 1.02290403843 1.00612139702 0.981476128101 0.972451269627 1.04984366894 1.16554951668 1.28485965729 1.38642430305 1.38640153408 1.28477883339 1.10234999657 1.04978454113 0.97251033783 0.969682455063 1.13710355759 1.26953446865 1.39810729027 1.51945400238 1.51943659782 1.39802587032 1.2020945549 1.13702952862 0.969723403454 0.96785223484 1.18082118034 1.31317818165 1.43048012257 1.54390084743 1.54388403893 1.43041551113 1.24566376209 1.18075287342 0.967886030674 0.966275930405 1.21514332294 1.35147535801 1.466837883 1.56848359108 1.56847131252 1.46678590775 1.28246116638 1.21507155895 0.966308057308 0.966277599335 1.21513330936 1.35146462917 1.46681797504 1.56864929199 1.5686275959 1.46675801277 1.28245913982 1.21506166458 0.966309428215 0.967856287956 1.18077385426 1.31313824654 1.43038654327 1.54406917095 1.54403841496 1.43031656742 1.24562740326 1.18070685863 0.967890024185 0.97020226717 1.1083739996 1.23275744915 1.35232973099 1.47243881226 1.47243666649 1.35224854946 1.16929554939 1.10831165314 0.970245063305 0.972457528114 1.04975688457 1.16542470455 1.28489422798 1.38653552532 1.38645887375 1.28485453129 1.10224926472 1.04970085621 0.972515642643 0.98144942522 1.00611424446 1.03585469723 1.09654080868 1.1733751297 1.17346394062 1.09640264511 1.02290177345 1.00608348846 0.981499373913 
0.981423616409 1.00615286827 1.03587293625 1.09675133228 1.17359602451 1.17357075214 1.09667313099 1.02290332317 1.00612103939 0.981475949287 0.972451090813 1.04984331131 1.16554939747 1.28485965729 1.38642442226 1.38640153408 1.28477871418 1.10234987736 1.0497841835 0.972510099411 0.969682097435 1.1371036768 1.2695350647 1.39810788631 1.51945376396 1.51943612099 1.39802646637 1.20209503174 1.13702964783 0.969723165035 0.967851817608 1.18082141876 1.31317925453 1.43048095703 1.54390406609 1.54388737679 1.4304163456 1.24566459656 1.18075323105 0.967885732651 0.966275572777 1.21514415741 1.35147631168 1.46684539318 1.56852209568 1.56851005554 1.4667930603 1.2824627161 1.21507227421 0.966307520866 0.966277241707 1.21513414383 1.35146582127 1.46682560444 1.56868898869 1.5686674118 1.46676540375 1.28246057034 1.21506237984 0.966309070587 0.967855811119 1.18077409267 1.313139081 1.43038737774 1.54407322407 1.54404246807 1.43031740189 1.24562823772 1.18070709705 0.967889785767 0.970202028751 1.1083739996 1.23275792599 1.35233008862 1.47243893147 1.47243690491 1.3522490263 1.16929554939 1.10831165314 0.970244765282 0.972457408905 1.04975688457 1.16542458534 1.28489434719 1.38653564453 1.38645911217 1.2848546505 1.10224914551 1.049700737 0.972515583038 0.981449246407 1.00611376762 1.03585457802 1.09654068947 1.1733751297 1.17346405983 1.09640240669 1.02290129662 1.00608325005 0.981499254704 
0.981423616409 1.0061532259 1.03587329388 1.09675240517 1.17359745502 1.17357230186 1.09667420387 1.02290391922 1.00612127781 0.981476008892 0.972450971603 1.04984390736 1.16555035114 1.28486084938 1.38642597198 1.3864030838 1.28478002548 1.10235071182 1.04978501797 0.972510039806 0.96968203783 1.13710463047 1.269536376 1.39810979366 1.51945579052 1.51943826675 1.39802837372 1.20209634304 1.13703072071 0.969723105431 0.967851519585 1.18082296848 1.31318116188 1.4304831028 1.54391133785 1.54389452934 1.43041872978 1.24566590786 1.18075466156 0.967885613441 0.966275274754 1.21514570713 1.3514790535 1.46685373783 1.56853437424 1.56852197647 1.46680176258 1.28246462345 1.21507394314 0.966307342052 0.966277003288 1.21513581276 1.35146820545 1.46683454514 1.56870138645 1.56867969036 1.46677410603 1.28246259689 1.21506392956 0.966309010983 0.96785569191 1.1807756424 1.31314098835 1.43038964272 1.54408037663 1.54404962063 1.43031966686 1.24562978745 1.18070876598 0.967889606953 0.970201849937 1.10837507248 1.23275899887 1.35233187675 1.47244095802 1.47243881226 1.35225057602 1.16929650307 1.10831260681 0.970244586468 0.972457051277 1.04975736141 1.16542553902 1.28489553928 1.38653719425 1.38646054268 1.28485608101 1.10224986076 1.04970133305 0.972515463829 0.981449127197 1.00611400604 1.03585493565 1.09654188156 1.17337667942 1.17346584797 1.09640347958 1.02290177345 1.00608348846 0.981499135494 
