0.981475353241 1.01683914661 1.04972314835 1.10564124584 1.18193233013 1.18190550804 1.10558915138 1.04078698158 1.01679611206 0.981532871723 0.972133040428 1.05801022053 1.17229926586 1.29787504673 1.38231527805 1.38230037689 1.29781270027 1.10098421574 1.05793142319 0.97219824791 0.969088673592 1.13884222507 1.28600716591 1.39547300339 1.46243059635 1.46241152287 1.39541363716 1.20975828171 1.13875257969 0.969139456749 0.968950748444 1.18778312206 1.32481217384 1.41919565201 1.47765898705 1.47764575481 1.41913604736 1.25757086277 1.18770813942 0.968982338905 0.967703700066 1.22663187981 1.35223853588 1.43721282482 1.48661243916 1.4866052866 1.43716192245 1.29271006584 1.22655832767 0.967730045319 0.967705368996 1.22662103176 1.35223174095 1.4371984005 1.48665750027 1.48664748669 1.43714475632 1.29270637035 1.22654759884 0.967731714249 0.968955636024 1.18773293495 1.3247795105 1.41912555695 1.47769701481 1.4776802063 1.41906249523 1.25753378868 1.18765902519 0.968987166882 0.969922661781 1.10230779648 1.24896585941 1.3683514595 1.44681179523 1.44680416584 1.36828446388 1.16526651382 1.1022362709 0.969973742962 0.972139179707 1.05792045593 1.17219090462 1.29784083366 1.38233530521 1.38228559494 1.29780316353 1.10092198849 1.05784296989 0.972204208374 0.981508016586 1.01678955555 1.04968309402 1.10545396805 1.18179392815 1.18186354637 1.1053558588 1.04075801373 1.01674771309 0.98156452179 
0.981334149837 1.00673234463 1.03430080414 1.08343803883 1.15794682503 1.15792095661 1.08339500427 1.0258500576 1.00670206547 0.981390476227 0.971820354462 1.04367768764 1.15431559086 1.27991378307 1.38300251961 1.38299012184 1.2798486948 1.08393144608 1.04361128807 0.97188526392 0.968340754509 1.12175667286 1.27578663826 1.40239274502 1.5088275671 1.50881636143 1.40233814716 1.19349098206 1.12167596817 0.968392372131 0.967848300934 1.16980743408 1.3234539032 1.43744397163 1.53655469418 1.53654360771 1.43738746643 1.24296283722 1.16973435879 0.967881381512 0.966279387474 1.20896363258 1.36221837997 1.47026574612 1.5600104332 1.5600039959 1.47021782398 1.28381359577 1.20888864994 0.966307938099 0.96628087759 1.20895338058 1.36221051216 1.47024548054 1.56011795998 1.56010532379 1.47019219398 1.28381097317 1.20887839794 0.966309547424 0.967854082584 1.16975963116 1.3234193325 1.43736493587 1.53666114807 1.53664171696 1.43730354309 1.24293041229 1.16968786716 0.967887163162 0.969246089458 1.0855884552 1.23179745674 1.35735225677 1.46894133091 1.46894145012 1.35729038715 1.14793598652 1.08552610874 0.969298005104 0.971827030182 1.04359507561 1.15419864655 1.27991688251 1.38303697109 1.3829818964 1.27988374233 1.08386278152 1.0435308218 0.971891582012 0.98136562109 1.0066934824 1.03428220749 1.08322632313 1.1578387022 1.15791869164 1.08312773705 1.02583765984 1.00666451454 0.981420218945 
0.981356978416 1.00654602051 1.03396344185 1.08286094666 1.15721106529 1.15718519688 1.08281826973 1.02554106712 1.00651609898 0.981413185596 0.97185331583 1.04333114624 1.15381848812 1.27931427956 1.38237285614 1.38236057758 1.27924919128 1.08348107338 1.04326534271 0.971918106079 0.968379259109 1.12125718594 1.27515256405 1.40159833431 1.50802731514 1.50801587105 1.40154349804 1.19291853905 1.12117683887 0.968430817127 0.967893481255 1.16922235489 1.32272815704 1.43655824661 1.53566157818 1.53565073013 1.43650138378 1.24231040478 1.16914975643 0.967926323414 0.966328918934 1.20832002163 1.36143803596 1.46933293343 1.55906999111 1.55906319618 1.46928477287 1.2831094265 1.20824539661 0.966357469559 0.966330528259 1.20830988884 1.36143028736 1.46931278706 1.55917727947 1.55916452408 1.46925902367 1.28310751915 1.20823538303 0.966359138489 0.96789932251 1.16917479038 1.32269358635 1.43647909164 1.5357683897 1.5357490778 1.43641746044 1.24227821827 1.1691031456 0.967932224274 0.96928435564 1.08511996269 1.23119592667 1.35658347607 1.46814572811 1.46814572811 1.35652124882 1.1473941803 1.08505785465 0.969336211681 0.971859931946 1.04324913025 1.1537014246 1.27931857109 1.38240695 1.38235151768 1.2792853117 1.08341240883 1.04318511486 0.971924185753 0.981388449669 1.0065073967 1.03394532204 1.08264887333 1.15710449219 1.15718495846 1.08255028725 1.0255292654 1.00647890568 0.981442987919 
0.981357395649 1.00654387474 1.03395915031 1.0828537941 1.15720176697 1.15717613697 1.08281099796 1.02553737164 1.00651371479 0.981413602829 0.971853733063 1.04332697392 1.15381228924 1.27930688858 1.38236510754 1.38235282898 1.27924180031 1.08347547054 1.04326105118 0.971918523312 0.968379676342 1.12125086784 1.27514469624 1.40158843994 1.50801742077 1.50800573826 1.40153360367 1.19291138649 1.12117063999 0.968431293964 0.967894136906 1.16921520233 1.32271909714 1.43654727936 1.53565049171 1.53563976288 1.43649029732 1.24230217934 1.16914248466 0.96792703867 0.96632951498 1.20831203461 1.36142838001 1.46932148933 1.55905818939 1.55905151367 1.46927332878 1.28310072422 1.20823740959 0.966358006001 0.966331243515 1.2083016634 1.36142075062 1.46930122375 1.55916559696 1.55915296078 1.46924746037 1.28309881687 1.2082272768 0.96635979414 0.967899799347 1.16916739941 1.32268476486 1.43646836281 1.53575742245 1.53573787212 1.43640637398 1.24227023125 1.16909599304 0.96793282032 0.969284832478 1.08511412144 1.23118853569 1.3565737009 1.46813559532 1.46813583374 1.35651171207 1.14738750458 1.08505213261 0.969336748123 0.971860408783 1.04324483871 1.15369510651 1.27931118011 1.38239884377 1.38234364986 1.27927803993 1.0834069252 1.04318082333 0.971924841404 0.981388747692 1.00650525093 1.03394114971 1.08264148235 1.15709543228 1.15717577934 1.08254313469 1.02552556992 1.00647652149 0.981443166733 
0.981357216835 1.00654447079 1.03396058083 1.08285617828 1.15720498562 1.1571791172 1.08281350136 1.02553844452 1.00651454926 0.981413304806 0.971853494644 1.04332852364 1.1538143158 1.27930939198 1.38236784935 1.38235545158 1.27924418449 1.08347737789 1.04326224327 0.971918404102 0.968379497528 1.12125301361 1.27514731884 1.40159165859 1.50802087784 1.50800919533 1.40153682232 1.19291353226 1.12117254734 0.96843123436 0.967893838882 1.1692173481 1.32272219658 1.43655085564 1.53565406799 1.53564333916 1.43649411201 1.24230504036 1.16914498806 0.967926681042 0.966329336166 1.20831465721 1.36143124104 1.46932530403 1.55906200409 1.55905544758 1.46927702427 1.28310394287 1.2082400322 0.966357827187 0.966331005096 1.20830440521 1.36142385006 1.46930503845 1.55916941166 1.55915677547 1.46925115585 1.28310167789 1.20822989941 0.966359496117 0.967899501324 1.16916978359 1.32268762589 1.43647181988 1.53576111794 1.53574168682 1.43641006947 1.24227297306 1.16909837723 0.967932522297 0.969284653664 1.08511614799 1.23119115829 1.35657715797 1.46813905239 1.46813929081 1.35651493073 1.14738965034 1.08505415916 0.969336509705 0.971860229969 1.04324626923 1.15369725227 1.27931368351 1.38240122795 1.38234615326 1.27928042412 1.08340871334 1.04318225384 0.971924602985 0.981388509274 1.00650620461 1.03394258022 1.08264398575 1.15709865093 1.15717887878 1.08254563808 1.02552676201 1.00647723675 0.981443047523 
0.981357216835 1.00654530525 1.03396224976 1.08285880089 1.15720820427 1.15718245506 1.08281612396 1.02553999424 1.00651526451 0.981413424015 0.97185331583 1.04332995415 1.15381658077 1.27931201458 1.38237071037 1.38235831261 1.27924704552 1.08347940445 1.04326415062 0.971918284893 0.968379378319 1.12125527859 1.27515041828 1.40159535408 1.50802433491 1.50801301003 1.40154051781 1.1929166317 1.12117493153 0.968430995941 0.967893660069 1.1692199707 1.32272553444 1.43655490875 1.53565847874 1.53564751148 1.43649816513 1.24230802059 1.16914761066 0.967926502228 0.966328978539 1.20831775665 1.36143517494 1.46932959557 1.55906641483 1.5590596199 1.4692813158 1.28310680389 1.20824313164 0.966357648373 0.966330766678 1.20830750465 1.36142766476 1.4693094492 1.55917370319 1.55916118622 1.46925568581 1.28310489655 1.20823287964 0.966359376907 0.967899441719 1.16917252541 1.32269096375 1.4364759922 1.53576517105 1.53574573994 1.43641412258 1.24227595329 1.16910111904 0.967932403088 0.96928447485 1.08511817455 1.2311937809 1.35658061504 1.46814250946 1.46814310551 1.35651838779 1.14739215374 1.08505630493 0.969336330891 0.97186011076 1.04324781895 1.15369939804 1.27931654453 1.38240456581 1.38234901428 1.27928316593 1.08341085911 1.04318380356 0.971924424171 0.981388568878 1.00650680065 1.03394401073 1.08264660835 1.15710175037 1.15718209743 1.08254814148 1.02552831173 1.00647819042 0.981442928314 
0.981356978416 1.00654625893 1.03396391869 1.08286142349 1.15721178055 1.15718615055 1.08281886578 1.02554142475 1.00651621819 0.981413185596 0.971853196621 1.04333162308 1.15381896496 1.27931499481 1.38237345219 1.38236129284 1.27924990654 1.08348155022 1.04326570034 0.97191798687 0.9683791399 1.12125754356 1.2751532793 1.40159904957 1.5080281496 1.50801670551 1.40154445171 1.19291913509 1.12117731571 0.968430817127 0.967893481255 1.16922295094 1.3227288723 1.43655920029 1.53566253185 1.53565180302 1.43650245667 1.24231123924 1.16915035248 0.967926204205 0.966328859329 1.20832073689 1.36143875122 1.46933412552 1.55907070637 1.55906438828 1.46928584576 1.28311026096 1.20824599266 0.966357409954 0.966330528259 1.2083107233 1.36143124104 1.46931374073 1.55917847157 1.55916559696 1.46926009655 1.28310847282 1.20823597908 0.966359078884 0.967899262905 1.16917538643 1.32269442081 1.43648028374 1.53576958179 1.53575026989 1.43641829491 1.24227893353 1.16910398006 0.967932164669 0.969284236431 1.08512055874 1.23119664192 1.35658431053 1.46814668179 1.46814680099 1.35652220249 1.14739465714 1.0850584507 0.969336211681 0.971859812737 1.04324948788 1.15370178223 1.27931928635 1.38240754604 1.38235211372 1.27928602695 1.08341288567 1.04318571091 0.971924185753 0.981388390064 1.00650775433 1.03394556046 1.08264935017 1.15710544586 1.15718579292 1.0825510025 1.02552974224 1.00647902489 0.981442987919 
