0.982791900635 1.02393066883 1.05801832676 1.12225162983 1.20671081543 1.2066783905 1.12216448784 1.04680013657 1.02388143539 0.982843518257 0.97467905283 1.07565569878 1.19080090523 1.30672419071 1.37043952942 1.37040758133 1.30658972263 1.13097202778 1.07558178902 0.974733531475 0.972923755646 1.16847419739 1.27552425861 1.37004506588 1.42195558548 1.42192685604 1.36989700794 1.23144376278 1.16839766502 0.972957730293 0.971273124218 1.21385765076 1.30447030067 1.38799881935 1.43231892586 1.43230164051 1.38787746429 1.27281463146 1.2137953043 0.971303761005 0.969787538052 1.245844841 1.32209575176 1.39899110794 1.43675494194 1.43674504757 1.39888191223 1.29693543911 1.24577772617 0.96982049942 0.969788789749 1.24583280087 1.32208561897 1.39898216724 1.43679666519 1.43678402901 1.39887106419 1.29692625999 1.24576556683 0.969821691513 0.971275925636 1.21380150318 1.30442428589 1.38792657852 1.43233144283 1.43230986595 1.38780391216 1.27276158333 1.2137389183 0.971306085587 0.973193109035 1.139128685 1.25575721264 1.36039578915 1.41890215874 1.41889727116 1.36024582386 1.20123267174 1.1390594244 0.973228693008 0.974683046341 1.07555055618 1.19068956375 1.30669248104 1.37051427364 1.37044227123 1.30660974979 1.13087451458 1.07547426224 0.974737226963 0.982820212841 1.02387285233 1.05794858932 1.12207484245 1.20633208752 1.20642066002 1.12190878391 1.04675495625 1.02382361889 0.982872486115 
0.981597542763 1.00896894932 1.0381923914 1.09756791592 1.17955088615 1.17952561378 1.09749484062 1.02636110783 1.00893616676 0.981649935246 0.973040223122 1.05656588078 1.17018651962 1.29606604576 1.40559530258 1.40556299686 1.29596471786 1.11052083969 1.05650627613 0.973096847534 0.970492899418 1.14702916145 1.27573657036 1.40954613686 1.5025036335 1.5024677515 1.40944373608 1.21249938011 1.14695894718 0.970530986786 0.968457460403 1.19140779972 1.32017588615 1.43846607208 1.51743888855 1.51741170883 1.43836450577 1.25655984879 1.1913446188 0.968490004539 0.96675825119 1.22593522072 1.35713195801 1.46266412735 1.52678871155 1.52676796913 1.46256434917 1.29213368893 1.22586715221 0.966790616512 0.966759324074 1.22592365742 1.35711991787 1.46264898777 1.52685713768 1.52683186531 1.46254467964 1.29212903976 1.2258554697 0.966791272163 0.968460738659 1.19135451317 1.32013034821 1.43836820126 1.51748752594 1.51745259762 1.43826282024 1.25651979446 1.19129085541 0.968492567539 0.970928370953 1.11786842346 1.23890674114 1.36530566216 1.48345303535 1.48344361782 1.36519813538 1.1798684597 1.11780536175 0.970967590809 0.973046779633 1.05646252632 1.17006337643 1.29614770412 1.40578007698 1.40568351746 1.29613280296 1.11040389538 1.05639958382 0.97310346365 0.981627821922 1.00892186165 1.03811752796 1.09731554985 1.17924261093 1.17934024334 1.09714460373 1.02630996704 1.00888884068 0.98168104887 
0.981409907341 1.00569951534 1.03378069401 1.0921125412 1.17302250862 1.17299795151 1.09204185009 1.021900177 1.00567054749 0.981462240219 0.972796857357 1.05234158039 1.16565263271 1.29123365879 1.40091073513 1.40088248253 1.29113221169 1.10592508316 1.0522851944 0.972853720188 0.970120608807 1.14234995842 1.27091419697 1.40563488007 1.53539204597 1.53536868095 1.40553176403 1.20806849003 1.14228069782 0.97015941143 0.968000352383 1.18661272526 1.31504154205 1.43712818623 1.55492043495 1.55489373207 1.43704736233 1.25217068195 1.18654859066 0.968033730984 0.966203272343 1.22120451927 1.35320317745 1.47210919857 1.57424795628 1.57422530651 1.47204148769 1.28915655613 1.22113549709 0.96623647213 0.966204106808 1.22119283676 1.35319018364 1.47208595276 1.57439637184 1.57436490059 1.47200882435 1.28915297985 1.22112345695 0.966237068176 0.968004226685 1.18655943871 1.31499767303 1.43701970577 1.55508625507 1.55504441261 1.43693161011 1.25213062763 1.18649435043 0.96803689003 0.970581829548 1.11319816113 1.23392224312 1.35851955414 1.48762643337 1.48762583733 1.35841965675 1.17487287521 1.11313593388 0.970621824265 0.972805559635 1.05223941803 1.1655125618 1.2913210392 1.40108978748 1.40099608898 1.29130864143 1.10579717159 1.05217909813 0.97286272049 0.981440961361 1.00565600395 1.03370940685 1.09184777737 1.17272424698 1.17282426357 1.09167516232 1.02184939384 1.00562751293 0.981494426727 
0.981399774551 1.00549077988 1.03349435329 1.09175491333 1.17258787155 1.17256307602 1.09168422222 1.02160966396 1.00546228886 0.981452047825 0.972784161568 1.05206811428 1.16535174847 1.29089808464 1.40055012703 1.40052187443 1.29079663754 1.10561680794 1.05201208591 0.972840964794 0.970099568367 1.14204609394 1.27061903477 1.40525233746 1.53617238998 1.53614926338 1.40514945984 1.2077703476 1.14197695255 0.970138311386 0.967971920967 1.18630075455 1.31475555897 1.4367929697 1.55730617046 1.55728244781 1.4367120266 1.25190556049 1.18623661995 0.968005180359 0.966172397137 1.22090268135 1.35287725925 1.47198712826 1.58040583134 1.58038580418 1.47191905975 1.28890585899 1.22083330154 0.966205537319 0.966173052788 1.22089087963 1.3528637886 1.47196483612 1.58061170578 1.58058047295 1.47188735008 1.28890156746 1.22082138062 0.96620619297 0.967975616455 1.18624746799 1.314712286 1.43668520451 1.5575261116 1.55748558044 1.43659675121 1.25186574459 1.18618249893 0.96800839901 0.970561623573 1.112891078 1.23360061646 1.35812699795 1.48727369308 1.48727357388 1.35802686214 1.17454946041 1.11282885075 0.970601856709 0.972792744637 1.05196583271 1.16521155834 1.2909860611 1.40072882175 1.40063524246 1.29097402096 1.10548877716 1.05190575123 0.9728500247 0.981430947781 1.0054475069 1.03342318535 1.09148967266 1.17229020596 1.17239010334 1.09131681919 1.02155888081 1.00541913509 0.981484472752 
0.981399536133 1.00548803806 1.03349041939 1.0917506218 1.17258298397 1.17255806923 1.09168016911 1.02160561085 1.00545954704 0.981451869011 0.97278380394 1.05206465721 1.1653482914 1.29089426994 1.40054607391 1.40051805973 1.29079294205 1.10561299324 1.05200850964 0.97284078598 0.970099151134 1.14204287529 1.27061617374 1.40524840355 1.53616452217 1.53614139557 1.40514564514 1.20776724815 1.14197361469 0.970137894154 0.967971324921 1.18629729748 1.31475293636 1.43679058552 1.55730640888 1.5572822094 1.43670976162 1.25190317631 1.18623328209 0.968004465103 0.966171503067 1.2208994627 1.35287559032 1.47199130058 1.58055722713 1.58053743839 1.47192311287 1.28890526295 1.2208302021 0.966204702854 0.966172337532 1.22088801861 1.3528624773 1.47196912766 1.58076989651 1.58073878288 1.4718914032 1.28890132904 1.22081851959 0.966205358505 0.967975199223 1.18624413013 1.31470954418 1.43668282032 1.5575274229 1.55748689175 1.43659448624 1.25186359882 1.18617916107 0.968007802963 0.970561385155 1.11288738251 1.23359727859 1.35812318325 1.48726904392 1.48726856709 1.35802304745 1.17454576492 1.11282527447 0.970601320267 0.972792685032 1.05196249485 1.16520810127 1.29098260403 1.40072476864 1.40063095093 1.29097020626 1.10548496246 1.05190241337 0.972849667072 0.981430828571 1.00544476509 1.03341913223 1.09148561954 1.17228519917 1.17238521576 1.09131264687 1.02155518532 1.00541639328 0.981484293938 
0.981399476528 1.00548839569 1.03349113464 1.09175205231 1.17258489132 1.17255997658 1.09168148041 1.02160620689 1.00545990467 0.981451869011 0.97278380394 1.05206549168 1.16534948349 1.29089593887 1.40054786205 1.40051960945 1.29079449177 1.10561418533 1.0520093441 0.972840547562 0.970099031925 1.14204418659 1.27061808109 1.40525078773 1.53616702557 1.53614401817 1.4051476717 1.20776867867 1.14197480679 0.970137774944 0.967971086502 1.18629908562 1.31475496292 1.4367929697 1.55731141567 1.5572873354 1.43671214581 1.25190520287 1.18623483181 0.968004345894 0.966171264648 1.22090137005 1.35287773609 1.47199416161 1.58056724072 1.5805478096 1.47192621231 1.28890740871 1.22083210945 0.96620464325 0.966172099113 1.22088992596 1.35286438465 1.47197210789 1.58078050613 1.58074951172 1.47189450264 1.28890323639 1.22082018852 0.966205179691 0.967975020409 1.18624567986 1.31471157074 1.43668532372 1.55753278732 1.55749201775 1.43659687042 1.25186550617 1.18618071079 0.968007624149 0.970561146736 1.11288869381 1.23359918594 1.35812520981 1.48727142811 1.48727095127 1.3580249548 1.17454719543 1.11282658577 0.970601141453 0.972792446613 1.05196332932 1.16520929337 1.29098403454 1.40072631836 1.40063285828 1.29097187519 1.10548603535 1.05190324783 0.972849607468 0.981430649757 1.00544524193 1.03341984749 1.09148705006 1.17228710651 1.17238712311 1.09131407738 1.02155590057 1.00541675091 0.981484174728 
0.981399416924 1.00548863411 1.03349208832 1.0917532444 1.17258679867 1.17256188393 1.09168291092 1.02160716057 1.00546014309 0.981451690197 0.972783625126 1.05206608772 1.16535055637 1.29089736938 1.40054941177 1.40052139759 1.2907961607 1.10561513901 1.05201005936 0.972840487957 0.970098793507 1.14204537868 1.27061998844 1.4052529335 1.53616952896 1.53614652157 1.40515017509 1.20777010918 1.14197599888 0.970137476921 0.967970907688 1.18630051613 1.31475698948 1.43679535389 1.55731701851 1.55729305744 1.43671441078 1.251906991 1.18623638153 0.968004286289 0.966171085835 1.2209032774 1.35287964344 1.47199714184 1.58057713509 1.58055746555 1.47192907333 1.28890931606 1.22083389759 0.966204285622 0.966172039509 1.2208917141 1.35286653042 1.4719748497 1.5807902813 1.58075904846 1.47189760208 1.28890514374 1.22082209587 0.966204941273 0.96797478199 1.18624734879 1.3147135973 1.4366877079 1.55753958225 1.5574991703 1.43659937382 1.25186741352 1.18618237972 0.968007445335 0.970560967922 1.11288976669 1.23360013962 1.35812723637 1.48727357388 1.48727333546 1.35802721977 1.17454850674 1.11282765865 0.970601022243 0.972792327404 1.05196404457 1.16521048546 1.29098534584 1.40072798729 1.40063452721 1.29097342491 1.10548698902 1.05190396309 0.972849488258 0.981430649757 1.00544559956 1.03342044353 1.09148812294 1.17228889465 1.17238891125 1.09131550789 1.02155601978 1.00541710854 0.981484055519 
