2.26558375359 4.06337165833 7.19200611115 9.98399353027 11.4792690277 11.478105545 9.9781627655 7.18412065506 4.05601024628 2.26545834541 2.29230594635 5.27194643021 10.1706457138 14.5492420197 16.857749939 16.8559799194 14.5402154922 10.1582984924 5.26026391983 2.2919690609 2.31589627266 6.12429332733 12.1555166245 17.4791507721 20.3467235565 20.3445148468 17.4680976868 12.1405010223 6.10969018936 2.3153758049 2.33053946495 6.61164569855 13.2289476395 18.9942703247 22.1230373383 22.120639801 18.9822769165 13.212635994 6.59543228149 2.32990479469 2.33773255348 6.85047721863 13.7359867096 19.7001037598 22.9430656433 22.9405937195 19.687702179 13.7190933228 6.83350801468 2.33704137802 2.33772706985 6.85029363632 13.7356052399 19.6995582581 22.9424476624 22.9399738312 19.6871566772 13.7187147141 6.83332443237 2.33703613281 2.33051109314 6.6106877327 13.2268857956 18.9913215637 22.1196250916 22.117225647 18.979341507 13.2105894089 6.59448480606 2.32987713814 2.31584811211 6.12260341644 12.1517190933 17.4737281799 20.3396053314 20.3374462128 17.4627399445 12.1367406845 6.1080198288 2.31532764435 2.29223489761 5.26934623718 10.1643877029 14.5401086807 16.846824646 16.8450775146 14.5311851501 10.1520957947 5.25769948959 2.29189968109 2.26552939415 4.05977487564 7.18281269073 9.96914482117 11.4609222412 11.4600048065 9.963347435 7.17506885529 4.05246639252 2.26540398598 
2.2658624649 3.9122440815 6.88074588776 9.61758422852 11.1199913025 11.1188106537 9.61178588867 6.87313222885 3.9053850174 2.26574468613 2.29114770889 5.10730934143 9.86462211609 14.2471084595 16.651550293 16.6496524811 14.2378702164 9.8524723053 5.0961022377 2.29083108902 2.31453800201 5.98073244095 11.9002037048 17.3230609894 20.4070129395 20.4045829773 17.3113937378 11.8852853775 5.96650981903 2.31404018402 2.33095765114 6.49193191528 13.0371570587 18.9918766022 22.3765506744 22.3738937378 18.9790782928 13.0207643509 6.47603321075 2.33033466339 2.33965682983 6.74483394623 13.589594841 19.7810287476 23.2926101685 23.2898654938 19.7677555084 13.5725135803 6.72813415527 2.33896827698 2.33965015411 6.74463796616 13.5891752243 19.7804298401 23.2919216156 23.2891769409 19.7671585083 13.572095871 6.72793960571 2.33896160126 2.33092331886 6.49092292786 13.0349340439 18.9886379242 22.3727703094 22.3701095581 18.975856781 13.0185575485 6.47503757477 2.33030080795 2.31448721886 5.97897815704 11.896276474 17.3171443939 20.3993415833 20.3969745636 17.3055324554 11.8814115524 5.96477746964 2.31398963928 2.2910797596 5.10469245911 9.85825157166 14.2376995087 16.6396846771 16.6378307343 14.2286128998 9.8461856842 5.09354019165 2.29076576233 2.26581311226 3.90885043144 6.87191677094 9.60271263123 11.1018428802 11.1009254456 9.59693145752 6.86453437805 3.90207481384 2.2656955719 
2.26587986946 3.87582683563 6.80463075638 9.52454948425 11.0232868195 11.022105217 9.51877403259 6.79708623886 3.8690905571 2.26576399803 2.29078197479 5.06584644318 9.78573513031 14.1599721909 16.5713443756 16.5694313049 14.1507234573 9.7736415863 5.0547618866 2.29047083855 2.31401395798 5.9432682991 11.8315124512 17.2561836243 20.384727478 20.3822231293 17.2444553375 11.8166446686 5.92914628983 2.3135228157 2.33059692383 6.46166801453 12.9843263626 18.9688453674 22.4426651001 22.4398956299 18.9558410645 12.9679527283 6.44584703445 2.32997918129 2.33945202827 6.72031259537 13.5490436554 19.7916603088 23.4114551544 23.4085826874 19.7781009674 13.5319576263 6.70367336273 2.33876752853 2.33944559097 6.72011232376 13.5486125946 19.7910366058 23.4107227325 23.4078502655 19.7774791718 13.5315341949 6.7034740448 2.33876109123 2.33056235313 6.46064424515 12.9820652008 18.9655017853 22.4387016296 22.4359321594 18.9525241852 12.9657144547 6.44483566284 2.32994508743 2.31396317482 5.94149923325 11.8275604248 17.2501811981 20.3768882751 20.3744525909 17.2385120392 11.812743187 5.92740154266 2.31347227097 2.29071497917 5.0632314682 9.77934551239 14.1505413055 16.559343338 16.5574798584 14.1414527893 9.76734733582 5.05220746994 2.29040670395 2.26583147049 3.87248778343 6.79590320587 9.50969219208 11.005191803 11.0042743683 9.50392913818 6.78861379623 3.86584353447 2.2657160759 
2.26588010788 3.86891555786 6.79010438919 9.50663375854 11.0044002533 11.0032186508 9.50086402893 6.78257322311 3.86220359802 2.26576471329 2.29070782661 5.05787754059 9.77043533325 14.1426153183 16.5545043945 16.5525894165 14.1333646774 9.75835323334 5.04681634903 2.29039716721 2.31391358376 5.936024189 11.8181467056 17.242067337 20.3749256134 20.3724136353 17.2303295135 11.8032836914 5.92192220688 2.31342363358 2.3305170536 6.4559636116 12.9742507935 18.9627227783 22.4537563324 22.4509620667 18.9496936798 12.9578866959 6.44015741348 2.32990074158 2.33942317963 6.71589756012 13.5419893265 19.7941169739 23.4392738342 23.4363632202 19.7804965973 13.5249042511 6.69926929474 2.33873939514 2.33941650391 6.71569633484 13.541554451 19.7934837341 23.4385261536 23.4356174469 19.7798690796 13.5244760513 6.69906997681 2.33873295784 2.33048200607 6.45493555069 12.971985817 18.959356308 22.4497337341 22.4469356537 18.946352005 12.9556388855 6.43914175034 2.32986569405 2.31386208534 5.93425226212 11.8141851425 17.2360496521 20.3670501709 20.3646068573 17.2243709564 11.7993803024 5.92017459869 2.31337213516 2.29064083099 5.05526304245 9.76404094696 14.1331787109 16.5424804688 16.5406169891 14.1240940094 9.75205898285 5.04426288605 2.29033303261 2.26583218575 3.86558794975 6.78139591217 9.49177837372 10.9863185883 10.9853982925 9.48602104187 6.77412509918 3.85896897316 2.26571702957 
2.26587986946 3.86755752563 6.78724765778 9.5031042099 11.0006732941 10.9994926453 9.49733734131 6.77971935272 3.86085104942 2.26576495171 2.29069209099 5.05630683899 9.76740932465 14.1391601562 16.5511054993 16.5491905212 14.1299114227 9.75533390045 5.04524993896 2.29038214684 2.31389284134 5.93459796906 11.8155059814 17.2392158508 20.3726615906 20.3701438904 17.2274799347 11.8006467819 5.92049980164 2.31340312958 2.33050179482 6.45486402512 12.972319603 18.9614849091 22.4556732178 22.4528713226 18.9484481812 12.9559526443 6.43906021118 2.32988572121 2.33941864967 6.71507835388 13.5407161713 19.7948436737 23.4456691742 23.4427509308 19.7812137604 13.5236339569 6.69845151901 2.33873486519 2.33941173553 6.7148771286 13.5402822495 19.7942085266 23.4449176788 23.4420032501 19.7805805206 13.5232038498 6.69825172424 2.33872818947 2.33046722412 6.45383453369 12.9700489044 18.958114624 22.4516334534 22.4488353729 18.945104599 12.953701973 6.43804502487 2.32985138893 2.31384181976 5.93282604218 11.8115463257 17.2331962585 20.3647785187 20.3623275757 17.2215175629 11.7967424393 5.91875171661 2.31335282326 2.2906255722 5.05369186401 9.76101970673 14.1297225952 16.5390796661 16.5372142792 14.1206378937 9.74903678894 5.04269695282 2.29031825066 2.26583194733 3.86423277855 6.77854394913 9.48824977875 10.9825906754 10.9816741943 9.48249435425 6.77127599716 3.85761809349 2.26571702957 
2.26588010788 3.86726164818 6.78662824631 9.50234127045 10.9998683929 10.9986867905 9.49657440186 6.77909946442 3.86055517197 2.26576471329 2.29068922997 5.05596494675 9.76675701141 14.1384134293 16.55037117 16.5484580994 14.1291627884 9.75468158722 5.04490995407 2.29037904739 2.31388831139 5.9342918396 11.8149414062 17.2386054993 20.3721599579 20.3696460724 17.2268676758 11.8000831604 5.92019510269 2.31339883804 2.33049917221 6.4546380043 12.9719295502 18.9612598419 22.4561080933 22.4533042908 18.948223114 12.9555635452 6.43883609772 2.32988286018 2.33941817284 6.71492099762 13.5404920578 19.7951145172 23.4473400116 23.4444236755 19.7814826965 13.5234079361 6.69829702377 2.33873510361 2.33941102028 6.71472120285 13.5400571823 19.7944755554 23.4465885162 23.4436702728 19.7808494568 13.52298069 6.69809675217 2.33872771263 2.33046412468 6.45360803604 12.9696598053 18.9578895569 22.4520664215 22.4492683411 18.9448776245 12.9533147812 6.43781900406 2.32984828949 2.31383752823 5.93251895905 11.8109798431 17.2325820923 20.3642749786 20.361825943 17.2209033966 11.7961778641 5.91844654083 2.31334805489 2.29062223434 5.05335092545 9.7603635788 14.1289768219 16.5383453369 16.53647995 14.1198921204 9.74838447571 5.04235601425 2.29031538963 2.26583218575 3.86393690109 6.7779250145 9.48748779297 10.9817876816 10.9808702469 9.48173141479 6.77065896988 3.85732340813 2.26571702957 
2.26588010788 3.86719274521 6.78648710251 9.50217151642 10.9996910095 10.9985103607 9.49640369415 6.77895784378 3.86048698425 2.26576471329 2.29068851471 5.05589008331 9.76661682129 14.1382579803 16.5502204895 16.5483074188 14.1290082932 9.75453853607 5.04483366013 2.29037857056 2.31388759613 5.93422937393 11.8148298264 17.238489151 20.3720722198 20.3695602417 17.2267494202 11.7999687195 5.92013168335 2.31339812279 2.33049917221 6.45459842682 12.9718694687 18.9612579346 22.4562778473 22.4534683228 18.9482192993 12.9555025101 6.43879556656 2.32988262177 2.33941841125 6.71490287781 13.5404777527 19.795255661 23.4478797913 23.4449558258 19.781621933 13.5233955383 6.69827747345 2.33873486519 2.33941173553 6.71470069885 13.5400457382 19.7946186066 23.4471282959 23.4442100525 19.7809906006 13.5229654312 6.69807672501 2.33872890472 2.33046388626 6.45356893539 12.9695968628 18.9578838348 22.4522304535 22.4494285583 18.9448719025 12.953253746 6.43778038025 2.32984805107 2.31383705139 5.9324555397 11.8108663559 17.2324676514 20.3641872406 20.3617401123 17.2207870483 11.7960634232 5.91838359833 2.31334662437 2.29062175751 5.0532746315 9.760222435 14.1288175583 16.5381908417 16.5363273621 14.1197319031 9.74824142456 5.04228115082 2.29031467438 2.26583218575 3.86386847496 6.7777838707 9.48731708527 10.9816112518 10.9806928635 9.48156070709 6.77051639557 3.85725569725 2.26571726799 
