0.981157064438 1.00685882568 1.03731250763 1.09764385223 1.17465126514 1.17462909222 1.09758496284 1.02595424652 1.00682473183 0.981212079525 0.971991360188 1.04518735409 1.16445124149 1.27973413467 1.37343537807 1.37342047691 1.27966213226 1.09286952019 1.04512417316 0.972052812576 0.969074845314 1.13187909126 1.27103364468 1.39070749283 1.49682307243 1.49681222439 1.3906443119 1.19775891304 1.13180267811 0.969119787216 0.967803835869 1.17637276649 1.31491148472 1.4241746664 1.52404737473 1.52403664589 1.42412269115 1.24249625206 1.17630183697 0.967836916447 0.966256797314 1.21117162704 1.35105752945 1.45748448372 1.54679346085 1.54678666592 1.4574432373 1.278678298 1.21109700203 0.966286718845 0.966258585453 1.21116113663 1.35104870796 1.45746421814 1.5468968153 1.5468839407 1.45741677284 1.27867543697 1.21108663082 0.966288566589 0.967809200287 1.17632520199 1.31487524509 1.42409467697 1.5241560936 1.52413654327 1.42403697968 1.24246168137 1.17625534534 0.967842102051 0.969770550728 1.09908115864 1.23510456085 1.35012876987 1.45623147488 1.45623207092 1.35006356239 1.16179978848 1.09901702404 0.969816565514 0.971998155117 1.04510807991 1.16434013844 1.27973842621 1.3734793663 1.37342453003 1.27969503403 1.0927836895 1.04504680634 0.972059190273 0.981185555458 1.00681960583 1.03728497028 1.09744727612 1.17449951172 1.17456889153 1.09733808041 1.02594137192 1.00678682327 0.98123896122 
0.981158912182 1.00676715374 1.03716790676 1.09742724895 1.17439615726 1.17437410355 1.09736847878 1.02581524849 1.0067332983 0.981213867664 0.971993684769 1.04505085945 1.16427385807 1.27952647209 1.37322127819 1.37320661545 1.27945446968 1.09270143509 1.04498779774 0.972055315971 0.969074249268 1.13171315193 1.27084100246 1.39046251774 1.49655556679 1.49654495716 1.39039957523 1.19757843018 1.13163685799 0.96911907196 0.967799246311 1.17619931698 1.31472909451 1.42394936085 1.52452850342 1.52451848984 1.42389702797 1.24233102798 1.17612862587 0.96783220768 0.966249525547 1.21100115776 1.3508682251 1.45740282536 1.54933178425 1.54932618141 1.45736145973 1.27852642536 1.21092653275 0.966279387474 0.966251552105 1.21099066734 1.35085904598 1.45738315582 1.54945468903 1.54944169521 1.4573353529 1.27852356434 1.21091628075 0.966281294823 0.967804610729 1.1761521101 1.3146930933 1.4238692522 1.52465105057 1.52463173866 1.42381155491 1.24229669571 1.17608213425 0.967837512493 0.969770729542 1.09891927242 1.23490679264 1.34987044334 1.45598316193 1.45598351955 1.34980511665 1.16161084175 1.09885489941 0.969816625118 0.972000598907 1.04497182369 1.16416192055 1.27953088284 1.37326526642 1.37321019173 1.27948760986 1.09261536598 1.04491066933 0.972061634064 0.981187462807 1.0067281723 1.03714025021 1.09723043442 1.17424488068 1.17431426048 1.09712135792 1.0258024931 1.00669562817 0.981240749359 
0.981158733368 1.00676751137 1.0371683836 1.09742856026 1.17439806461 1.17437589169 1.09736990929 1.02581584454 1.00673365593 0.98121380806 0.971993684769 1.04505169392 1.16427516937 1.27952802181 1.37322282791 1.37320816517 1.27945590019 1.09270238876 1.04498851299 0.972055256367 0.969074130058 1.13171422482 1.27084267139 1.39046442509 1.49655759335 1.4965467453 1.390401721 1.19757974148 1.13163816929 0.96911907196 0.967799127102 1.1762008667 1.31473112106 1.42395138741 1.5245308876 1.5245206356 1.42389929295 1.24233281612 1.1761302948 0.967831969261 0.966249346733 1.21100282669 1.35086989403 1.45740604401 1.54934120178 1.54933547974 1.45736432076 1.27852845192 1.21092820168 0.966279268265 0.966251254082 1.21099257469 1.35086107254 1.45738625526 1.54946410656 1.54945135117 1.45733845234 1.27852547169 1.21091794968 0.966281294823 0.967804431915 1.17615365982 1.31469500065 1.42387163639 1.52465331554 1.52463388443 1.42381358147 1.24229860306 1.17608380318 0.96783721447 0.969770610332 1.09892046452 1.23490822315 1.34987223148 1.45598495007 1.45598554611 1.34980714321 1.16161227226 1.09885597229 0.969816565514 0.972000360489 1.04497265816 1.16416323185 1.27953231335 1.37326681614 1.37321186066 1.27948927879 1.09261631966 1.04491150379 0.972061514854 0.981187343597 1.00672852993 1.03714108467 1.09723198414 1.17424690723 1.1743158102 1.09712266922 1.02580308914 1.00669574738 0.981240689754 
0.981158852577 1.0067679882 1.03716933727 1.09742999077 1.17439961433 1.17437779903 1.0973713398 1.02581655979 1.00673401356 0.98121380806 0.97199344635 1.04505252838 1.16427612305 1.27952957153 1.37322425842 1.37320971489 1.27945721149 1.09270358086 1.04498934746 0.972055137157 0.969074010849 1.13171553612 1.27084422112 1.39046645164 1.49655914307 1.49654865265 1.39040362835 1.1975812912 1.13163936138 0.969118893147 0.967798948288 1.17620241642 1.3147329092 1.4239538908 1.52453303337 1.52452290058 1.42390143871 1.24233448505 1.17613172531 0.967831969261 0.966249167919 1.21100473404 1.35087203979 1.45740878582 1.54935061932 1.54934465885 1.45736730099 1.27853024006 1.21093010902 0.966279089451 0.966251134872 1.21099424362 1.35086333752 1.45738911629 1.54947316647 1.54946064949 1.45734143257 1.27852737904 1.21091973782 0.966281056404 0.967804253101 1.17615497112 1.31469714642 1.42387378216 1.52465569973 1.52463626862 1.42381596565 1.2423003912 1.1760853529 0.967837095261 0.969770491123 1.09892165661 1.23490989208 1.34987437725 1.45598685741 1.45598721504 1.34980905056 1.16161358356 1.09885716438 0.969816505909 0.972000300884 1.0449732542 1.16416442394 1.27953386307 1.37326824665 1.37321341038 1.2794905901 1.09261751175 1.04491221905 0.97206145525 0.981187343597 1.00672888756 1.03714179993 1.09723329544 1.17424845695 1.17431771755 1.09712409973 1.0258038044 1.00669622421 0.981240689754 
0.981158673763 1.00676810741 1.03717005253 1.09743142128 1.17440152168 1.17437934875 1.0973726511 1.02581715584 1.00673437119 0.98121368885 0.97199344635 1.04505324364 1.16427731514 1.27953088284 1.37322580814 1.37321126461 1.27945899963 1.09270453453 1.04499018192 0.972055077553 0.96907377243 1.13171672821 1.27084577084 1.39046835899 1.49656116962 1.49655044079 1.39040565491 1.19758296013 1.13164067268 0.969118773937 0.967798769474 1.17620396614 1.31473505497 1.42395591736 1.52453553677 1.5245256424 1.42390358448 1.24233603477 1.17613327503 0.967831730843 0.966248989105 1.21100640297 1.35087406635 1.45741176605 1.54935991764 1.54935383797 1.45737028122 1.27853214741 1.21093177795 0.966278970242 0.966250896454 1.21099603176 1.35086512566 1.45739209652 1.54948234558 1.5494697094 1.45734429359 1.27852940559 1.21092152596 0.966280817986 0.967803955078 1.17615664005 1.31469893456 1.42387604713 1.52465844154 1.52463924885 1.42381834984 1.24230206013 1.17608678341 0.967836856842 0.969770252705 1.09892249107 1.23491132259 1.34987616539 1.45598876476 1.4559892416 1.3498108387 1.16161465645 1.09885835648 0.96981626749 0.97200024128 1.04497420788 1.16416561604 1.27953529358 1.37327003479 1.3732149601 1.27949202061 1.09261858463 1.04491305351 0.972061276436 0.981187224388 1.00672924519 1.0371427536 1.09723460674 1.1742503643 1.17431938648 1.09712553024 1.02580451965 1.00669646263 0.981240570545 
0.981158614159 1.00676846504 1.03717076778 1.09743285179 1.17440330982 1.1743812561 1.09737420082 1.02581787109 1.00673484802 0.98121368885 0.971993327141 1.04505395889 1.16427850723 1.27953231335 1.37322747707 1.37321281433 1.27946019173 1.09270560741 1.04499101639 0.972054898739 0.969073653221 1.13171815872 1.27084755898 1.39047038555 1.49656295776 1.49655222893 1.39040768147 1.19758427143 1.13164186478 0.969118595123 0.96779859066 1.17620551586 1.31473696232 1.42395830154 1.52453923225 1.52452945709 1.42390608788 1.24233794212 1.17613494396 0.967831432819 0.966248750687 1.2110080719 1.35087621212 1.45741462708 1.54936897755 1.54936301708 1.45737326145 1.27853405476 1.21093356609 0.966278672218 0.966250658035 1.21099793911 1.35086750984 1.45739495754 1.5494915247 1.54947900772 1.45734715462 1.27853143215 1.21092319489 0.966280579567 0.967803835869 1.17615830898 1.3147008419 1.42387831211 1.52466201782 1.52464294434 1.42382049561 1.24230396748 1.17608833313 0.967836558819 0.969770133495 1.09892380238 1.23491275311 1.34987819195 1.45599079132 1.45599102974 1.34981310368 1.16161608696 1.09885954857 0.969816148281 0.97200012207 1.04497492313 1.16416668892 1.27953672409 1.37327182293 1.37321662903 1.27949357033 1.09261965752 1.04491376877 0.972061276436 0.981187105179 1.00672960281 1.03714334965 1.09723603725 1.17425215244 1.17432141304 1.09712696075 1.02580523491 1.00669693947 0.981240391731 
0.981158614159 1.00676882267 1.03717148304 1.0974342823 1.17440497875 1.17438292503 1.09737551212 1.02581846714 1.00673508644 0.981213390827 0.971993327141 1.04505491257 1.16427969933 1.27953362465 1.37322890759 1.37321436405 1.27946186066 1.09270656109 1.04499173164 0.972054898739 0.969073534012 1.13171935081 1.2708491087 1.3904722929 1.49656450748 1.49655413628 1.39040982723 1.19758546352 1.13164317608 0.969118475914 0.967798471451 1.17620706558 1.31473886967 1.42396044731 1.52454352379 1.52453362942 1.42390835285 1.24233961105 1.17613625526 0.96783131361 0.966248512268 1.21100997925 1.35087800026 1.45741760731 1.54937791824 1.54937207699 1.45737588406 1.2785359621 1.21093523502 0.966278553009 0.966250538826 1.21099948883 1.35086917877 1.45739781857 1.54950070381 1.54948782921 1.45735013485 1.2785333395 1.21092510223 0.966280400753 0.96780371666 1.17615973949 1.31470286846 1.42388057709 1.52466726303 1.52464795113 1.42382264137 1.2423055172 1.17608988285 0.967836618423 0.969770073891 1.09892499447 1.23491418362 1.3498800993 1.45599257946 1.4559930563 1.34981489182 1.16161739826 1.09886074066 0.969816148281 0.971999824047 1.04497551918 1.16416788101 1.27953803539 1.37327313423 1.37321805954 1.27949476242 1.0926207304 1.04491448402 0.972061157227 0.981187105179 1.00672996044 1.03714430332 1.09723758698 1.17425382137 1.17432296276 1.09712827206 1.02580571175 1.0066972971 0.981240391731 
