2.26430535316 3.97627615929 6.95125246048 9.68395423889 11.3205070496 11.3191757202 9.67794704437 6.94374322891 3.96925640106 2.26418876648 2.29098320007 5.18427991867 9.96677017212 14.5785427094 17.2876014709 17.2855606079 14.5681552887 9.95451068878 5.17289447784 2.29065608978 2.31561517715 6.08494615555 12.0804691315 17.8090457916 21.2416973114 21.2391109467 17.7960453033 12.0652656555 6.07045030594 2.31509685516 2.33303070068 6.62427568436 13.283446312 19.5387229919 23.2707290649 23.2679233551 19.5246047974 13.2667226791 6.6080160141 2.33237886429 2.34167313576 6.89671278 13.8680000305 20.3526973724 24.2107715607 24.2078857422 20.3381061554 13.8505907059 6.87960004807 2.34095406532 2.34166669846 6.89649248123 13.8675346375 20.3520393372 24.2100582123 24.2071723938 20.3374519348 13.8501319885 6.87938165665 2.34094715118 2.33299589157 6.62314939499 13.2810001373 19.5352020264 23.2666606903 23.2638530731 19.5211162567 13.2643051147 6.60690641403 2.33234500885 2.31555557251 6.08297395706 12.0760297775 17.8027667999 21.2328853607 21.2304420471 17.7898235321 12.0608711243 6.06848955154 2.31503748894 2.29090642929 5.18131780624 9.95952224731 14.5677156448 17.2743701935 17.2723770142 14.5574970245 9.94714450836 5.16988754272 2.29058027267 2.26424670219 3.97249412537 6.94143152237 9.66729736328 11.2992067337 11.2983818054 9.66079711914 6.93364858627 3.96539974213 2.26412796974 
2.26531267166 3.84640169144 6.70541810989 9.40114784241 11.0060091019 11.0046977997 9.39522838593 6.69806337357 3.83979821205 2.26519918442 2.29040837288 5.03821325302 9.71887207031 14.3118228912 17.034784317 17.0326881409 14.3014707565 9.7067232132 5.02722549438 2.29009771347 2.31412339211 5.93761825562 11.8245191574 17.5736465454 21.1610107422 21.1582298279 17.5603561401 11.8094654083 5.92350292206 2.31362938881 2.33159351349 6.47362470627 13.0182352066 19.3723239899 23.3216514587 23.3186130524 19.3576145172 13.0016021729 6.45776510239 2.33096575737 2.34096956253 6.74362182617 13.6107673645 20.2329292297 24.3256568909 24.3225269318 20.2176570892 13.5933742523 6.72692060471 2.34027004242 2.34096264839 6.74340248108 13.6102876663 20.2322463989 24.3248729706 24.3217468262 20.2169742584 13.5928983688 6.72670698166 2.3402633667 2.33155655861 6.47250080109 13.0157737732 19.3686637878 23.3173503876 23.3143100739 19.3539943695 12.9991693497 6.45665740967 2.33092999458 2.31406521797 5.93560600281 11.8200597763 17.5670394897 21.1516723633 21.1490402222 17.5537910461 11.8050451279 5.92149496078 2.31357097626 2.29033350945 5.03514194489 9.71135616302 14.3008756638 17.0207481384 17.0187473297 14.2906999588 9.69903564453 5.02408456802 2.29002404213 2.26525712013 3.84263372421 6.69540691376 9.38404750824 10.9848136902 10.9839677811 9.37759971619 6.68771409988 3.835927248 2.26514053345 
2.26547718048 3.82082247734 6.65704917908 9.34687232971 10.9443759918 10.943069458 9.34096717834 6.64972448349 3.81430125237 2.26536417007 2.2902636528 5.00915765762 9.66958332062 14.2588434219 16.9764518738 16.9743595123 14.248503685 9.65745353699 4.99824953079 2.28995656967 2.31377387047 5.9082493782 11.7735948563 17.515542984 21.1217479706 21.1189117432 17.5022659302 11.7585735321 5.89421033859 2.31328463554 2.33111810684 6.44327449799 12.9633760452 19.31873703 23.3260784149 23.3229618073 19.3039703369 12.9467840195 6.42749404907 2.33049607277 2.34047579765 6.71251106262 13.5527610779 20.1851081848 24.3532543182 24.3500270844 20.1697006226 13.5354175568 6.6958937645 2.33978247643 2.34046888351 6.71229362488 13.5522823334 20.1844215393 24.3524475098 24.3492279053 20.1690177917 13.5349464417 6.69568061829 2.3397758007 2.33108091354 6.44215154648 12.9609231949 19.3150634766 23.3217105865 23.3185920715 19.3003349304 12.9443588257 6.42638874054 2.33045983315 2.31371593475 5.906229496 11.7691316605 17.5089149475 21.1122970581 21.1096076965 17.4956798553 11.7541484833 5.8921918869 2.31322598457 2.29018974304 5.006067276 9.66201686859 14.2478961945 16.9623565674 16.9603672028 14.2377376556 9.64971160889 4.99508714676 2.28988313675 2.26542234421 3.81705999374 6.64700746536 9.32970142365 10.9232578278 10.9224281311 9.32337379456 6.63936567307 3.81043791771 2.26530647278 
2.26549887657 3.81721830368 6.65024089813 9.33926677704 10.9357309341 10.934425354 9.33336257935 6.64291858673 3.81070899963 2.26538610458 2.29024243355 5.0050573349 9.66262817383 14.2513999939 16.9682540894 16.9661598206 14.2410593033 9.65050601959 4.99415969849 2.28993582726 2.31372451782 5.90411567688 11.7664556503 17.5073223114 21.1145858765 21.1117420197 17.4940433502 11.7514371872 5.89008760452 2.31323599815 2.33104729652 6.43900203705 12.9556865692 19.3102436066 23.325761795 23.3226203918 19.2954711914 12.9390954971 6.42323255539 2.33042669296 2.34039497375 6.70810127258 13.5444746017 20.1766357422 24.3579101562 24.3546638489 20.1612243652 13.5271377563 6.69149589539 2.33970284462 2.34038829803 6.70788288116 13.5439958572 20.1759490967 24.3571033478 24.3538608551 20.1605377197 13.5266666412 6.69128227234 2.33969569206 2.33101058006 6.43787813187 12.9532318115 19.3065681458 23.3213806152 23.3182430267 19.2918376923 12.936671257 6.42212724686 2.33039069176 2.31366729736 5.90209436417 11.7619943619 17.5006904602 21.1051120758 21.1024227142 17.4874515533 11.7470159531 5.88806819916 2.31317782402 2.29016852379 5.00196456909 9.65505886078 14.2404537201 16.9541530609 16.9521636963 14.2302913666 9.64275550842 4.99099493027 2.28986215591 2.26544451714 3.81345748901 6.64019441605 9.32208538055 10.9146280289 10.9137973785 9.31574249268 6.63254976273 3.80684518814 2.26532816887 
2.26550197601 3.81672024727 6.64930295944 9.33822536469 10.9345445633 10.9332389832 9.33232116699 6.64197921753 3.81021165848 2.26538968086 2.29023957253 5.00449466705 9.66168403625 14.2503929138 16.9671382904 16.965045929 14.2400512695 9.64955997467 4.99359941483 2.28993296623 2.31371831894 5.90355300903 11.765501976 17.5062332153 21.1135921478 21.1107463837 17.4929580688 11.7504825592 5.88952589035 2.31322956085 2.33103847504 6.43841838837 12.9546432495 19.3090705872 23.3256206512 23.3224830627 19.294298172 12.9380569458 6.42265129089 2.33041739464 2.3403840065 6.70749473572 13.5433301926 20.1753978729 24.3587532043 24.3554992676 20.1599807739 13.5259971619 6.69089221954 2.33969140053 2.34037709236 6.70727682114 13.5428552628 20.1747074127 24.3579406738 24.3546943665 20.1592941284 13.5255260468 6.69067716599 2.33968424797 2.33100128174 6.43729496002 12.9521923065 19.3053970337 23.3212394714 23.3180980682 19.2906646729 12.935634613 6.42154502869 2.33038210869 2.31366014481 5.90153217316 11.7610359192 17.4996070862 21.1041126251 21.1014251709 17.4863700867 11.7460594177 5.88750696182 2.31317138672 2.29016566277 5.00140190125 9.65411376953 14.2394456863 16.9530334473 16.95104599 14.2292852402 9.6418094635 4.99043369293 2.28985929489 2.26544737816 3.81295895576 6.63925600052 9.32104206085 10.913444519 10.9126138687 9.31469345093 6.63160991669 3.8063480854 2.26533102989 
2.26550245285 3.81665205956 6.64917850494 9.33809661865 10.9343996048 10.933095932 9.33219146729 6.64185762405 3.8101439476 2.26538968086 2.29023957253 5.00442218781 9.66156864166 14.2502775192 16.9670143127 16.9649219513 14.2399368286 9.64944553375 4.99352741241 2.28993272781 2.31371760368 5.90348434448 11.7653894424 17.5061264038 21.1135044098 21.110660553 17.49284935 11.7503709793 5.88945770264 2.3132288456 2.33103752136 6.43834972382 12.9545288086 19.3089504242 23.3256587982 23.3225212097 19.2941799164 12.9379396439 6.42258167267 2.3304169178 2.34038281441 6.70742321014 13.5432033539 20.1752662659 24.3589897156 24.3557319641 20.1598510742 13.5258684158 6.69082021713 2.33969044685 2.34037566185 6.70720481873 13.5427246094 20.1745758057 24.3581752777 24.3549289703 20.1591644287 13.5253953934 6.69060611725 2.3396832943 2.3310008049 6.43722629547 12.9520769119 19.3052768707 23.3212738037 23.3181324005 19.2905464172 12.9355182648 6.42147636414 2.33038139343 2.31366014481 5.90146446228 11.760931015 17.49949646 21.1040229797 21.1013374329 17.4862556458 11.7459506989 5.88743877411 2.31317067146 2.29016542435 5.00132989883 9.65399932861 14.2393341064 16.952911377 16.9509220123 14.2291727066 9.64169406891 4.99036073685 2.28985905647 2.265447855 3.81289124489 6.63913202286 9.32091331482 10.9133005142 10.9124679565 9.3145608902 6.63148546219 3.80627965927 2.26533174515 
2.26550269127 3.81664943695 6.64917850494 9.33810424805 10.9344148636 10.9331092834 9.33220291138 6.64185714722 3.81014156342 2.2653901577 2.29023981094 5.00442409515 9.66158103943 14.2503032684 16.9670391083 16.9649486542 14.2399606705 9.64945793152 4.99352788925 2.28993296623 2.3137178421 5.90349197388 11.765414238 17.5061607361 21.1135482788 21.1107063293 17.4928855896 11.7503938675 5.88946390152 2.31322932243 2.33103823662 6.43835926056 12.9545545578 19.3089942932 23.3257427216 23.3226051331 19.2942218781 12.9379673004 6.42259216309 2.33041715622 2.34038281441 6.7074341774 13.5432271957 20.1753120422 24.3591156006 24.3558654785 20.1598930359 13.5258951187 6.69083166122 2.33969092369 2.34037637711 6.70721721649 13.5427494049 20.1746234894 24.3583049774 24.3550567627 20.1592082977 13.5254220963 6.6906170845 2.33968353271 2.33100104332 6.43723630905 12.9521017075 19.3053207397 23.3213596344 23.3182163239 19.2905902863 12.935544014 6.42148685455 2.33038187027 2.31366014481 5.90147066116 11.7609500885 17.4995307922 21.1040687561 21.1013793945 17.4862937927 11.745970726 5.8874464035 2.3131711483 2.29016542435 5.00133132935 9.65401077271 14.2393550873 16.9529380798 16.9509487152 14.2291965485 9.641705513 4.99036312103 2.28985929489 2.26544809341 3.81288862228 6.63913345337 9.32092380524 10.913312912 10.912481308 9.31456947327 6.63148498535 3.80627703667 2.26533198357 
