0.981338977814 1.00924217701 1.04208874702 1.10360372066 1.17427802086 1.17426002026 1.10355103016 1.02970838547 1.0092048645 0.981393933296 0.972130060196 1.0481133461 1.16184568405 1.27228415012 1.36395037174 1.36394000053 1.27222073078 1.09406006336 1.0480453968 0.972192764282 0.969181776047 1.12859773636 1.26824808121 1.38658821583 1.4806201458 1.48061037064 1.38653635979 1.19250607491 1.12851548195 0.969228923321 0.968077659607 1.17203068733 1.3137229681 1.42150902748 1.50633347034 1.50632512569 1.42146396637 1.2370493412 1.17195475101 0.968111813068 0.966689169407 1.20691180229 1.35147881508 1.45094883442 1.52425336838 1.52424931526 1.4509100914 1.27351987362 1.20683264732 0.966719508171 0.966690838337 1.20690214634 1.35147047043 1.45092940331 1.52431845665 1.524310112 1.45088624954 1.2735170126 1.20682311058 0.966721177101 0.968082129955 1.1719853878 1.31368625164 1.42143285275 1.50639593601 1.50638246536 1.42138278484 1.23701691628 1.17191004753 0.968116462231 0.969866931438 1.09811282158 1.23187327385 1.34582388401 1.44781255722 1.44781053066 1.34576821327 1.15749776363 1.09804284573 0.969915091991 0.972136735916 1.04803407192 1.16174387932 1.27227473259 1.36397790909 1.3639318943 1.27223467827 1.09398162365 1.04796767235 0.972199320793 0.981367886066 1.00920140743 1.04205429554 1.10342419147 1.17414474487 1.17420399189 1.10333144665 1.02969002724 1.00916516781 0.981421768665 
0.981325447559 1.00794041157 1.04008495808 1.10073781013 1.17110836506 1.17109048367 1.10068643093 1.02777040005 1.00790500641 0.981380283833 0.972097754478 1.04630565643 1.15957283974 1.26970863342 1.36146378517 1.36145353317 1.26964521408 1.09187865257 1.04623937607 0.972160577774 0.969077408314 1.12654197216 1.26599800587 1.3844088316 1.48917114735 1.48916423321 1.38435542583 1.19042360783 1.12646019459 0.969124436378 0.967893064022 1.16996622086 1.31165933609 1.42206668854 1.52016806602 1.52016079426 1.4220238924 1.23529970646 1.16989028454 0.967927575111 0.966422617435 1.20495176315 1.35069572926 1.45847797394 1.54590332508 1.54590117931 1.45844435692 1.27271282673 1.20487248898 0.966453373432 0.966424047947 1.20494186878 1.3506872654 1.45845735073 1.54600083828 1.54599320889 1.45841765404 1.27271080017 1.20486283302 0.966454923153 0.967897891998 1.16992092133 1.31162202358 1.42198824883 1.52026605606 1.52025127411 1.42193949223 1.23526597023 1.16984570026 0.967932462692 0.969775557518 1.09606707096 1.22950816154 1.34283864498 1.44712042809 1.44712173939 1.34278261662 1.15523290634 1.0959982872 0.969823718071 0.972104787827 1.04622733593 1.1594697237 1.2697031498 1.36148679256 1.36144089699 1.26966333389 1.0917994976 1.04616248608 0.972167015076 0.981354176998 1.00790083408 1.04005253315 1.10055565834 1.1709779501 1.17103850842 1.10046303272 1.02775394917 1.0078663826 0.981407642365 
0.981324791908 1.00787734985 1.03998756409 1.10060012341 1.17095410824 1.17093622684 1.10054862499 1.02767550945 1.0078420639 0.981379508972 0.972096204758 1.0462192297 1.15946292877 1.26958084106 1.36133515835 1.36132526398 1.26951754093 1.091771245 1.04615318775 0.972158908844 0.969071924686 1.12644481659 1.26589512825 1.38426744938 1.48923122883 1.4892244339 1.3842138052 1.1903231144 1.12636351585 0.969119250774 0.967883110046 1.16987109184 1.31156110764 1.42197060585 1.5207901001 1.52078294754 1.42192804813 1.23521304131 1.16979515553 0.967917740345 0.966407597065 1.20486521721 1.35065460205 1.45897912979 1.54751908779 1.54751718044 1.45894563198 1.27269077301 1.20478606224 0.966438412666 0.966409087181 1.20485544205 1.35064601898 1.458958745 1.54762196541 1.5476140976 1.45891952515 1.27268850803 1.20477628708 0.966439962387 0.967888116837 1.16982591152 1.31152367592 1.42189240456 1.52089357376 1.52087879181 1.42184352875 1.23517942429 1.16975069046 0.967922627926 0.969770431519 1.09596884251 1.22939801216 1.34270048141 1.44701302052 1.44701421261 1.34264445305 1.15513014793 1.09590005875 0.969818651676 0.972103178501 1.04614078999 1.15935993195 1.26957559586 1.36135804653 1.36131238937 1.26953577995 1.09169232845 1.04607605934 0.972165644169 0.981353461742 1.00783801079 1.039955616 1.10041761398 1.17082393169 1.17088449001 1.10032510757 1.02765858173 1.0078035593 0.981407105923 
0.98132443428 1.00786995888 1.03997659683 1.10058474541 1.17093706131 1.17091941833 1.10053348541 1.02766466141 1.00783479214 0.981379270554 0.972095966339 1.04620945454 1.15945088863 1.26956725121 1.36132133007 1.36131131649 1.26950347424 1.09175944328 1.04614317417 0.972158908844 0.969071209431 1.12643456459 1.26588344574 1.38425183296 1.48921465874 1.48920762539 1.38419795036 1.19031178951 1.12635302544 0.969118595123 0.967881798744 1.16986107826 1.3115516901 1.4219596386 1.52084767818 1.52084100246 1.42191708088 1.23520421982 1.16978526115 0.967916309834 0.966405391693 1.20485687256 1.35065305233 1.45905804634 1.54774916172 1.54774701595 1.45902478695 1.27269089222 1.20477771759 0.966436326504 0.966407120228 1.2048470974 1.35064423084 1.4590382576 1.5478528738 1.54784536362 1.45899891853 1.27268862724 1.20476782322 0.966438055038 0.96788674593 1.16981601715 1.3115144968 1.42188155651 1.52095246315 1.52093780041 1.42183279991 1.23517072201 1.16974067688 0.967921316624 0.969769835472 1.09595811367 1.2293857336 1.34268438816 1.44699907303 1.44700026512 1.34262835979 1.15511822701 1.0958892107 0.96981793642 0.972102880478 1.04613101482 1.1593477726 1.26956176758 1.36134409904 1.36129832268 1.26952195168 1.09168040752 1.0460665226 0.972165167332 0.981353342533 1.00783061981 1.03994464874 1.10040235519 1.17080724239 1.17086756229 1.10030984879 1.02764809132 1.00779640675 0.981406748295 
0.981324374676 1.00786888599 1.03997504711 1.10058295727 1.17093515396 1.17091739178 1.10053157806 1.02766311169 1.00783360004 0.981379270554 0.972095727921 1.04620814323 1.15944945812 1.26956534386 1.36131978035 1.36130964756 1.26950180531 1.09175801277 1.04614198208 0.972158610821 0.969070971012 1.1264333725 1.26588213444 1.3842498064 1.48921251297 1.48920547962 1.38419628143 1.19031071663 1.12635183334 0.969118237495 0.967881321907 1.16986036301 1.31155157089 1.42195928097 1.52086007595 1.52085328102 1.42191672325 1.23520374298 1.1697845459 0.967915952206 0.966404855251 1.20485627651 1.35065460205 1.45908141136 1.54780244827 1.54780077934 1.45904827118 1.27269279957 1.20477724075 0.966435611248 0.966406404972 1.20484650135 1.35064613819 1.45906150341 1.54790699482 1.54789948463 1.45902216434 1.2726906538 1.20476746559 0.966437339783 0.967886209488 1.16981518269 1.31151425838 1.42188119888 1.52096521854 1.5209505558 1.42183256149 1.23517048359 1.16973972321 0.967920780182 0.969769477844 1.09595692158 1.22938430309 1.34268248081 1.44699752331 1.44699919224 1.34262669086 1.15511703491 1.09588801861 0.969817698002 0.972102820873 1.04612970352 1.15934622288 1.26956009865 1.36134231091 1.36129665375 1.26952016354 1.0916788578 1.0460652113 0.972165107727 0.981353282928 1.00782954693 1.03994297981 1.10040044785 1.17080485821 1.17086577415 1.10030782223 1.02764642239 1.00779509544 0.981406748295 
0.98132443428 1.00786888599 1.0399749279 1.1005834341 1.17093575001 1.17091798782 1.10053193569 1.02766311169 1.00783336163 0.981379270554 0.972095787525 1.04620838165 1.15944969654 1.26956605911 1.36132025719 1.36131024361 1.26950216293 1.09175789356 1.04614210129 0.972158491611 0.969070851803 1.12643373013 1.26588320732 1.38425064087 1.48921346664 1.4892064333 1.38419723511 1.19031119347 1.12635219097 0.969118058681 0.967881083488 1.16986119747 1.31155276299 1.42196106911 1.52086770535 1.52086114883 1.42191874981 1.23520517349 1.16978526115 0.967915594578 0.966404557228 1.20485746861 1.35065722466 1.45909368992 1.54782402515 1.54782176018 1.45906054974 1.27269518375 1.20477819443 0.966435432434 0.966406106949 1.20484769344 1.35064852238 1.45907402039 1.54792821407 1.54792070389 1.45903456211 1.27269327641 1.20476853848 0.966437041759 0.967885971069 1.16981601715 1.31151545048 1.42188286781 1.52097284794 1.52095830441 1.42183411121 1.23517155647 1.16974067688 0.967920601368 0.969769239426 1.09595739841 1.22938501835 1.34268343449 1.44699883461 1.44700026512 1.34262740612 1.15511739254 1.09588861465 0.969817519188 0.97210252285 1.04612994194 1.15934658051 1.26956057549 1.36134302616 1.361297369 1.269520998 1.09167909622 1.04606533051 0.972164988518 0.981353163719 1.00782954693 1.03994297981 1.10040104389 1.17080569267 1.17086625099 1.10030829906 1.02764642239 1.00779497623 0.981406569481 
0.981324315071 1.0078690052 1.03997552395 1.10058426857 1.17093706131 1.17091917992 1.10053277016 1.02766335011 1.00783360004 0.981379270554 0.972095608711 1.04620873928 1.1594504118 1.26956689358 1.36132097244 1.36131119728 1.26950323582 1.09175860882 1.04614257812 0.972158372402 0.96907055378 1.12643456459 1.26588451862 1.38425195217 1.48921489716 1.48920810223 1.38419854641 1.19031238556 1.12635314465 0.969117939472 0.96788084507 1.16986227036 1.31155455112 1.42196345329 1.52087521553 1.52086830139 1.42192077637 1.23520648479 1.16978633404 0.967915415764 0.9664041996 1.20485889912 1.35065960884 1.45910346508 1.54783737659 1.54783535004 1.45906996727 1.27269792557 1.20477962494 0.966434955597 0.96640586853 1.20484900475 1.35065126419 1.45908355713 1.54794192314 1.54793405533 1.45904433727 1.27269589901 1.20476984978 0.966436624527 0.967885792255 1.16981709003 1.31151711941 1.42188537121 1.52098071575 1.5209659338 1.42183637619 1.23517298698 1.16974186897 0.967920422554 0.969769239426 1.09595799446 1.22938644886 1.34268474579 1.44700086117 1.44700217247 1.34262883663 1.15511870384 1.09588909149 0.969817340374 0.972102463245 1.04613041878 1.15934729576 1.26956152916 1.36134421825 1.3612985611 1.26952183247 1.09167969227 1.04606568813 0.972164988518 0.98135304451 1.00782942772 1.03994345665 1.10040187836 1.17080688477 1.17086744308 1.10030925274 1.0276465416 1.00779509544 0.981406450272 
