13.9357032776 21.706489563 29.2961368561 37.1775283813 45.642162323 54.3796730042 62.8429145813 70.7229232788 78.3126678467 86.0839996338 13.8977775574 21.4748668671 28.5298633575 36.3348007202 45.2896728516 54.7339324951 63.6862335205 71.4881439209 78.5430908203 86.1217803955 13.8757400513 21.2975482941 28.0239677429 35.7817306519 45.0497245789 54.9750823975 64.2395782471 71.9934844971 78.7194595337 86.1437225342 13.8580770493 21.1803607941 27.7626876831 35.5205383301 44.9444770813 55.0808639526 64.5010147095 72.2545471191 78.8362503052 86.161315918 13.8465490341 21.1216583252 27.6378059387 35.4070510864 44.900592804 55.1249580383 64.6146087646 72.3793334961 78.894744873 86.1727981567 13.8465595245 21.1217002869 27.6378955841 35.4071235657 44.9006347656 55.124912262 64.6145401001 72.3792495728 78.8947067261 86.1727828979 13.8581180573 21.1805820465 27.763168335 35.5210189819 44.9446525574 55.0806732178 64.5005340576 72.2540588379 78.8360290527 86.1612701416 13.8757867813 21.297908783 28.0248603821 35.7827186584 45.0502471924 54.9745483398 64.238609314 71.9926300049 78.7190856934 86.1436767578 13.8978481293 21.475358963 28.5314979553 36.3364257812 45.2904891968 54.7330780029 63.6846466064 71.4865188599 78.5426025391 86.1217193604 13.935839653 21.7071552277 29.2980289459 37.1801490784 45.6432876587 54.3785934448 62.8402900696 70.7211227417 78.3120269775 86.0838699341 
13.935541153 21.706817627 29.2984428406 37.1792106628 45.6422462463 54.3795852661 62.8412284851 70.7206192017 78.3123397827 86.0841522217 13.8974323273 21.4754714966 28.5309638977 36.3300895691 45.2851257324 54.7385025024 63.6909255981 71.4870452881 78.5424880981 86.1221160889 13.8750610352 21.2961902618 28.0183620453 35.7608375549 45.0307884216 54.9941062927 64.2604293823 71.9990844727 78.7208175659 86.1444091797 13.8569288254 21.1749763489 27.7436580658 35.4691505432 44.908416748 55.1171035767 64.5523223877 72.2735061646 78.8416137695 86.1624603271 13.8449783325 21.1126289368 27.6066608429 35.333442688 44.8547592163 55.1710128784 64.6881484985 72.4103775024 78.9037475586 86.1743621826 13.8449897766 21.1126689911 27.606760025 35.3335380554 44.8548126221 55.170955658 64.6880569458 72.4102783203 78.9037094116 86.1743392944 13.856970787 21.1752109528 27.7441749573 35.4697036743 44.9086380005 55.1168708801 64.5517654419 72.2729949951 78.8413772583 86.1624145508 13.8751077652 21.2965564728 28.01927948 35.7618904114 45.0313644409 54.9935264587 64.2593917847 71.9981765747 78.720451355 86.1443557739 13.8974981308 21.4759635925 28.5326137543 36.3317337036 45.2859687805 54.7376213074 63.6893196106 71.4854049683 78.5420074463 86.1220626831 13.9356765747 21.7074775696 29.3003158569 37.1818389893 45.6433639526 54.3785209656 62.838596344 70.7188415527 78.3116989136 86.084022522 
13.9355354309 21.7068328857 29.298538208 37.1792831421 45.6422576904 54.3795700073 62.8411598206 70.7205123901 78.3123245239 86.0841522217 13.8974161148 21.4754943848 28.5310211182 36.3299598694 45.2850074768 54.7386207581 63.6910591125 71.4869842529 78.54246521 86.1221466064 13.8750324249 21.2961196899 28.0181312561 35.7601737976 45.0302429199 54.9946632385 64.261100769 71.9992980957 78.7208786011 86.1444320679 13.8568744659 21.1746921539 27.7427043915 35.4668235779 44.9066467285 55.1188659668 64.5546417236 72.2744598389 78.8418960571 86.1625137329 13.8449039459 21.1121425629 27.6049842834 35.3293075562 44.8520736694 55.1737098694 64.6922836304 72.4120559692 78.9042282104 86.1744308472 13.8449134827 21.1121864319 27.6050891876 35.3293952942 44.8521270752 55.1736450195 64.692199707 72.4119567871 78.9041748047 86.1744232178 13.856918335 21.1749286652 27.743227005 35.4673805237 44.906867981 55.118637085 64.5540847778 72.27394104 78.8416595459 86.1624679565 13.8750772476 21.2964897156 28.0190486908 35.7612304688 45.0308189392 54.9940681458 64.2600479126 71.9983978271 78.7205123901 86.1443939209 13.897485733 21.4759902954 28.5326690674 36.3316001892 45.2858505249 54.7377433777 63.6894454956 71.4853363037 78.5419845581 86.1220703125 13.9356708527 21.7074871063 29.3004074097 37.1819114685 45.6433753967 54.3785095215 62.8385238647 70.71875 78.3116989136 86.084022522 
13.9355316162 21.7068328857 29.2985439301 37.1792831421 45.6422576904 54.3795700073 62.8411483765 70.7205047607 78.3123245239 86.0841522217 13.8974151611 21.4754962921 28.5310211182 36.3299369812 45.284992218 54.7386360168 63.691078186 71.4869842529 78.5424575806 86.1221313477 13.8750276566 21.2961063385 28.0180854797 35.7600975037 45.0301971436 54.9947128296 64.261177063 71.9993515015 78.7208938599 86.1444396973 13.8568687439 21.174654007 27.7425670624 35.4665336609 44.9064445496 55.1190795898 64.5549316406 72.274597168 78.8419418335 86.1625061035 13.8448944092 21.1120700836 27.6047477722 35.328754425 44.8517341614 55.1740646362 64.6928329468 72.4122848511 78.9043045044 86.174446106 13.8449039459 21.11211586 27.6048545837 35.3288459778 44.8517875671 55.1739997864 64.6927490234 72.4121856689 78.904258728 86.1744232178 13.8569087982 21.1748847961 27.7430877686 35.4670944214 44.906665802 55.1188430786 64.5543670654 72.2740783691 78.8417053223 86.1624603271 13.8750753403 21.2964782715 28.0190048218 35.7611465454 45.0307769775 54.9941177368 64.2601318359 71.9984436035 78.7205276489 86.1443786621 13.8974838257 21.4759902954 28.5326728821 36.3315849304 45.2858390808 54.7377510071 63.6894683838 71.4853439331 78.5419845581 86.1220703125 13.9356689453 21.7074890137 29.3004131317 37.1819152832 45.6433677673 54.3785095215 62.8385162354 70.71875 78.3116989136 86.084022522 
13.9355325699 21.7068328857 29.2985439301 37.1792831421 45.6422576904 54.3795700073 62.8411636353 70.7205047607 78.3123168945 86.0841598511 13.8974132538 21.4754943848 28.5310096741 36.3299293518 45.2849845886 54.7386474609 63.6910820007 71.4869918823 78.54246521 86.1221313477 13.8750286102 21.2961025238 28.0180721283 35.7600593567 45.0301856995 54.994720459 64.2612075806 71.9993591309 78.7209091187 86.1444396973 13.8568649292 21.1746406555 27.7425231934 35.4664611816 44.9064025879 55.1191291809 64.5550079346 72.2746429443 78.8419494629 86.1625061035 13.8448905945 21.1120491028 27.6046772003 35.3286170959 44.8516578674 55.1741294861 64.6929779053 72.412361145 78.9043197632 86.174446106 13.8449001312 21.1120929718 27.6047821045 35.3287086487 44.8517150879 55.1740722656 64.6928787231 72.4122467041 78.9042816162 86.1744384766 13.8569078445 21.1748695374 27.7430438995 35.4670219421 44.9066200256 55.1188964844 64.5544433594 72.2741317749 78.8417205811 86.1624755859 13.8750724792 21.2964744568 28.0189876556 35.7611198425 45.0307617188 54.9941368103 64.2601623535 71.9984588623 78.7205429077 86.1443786621 13.8974838257 21.4759864807 28.532661438 36.3315696716 45.2858314514 54.7377624512 63.6894798279 71.4853439331 78.5419921875 86.1220779419 13.9356689453 21.7074871063 29.300409317 37.1819076538 45.6433677673 54.3785171509 62.83852005 70.7187423706 78.311706543 86.084022522 
13.9355335236 21.7068309784 29.298538208 37.1792755127 45.6422576904 54.3795776367 62.8411636353 70.7205200195 78.3123168945 86.0841598511 13.8974132538 21.4754905701 28.5310001373 36.3299179077 45.2849845886 54.7386474609 63.6911010742 71.4870147705 78.54246521 86.1221466064 13.8750267029 21.2960948944 28.0180511475 35.7600440979 45.0301704407 54.9947357178 64.2612304688 71.9993896484 78.720916748 86.1444396973 13.8568649292 21.1746253967 27.7424907684 35.4664115906 44.9063720703 55.1191520691 64.5550537109 72.2746658325 78.8419647217 86.1625213623 13.8448896408 21.112033844 27.6046352386 35.3285484314 44.8516273499 55.174156189 64.6930465698 72.4123916626 78.904335022 86.174446106 13.8448982239 21.112077713 27.6047401428 35.3286399841 44.8516807556 55.1741027832 64.6929550171 72.4123001099 78.9042892456 86.1744308472 13.8569068909 21.1748600006 27.7430114746 35.4669799805 44.9065971375 55.1189193726 64.5544891357 72.2741546631 78.8417358398 86.1624755859 13.8750715256 21.29646492 28.0189723969 35.7610969543 45.0307540894 54.9941444397 64.2601776123 71.9984893799 78.7205352783 86.1443939209 13.8974838257 21.4759807587 28.5326538086 36.3315582275 45.2858314514 54.7377700806 63.6894989014 71.4853668213 78.5419845581 86.1220779419 13.9356689453 21.7074890137 29.3004055023 37.1819076538 45.643371582 54.3785171509 62.8385314941 70.7187576294 78.311706543 86.084022522 
13.9355335236 21.7068309784 29.2985305786 37.1792678833 45.6422576904 54.3795852661 62.8411750793 70.7205276489 78.3123168945 86.0841598511 13.8974132538 21.4754867554 28.5309925079 36.3299102783 45.2849769592 54.7386550903 63.6911048889 71.4870223999 78.54246521 86.1221466064 13.8750257492 21.2960853577 28.0180339813 35.7600250244 45.0301704407 54.9947433472 64.2612457275 71.9994125366 78.7209091187 86.1444396973 13.8568658829 21.17461586 27.7424640656 35.466381073 44.9063568115 55.1191673279 64.5550842285 72.2746887207 78.8419799805 86.1625213623 13.8448848724 21.1120204926 27.6045970917 35.3284988403 44.8516082764 55.1741867065 64.6930923462 72.412437439 78.9043579102 86.174446106 13.8448982239 21.1120643616 27.6047039032 35.3285942078 44.8516578674 55.1741294861 64.6929931641 72.412322998 78.9043045044 86.174446106 13.8569049835 21.1748485565 27.7429847717 35.4669456482 44.9065818787 55.1189308167 64.5545043945 72.2741851807 78.8417358398 86.1624755859 13.8750715256 21.2964572906 28.0189571381 35.7610740662 45.0307502747 54.9941444397 64.2602005005 71.9984893799 78.7205429077 86.1443939209 13.897482872 21.4759807587 28.5326461792 36.3315505981 45.285823822 54.7377700806 63.6895027161 71.4853820801 78.5419921875 86.1220779419 13.935667038 21.707485199 29.3004016876 37.1819000244 45.6433677673 54.3785171509 62.8385391235 70.7187576294 78.311706543 86.084022522 
