0.982661187649 1.02800810337 1.06607067585 1.13160121441 1.2030107975 1.20298266411 1.13152897358 1.05581331253 1.02795124054 0.982716202736 0.974177479744 1.07243561745 1.18520379066 1.29077649117 1.35181045532 1.35179185867 1.29070281982 1.12064266205 1.07235014439 0.974237918854 0.972015380859 1.15544056892 1.26571583748 1.36144709587 1.4124443531 1.41242671013 1.36138880253 1.21339523792 1.15535378456 0.972060859203 0.971709191799 1.19771122932 1.29738414288 1.37979328632 1.424446702 1.42443597317 1.37974023819 1.25124120712 1.19762897491 0.971741616726 0.970575869083 1.22778904438 1.31825137138 1.39347732067 1.43111395836 1.4311093092 1.39343643188 1.27743208408 1.22770571709 0.97060662508 0.970577538013 1.22777831554 1.31824314594 1.39346396923 1.43114793301 1.43114113808 1.39342081547 1.2774258852 1.22769510746 0.970608472824 0.971713602543 1.19766032696 1.29735028744 1.37972533703 1.42446172237 1.42444813251 1.37967002392 1.25120174885 1.19757902622 0.971745967865 0.972720265388 1.12515950203 1.2444819212 1.34579527378 1.40401542187 1.40400767326 1.34573292732 1.18499791622 1.12508106232 0.972765803337 0.974182188511 1.07234430313 1.18510913849 1.2907242775 1.35185217857 1.35180616379 1.29066848755 1.12056672573 1.07226002216 0.974242687225 0.982691168785 1.02794992924 1.06601309776 1.13144624233 1.20280539989 1.20285785198 1.13133502007 1.05577635765 1.02789378166 0.982745528221 
0.981414556503 1.01036298275 1.04048156738 1.0971391201 1.17327296734 1.17324769497 1.09707975388 1.03081214428 1.01032626629 0.981470167637 0.972124814987 1.04939222336 1.16439557076 1.2857606411 1.38433933258 1.38432312012 1.28569233418 1.09466254711 1.04932451248 0.972188055515 0.969110012054 1.13285195827 1.27685582638 1.40070521832 1.49120891094 1.49119257927 1.40064501762 1.20034873486 1.13277113438 0.969157576561 0.968243718147 1.1788225174 1.32271540165 1.43117260933 1.51123535633 1.51122093201 1.43111085892 1.24686312675 1.1787481308 0.968276262283 0.966718375683 1.21552622318 1.35862731934 1.4570196867 1.5250505209 1.52504086494 1.45696496964 1.28459501266 1.21544933319 0.966747522354 0.966720938683 1.21551573277 1.35861992836 1.45700240135 1.52511525154 1.52510142326 1.45694315434 1.28459227085 1.21543896198 0.966749846935 0.96824914217 1.1787737608 1.32268023491 1.43109369278 1.51129519939 1.51127493382 1.43102765083 1.24683129787 1.17870056629 0.968281745911 0.969871222973 1.09922277927 1.23734474182 1.35963463783 1.46395099163 1.46394765377 1.35956740379 1.16114628315 1.09915614128 0.969919502735 0.97213113308 1.04930877686 1.16428005695 1.28576219082 1.38440275192 1.38434314728 1.28572499752 1.09458041191 1.04924309254 0.972193837166 0.981444597244 1.01032018661 1.04045319557 1.09693586826 1.17311120033 1.1731865406 1.09682309628 1.03079640865 1.01028454304 0.981498599052 
0.98141592741 1.00767731667 1.03635692596 1.09112787247 1.16626083851 1.16623568535 1.09107172489 1.02679944038 1.00764405727 0.98147124052 0.972114622593 1.04551291466 1.15948808193 1.28016245365 1.37939143181 1.37937712669 1.28009235859 1.08997774124 1.04544866085 0.972177505493 0.969011545181 1.12818658352 1.27155721188 1.39700210094 1.50651311874 1.50650072098 1.39694058895 1.19546377659 1.12810766697 0.969059050083 0.968038439751 1.17388653755 1.31761407852 1.43138766289 1.53220713139 1.53219401836 1.43133234978 1.24238395691 1.17381370068 0.968071222305 0.966420531273 1.21057009697 1.35593080521 1.46548712254 1.55362761021 1.55361962318 1.46544134617 1.28112399578 1.21049404144 0.966450333595 0.966422915459 1.21055972576 1.35592246056 1.46546638012 1.55372869968 1.55371463299 1.46541440487 1.28112232685 1.21048355103 0.966452479362 0.968043923378 1.17383861542 1.3175778389 1.43130362034 1.53231060505 1.53228843212 1.43124270439 1.24235033989 1.17376685143 0.968076765537 0.969789862633 1.0946521759 1.23192334175 1.3527122736 1.46470248699 1.46470201015 1.35264694691 1.15606534481 1.09458768368 0.969837963581 0.972121059895 1.04543149471 1.15937066078 1.28017246723 1.37944746017 1.37938809395 1.28013563156 1.08989477158 1.04536950588 0.972183287144 0.981445431709 1.00763750076 1.03633475304 1.09091901779 1.16610884666 1.16618716717 1.09080672264 1.02678883076 1.00760531425 0.981498897076 
0.981418132782 1.00732195377 1.03580760956 1.09032773972 1.1653124094 1.16528701782 1.0902723074 1.02626287937 1.00728905201 0.981473386288 0.972116827965 1.04499769211 1.15882492065 1.27938890457 1.37860417366 1.37858974934 1.27931857109 1.08934211731 1.04493391514 0.972179591656 0.969001114368 1.12756741047 1.27087962627 1.39614498615 1.50789606571 1.50788390636 1.39608359337 1.19481945038 1.12748908997 0.969048678875 0.968015909195 1.17323982716 1.31688201427 1.43063926697 1.53550183773 1.53548967838 1.43058383465 1.24173784256 1.17316699028 0.968048751354 0.966385304928 1.20992958546 1.35530292988 1.46610510349 1.5600181818 1.56001055241 1.46606004238 1.28061664104 1.20985329151 0.966415166855 0.966387629509 1.20991897583 1.35529470444 1.46608436108 1.56013822556 1.56012356281 1.46603310108 1.2806147337 1.2098429203 0.966417491436 0.968021512032 1.17319190502 1.3168463707 1.43055617809 1.53562641144 1.53560423851 1.43049538136 1.24170482159 1.17312026024 0.968054413795 0.969780385494 1.09404051304 1.23122298717 1.35185265541 1.46392178535 1.46392250061 1.35178720951 1.15541851521 1.09397614002 0.969828605652 0.972123205662 1.04491651058 1.15870738029 1.27939999104 1.37865877151 1.37859916687 1.27936303616 1.08925914764 1.04485487938 0.97218555212 0.981447577477 1.00728225708 1.03578650951 1.09011828899 1.16516149044 1.16524004936 1.09000599384 1.02625250816 1.00725078583 0.981500804424 
0.981418073177 1.00726079941 1.03571438789 1.09019422531 1.165153265 1.16512811184 1.09013879299 1.02617156506 1.00722801685 0.981473088264 0.97211676836 1.04491043091 1.15871393681 1.27926027775 1.37847328186 1.37845873833 1.27919018269 1.08923566341 1.04484677315 0.972179591656 0.968998610973 1.12746489048 1.27076554298 1.39599967003 1.50787734985 1.5078650713 1.39593827724 1.19471025467 1.12738645077 0.96904617548 0.968010663986 1.17313492298 1.31677186489 1.43050837517 1.53603899479 1.53602707386 1.43045306206 1.24163687229 1.17306232452 0.968043506145 0.96637827158 1.20982897282 1.35519051552 1.46612894535 1.56156134605 1.56155371666 1.46608459949 1.28052675724 1.20975255966 0.966408014297 0.966380596161 1.20981836319 1.35518240929 1.4661090374 1.56168973446 1.56167495251 1.4660576582 1.28052484989 1.20974230766 0.966410398483 0.968016266823 1.17308723927 1.31673657894 1.43042576313 1.53617167473 1.53614926338 1.43036484718 1.24160373211 1.17301559448 0.968049228191 0.969778478146 1.09393918514 1.23110318184 1.35170066357 1.46378445625 1.46378552914 1.35163533688 1.15530276299 1.09387528896 0.969826757908 0.972122967243 1.04482936859 1.15859603882 1.27927172184 1.37852728367 1.37846791744 1.27923488617 1.08915245533 1.0447678566 0.972185254097 0.981447398663 1.00722110271 1.03569316864 1.08998453617 1.16500270367 1.16508150101 1.08987224102 1.02616155148 1.00718963146 0.981500864029 
0.981417775154 1.00724709034 1.03569424152 1.09016597271 1.16512012482 1.16509461403 1.09011054039 1.0261515379 1.0072145462 0.981472969055 0.972116410732 1.04489159584 1.15869021416 1.27923345566 1.37844598293 1.3784314394 1.27916324139 1.08921301365 1.04482793808 0.972179293633 0.968997895718 1.12744355202 1.27074170113 1.39596927166 1.50784039497 1.50782823563 1.39590752125 1.1946876049 1.12736535072 0.96904540062 0.968008995056 1.17311382294 1.31675159931 1.43048048019 1.53613770008 1.53612554073 1.43042516708 1.24161756039 1.17304122448 0.968042016029 0.966376304626 1.20980942249 1.35516703129 1.46612977982 1.56199193001 1.56198453903 1.46608531475 1.28050935268 1.20973312855 0.966406106949 0.966378509998 1.20979881287 1.35515904427 1.46611011028 1.56212389469 1.56210875511 1.46605873108 1.28050732613 1.20972263813 0.966408312321 0.968014717102 1.17306602001 1.31671619415 1.43039774895 1.53627336025 1.53625130653 1.43033695221 1.24158465862 1.17299437523 0.968047678471 0.96977776289 1.0939180851 1.23107790947 1.35166740417 1.463752985 1.46375358105 1.35160171986 1.15527737141 1.09385418892 0.969825923443 0.972122788429 1.04481053352 1.15857255459 1.27924489975 1.37850010395 1.37844061852 1.27920794487 1.08912956715 1.04474902153 0.972184956074 0.981447339058 1.00720751286 1.03567314148 1.08995616436 1.16496968269 1.16504848003 1.08984410763 1.02614176273 1.00717616081 0.981500506401 
0.981417775154 1.00724387169 1.03568947315 1.09015965462 1.16511285305 1.16508746147 1.09010410309 1.02614700794 1.00721108913 0.981472730637 0.972116172314 1.04488706589 1.15868508816 1.27922749519 1.37844026089 1.37842583656 1.27915751934 1.08920800686 1.04482352734 0.972178995609 0.96899741888 1.12743914127 1.27073729038 1.39596283436 1.50783157349 1.50781953335 1.39590144157 1.19468271732 1.12736082077 0.969044923782 0.9680082798 1.17310988903 1.31674826145 1.43047535419 1.53616011143 1.53614842892 1.43041992188 1.24161446095 1.17303705215 0.968041360378 0.966375470161 1.20980608463 1.35516321659 1.4661359787 1.56213188171 1.56212425232 1.46609163284 1.28050708771 1.20972955227 0.966405272484 0.966377735138 1.2097953558 1.35515499115 1.46611630917 1.5622651577 1.56225025654 1.46606516838 1.28050518036 1.20971930027 0.966407418251 0.968014001846 1.17306208611 1.31671261787 1.43039298058 1.53629755974 1.53627514839 1.43033194542 1.24158143997 1.17299032211 0.968046784401 0.969777524471 1.09391343594 1.23107266426 1.35166049004 1.46374607086 1.46374678612 1.35159492493 1.15527188778 1.09384953976 0.96982562542 0.972122490406 1.04480624199 1.15856742859 1.27923905849 1.37849450111 1.37843489647 1.27920198441 1.08912444115 1.04474473 0.972184598446 0.981447160244 1.007204175 1.03566837311 1.08994972706 1.16496229172 1.16504120827 1.08983767033 1.02613675594 1.00717282295 0.981500387192 
