2.26487183571 3.88951921463 6.83899021149 9.55069637299 11.0251102448 11.0239534378 9.54500198364 6.83141136169 3.88273143768 2.26476168633 2.29045462608 5.08211517334 9.79262161255 14.1330213547 16.4992656708 16.4973926544 14.1239213943 9.78057479858 5.07101869583 2.29014348984 2.31471562386 5.94901514053 11.831073761 17.2109508514 20.2587757111 20.2563533783 17.1994457245 11.8162231445 5.93493175507 2.31421709061 2.33091020584 6.46536064148 12.9836368561 18.9068031311 22.2734241486 22.2707519531 18.894109726 12.967294693 6.44956064224 2.33028936386 2.33965945244 6.72334527969 13.547504425 19.7176685333 23.2195358276 23.2167644501 19.7044620514 13.530459404 6.70672130585 2.33897304535 2.33965301514 6.72314596176 13.547077179 19.7170543671 23.2188205719 23.216053009 19.7038516998 13.5300340652 6.70652294159 2.33896636963 2.33087539673 6.46433925629 12.98138237 18.9034996033 22.2695465088 22.2668704987 18.8908252716 12.9650554657 6.4485502243 2.33025503159 2.3146648407 5.94726991653 11.8271160126 17.2050018311 20.2511501312 20.2487716675 17.1935424805 11.8123073578 5.93320512772 2.31416726112 2.29038167 5.07952213287 9.78632259369 14.1237030029 16.4875068665 16.4856719971 14.114730835 9.77434539795 5.06847190857 2.29007315636 2.26482653618 3.88616657257 6.83026123047 9.5360956192 11.0074586868 11.0065317154 9.53040885925 6.82288360596 3.87945103645 2.26471614838 
2.26485157013 3.86682343483 6.79011058807 9.48942756653 10.9609441757 10.9597864151 9.48375225067 6.78258037567 3.86011385918 2.26474237442 2.29017949104 5.05529260635 9.73986721039 14.0720663071 16.4402294159 16.4383525848 14.0629634857 9.72786617279 5.04427671432 2.28987216949 2.31432318687 5.92380523682 11.7832527161 17.1590671539 20.2234401703 20.2209796906 17.1475410461 11.7684431076 5.90979290009 2.313829422 2.33058309555 6.44441175461 12.9454421997 18.8795223236 22.2946453094 22.2919044495 18.866733551 12.9291238785 6.42866659164 2.32996630669 2.33945775032 6.70605278015 13.5178527832 19.7137813568 23.282125473 23.2792682648 19.7004146576 13.5008211136 6.68947315216 2.33877444267 2.3394510746 6.70585155487 13.5174207687 19.7131443024 23.2813777924 23.2785205841 19.6997795105 13.5003881454 6.68927383423 2.33876800537 2.3305478096 6.44338035583 12.9431591034 18.8761577606 22.2906265259 22.2878875732 18.8633861542 12.926858902 6.42764616013 2.32993102074 2.31427288055 5.92205286026 11.7792863846 17.1530742645 20.2157287598 20.2133197784 17.1415920258 11.7645187378 5.90805864334 2.31377887726 2.29010748863 5.0527009964 9.73356437683 14.0627412796 16.4284114838 16.426574707 14.0537719727 9.72163581848 5.04173517227 2.28980255127 2.26480650902 3.86350631714 6.78144693375 9.47484779358 10.9433412552 10.9424123764 9.46917247772 6.77413034439 3.85687375069 2.26469755173 
2.26485061646 3.86590051651 6.78813362122 9.48696327209 10.958360672 10.9572029114 9.48128795624 6.780605793 3.85919356346 2.26474165916 2.29016852379 5.05421066284 9.73774909973 14.0696086884 16.4378166199 16.4359359741 14.0605077744 9.72574901581 5.04319810867 2.28986144066 2.31430792809 5.92281532288 11.7813892365 17.1570110321 20.2217445374 20.219285965 17.1454792023 11.7665815353 5.90880393982 2.31381440163 2.3305721283 6.4436545372 12.9440927505 18.8786373138 22.2957382202 22.2929954529 18.8658466339 12.9277791977 6.42791128159 2.32995557785 2.33945441246 6.70550251007 13.5170059204 19.7143802643 23.2864360809 23.2835769653 19.7010040283 13.4999761581 6.68892288208 2.33877134323 2.33944797516 6.70530128479 13.5165729523 19.7137413025 23.2856845856 23.2828235626 19.7003707886 13.49954319 6.68872261047 2.33876442909 2.33053660393 6.44262123108 12.9418115616 18.8752689362 22.2917156219 22.2889709473 18.862493515 12.9255123138 6.42688894272 2.32992053032 2.31425738335 5.92106246948 11.7774190903 17.1510181427 20.2140254974 20.2116184235 17.1395359039 11.7626533508 5.90706968307 2.31376433372 2.2900967598 5.05161952972 9.7314453125 14.0602836609 16.425994873 16.424156189 14.0513153076 9.71951770782 5.04065704346 2.28979182243 2.2648062706 3.86258506775 6.77947330475 9.47238445282 10.9407577515 10.9398298264 9.46671009064 6.77216005325 3.85595536232 2.26469731331 
2.26485061646 3.86580562592 6.7879357338 9.48671913147 10.9581098557 10.9569511414 9.48104476929 6.7804069519 3.85909938812 2.26474165916 2.29016757011 5.05410289764 9.73754501343 14.0693788528 16.4375934601 16.4357128143 14.0602760315 9.7255449295 5.04309129715 2.28986048698 2.31430697441 5.92272281647 11.7812213898 17.1568336487 20.2216072083 20.2191486359 17.1453018188 11.7664146423 5.90871191025 2.31381368637 2.33057165146 6.44359350204 12.9439954758 18.878616333 22.2959442139 22.2931976318 18.8658237457 12.9276819229 6.42785215378 2.32995462418 2.33945512772 6.70547103882 13.5169792175 19.7145671844 23.2871055603 23.2842464447 19.7011871338 13.4999465942 6.6888923645 2.33877205849 2.339448452 6.70526885986 13.5165433884 19.7139282227 23.2863521576 23.2834892273 19.7005519867 13.4995136261 6.68869113922 2.33876466751 2.33053636551 6.4425611496 12.9417142868 18.8752479553 22.2919158936 22.2891712189 18.8624725342 12.9254159927 6.42683076859 2.32992005348 2.31425642967 5.92096996307 11.7772521973 17.1508369446 20.2138881683 20.2114810944 17.1393566132 11.7624855042 5.9069776535 2.31376314163 2.2900955677 5.05151224136 9.73123836517 14.0600509644 16.4257717133 16.4239311218 14.0510835648 9.71931266785 5.04055023193 2.28979086876 2.26480603218 3.86249041557 6.77927398682 9.47214126587 10.9405069351 10.9395780563 9.46646690369 6.77196025848 3.85586094856 2.26469707489 
2.26485061646 3.86579561234 6.78791570663 9.48670196533 10.9580926895 10.9569339752 9.4810256958 6.78038787842 3.85908937454 2.26474142075 2.29016757011 5.05409431458 9.73753261566 14.0693712234 16.437587738 16.435710907 14.0602684021 9.72553348541 5.04308366776 2.28986024857 2.31430721283 5.92272090912 11.7812232971 17.1568470001 20.2216320038 20.2191753387 17.1453151703 11.7664146423 5.90871095657 2.31381392479 2.33057165146 6.44360160828 12.944018364 18.8786735535 22.2960472107 22.2933044434 18.8658790588 12.9277038574 6.42785930634 2.32995510101 2.33945584297 6.70548677444 13.5170221329 19.7146701813 23.2873249054 23.2844619751 19.7012939453 13.4999837875 6.68890714645 2.33877277374 2.33944940567 6.70528364182 13.5165843964 19.7140350342 23.2865695953 23.2837123871 19.7006587982 13.4995546341 6.68870687485 2.3387658596 2.33053684235 6.44256973267 12.9417362213 18.8753013611 22.2920227051 22.2892780304 18.8625278473 12.9254369736 6.42683792114 2.32992053032 2.31425666809 5.92096757889 11.7772550583 17.1508541107 20.2139148712 20.2115077972 17.1393680573 11.7624883652 5.90697669983 2.31376314163 2.29009580612 5.05150413513 9.73122692108 14.0600452423 16.4257698059 16.4239273071 14.0510759354 9.71929931641 5.0405421257 2.28979110718 2.2648062706 3.86248016357 6.77925395966 9.47212219238 10.9404907227 10.9395608902 9.4664478302 6.77194309235 3.85585045815 2.26469707489 
2.26485061646 3.86580085754 6.78793096542 9.48672485352 10.9581184387 10.9569597244 9.48104953766 6.78040313721 3.85909461975 2.26474142075 2.29016780853 5.05410432816 9.73755455017 14.0694046021 16.437625885 16.435749054 14.060300827 9.7255563736 5.0430932045 2.28986048698 2.31430697441 5.92273521423 11.7812566757 17.1568965912 20.2216892242 20.2192306519 17.145368576 11.7664480209 5.90872526169 2.31381344795 2.33057236671 6.44362163544 12.9440631866 18.878742218 22.2961463928 22.2934036255 18.8659477234 12.9277467728 6.4278793335 2.32995581627 2.33945703506 6.70551013947 13.5170717239 19.7147655487 23.2874660492 23.2846050262 19.7013874054 13.5000391006 6.68893146515 2.338773489 2.33945012093 6.70530939102 13.5166368484 19.7141284943 23.2867088318 23.2838497162 19.700756073 13.4996070862 6.68873119354 2.33876657486 2.33053731918 6.44258975983 12.9417819977 18.875371933 22.2921199799 22.2893753052 18.8625965118 12.9254808426 6.4268579483 2.32992100716 2.31425738335 5.92098331451 11.7772874832 17.1509017944 20.2139720917 20.211561203 17.1394195557 11.7625236511 5.90699052811 2.31376361847 2.29009580612 5.05151367188 9.73125076294 14.0600776672 16.4258079529 16.4239673615 14.0511102676 9.71932411194 5.04055118561 2.28979063034 2.2648062706 3.86248493195 6.77926921844 9.47214508057 10.9405145645 10.9395875931 9.46647167206 6.7719578743 3.85585594177 2.26469731331 
2.26485109329 3.86580824852 6.78795146942 9.48675251007 10.95814991 10.9569921494 9.48107814789 6.78042316437 3.85910177231 2.264742136 2.29016828537 5.0541176796 9.73758506775 14.0694446564 16.4376716614 16.435792923 14.0603408813 9.7255859375 5.0431060791 2.2898607254 2.31430745125 5.92275285721 11.7812948227 17.1569480896 20.2217521667 20.219291687 17.1454200745 11.7664861679 5.90874242783 2.31381416321 2.33057308197 6.44364356995 12.9441080093 18.8788108826 22.2962379456 22.2934913635 18.8660182953 12.9277944565 6.42790079117 2.32995629311 2.3394575119 6.705534935 13.517127037 19.7148571014 23.2875804901 23.2847213745 19.7014789581 13.5000934601 6.68895673752 2.33877444267 2.33945059776 6.70533370972 13.5166902542 19.7142181396 23.2868270874 23.2839698792 19.7008399963 13.4996614456 6.68875598907 2.33876729012 2.33053779602 6.44261169434 12.941824913 18.8754405975 22.2922096252 22.2894630432 18.8626689911 12.9255285263 6.42687988281 2.32992148399 2.31425738335 5.92099952698 11.7773246765 17.1509571075 20.2140331268 20.2116241455 17.1394710541 11.7625579834 5.90700817108 2.31376385689 2.29009604454 5.05152654648 9.73127841949 14.0601158142 16.4258518219 16.4240112305 14.051153183 9.71935367584 5.04056406021 2.2897913456 2.2648062706 3.86249279976 6.77928972244 9.47217464447 10.9405498505 10.9396209717 9.46650123596 6.77197694778 3.85586333275 2.26469731331 
