13.9518680573 21.7807445526 29.4601631165 37.3340873718 45.6994781494 54.3220748901 62.6861076355 70.5590820312 78.238571167 86.0678787231 13.9200496674 21.5888404846 28.847661972 36.5721549988 45.3757400513 54.6474342346 63.4482803345 71.1706771851 78.4294662476 86.0995864868 13.9061164856 21.4568252563 28.5203018188 36.1560745239 45.1793060303 54.8448562622 63.8644065857 71.4976272583 78.5609283447 86.1134719849 13.8970403671 21.3973960876 28.3714561462 35.9727363586 45.0974731445 54.92710495 64.0478286743 71.6462478638 78.6201782227 86.1224899292 13.8911399841 21.3755073547 28.3037910461 35.8907775879 45.0614967346 54.9632568359 64.1298141479 71.7138214111 78.6419372559 86.1283493042 13.8911418915 21.3755149841 28.3038425446 35.8908500671 45.0615196228 54.9632492065 64.1297531128 71.7137832642 78.6419372559 86.1283493042 13.8970565796 21.3974723816 28.3717041016 35.9731330872 45.0976409912 54.9269676208 64.047454834 71.6460418701 78.6201095581 86.122467041 13.9061326981 21.4570159912 28.5207519531 36.1566619873 45.1799507141 54.8442764282 63.8638839722 71.4972229004 78.5607681274 86.1134490967 13.9200954437 21.5892295837 28.8488197327 36.5734405518 45.3762969971 54.6469154358 63.4471321106 71.1695480347 78.4290847778 86.0995330811 13.9519968033 21.781375885 29.4620227814 37.3366928101 45.7009353638 54.3207550049 62.6834907532 70.5571365356 78.2379302979 86.0677490234 
13.9422254562 21.7471237183 29.3929405212 37.2486953735 45.6548652649 54.3669052124 62.7714920044 70.6262283325 78.2721252441 86.077507019 13.9067029953 21.5407524109 28.7231330872 36.3775444031 45.2871551514 54.7364578247 63.6429290771 71.2949447632 78.477432251 86.1128997803 13.8871631622 21.3939914703 28.3294963837 35.9270629883 45.0767250061 54.9479637146 64.09349823 71.6881484985 78.6235122681 86.1323394775 13.8702554703 21.3206634521 28.1582431793 35.7512359619 45.000087738 55.0249786377 64.2694091797 71.8592681885 78.6965484619 86.1491775513 13.8586874008 21.2902393341 28.0903511047 35.6781387329 44.9686508179 55.0565719604 64.3425521851 71.9271087646 78.72681427 86.160697937 13.8586921692 21.2902526855 28.0903949738 35.6781959534 44.9686813354 55.0565567017 64.3425064087 71.9270782471 78.7268066406 86.1606826782 13.8702926636 21.3207759857 28.158493042 35.7515792847 45.0002288818 55.0248565674 64.2690963745 71.859046936 78.6964416504 86.1491470337 13.8872070312 21.3942642212 28.3301563263 35.9276733398 45.0773391724 54.9474143982 64.0929718018 71.6875457764 78.6232681274 86.1323013306 13.9067697525 21.5412597656 28.7246723175 36.3790283203 45.2879180908 54.7357063293 63.6416168213 71.2933883667 78.4769210815 86.1128158569 13.9423685074 21.7478160858 29.3949794769 37.2517433167 45.6564178467 54.3654937744 62.7683906555 70.6240692139 78.2714080811 86.0773391724 
13.9384737015 21.7328853607 29.3622817993 37.2112426758 45.6379470825 54.3839035034 62.8089599609 70.6568527222 78.2863388062 86.081237793 13.901766777 21.5205516815 28.6616249084 36.2742042542 45.227973938 54.7959365845 63.7461967468 71.3563232422 78.4975662231 86.1177978516 13.8809938431 21.3650913239 28.2407932281 35.7511901855 44.9833374023 55.0417976379 64.2692489624 71.7766342163 78.652305603 86.1384963989 13.8630161285 21.2814483643 28.0338764191 35.5366744995 44.8963928223 55.1291923523 64.4839630127 71.9833297729 78.7356109619 86.1563873291 13.8507051468 21.2419147491 27.9330158234 35.4486808777 44.8620147705 55.1637382507 64.5720291138 72.0841217041 78.7749557495 86.1686477661 13.8507118225 21.2419319153 27.93309021 35.4487266541 44.8620376587 55.1637001038 64.5719909668 72.0840530396 78.7749404907 86.1686401367 13.8630580902 21.281583786 28.0342235565 35.5370368958 44.8965187073 55.1290512085 64.4836120605 71.9830169678 78.7354812622 86.1563491821 13.8810501099 21.3654346466 28.2415542603 35.7519378662 44.9839859009 55.0411682129 64.2685699463 71.7758865356 78.6519699097 86.1384429932 13.9018497467 21.5211524963 28.6634254456 36.2758636475 45.2288665771 54.7949714661 63.7446250916 71.3543777466 78.4969100952 86.1177062988 13.9386262894 21.7336044312 29.3642978668 37.2140693665 45.6396217346 54.3822898865 62.806350708 70.6547622681 78.2855758667 86.0810699463 
13.9372463226 21.7284660339 29.3528461456 37.1996765137 45.633102417 54.3887863159 62.8205490112 70.6662826538 78.2907562256 86.0824661255 13.9001178741 21.5141620636 28.6414966583 36.2421875 45.2093505859 54.8146591187 63.7782020569 71.3764038086 78.5039367676 86.1194458008 13.8788785934 21.3551902771 28.2082672119 35.6845436096 44.9338188171 55.0915679932 64.3358078003 71.8090820312 78.6621856689 86.1405944824 13.8605899811 21.268081665 27.9884986877 35.4306373596 44.8303985596 55.1955108643 64.5898208618 72.0285873413 78.7489318848 86.1588058472 13.8480434418 21.2261104584 27.8793544769 35.3227615356 44.7897911072 55.2363243103 64.6978225708 72.1376113892 78.7906951904 86.1713027954 13.8480491638 21.2261314392 27.8794288635 35.322807312 44.7898292542 55.2362747192 64.6977615356 72.137588501 78.7906799316 86.171295166 13.8606338501 21.2682266235 27.9888648987 35.4310760498 44.8305511475 55.1953468323 64.5894012451 72.0282516479 78.7487945557 86.1587677002 13.8789319992 21.3555431366 28.2090740204 35.68542099 44.9345932007 55.0908164978 64.3349838257 71.808303833 78.661819458 86.1405487061 13.9002017975 21.514787674 28.6433582306 36.2438964844 45.2103042603 54.8136329651 63.7765884399 71.3743972778 78.5032653809 86.119354248 13.9374027252 21.7292003632 29.3548908234 37.2025337219 45.6347694397 54.3871650696 62.8178863525 70.6641616821 78.2899703979 86.0822906494 
13.9369888306 21.7275657654 29.3509349823 37.1973953247 45.6322937012 54.3895874023 62.8228225708 70.6681747437 78.2916488647 86.0827255249 13.8997650146 21.5128612518 28.6373252869 36.2357826233 45.2062797546 54.8177452087 63.7846069336 71.3805618286 78.5052337646 86.1198120117 13.8784122467 21.3530368805 28.2011737823 35.6713600159 44.9224739075 55.1029701233 64.3489608765 71.8161468506 78.6643295288 86.1410598755 13.8600540161 21.2650718689 27.9780540466 35.4049491882 44.8077507019 55.2182769775 64.6154632568 72.0390090942 78.7519226074 86.1593475342 13.8474760056 21.2225971222 27.8668766022 35.2869911194 44.7619895935 55.2642631531 64.733505249 72.1500701904 78.7941970825 86.171875 13.8474826813 21.222618103 27.8669548035 35.2870483398 44.7620391846 55.2642021179 64.7334442139 72.1500015259 78.7941894531 86.1718521118 13.8600988388 21.2652187347 27.9784259796 35.4054222107 44.8079223633 55.2180938721 64.6150054932 72.0386581421 78.7517852783 86.1593017578 13.8784685135 21.3533935547 28.2019824982 35.6722755432 44.9233398438 55.1021156311 64.3481292725 71.8153686523 78.6639633179 86.1409912109 13.8998508453 21.5134887695 28.63920784 36.2375106812 45.2072486877 54.8166923523 63.7829742432 71.3785476685 78.5045547485 86.1197128296 13.9371461868 21.7282981873 29.3529872894 37.2002639771 45.6339607239 54.3879852295 62.8201599121 70.6660690308 78.2908706665 86.0825653076 
13.9369621277 21.7274799347 29.3507614136 37.1971969604 45.6322250366 54.3896598816 62.8230247498 70.6683578491 78.2917327881 86.0827407837 13.899731636 21.5127410889 28.6369457245 36.2352256775 45.2060241699 54.8180046082 63.7851638794 71.3809509277 78.5053634644 86.1198425293 13.8783655167 21.3528270721 28.2005062103 35.6702308655 44.9216041565 55.1038589478 64.3500976562 71.8168258667 78.6645431519 86.1411056519 13.859998703 21.2647571564 27.9769802094 35.4025154114 44.8050880432 55.2209472656 64.6178970337 72.0400848389 78.7522354126 86.1594085693 13.8474159241 21.2222080231 27.8655223846 35.2831573486 44.7575721741 55.2686958313 64.7373199463 72.1514129639 78.794593811 86.1719207764 13.8474225998 21.2222270966 27.8655967712 35.2832069397 44.7576255798 55.2686424255 64.7372741699 72.1513442993 78.7945709229 86.1719207764 13.8600406647 21.2649040222 27.9773578644 35.4029998779 44.8052749634 55.2207565308 64.6174240112 72.0397415161 78.7520980835 86.1593551636 13.8784236908 21.353187561 28.2013187408 35.6711463928 44.9224967957 55.1029586792 64.3492431641 71.8160247803 78.6641769409 86.1410598755 13.8998155594 21.5133705139 28.6388282776 36.2369613647 45.206993103 54.8169517517 63.7835197449 71.3789138794 78.5046691895 86.1197433472 13.9371185303 21.7282142639 29.3528175354 37.2000617981 45.6338920593 54.3880500793 62.8203582764 70.6662368774 78.2909545898 86.082572937 
13.9369621277 21.72747612 29.3507518768 37.1971855164 45.6322250366 54.3896713257 62.8230285645 70.6683578491 78.2917404175 86.0827407837 13.8997306824 21.5127353668 28.6369247437 36.2351989746 45.2060165405 54.8180084229 63.7851905823 71.3809661865 78.5053634644 86.1198425293 13.8783664703 21.3528137207 28.200460434 35.6701812744 44.9215774536 55.1038703918 64.3501434326 71.8168487549 78.6645507812 86.1411209106 13.8599967957 21.2647361755 27.9769268036 35.4024124146 44.8049850464 55.2210540771 64.6179962158 72.0401306152 78.7522506714 86.1594009399 13.8474140167 21.2221832275 27.8654518127 35.2830047607 44.7573394775 55.2689285278 64.7374801636 72.1514892578 78.794593811 86.1719284058 13.8474197388 21.222202301 27.8655261993 35.2830581665 44.7573928833 55.2688674927 64.7374191284 72.1514205933 78.7946014404 86.1719207764 13.8600416183 21.2648830414 27.9773006439 35.4029006958 44.8051643372 55.2208595276 64.6175231934 72.0397796631 78.7521133423 86.1593551636 13.8784227371 21.3531742096 28.2012844086 35.6710968018 44.9224624634 55.1029891968 64.3492889404 71.8160629272 78.6641769409 86.1410598755 13.8998165131 21.5133647919 28.6388072968 36.2369384766 45.2069816589 54.8169670105 63.7835617065 71.3789367676 78.5046691895 86.1197433472 13.9371194839 21.7282085419 29.3528079987 37.2000541687 45.6338844299 54.3880500793 62.8203620911 70.6662521362 78.2909622192 86.082572937 
