2.2654209137 3.90716028214 6.86559867859 9.60114192963 11.1167736053 11.1155815125 9.59530925751 6.85801029205 3.90032148361 2.26530599594 2.29137229919 5.10750675201 9.85684967041 14.2624788284 16.6919555664 16.6900367737 14.2531528473 9.84469223022 5.0963177681 2.29105377197 2.31514620781 5.98348760605 11.9098701477 17.3621845245 20.4803657532 20.4779148102 17.350402832 11.8949098587 5.96926593781 2.31464409828 2.33154129982 6.49993228912 13.0585699081 19.0463409424 22.4678115845 22.4651203156 19.0334148407 13.0421266556 6.48400640488 2.33091473579 2.34028458595 6.75618553162 13.617225647 19.8432655334 23.3923454285 23.3895702362 19.8298606873 13.6000928879 6.73945045471 2.33959174156 2.34027791023 6.75598716736 13.6167974472 19.8426551819 23.3916454315 23.388874054 19.8292579651 13.5996694565 6.7392539978 2.33958530426 2.33150696754 6.49890899658 13.0563154221 19.0430583954 22.4639854431 22.4612998962 19.0301609039 13.0398931503 6.48299694061 2.33088064194 2.31509494781 5.98171901703 11.9058961868 17.3562049866 20.4725894928 20.4702072144 17.3444881439 11.8909950256 5.96752166748 2.31459307671 2.29130101204 5.10487604141 9.85041809082 14.2529640198 16.6799373627 16.6780662537 14.2438030243 9.83835124969 5.09374666214 2.29098534584 2.26537275314 3.90376329422 6.85677909851 9.58619499207 11.0984506607 11.0975313187 9.58037948608 6.84944248199 3.89701461792 2.26525807381 
2.26542425156 3.86176228523 6.77001190186 9.48287200928 10.9920129776 10.990819931 9.47707366943 6.76251459122 3.8550786972 2.26531195641 2.29087281227 5.05457353592 9.75503540039 14.1472883224 16.5820064545 16.5800762177 14.1379566193 9.74295520782 5.0435423851 2.29056119919 2.31440091133 5.9338145256 11.8173599243 17.2656230927 20.4283714294 20.4258403778 17.253786087 11.8024721146 5.9197268486 2.31390762329 2.33091688156 6.45761680603 12.9820985794 18.9956874847 22.5187606812 22.5159397125 18.9825534821 12.9657039642 6.44180440903 2.33029794693 2.33983778954 6.72000026703 13.5542240143 19.8311710358 23.5090847015 23.5061511993 19.8174514771 13.537112236 6.7033572197 2.33915162086 2.33983111382 6.7197971344 13.5537900925 19.8305358887 23.5083332062 23.5054016113 19.81681633 13.5366821289 6.70315647125 2.33914494514 2.33088207245 6.4565782547 12.9798107147 18.9922981262 22.5147094727 22.5118904114 18.9791908264 12.963435173 6.44077920914 2.33026361465 2.31435036659 5.9320306778 11.8133640289 17.2595596313 20.4204082489 20.4179420471 17.2477855682 11.798535347 5.91796970367 2.31385731697 2.29080295563 5.05194950104 9.74858951569 14.137752533 16.5698394775 16.5679607391 14.1285953522 9.73661327362 5.04098272324 2.2904946804 2.26537752151 3.85843658447 6.76132488251 9.46794509888 10.9737625122 10.9728422165 9.46215724945 6.75410938263 3.85185360909 2.26526546478 
2.26542377472 3.86011624336 6.76653909683 9.47855377197 10.9874076843 10.9862127304 9.47275924683 6.75904369354 3.85343742371 2.26531171799 2.2908539772 5.05264043808 9.75129699707 14.1429748535 16.5777168274 16.5757827759 14.1336421967 9.73922157288 5.04161453247 2.29054284096 2.31437373161 5.93201065063 11.8139944077 17.2618961334 20.4252605438 20.4227237701 17.2500553131 11.7991075516 5.917927742 2.31388115883 2.33089447021 6.45614671707 12.9794530869 18.9936485291 22.5202655792 22.5174369812 18.9805107117 12.9630594254 6.44033765793 2.330275774 2.33982515335 6.71882152557 13.5522680283 19.8312339783 23.5156421661 23.5126991272 19.8174991608 13.5351552963 6.70218324661 2.33913898468 2.33981847763 6.71861791611 13.5518302917 19.8305931091 23.5148868561 23.5119400024 19.8168678284 13.5347223282 6.70198059082 2.33913207054 2.33085942268 6.45510673523 12.9771604538 18.9902534485 22.5161952972 22.5133743286 18.977142334 12.9607896805 6.43931102753 2.33024120331 2.31432318687 5.93022537231 11.8099918365 17.2558288574 20.4172859192 20.4148216248 17.2440547943 11.7951688766 5.9161696434 2.31383013725 2.29078435898 5.05001735687 9.74485206604 14.1334381104 16.5655441284 16.5636634827 14.1242837906 9.73287963867 5.03905630112 2.29047608376 2.2653772831 3.85679340363 6.75785589218 9.4636297226 10.9691572189 10.9682416916 9.45784187317 6.75064754486 3.8502163887 2.26526498795 
2.26542448997 3.85999107361 6.76628017426 9.47823524475 10.9870700836 10.9858760834 9.47244167328 6.75878477097 3.85331296921 2.26531219482 2.29085278511 5.05249738693 9.75102519989 14.1426649094 16.577413559 16.5754814148 14.1333351135 9.73895072937 5.04147195816 2.29054164886 2.31437206268 5.9318819046 11.8137617111 17.2616443634 20.4250583649 20.4225177765 17.2498073578 11.7988729477 5.91779947281 2.31387925148 2.33089351654 6.45605373383 12.9792947769 18.9935588837 22.5204544067 22.5176277161 18.9804210663 12.9629001617 6.44024372101 2.33027458191 2.33982515335 6.71875858307 13.5521764755 19.8313598633 23.5164051056 23.513458252 19.8176250458 13.5350627899 6.70211791992 2.33913874626 2.33981823921 6.71855449677 13.551738739 19.8307189941 23.5156497955 23.5127029419 19.8169898987 13.5346336365 6.70191717148 2.33913207054 2.33085823059 6.45501327515 12.9769992828 18.9901638031 22.5163860321 22.5135631561 18.9770526886 12.9606304169 6.43921804428 2.33024024963 2.31432151794 5.93009757996 11.8097600937 17.2555770874 20.4170818329 20.4146137238 17.2438011169 11.7949371338 5.91604185104 2.31382870674 2.29078292847 5.04987335205 9.74457931519 14.1331300735 16.56524086 16.5633602142 14.1239748001 9.73260688782 5.03891324997 2.29047465324 2.26537775993 3.85666823387 6.75759744644 9.46331214905 10.9688224792 10.9679050446 9.45752334595 6.75038766861 3.85009121895 2.26526522636 
2.26542401314 3.85998129845 6.76626300812 9.47821998596 10.9870557785 10.9858617783 9.47242450714 6.75876760483 3.85330319405 2.26531243324 2.29085278511 5.0524892807 9.75101566315 14.1426591873 16.577413559 16.5754776001 14.1333293915 9.73893928528 5.04146385193 2.29054141045 2.3143723011 5.93187952042 11.8137617111 17.2616577148 20.4250831604 20.4225444794 17.2498207092 11.7988767624 5.91779899597 2.31387925148 2.3308942318 6.45606040955 12.9793119431 18.9936084747 22.5205574036 22.5177268982 18.98046875 12.9629182816 6.44024991989 2.33027553558 2.33982563019 6.71877098083 13.5522089005 19.8314552307 23.5166130066 23.5136680603 19.8177204132 13.5350971222 6.70213127136 2.3391392231 2.33981895447 6.71856784821 13.5517749786 19.8308162689 23.5158576965 23.5129127502 19.8170852661 13.5346679688 6.70192956924 2.33913254738 2.33085870743 6.45501995087 12.9770202637 18.9902114868 22.5164852142 22.5136623383 18.9771022797 12.9606494904 6.43922376633 2.33024048805 2.31432151794 5.93009519577 11.809762001 17.2555904388 20.4171066284 20.414642334 17.243812561 11.7949380875 5.91604042053 2.31382894516 2.29078292847 5.04986476898 9.74457073212 14.1331243515 16.5652370453 16.5633602142 14.1239671707 9.73259735107 5.03890609741 2.29047441483 2.26537775993 3.85665845871 6.75757980347 9.46329498291 10.9688062668 10.9678907394 9.45750808716 6.75037050247 3.85008192062 2.26526474953 
2.26542401314 3.85998678207 6.76627826691 9.47824478149 10.9870824814 10.9858894348 9.47244930267 6.75878381729 3.85330939293 2.26531243324 2.29085302353 5.05249977112 9.75104141235 14.1426963806 16.5774536133 16.5755214691 14.1333646774 9.73896503448 5.04147529602 2.29054164886 2.31437253952 5.93189620972 11.8137979507 17.2617073059 20.4251403809 20.4226016998 17.2498703003 11.7989110947 5.91781425476 2.3138794899 2.33089447021 6.45607995987 12.9793577194 18.9936790466 22.5206489563 22.517824173 18.9805393219 12.9629650116 6.44027090073 2.33027553558 2.33982610703 6.71879529953 13.5522632599 19.8315429688 23.5167446136 23.5138015747 19.8178119659 13.535150528 6.70215511322 2.33914017677 2.33981966972 6.71859169006 13.5518283844 19.8309020996 23.5159931183 23.51304245 19.8171749115 13.5347232819 6.70195388794 2.33913350105 2.33085894585 6.45504045486 12.9770669937 18.9902839661 22.5165805817 22.5137577057 18.9771728516 12.960694313 6.43924427032 2.33024096489 2.31432199478 5.9301109314 11.8097963333 17.2556419373 20.4171638489 20.4146976471 17.2438640594 11.7949724197 5.91605567932 2.313829422 2.29078316689 5.04987621307 9.74459552765 14.1331596375 16.5652809143 16.5634002686 14.1240062714 9.73262214661 5.03891658783 2.29047465324 2.26537775993 3.85666465759 6.75759744644 9.46332073212 10.9688358307 10.967918396 9.45753479004 6.7503862381 3.85008716583 2.26526522636 
2.26542425156 3.85999488831 6.76630020142 9.47827720642 10.987121582 10.9859275818 9.47248268127 6.75880479813 3.85331821442 2.26531195641 2.29085302353 5.05251455307 9.75107192993 14.142739296 16.5775032043 16.5755691528 14.1334066391 9.73899650574 5.0414891243 2.29054188728 2.31437277794 5.93191432953 11.8138370514 17.2617664337 20.4252052307 20.422668457 17.2499275208 11.7989530563 5.91783332825 2.31387996674 2.33089518547 6.45610332489 12.9794073105 18.9937515259 22.520740509 22.5179138184 18.9806137085 12.963013649 6.44029378891 2.33027648926 2.33982753754 6.7188205719 13.552318573 19.8316364288 23.5168628693 23.5139198303 19.8178958893 13.5352048874 6.70218229294 2.33914113045 2.33982038498 6.71861743927 13.5518827438 19.8309936523 23.5161056519 23.5131607056 19.8172645569 13.5347757339 6.70197868347 2.33913397789 2.3308596611 6.45506334305 12.9771156311 18.990354538 22.5166740417 22.5138473511 18.9772453308 12.9607429504 6.43926715851 2.33024144173 2.3143222332 5.93013048172 11.809838295 17.2556991577 20.4172267914 20.4147624969 17.2439193726 11.7950143814 5.91607427597 2.31382966042 2.2907834053 5.04989051819 9.7446269989 14.1332044601 16.5653266907 16.5634479523 14.1240491867 9.73265457153 5.03893089294 2.29047513008 2.26537775993 3.85667300224 6.75761842728 9.46335315704 10.9688739777 10.9679555893 9.45756530762 6.75040864944 3.85009598732 2.26526522636 
