13.9395914078 21.7367076874 29.3731822968 37.2055702209 45.6323242188 54.3895606995 62.8145904541 70.6459350586 78.2825546265 86.0801315308 13.9029436111 21.5296173096 28.6632328033 36.2136650085 45.1914405823 54.832649231 63.806602478 71.3546142578 78.4885177612 86.1166381836 13.8824481964 21.3729839325 28.2310523987 35.6506080627 44.9055709839 55.1199645996 64.3695526123 71.7862167358 78.6444168091 86.137046814 13.8635463715 21.2857456207 28.0159454346 35.3935699463 44.797996521 55.2280693054 64.6266784668 72.0010910034 78.7312927246 86.1558609009 13.8502750397 21.2441272736 27.9090023041 35.284866333 44.7562980652 55.2699661255 64.7354660034 72.1079177856 78.7727050781 86.1690826416 13.8502807617 21.2441444397 27.909072876 35.28490448 44.7563514709 55.2699127197 64.7354354858 72.1078414917 78.7726974487 86.1690673828 13.8635931015 21.2858905792 28.0163002014 35.3940200806 44.7981529236 55.227897644 64.6262512207 72.0007553101 78.7311553955 86.1558151245 13.8825063705 21.3733539581 28.2318553925 35.6514587402 44.9064331055 55.119102478 64.3687744141 71.7854614258 78.6440200806 86.1369934082 13.9030342102 21.5302658081 28.6652584076 36.2154998779 45.1924858093 54.83152771 63.8049049377 71.3524093628 78.4878158569 86.1165466309 13.9397506714 21.7374629974 29.3752365112 37.2082977295 45.6340522766 54.3878211975 62.8120269775 70.6438293457 78.2817459106 86.0799636841 
13.9393844604 21.7359619141 29.3715705872 37.2036933899 45.6316452026 54.390247345 62.8164710999 70.6475296021 78.2832946777 86.0803451538 13.9026670456 21.5285186768 28.6598052979 36.2087669373 45.189201355 54.8348999023 63.8115119934 71.3580093384 78.489616394 86.1169052124 13.882101059 21.3712882996 28.2256202698 35.641166687 44.8975944519 55.1279640198 64.3789901733 71.7916412354 78.6460952759 86.1373977661 13.8631591797 21.2835178375 28.0082931519 35.3759689331 44.7821769714 55.2439689636 64.6442565918 72.0087051392 78.733505249 86.15625 13.8498802185 21.2416400909 27.9002094269 35.2605705261 44.7363586426 55.2900009155 64.7597198486 72.1166992188 78.7751846313 86.1694641113 13.8498859406 21.2416591644 27.9002876282 35.2606201172 44.7364234924 55.2899398804 64.7596664429 72.1166152954 78.775177002 86.1694641113 13.8632068634 21.2836666107 28.0086536407 35.3764572144 44.7823600769 55.2437744141 64.6437759399 72.0083847046 78.7333679199 86.156211853 13.8821592331 21.371673584 28.2264385223 35.6420440674 44.898563385 55.1270179749 64.3781890869 71.7908706665 78.6457061768 86.1373443604 13.9027614594 21.5291862488 28.6618766785 36.210647583 45.1902732849 54.8337516785 63.8097610474 71.3557891846 78.4888916016 86.1168060303 13.9395465851 21.7367248535 29.3736419678 37.2063484192 45.6333580017 54.3885192871 62.8139915466 70.6454162598 78.2824783325 86.0801620483 
13.9393844604 21.7359580994 29.3715686798 37.2036819458 45.6316375732 54.3902511597 62.8164749146 70.6475524902 78.2832946777 86.0803451538 13.9026660919 21.5285148621 28.6597976685 36.2087554932 45.1891937256 54.8349075317 63.8115310669 71.358039856 78.489616394 86.1169052124 13.8820972443 21.3712806702 28.2256011963 35.6411399841 44.8975791931 55.1279792786 64.3790206909 71.7916564941 78.6461029053 86.1374053955 13.8631591797 21.2835121155 28.0082683563 35.3759346008 44.7821655273 55.2439804077 64.6442871094 72.0087432861 78.7335128784 86.15625 13.8498773575 21.2416286469 27.9001865387 35.2605323792 44.7363395691 55.290019989 64.7597579956 72.1167221069 78.7751998901 86.1694641113 13.8498859406 21.2416477203 27.9002609253 35.2605819702 44.7364006042 55.2899665833 64.7597045898 72.1166381836 78.7751922607 86.1694641113 13.8632068634 21.2836589813 28.0086364746 35.3764266968 44.7823410034 55.2437934875 64.6438064575 72.0084075928 78.7333755493 86.156211853 13.8821601868 21.3716697693 28.2264175415 35.6420288086 44.8985519409 55.1270179749 64.3782043457 71.7909011841 78.6457138062 86.1373443604 13.9027605057 21.5291824341 28.6618728638 36.2106285095 45.1902656555 54.8337593079 63.8097724915 71.3558044434 78.4888916016 86.1168060303 13.9395465851 21.7367248535 29.3736381531 37.2063369751 45.6333580017 54.3885192871 62.8139953613 70.6454162598 78.2824783325 86.0801620483 
13.9393844604 21.7359580994 29.3715667725 37.2036819458 45.6316375732 54.3902511597 62.8164901733 70.6475448608 78.2832946777 86.0803451538 13.9026660919 21.5285129547 28.6597862244 36.2087402344 45.1891899109 54.8349075317 63.8115348816 71.3580474854 78.4896087646 86.1169052124 13.8820972443 21.3712730408 28.2255821228 35.6411247253 44.897567749 55.1280059814 64.3790359497 71.7916870117 78.6461181641 86.1374053955 13.8631591797 21.2835025787 28.0082454681 35.3759117126 44.7821426392 55.2439994812 64.644317627 72.0087509155 78.7335205078 86.15625 13.8498764038 21.2416210175 27.9001617432 35.2604904175 44.7363204956 55.2900352478 64.7597961426 72.1167602539 78.7752075195 86.1694793701 13.8498849869 21.2416343689 27.9002380371 35.2605400085 44.7363853455 55.289981842 64.7597427368 72.1166610718 78.7751998901 86.1694641113 13.8632049561 21.2836513519 28.0086154938 35.3763961792 44.7823257446 55.2438087463 64.6438446045 72.0084381104 78.7333831787 86.156211853 13.8821592331 21.3716602325 28.2264041901 35.6420059204 44.8985519409 55.1270332336 64.3782272339 71.7909088135 78.6457138062 86.1373443604 13.9027585983 21.529176712 28.6618614197 36.2106246948 45.1902580261 54.8337669373 63.8097839355 71.3558044434 78.4888916016 86.1168060303 13.9395465851 21.7367267609 29.3736343384 37.2063331604 45.633354187 54.3885269165 62.8140029907 70.6454162598 78.2824859619 86.0801620483 
13.9393844604 21.7359542847 29.3715553284 37.2036743164 45.6316375732 54.3902511597 62.8164901733 70.6475448608 78.2832946777 86.0803451538 13.9026660919 21.5285072327 28.6597728729 36.2087249756 45.1891860962 54.8349189758 63.8115386963 71.3580551147 78.4896240234 86.1169052124 13.8820953369 21.3712654114 28.2255706787 35.6411018372 44.8975486755 55.1280097961 64.3790664673 71.7917098999 78.6461105347 86.1374053955 13.8631572723 21.283493042 28.0082244873 35.3758773804 44.7821273804 55.2440185547 64.6443481445 72.0087738037 78.7335281372 86.1562576294 13.8498783112 21.2416114807 27.9001350403 35.2604560852 44.7363052368 55.2900505066 64.7598266602 72.1167678833 78.7752075195 86.1694793701 13.8498840332 21.2416267395 27.9002113342 35.2604980469 44.736366272 55.2900009155 64.7597808838 72.11668396 78.7752075195 86.1694641113 13.8632040024 21.2836418152 28.0085887909 35.3763656616 44.7823066711 55.2438354492 64.6438827515 72.0084533691 78.7333984375 86.156211853 13.8821573257 21.3716545105 28.2263832092 35.6419830322 44.8985290527 55.1270484924 64.3782424927 71.7909393311 78.6457138062 86.1373291016 13.902759552 21.529176712 28.6618499756 36.2106056213 45.1902580261 54.8337783813 63.8097953796 71.3558273315 78.4888916016 86.1168136597 13.9395465851 21.7367229462 29.373626709 37.2063331604 45.6333465576 54.3885307312 62.8140029907 70.6454162598 78.2824859619 86.0801620483 
13.9393835068 21.7359542847 29.3715515137 37.2036705017 45.6316337585 54.3902549744 62.8165016174 70.6475601196 78.2832946777 86.0803451538 13.9026660919 21.5285053253 28.6597652435 36.2087135315 45.1891784668 54.8349189758 63.8115615845 71.3580627441 78.4896240234 86.1169052124 13.8820953369 21.371263504 28.2255477905 35.641078949 44.8975334167 55.1280326843 64.3790664673 71.7917175293 78.6461257935 86.1374053955 13.863155365 21.2834854126 28.0081977844 35.3758468628 44.7821083069 55.2440376282 64.6443786621 72.0087966919 78.7335357666 86.1562576294 13.8498735428 21.2415962219 27.9001026154 35.2604103088 44.736289978 55.2900772095 64.7598648071 72.1167984009 78.7752304077 86.1694793701 13.8498821259 21.2416172028 27.9001846313 35.2604598999 44.7363510132 55.2900085449 64.7598266602 72.1167297363 78.7752075195 86.1694641113 13.8632049561 21.2836341858 28.0085659027 35.3763389587 44.7822799683 55.2438545227 64.6439056396 72.0084762573 78.7333984375 86.1562194824 13.8821563721 21.3716468811 28.2263679504 35.641960144 44.8985061646 55.1270675659 64.3782653809 71.7909469604 78.6457214355 86.1373291016 13.9027585983 21.5291690826 28.6618347168 36.2105941772 45.1902503967 54.8337783813 63.8097991943 71.3558425903 78.4889068604 86.1168136597 13.9395465851 21.7367210388 29.3736228943 37.206325531 45.6333427429 54.3885345459 62.8140029907 70.6454391479 78.2824859619 86.0801620483 
13.9393835068 21.73595047 29.371553421 37.203666687 45.6316261292 54.3902626038 62.8165054321 70.6475601196 78.2833023071 86.0803451538 13.9026641846 21.5285015106 28.6597557068 36.2087020874 45.1891746521 54.8349304199 63.8115730286 71.3580703735 78.4896316528 86.1169052124 13.8820953369 21.3712596893 28.2255344391 35.6410560608 44.897518158 55.128036499 64.3790969849 71.7917327881 78.6461334229 86.1373977661 13.863155365 21.2834758759 28.0081787109 35.3758125305 44.7820854187 55.2440567017 64.6444091797 72.0088195801 78.7335510254 86.15625 13.8498744965 21.2415904999 27.9000816345 35.2603683472 44.7362670898 55.2901000977 64.7599182129 72.1168212891 78.7752380371 86.1694793701 13.8498821259 21.2416038513 27.9001560211 35.2604179382 44.7363243103 55.2900352478 64.7598724365 72.1167526245 78.7752380371 86.1694641113 13.8632030487 21.283624649 28.0085391998 35.3763046265 44.7822647095 55.2438735962 64.6439361572 72.0085067749 78.7334213257 86.1562194824 13.8821554184 21.3716392517 28.2263507843 35.6419334412 44.8984947205 55.1270866394 64.378288269 71.7909545898 78.6457443237 86.1373291016 13.9027576447 21.5291671753 28.6618232727 36.2105827332 45.190246582 54.8337860107 63.8098220825 71.3558349609 78.4889068604 86.1168136597 13.9395456314 21.7367210388 29.3736248016 37.2063179016 45.6333427429 54.3885345459 62.8140144348 70.6454391479 78.2824859619 86.0801620483 
