13.9378547668 21.722322464 29.3402881622 37.1865463257 45.63621521 54.3856582642 62.8337097168 70.6788024902 78.2968826294 86.0818634033 13.8998174667 21.4960231781 28.5779457092 36.2805175781 45.2475090027 54.7763061523 63.7402305603 71.439994812 78.521987915 86.1197433472 13.8781375885 21.3238010406 28.1089401245 35.7360458374 45.0024185181 55.0226287842 64.2848510742 71.9084472656 78.6933670044 86.1413497925 13.860581398 21.2219600677 27.8739833832 35.4998092651 44.9061279297 55.1194038391 64.5212936401 72.1432037354 78.7948455811 86.1588134766 13.8483428955 21.1733837128 27.7633552551 35.400642395 44.8676109314 55.1581192017 64.620552063 72.2537612915 78.8432159424 86.1709976196 13.8483524323 21.1734161377 27.7634334564 35.4007034302 44.8676528931 55.1580657959 64.6205062866 72.253692627 78.8432006836 86.1709823608 13.8606185913 21.2221317291 27.8743953705 35.5002326965 44.9062957764 55.1192474365 64.5208892822 72.1427993774 78.7946777344 86.158782959 13.8781766891 21.3241100311 28.1096973419 35.73695755 45.0030288696 55.022064209 64.2839889526 71.9077682495 78.6930770874 86.1413040161 13.8998880386 21.4965419769 28.5795612335 36.2820739746 45.2483978271 54.7754058838 63.7388076782 71.4383621216 78.5214691162 86.1196746826 13.9380025864 21.7230587006 29.3424606323 37.1895675659 45.6375694275 54.3843994141 62.8306236267 70.6765518188 78.2961196899 86.0816955566 
13.9371681213 21.7205448151 29.3373661041 37.1828689575 45.6343002319 54.3875808716 62.8373947144 70.6817245483 78.2986679077 86.0825424194 13.8987970352 21.4938392639 28.5702133179 36.261505127 45.2346420288 54.7892417908 63.759223938 71.4476928711 78.5241699219 86.1207580566 13.8766269684 21.3183631897 28.0892429352 35.6857910156 44.9619216919 55.063331604 64.3350219727 71.9280853271 78.6987915039 86.1428451538 13.8585100174 21.2114219666 27.8370513916 35.4053344727 44.8415184021 55.1843490601 64.6156234741 72.1800231934 78.8053283691 86.1608734131 13.8458061218 21.1586360931 27.7124576569 35.2781181335 44.7912712097 55.2348251343 64.7429428101 72.3044967651 78.8579101562 86.173538208 13.8458166122 21.1586647034 27.7125530243 35.2781906128 44.7913284302 55.2347793579 64.7428741455 72.3044128418 78.8578720093 86.1735153198 13.8585472107 21.2116107941 27.8375034332 35.4058494568 44.8417205811 55.1841430664 64.6151275635 72.1795959473 78.8051605225 86.1608581543 13.8766679764 21.3186817169 28.0900306702 35.6868171692 44.9626312256 55.062664032 64.3340530396 71.9273757935 78.6984863281 86.142791748 13.8988704681 21.4943675995 28.5718669891 36.2631034851 45.235584259 54.7882957458 63.7577667236 71.4460372925 78.5236282349 86.1206893921 13.9373149872 21.7212791443 29.3395557404 37.1859283447 45.6356391907 54.3863449097 62.8342628479 70.6794433594 78.2978973389 86.0823745728 
13.9371471405 21.7204990387 29.337305069 37.182800293 45.6342697144 54.3876113892 62.8374557495 70.6817855835 78.2986984253 86.0825576782 13.898771286 21.4937915802 28.5700492859 36.2610855103 45.2343978882 54.789478302 63.75963974 71.4478683472 78.5242156982 86.1207809448 13.8765869141 21.3182239532 28.0887374878 35.6846923828 44.9609107971 55.0643577576 64.3361129761 71.928604126 78.698928833 86.1428756714 13.8584527969 21.2111244202 27.8359851837 35.4024810791 44.8390464783 55.1868209839 64.6184539795 72.181098938 78.8056335449 86.1609344482 13.8457374573 21.1582050323 27.7108974457 35.2734451294 44.7877922058 55.2383232117 64.7476043701 72.3060531616 78.8583374023 86.1735992432 13.8457450867 21.158241272 27.7109909058 35.2735214233 44.7878570557 55.2382736206 64.7475280762 72.3059768677 78.8582992554 86.1735916138 13.8584909439 21.211309433 27.8364372253 35.4030036926 44.8392562866 55.1866188049 64.6179733276 72.1806564331 78.8054580688 86.1608963013 13.8766279221 21.3185405731 28.0895271301 35.6857223511 44.9616317749 55.0636825562 64.335144043 71.9278869629 78.6986236572 86.1428527832 13.8988418579 21.4943237305 28.5717029572 36.2626876831 45.2353439331 54.7885360718 63.7581787109 71.4461975098 78.52368927 86.1207351685 13.9372968674 21.7212371826 29.3394889832 37.1858558655 45.6356124878 54.3863792419 62.8343429565 70.6795043945 78.2979354858 86.0824050903 
13.9371471405 21.7204971313 29.3373012543 37.1827850342 45.634262085 54.3876113892 62.8374710083 70.6818008423 78.2986984253 86.0825653076 13.898771286 21.4937896729 28.5700283051 36.2610549927 45.2343864441 54.7894935608 63.7596817017 71.447883606 78.5242080688 86.1207885742 13.876584053 21.3182086945 28.0886917114 35.6846199036 44.9608612061 55.0643959045 64.33618927 71.9286422729 78.6989593506 86.1428909302 13.8584499359 21.2110977173 27.8358955383 35.4022903442 44.838886261 55.1869812012 64.6186523438 72.1811752319 78.8056564331 86.160949707 13.8457345963 21.1581687927 27.7107772827 35.2730903625 44.7875442505 55.2385864258 64.7479476929 72.3061676025 78.8583679199 86.1736068726 13.845741272 21.1582050323 27.7108745575 35.2731704712 44.7875976562 55.2385292053 64.7478866577 72.306098938 78.8583374023 86.1735916138 13.8584861755 21.2112846375 27.8363494873 35.4028129578 44.8390960693 55.1867828369 64.6181640625 72.1807327271 78.8054885864 86.1609039307 13.8766241074 21.3185272217 28.0894870758 35.6856536865 44.9615821838 55.0637245178 64.3352127075 71.9279327393 78.6986465454 86.1428527832 13.8988409042 21.4943161011 28.5716838837 36.2626571655 45.2353286743 54.7885551453 63.7582130432 71.4462127686 78.5236816406 86.1207351685 13.9372940063 21.7212352753 29.3394851685 37.1858482361 45.6356086731 54.3863792419 62.8343505859 70.6795043945 78.2979431152 86.0824050903 
13.9371471405 21.720495224 29.3372936249 37.1827774048 45.634262085 54.3876113892 62.8374824524 70.6818008423 78.2987060547 86.0825653076 13.8987703323 21.4937820435 28.5700187683 36.2610435486 45.2343788147 54.7895011902 63.7596855164 71.4478912354 78.5242233276 86.1207885742 13.8765850067 21.3182010651 28.0886726379 35.6845932007 44.9608383179 55.0644111633 64.3362197876 71.9286727905 78.6989593506 86.1428909302 13.8584480286 21.2110843658 27.8358688354 35.4022407532 44.8388595581 55.1870193481 64.6187057495 72.1811981201 78.8056640625 86.160949707 13.8457317352 21.1581554413 27.7107334137 35.2730178833 44.7875061035 55.2386207581 64.7480316162 72.3062133789 78.8583908081 86.1736068726 13.845741272 21.1581916809 27.7108306885 35.2730979919 44.7875595093 55.2385749817 64.7479629517 72.3061294556 78.8583526611 86.1735992432 13.8584842682 21.2112731934 27.8363170624 35.4027671814 44.8390655518 55.1868133545 64.6181945801 72.1807785034 78.8054962158 86.1608963013 13.8766222 21.3185195923 28.0894680023 35.6856231689 44.9615783691 55.0637397766 64.3352432251 71.9279632568 78.6986465454 86.1428527832 13.8988409042 21.4943141937 28.5716762543 36.2626419067 45.2353248596 54.7885627747 63.7582206726 71.4462280273 78.5236968994 86.1207351685 13.9372940063 21.7212352753 29.3394775391 37.1858406067 45.6356086731 54.3863792419 62.8343467712 70.6795120239 78.297958374 86.0824050903 
13.9371471405 21.720495224 29.3372859955 37.1827735901 45.634262085 54.3876266479 62.8374900818 70.6818008423 78.2987060547 86.0825653076 13.8987703323 21.4937801361 28.5700054169 36.2610321045 45.2343711853 54.7895050049 63.7596969604 71.4479064941 78.524230957 86.1207809448 13.876581192 21.318195343 28.0886592865 35.6845741272 44.9608383179 55.0644187927 64.3362426758 71.9286880493 78.6989593506 86.1428909302 13.8584480286 21.2110767365 27.8358421326 35.4022102356 44.8388328552 55.1870346069 64.6187362671 72.1812210083 78.8056793213 86.1609420776 13.8457317352 21.1581459045 27.7107048035 35.2729759216 44.7874794006 55.2386398315 64.7480773926 72.3062438965 78.8583984375 86.1736068726 13.845741272 21.1581783295 27.7107982635 35.2730484009 44.7875404358 55.2385940552 64.748008728 72.3061676025 78.8583602905 86.1735992432 13.8584842682 21.2112636566 27.8362865448 35.4027328491 44.839050293 55.1868286133 64.6182403564 72.1807937622 78.8054962158 86.1609039307 13.8766202927 21.3185100555 28.0894412994 35.6856002808 44.961555481 55.0637435913 64.3352584839 71.9279708862 78.6986541748 86.1428527832 13.8988399506 21.494310379 28.5716609955 36.2626304626 45.2353210449 54.7885665894 63.7582397461 71.4462356567 78.52368927 86.1207351685 13.9372940063 21.7212352753 29.3394737244 37.1858329773 45.6356010437 54.3863868713 62.8343658447 70.6795120239 78.297958374 86.0824050903 
13.9371452332 21.720495224 29.3372859955 37.182762146 45.6342544556 54.3876190186 62.8374977112 70.6818008423 78.2987136841 86.0825653076 13.898768425 21.4937763214 28.5699958801 36.2610168457 45.2343673706 54.789516449 63.7597122192 71.4479141235 78.524230957 86.1207809448 13.876581192 21.3181915283 28.0886383057 35.6845550537 44.9608154297 55.0644340515 64.3362579346 71.9286956787 78.6989517212 86.1428909302 13.8584451675 21.2110691071 27.8358192444 35.4021759033 44.8388214111 55.1870498657 64.6187667847 72.1812591553 78.8056869507 86.1609420776 13.8457298279 21.1581325531 27.7106742859 35.2729301453 44.7874565125 55.2386627197 64.7481155396 72.3062591553 78.8584213257 86.1736068726 13.8457374573 21.1581687927 27.7107715607 35.2730064392 44.7875213623 55.238609314 64.7480392456 72.3062057495 78.8583831787 86.1735992432 13.8584842682 21.2112560272 27.8362674713 35.4026985168 44.8390350342 55.1868476868 64.618270874 72.1808166504 78.805519104 86.1609039307 13.8766222 21.3185062408 28.0894298553 35.6855812073 44.9615440369 55.0637550354 64.3352813721 71.927986145 78.6986618042 86.1428527832 13.8988389969 21.4943084717 28.5716571808 36.2626190186 45.2353134155 54.7885665894 63.7582473755 71.4462432861 78.5237045288 86.1207275391 13.9372959137 21.7212295532 29.3394737244 37.1858253479 45.635597229 54.386390686 62.8343658447 70.6795120239 78.297958374 86.0824050903 
