13.9364471436 21.7107791901 29.3093681335 37.1825408936 45.640712738 54.3811302185 62.837852478 70.7097091675 78.3083953857 86.0832519531 13.898516655 21.4794578552 28.538854599 36.3159217834 45.275188446 54.7484893799 63.7050476074 71.479133606 78.5385131836 86.1210403442 13.8761587143 21.3016929626 28.0274906158 35.7484436035 45.0242195129 55.0007133484 64.2727737427 71.9899291992 78.7153320312 86.1433105469 13.8581485748 21.1828556061 27.7602119446 35.4748306274 44.91223526 55.1132545471 64.5466079712 72.2569503784 78.8337478638 86.1612319946 13.8459682465 21.1228942871 27.6306419373 35.3539047241 44.8650741577 55.1606483459 64.667640686 72.386428833 78.8935012817 86.1733779907 13.8459806442 21.1229343414 27.630739212 35.3539848328 44.8651237488 55.1605911255 64.6675567627 72.3863296509 78.8934707642 86.1733551025 13.8581895828 21.1830806732 27.7607002258 35.4753341675 44.9124336243 55.1130485535 64.5460891724 72.2564620972 78.8335266113 86.1612014771 13.8762044907 21.3020553589 28.0283813477 35.7494697571 45.0247764587 55.0001525879 64.2717666626 71.9890518188 78.7149581909 86.1432647705 13.8985862732 21.4799480438 28.5405158997 36.3175697327 45.2760505676 54.7475891113 63.7034454346 71.4774475098 78.5380325317 86.1209640503 13.936583519 21.711435318 29.3112201691 37.1852493286 45.6418800354 54.380027771 62.8351478577 70.7079696655 78.3077697754 86.0831298828 
13.9363155365 21.7108535767 29.3104534149 37.1833076477 45.6407241821 54.3811225891 62.8370895386 70.7086181641 78.3083190918 86.0833816528 13.8982620239 21.4796886444 28.5390663147 36.3123703003 45.2721557617 54.7515335083 63.7085876465 71.4789199829 78.5382843018 86.1212997437 13.8756923676 21.3006210327 28.0232200623 35.7340888977 45.0117034912 55.0132865906 64.2870941162 71.9942092896 78.7163925171 86.1437683105 13.8573827744 21.1791553497 27.7470588684 35.4398651123 44.8879165649 55.1377029419 64.5815124512 72.270072937 78.8374404907 86.1620101929 13.8449268341 21.1168060303 27.6095581055 35.3036613464 44.8339805603 55.1919021606 64.7178421021 72.4074401855 78.8995666504 86.1744003296 13.8449363708 21.1168460846 27.6096553802 35.3037567139 44.8340377808 55.1918411255 64.7177429199 72.4073410034 78.899520874 86.1744003296 13.8574256897 21.1793861389 27.7475738525 35.4404258728 44.8881378174 55.1374740601 64.5809555054 72.2695541382 78.8372039795 86.1619720459 13.8757362366 21.3009910583 28.0241336823 35.7351608276 45.0123062134 55.0126914978 64.2860412598 71.9933013916 78.7160263062 86.1437225342 13.8983325958 21.4801769257 28.5407352448 36.3140411377 45.2730445862 54.7506065369 63.7069702148 71.4772338867 78.5378112793 86.1212234497 13.9364500046 21.7115039825 29.3122940063 37.1860198975 45.6418876648 54.3800239563 62.8343582153 70.7069091797 78.3077087402 86.0832519531 
13.9363088608 21.710855484 29.3105068207 37.1833457947 45.6407318115 54.3811149597 62.8370513916 70.7085723877 78.3083190918 86.083404541 13.8982496262 21.4797000885 28.5390796661 36.3122138977 45.2720413208 54.7516479492 63.7087440491 71.4788970947 78.5382766724 86.121307373 13.8756656647 21.3005542755 28.022977829 35.7334823608 45.0111694336 55.0138320923 64.2877044678 71.9944229126 78.7164611816 86.1437911987 13.8573379517 21.1789131165 27.7462329865 35.4378700256 44.8864364624 55.1391944885 64.5835037231 72.2708816528 78.8376693726 86.1620407104 13.8448638916 21.1164016724 27.6081562042 35.3002281189 44.8318138123 55.1940765381 64.7212600708 72.4088287354 78.8999710083 86.1744613647 13.844877243 21.1164455414 27.6082630157 35.3003196716 44.8318595886 55.1940231323 64.7211761475 72.4087295532 78.8999252319 86.1744537354 13.857380867 21.1791477203 27.7467498779 35.4384269714 44.8866577148 55.1389541626 64.5829467773 72.2703552246 78.8374404907 86.1620101929 13.8757095337 21.3009262085 28.0238952637 35.7345504761 45.0117759705 55.0132255554 64.2866592407 71.9935379028 78.7160949707 86.143737793 13.8983201981 21.4801883698 28.5407524109 36.3138847351 45.2729187012 54.7507171631 63.707118988 71.4772262573 78.5377960205 86.1212387085 13.9364414215 21.7115058899 29.3123435974 37.1860656738 45.6418914795 54.3800163269 62.8343276978 70.7068405151 78.3077011108 86.0832748413 
13.9363079071 21.7108535767 29.3105068207 37.1833457947 45.6407318115 54.3811187744 62.8370513916 70.7085571289 78.3083190918 86.0834121704 13.8982486725 21.4796981812 28.5390720367 36.3121948242 45.2720298767 54.7516708374 63.7087669373 71.4789047241 78.5382766724 86.121307373 13.8756608963 21.3005371094 28.0229377747 35.7333869934 45.0111122131 55.0138893127 64.2878036499 71.994468689 78.7164840698 86.1437988281 13.8573312759 21.1788730621 27.7460956573 35.4375762939 44.8862304688 55.1393928528 64.5838012695 72.2710266113 78.8377075195 86.1620559692 13.8448534012 21.1163311005 27.6079235077 35.2996864319 44.8314781189 55.1944122314 64.7218017578 72.4090652466 78.9000396729 86.1744766235 13.844865799 21.1163749695 27.6080303192 35.2997817993 44.8315353394 55.1943511963 64.7217178345 72.4089660645 78.8999938965 86.1744613647 13.8573741913 21.179101944 27.7466087341 35.4381370544 44.8864593506 55.1391525269 64.5832290649 72.2705001831 78.8374786377 86.1620254517 13.8757076263 21.3009090424 28.02384758 35.7344589233 45.01171875 55.0132827759 64.2867355347 71.9935836792 78.7161102295 86.1437683105 13.8983163834 21.4801883698 28.5407409668 36.3138580322 45.2729072571 54.7507400513 63.7071456909 71.4772262573 78.5377960205 86.1212463379 13.9364414215 21.7115039825 29.3123474121 37.1860618591 45.6418914795 54.3800201416 62.8343276978 70.7068405151 78.3077011108 86.0832672119 
13.9363069534 21.710849762 29.310503006 37.18334198 45.6407318115 54.381111145 62.8370513916 70.7085647583 78.3083190918 86.0834121704 13.8982467651 21.4796943665 28.5390644073 36.3121795654 45.2720108032 54.7516746521 63.7087783813 71.4789123535 78.5382843018 86.121307373 13.8756580353 21.3005313873 28.0229148865 35.7333564758 45.0110931396 55.0139007568 64.2878265381 71.9944839478 78.7164840698 86.1437835693 13.8573303223 21.178855896 27.7460460663 35.4374923706 44.8861732483 55.1394500732 64.5838851929 72.2710723877 78.8377304077 86.1620559692 13.8448524475 21.1163101196 27.6078472137 35.2995414734 44.8313980103 55.1944923401 64.7219543457 72.4091491699 78.900062561 86.1744766235 13.8448619843 21.116350174 27.6079540253 35.2996292114 44.831451416 55.1944389343 64.721862793 72.4090423584 78.9000167847 86.1744689941 13.8573713303 21.1790847778 27.7465591431 35.4380531311 44.8863983154 55.1392097473 64.5833358765 72.2705535889 78.8375091553 86.1620330811 13.875705719 21.3008995056 28.0238265991 35.7344284058 45.0117034912 55.0132865906 64.2867660522 71.993598938 78.7161178589 86.1437530518 13.8983163834 21.4801864624 28.5407295227 36.3138465881 45.2728996277 54.7507553101 63.707157135 71.4772338867 78.5378036499 86.1212463379 13.9364414215 21.7115001678 29.3123474121 37.1860618591 45.6418800354 54.3800239563 62.8343315125 70.7068405151 78.3077011108 86.0832672119 
13.9363059998 21.710849762 29.3104991913 37.1833343506 45.6407279968 54.3811187744 62.837059021 70.7085647583 78.3083190918 86.0834121704 13.8982467651 21.4796905518 28.5390491486 36.312171936 45.2720146179 54.7516784668 63.7087974548 71.4789199829 78.5382766724 86.121307373 13.8756599426 21.3005237579 28.0228919983 35.7333335876 45.011089325 55.0139160156 64.2878417969 71.9945068359 78.7164993286 86.1437988281 13.8573265076 21.1788425446 27.7460155487 35.4374465942 44.8861541748 55.1394729614 64.5839309692 72.2711105347 78.8377532959 86.1620559692 13.8448486328 21.1162910461 27.6078033447 35.2994689941 44.8313598633 55.1945266724 64.7220306396 72.4091796875 78.9000778198 86.1744842529 13.8448610306 21.1163368225 27.6079120636 35.2995605469 44.831413269 55.1944732666 64.7219390869 72.4090805054 78.9000244141 86.1744689941 13.8573694229 21.1790771484 27.7465324402 35.4380073547 44.8863792419 55.1392364502 64.5833740234 72.2705841064 78.8375244141 86.1620330811 13.8757038116 21.3008956909 28.0238075256 35.7344055176 45.0116958618 55.0133018494 64.2867889404 71.9936218262 78.7161178589 86.1437530518 13.8983154297 21.4801826477 28.540725708 36.3138313293 45.2728996277 54.7507476807 63.7071685791 71.4772567749 78.5378036499 86.1212463379 13.9364414215 21.7115001678 29.3123435974 37.186050415 45.6418762207 54.3800315857 62.8343276978 70.7068481445 78.3077011108 86.0832672119 
13.9363059998 21.710849762 29.3104953766 37.1833305359 45.6407241821 54.3811340332 62.837059021 70.7085876465 78.3083190918 86.0834121704 13.8982439041 21.4796867371 28.5390415192 36.3121566772 45.2720069885 54.7516784668 63.7088088989 71.4789352417 78.5382843018 86.121307373 13.8756580353 21.3005180359 28.0228748322 35.7333221436 45.0110778809 55.013923645 64.2878723145 71.9945144653 78.7164993286 86.1437988281 13.8573274612 21.1788330078 27.7459888458 35.4374084473 44.886138916 55.1394882202 64.5839691162 72.2711334229 78.8377609253 86.1620559692 13.8448467255 21.1162796021 27.6077671051 35.2994194031 44.8313369751 55.1945533752 64.7220687866 72.4092178345 78.9000930786 86.1744842529 13.8448591232 21.1163215637 27.6078777313 35.2995071411 44.8313941956 55.1944961548 64.7219924927 72.4091262817 78.9000549316 86.1744613647 13.8573684692 21.1790657043 27.7465019226 35.4379692078 44.8863639832 55.139251709 64.5833969116 72.2706069946 78.8375244141 86.1620254517 13.875705719 21.3008880615 28.0237960815 35.7343902588 45.011680603 55.0133094788 64.286819458 71.9936447144 78.7161331177 86.1437530518 13.8983154297 21.480178833 28.5407104492 36.3138237 45.2728919983 54.7507553101 63.7071800232 71.4772567749 78.5378189087 86.1212463379 13.9364414215 21.7115001678 29.312330246 37.186050415 45.6418800354 54.3800163269 62.8343353271 70.7068405151 78.3077011108 86.0832748413 
