2.26569843292 4.05453491211 7.13659906387 9.94129753113 11.5320339203 11.5307998657 9.93517398834 7.12885427475 4.04723358154 2.26557135582 2.29267406464 5.27416849136 10.1760406494 14.6682443619 17.1213970184 17.1195220947 14.6587123871 10.1636152267 5.26247644424 2.29233312607 2.31659126282 6.15309238434 12.2261009216 17.6966094971 20.7519950867 20.749666214 17.6849060059 12.2109384537 6.13836812973 2.31606411934 2.33109140396 6.65815830231 13.3367624283 19.2687797546 22.5949668884 22.5924377441 19.2560958862 13.3202581406 6.64176845551 2.33045053482 2.33809399605 6.90730237961 13.8605356216 20.0002498627 23.4458789825 23.4432830811 19.9871311188 13.8434391022 6.89013624191 2.33739566803 2.33808803558 6.90710639954 13.8601350784 19.999671936 23.4452400208 23.4426441193 19.9865550995 13.8430404663 6.88994407654 2.3373901844 2.33106374741 6.65715074539 13.334605217 19.2656745911 22.5913791656 22.5888519287 19.2530193329 13.3181314468 6.64077854156 2.3304233551 2.31654167175 6.15132141113 12.2221307755 17.6909484863 20.7442893982 20.7420425415 17.6793422699 12.2070446014 6.13662862778 2.31601476669 2.29260277748 5.27147245407 10.1694698334 14.6585941315 17.1098518372 17.1080131531 14.6492319107 10.1571540833 5.25984382629 2.29226469994 2.26564073563 4.05090856552 7.1273431778 9.92592144012 11.5123853683 11.5115032196 9.91985034943 7.11984920502 4.04369831085 2.26551365852 
2.26628684998 3.8951177597 6.82186794281 9.56705284119 11.1442317963 11.1429920197 9.56104755402 6.81436061859 3.88833618164 2.26616668701 2.29160404205 5.09687709808 9.85517501831 14.3480682373 16.8907413483 16.8887424469 14.3383464813 9.84294319153 5.08568668365 2.29128479958 2.31507921219 5.99051570892 11.9370470047 17.5047855377 20.7801876068 20.7776374817 17.4924659729 11.9219989777 5.97622156143 2.31457829475 2.3319504261 6.51351737976 13.0981235504 19.2152004242 22.7977027893 22.794916153 19.2016983032 13.0815668106 6.49751424789 2.33132100105 2.34090185165 6.77314472198 13.6630868912 20.0231552124 23.7332344055 23.7303657532 20.0091781616 13.6458244324 6.75633382797 2.34020328522 2.3408946991 6.77293920517 13.6626462936 20.0225219727 23.7325115204 23.7296447754 20.0085468292 13.6453857422 6.75613069534 2.34019684792 2.33191537857 6.51246881485 13.0958070755 19.211807251 22.7937278748 22.7909450531 19.1983280182 13.0792751312 6.4964838028 2.3312869072 2.31502699852 5.98866844177 11.9329500198 17.4985752106 20.7718772888 20.7694263458 17.4863014221 11.917963028 5.97439193726 2.31452679634 2.29153370857 5.0940246582 9.84823989868 14.3379945755 16.8779907227 16.8760299683 14.3284025192 9.83594512939 5.08280849457 2.29121565819 2.26623249054 3.8914604187 6.81219291687 9.55097961426 11.1246671677 11.1237430573 9.54459857941 6.80447340012 3.8846244812 2.26611065865 
2.26638507843 3.85053491592 6.73218870163 9.45846176147 11.0266551971 11.0254173279 9.4524974823 6.72475099564 3.8439013958 2.2662665844 2.29120397568 5.04563474655 9.76074504852 14.2439422607 16.7896614075 16.787651062 14.2342157364 9.74857521057 5.03459119797 2.29089140892 2.31441521645 5.94198942184 11.8494186401 17.4146728516 20.7414608002 20.7388134003 17.4023075104 11.8344297409 5.92782354355 2.31392216682 2.3313331604 6.47024869919 13.0205011368 19.1627311707 22.8560943604 22.8531703949 19.1490192413 13.003991127 6.45435905457 2.33071160316 2.34042263031 6.73413944244 13.5943632126 20.0010814667 23.8451442719 23.8421134949 19.9867801666 13.577129364 6.71742916107 2.33973145485 2.34041571617 6.73393154144 13.5939121246 20.0004329681 23.844379425 23.8413524628 19.9861316681 13.5766887665 6.71722507477 2.33972477913 2.33129811287 6.46918964386 13.0181617737 19.1592521667 22.8519439697 22.8490200043 19.1455669403 13.0016784668 6.45331859589 2.33067750931 2.31436395645 5.94012546539 11.8453063965 17.4083709717 20.7329425812 20.730386734 17.3960475922 11.8303756714 5.92597913742 2.31387138367 2.29113411903 5.04275512695 9.75373840332 14.2338218689 16.776720047 16.7747516632 14.2242240906 9.7414932251 5.03167963028 2.29082298279 2.26633214951 3.84689831734 6.72248983383 9.44228744507 11.0071201324 11.0061893463 9.43589782715 6.71481513977 3.84020185471 2.2662115097 
2.26639389992 3.84470915794 6.72036647797 9.44403839111 11.0108375549 11.0095996857 9.43807888031 6.71293878555 3.83809447289 2.26627540588 2.29114723206 5.03884601593 9.74807262421 14.2296009064 16.7750701904 16.773059845 14.219874382 9.735912323 5.02782201767 2.29083514214 2.31432342529 5.93553686142 11.8376579285 17.4016475677 20.7306461334 20.7279968262 17.3892803192 11.8226766586 5.92139005661 2.3138320446 2.33124470711 6.46456289291 13.0102300644 19.1534729004 22.8602600098 22.857301712 19.1397476196 12.9937295914 6.44868946075 2.33062410355 2.34034442902 6.72907829285 13.5853824615 19.9960517883 23.8636074066 23.86054039 19.9817218781 13.568157196 6.71238183975 2.33965420723 2.34033727646 6.72886991501 13.5849294662 19.9953956604 23.8628311157 23.8597660065 19.9810676575 13.5677108765 6.7121758461 2.33964776993 2.33120965958 6.46350097656 13.0078878403 19.149980545 22.8560619354 22.8531074524 19.1362838745 12.9914140701 6.44764518738 2.33059024811 2.31427168846 5.93367004395 11.8335390091 17.3953361511 20.7220993042 20.719537735 17.3830070496 11.8186178207 5.91954088211 2.31378054619 2.29107737541 5.03596258163 9.74105548859 14.2194728851 16.7621059418 16.760137558 14.2098760605 9.72881698608 5.02490758896 2.29076695442 2.26634120941 3.84107542038 6.71066474915 9.42785263062 10.9913101196 10.9903793335 9.42146015167 6.70299816132 3.83439731598 2.26622128487 
2.26639413834 3.84435176849 6.71964406967 9.4431552887 11.0098686218 11.0086307526 9.43719673157 6.7122168541 3.83773851395 2.26627635956 2.29114317894 5.03842782974 9.74729537964 14.2287130356 16.7741622925 16.772151947 14.2189884186 9.73513507843 5.02740573883 2.29083132744 2.31431770325 5.93514108658 11.836930275 17.4008274078 20.7299060822 20.7272548676 17.388458252 11.8219499588 5.92099428177 2.31382608414 2.33123970032 6.46422290802 13.0096225739 19.1529140472 22.8603286743 22.8573722839 19.1391887665 12.9931201935 6.4483499527 2.33061981201 2.3403403759 6.72878742218 13.5848770142 19.9957885742 23.8650798798 23.8620090485 19.9814567566 13.5676517487 6.71209144592 2.33965039253 2.34033322334 6.72857809067 13.5844230652 19.9951324463 23.8642978668 23.8612327576 19.9808006287 13.5672044754 6.71188640594 2.33964323997 2.33120441437 6.46316099167 13.0072803497 19.1494197845 22.8561286926 22.8531742096 19.135723114 12.9908027649 6.44730567932 2.33058524132 2.31426596642 5.93327331543 11.8328113556 17.3945140839 20.7213592529 20.7187976837 17.382183075 11.8178901672 5.91914510727 2.31377482414 2.29107379913 5.03554439545 9.74027729034 14.2185869217 16.7611980438 16.7592277527 14.2089891434 9.72804069519 5.02449035645 2.29076313972 2.26634168625 3.84071803093 6.70994138718 9.42696762085 10.9903402328 10.9894113541 9.42057704926 6.70227432251 3.83404159546 2.2662217617 
2.26639437675 3.84434962273 6.719643116 9.44316101074 11.0098791122 11.0086393356 9.43720245361 6.71221542358 3.83773636818 2.26627635956 2.29114365578 5.03843021393 9.74730396271 14.2287311554 16.7741794586 16.7721710205 14.2190065384 9.73514270782 5.02740764618 2.29083132744 2.31431770325 5.93514728546 11.8369483948 17.4008579254 20.7299461365 20.7272930145 17.3884887695 11.821969986 5.92099952698 2.31382632256 2.33124017715 6.46423530579 13.0096530914 19.1529636383 22.860408783 22.8574562073 19.1392402649 12.9931516647 6.44836187363 2.33061957359 2.34034085274 6.72880458832 13.5849142075 19.9958610535 23.8652362823 23.862165451 19.9815254211 13.5676860809 6.71210861206 2.33965086937 2.3403339386 6.72859573364 13.5844631195 19.9952011108 23.8644599915 23.8613853455 19.9808712006 13.567240715 6.71190214157 2.33964395523 2.3312048912 6.46317338943 13.0073108673 19.1494731903 22.8562088013 22.8532524109 19.1357727051 12.9908323288 6.44731903076 2.33058595657 2.314265728 5.93327999115 11.8328304291 17.3945446014 20.7213954926 20.718837738 17.3822154999 11.8179101944 5.91915225983 2.31377482414 2.29107379913 5.03554582596 9.74028491974 14.2186021805 16.7612190247 16.7592487335 14.2090053558 9.72804832458 5.02449178696 2.29076337814 2.26634168625 3.840716362 6.70994091034 9.4269733429 10.9903507233 10.9894199371 9.4205827713 6.70227384567 3.83403921127 2.26622223854 
2.26639437675 3.84436035156 6.71966791153 9.44319725037 11.0099239349 11.008685112 9.43724060059 6.71224069595 3.8377468586 2.26627635956 2.29114365578 5.03844690323 9.74734115601 14.2287797928 16.7742366791 16.772228241 14.2190561295 9.73517990112 5.02742385864 2.29083180428 2.31431818008 5.93516969681 11.8369960785 17.4009170532 20.730014801 20.7273654938 17.388551712 11.8220157623 5.921022892 2.31382703781 2.33124089241 6.46426105499 13.0097064972 19.1530399323 22.8605003357 22.8575458527 19.1393127441 12.9932050705 6.448387146 2.33062076569 2.34034132957 6.72883224487 13.5849695206 19.9959411621 23.8653430939 23.8622741699 19.9816074371 13.5677461624 6.71213531494 2.33965182304 2.34033465385 6.7286233902 13.58452034 19.9952850342 23.8645629883 23.8614940643 19.9809513092 13.5672988892 6.71192979813 2.33964467049 2.33120584488 6.46319818497 13.0073642731 19.1495475769 22.8562984467 22.8533420563 19.135848999 12.9908857346 6.44734430313 2.33058667183 2.31426644325 5.9333024025 11.8328771591 17.3946056366 20.7214660645 20.7189064026 17.3822784424 11.8179550171 5.91917419434 2.3137755394 2.29107403755 5.03556251526 9.74032211304 14.2186527252 16.7612743378 16.7593040466 14.2090578079 9.72808551788 5.02450847626 2.29076361656 2.26634192467 3.84072732925 6.70996761322 9.42701244354 10.9903945923 10.9894657135 9.42062091827 6.70229911804 3.83404970169 2.26622247696 
