2.26537704468 3.99027585983 7.01046323776 9.7867269516 11.3646707535 11.3634395599 9.78067302704 7.0028128624 3.98318266869 2.26525592804 2.29184651375 5.20554924011 10.0409326553 14.5295276642 17.0164909363 17.0145740509 14.5199213028 10.0286092758 5.19407081604 2.29151630402 2.31618118286 6.09032583237 12.1017789841 17.6147441864 20.7423725128 20.7399730682 17.6028232574 12.0866632462 6.0758023262 2.31566238403 2.33296918869 6.60288095474 13.2430372238 19.2433567047 22.650970459 22.6483535767 19.2304115295 13.2264947891 6.58668088913 2.3323225975 2.34122276306 6.85691070557 13.7892284393 20.00522995 23.5346813202 23.5319919586 19.9918403625 13.7720508575 6.83991003036 2.3405122757 2.34121656418 6.85671043396 13.788807869 20.0046348572 23.5340156555 23.5313243866 19.9912490845 13.7716398239 6.83971261978 2.34050559998 2.332934618 6.60185670853 13.2407875061 19.240146637 22.6472568512 22.6446437836 19.2272396088 13.22427845 6.58567428589 2.33228826523 2.31612730026 6.08853197098 12.0977630615 17.6089000702 20.7345046997 20.7321929932 17.597070694 12.0827245712 6.07404232025 2.31560921669 2.29177451134 5.20285415649 10.0343580246 14.5197706223 17.0045452118 17.0026817322 14.5103521347 10.0221509933 5.19144535065 2.29144740105 2.26532244682 3.98674297333 7.00138616562 9.77138137817 11.3453292847 11.3444499969 9.76536655426 6.9940290451 3.97975087166 2.26520180702 
2.26573348045 3.86210203171 6.75348043442 9.47956562042 11.0437393188 11.0425052643 9.47360038757 6.74603557587 3.8554315567 2.26561808586 2.29080915451 5.06074428558 9.77614974976 14.2516403198 16.7884082794 16.786403656 14.2419538498 9.7639913559 5.04967927933 2.29049682617 2.31456637383 5.95437574387 11.8598089218 17.418050766 20.7247638702 20.72215271 17.4057216644 11.844830513 5.94021368027 2.31407094002 2.33154630661 6.48066806793 13.0302639008 19.1607456207 22.8105373383 22.8076629639 19.1471214294 13.0137577057 6.46478509903 2.33092141151 2.34059667587 6.7435131073 13.6038951874 19.9924049377 23.7833919525 23.7804203033 19.9782371521 13.5866651535 6.72681188583 2.33990240097 2.34058976173 6.7433052063 13.6034488678 19.9917621613 23.7826404572 23.7796764374 19.977596283 13.5862264633 6.72660636902 2.33989524841 2.33151078224 6.47961330414 13.027929306 19.1572971344 22.8064632416 22.8035945892 19.1437110901 13.0114574432 6.4637503624 2.33088684082 2.31451416016 5.95252847672 11.8557167053 17.4117965698 20.7163581848 20.7138442993 17.399559021 11.8408250809 5.93840169907 2.31401848793 2.29073810577 5.05792188644 9.76926994324 14.2416133881 16.7755870819 16.7736625671 14.2321548462 9.75726413727 5.04694890976 2.29043006897 2.26568222046 3.85853862762 6.74404907227 9.46367549896 11.0244016647 11.023516655 9.45772457123 6.73699951172 3.8520052433 2.2655673027 
2.26576948166 3.84251403809 6.71375370026 9.43124008179 10.990978241 10.9897441864 9.42529392242 6.70634174347 3.83590912819 2.26565527916 2.29062223434 5.03805685043 9.73392391205 14.204501152 16.7414875031 16.7394790649 14.1948127747 9.72179794312 5.02705764771 2.29031276703 2.31426739693 5.9328494072 11.8207654953 17.3761959076 20.6980018616 20.6953487396 17.3638591766 11.805811882 5.91874456406 2.31377530098 2.33125376701 6.46161031723 12.9959917068 19.1344547272 22.8327732086 22.829832077 19.1207523346 12.9795084 6.4457783699 2.33063220978 2.34037971497 6.72647762299 13.5739154816 19.9814567566 23.8374958038 23.8344459534 19.9671516418 13.5567035675 6.70981931686 2.33968877792 2.34037280083 6.72626829147 13.5734682083 19.9808044434 23.836730957 23.8336791992 19.9665050507 13.5562639236 6.70961332321 2.3396821022 2.33121800423 6.4605512619 12.9936552048 19.1309719086 22.8286056519 22.8256702423 19.117313385 12.9772024155 6.4447388649 2.33059740067 2.31421494484 5.93100357056 11.8166761398 17.3699398041 20.689535141 20.6869907379 17.3576889038 11.8018121719 5.91693592072 2.31372261047 2.29055285454 5.03527975082 9.72711753845 14.1945075989 16.7286396027 16.7267150879 14.1850566864 9.71514606476 5.02437496185 2.29024767876 2.26571941376 3.83905005455 6.70459365845 9.41550827026 10.9717073441 10.970823288 9.40957260132 6.69759178162 3.83258748055 2.26560521126 
2.26577210426 3.84062123299 6.709897995 9.42652797699 10.9858045578 10.9845705032 9.42058467865 6.70249032974 3.83402299881 2.26565766335 2.29060292244 5.03584671021 9.72978019714 14.1997928619 16.7367019653 16.7346954346 14.1901044846 9.71765613556 5.02485466003 2.2902944088 2.31423664093 5.93074989319 11.8169298172 17.3719406128 20.6943531036 20.6917057037 17.3596019745 11.8019781113 5.91665124893 2.31374502182 2.33122515678 6.45977592468 12.9926919937 19.1315002441 22.8339557648 22.8310050964 19.1177959442 12.9762086868 6.44394874573 2.33060359955 2.34035515785 6.72486162186 13.5710697174 19.9800548553 23.8440990448 23.8410320282 19.9657402039 13.553858757 6.70820665359 2.33966445923 2.34034752846 6.72465324402 13.5706224442 19.9793987274 23.843328476 23.8402633667 19.9650859833 13.5534191132 6.70800065994 2.33965706825 2.33118963242 6.45871591568 12.990354538 19.1280193329 22.8297710419 22.8268299103 19.1143550873 12.9739027023 6.44290781021 2.33056902885 2.31418442726 5.92890501022 11.8128404617 17.3656806946 20.6858844757 20.6833362579 17.3534297943 11.7979812622 5.91484308243 2.31369256973 2.29053401947 5.03307390213 9.72297954559 14.1898021698 16.7238521576 16.7219276428 14.1803541183 9.71100997925 5.02217626572 2.29022932053 2.26572227478 3.83716726303 6.70076608658 9.41081523895 10.9665412903 10.9656581879 9.40488052368 6.69376802444 3.83071088791 2.2656083107 
2.26577234268 3.84048604965 6.70962619781 9.42619800568 10.9854450226 10.984210968 9.42025375366 6.70221662521 3.83388781548 2.26565814018 2.29060196877 5.03569030762 9.72949028015 14.1994695663 16.7363739014 16.7343654633 14.1897821426 9.71736812592 5.02469921112 2.29029297829 2.31423473358 5.93060588837 11.8166694641 17.3716506958 20.6941070557 20.6914558411 17.3593139648 11.8017196655 5.91650724411 2.31374311447 2.33122372627 6.4596581459 12.9924860001 19.1313323975 22.8340511322 22.8310985565 19.1176261902 12.9760026932 6.44383096695 2.33060264587 2.34035348892 6.72476530075 13.5709075928 19.9800186157 23.8447952271 23.8417301178 19.9657039642 13.5536937714 6.70811033249 2.33966255188 2.34034657478 6.72455644608 13.5704612732 19.9793624878 23.8440208435 23.8409614563 19.965051651 13.5532569885 6.70790576935 2.33965587616 2.33118796349 6.45859861374 12.9901456833 19.1278476715 22.829864502 22.8269195557 19.1141872406 12.9736967087 6.44279003143 2.33056735992 2.31418251991 5.92876052856 11.8125782013 17.3653907776 20.6856365204 20.6830883026 17.353143692 11.7977218628 5.91469907761 2.31369042397 2.29053258896 5.03291749954 9.7226934433 14.1894798279 16.7235279083 16.7215995789 14.1800298691 9.71072483063 5.02202129364 2.2902276516 2.2657225132 3.83703255653 6.70049715042 9.41048622131 10.9661836624 10.9652986526 9.40455245972 6.69349956512 3.8305773735 2.26560878754 
2.26577234268 3.84048700333 6.70963191986 9.42621421814 10.9854621887 10.9842300415 9.42026901245 6.7022228241 3.83388948441 2.26565814018 2.29060196877 5.03569746017 9.72950744629 14.1994943619 16.7364044189 16.7343978882 14.1898059845 9.7173833847 5.02470445633 2.29029297829 2.314234972 5.93061637878 11.816693306 17.3716964722 20.6941566467 20.6915054321 17.3593521118 11.8017463684 5.9165186882 2.31374311447 2.33122420311 6.45967388153 12.9925231934 19.1313915253 22.8341369629 22.8311843872 19.1176872253 12.9760389328 6.44384622574 2.33060288429 2.34035396576 6.72478437424 13.5709524155 19.9800987244 23.8449516296 23.8418807983 19.9657802582 13.5537405014 6.70813035965 2.33966302872 2.34034657478 6.7245759964 13.5705060959 19.9794425964 23.8441734314 23.8411083221 19.9651317596 13.5532999039 6.70792579651 2.339656353 2.33118844032 6.45861387253 12.9901828766 19.1279087067 22.8299541473 22.8270072937 19.1142463684 12.9737329483 6.4428062439 2.33056783676 2.31418251991 5.92877244949 11.8126068115 17.3654327393 20.6856861115 20.683134079 17.353181839 11.797750473 5.9147105217 2.31369042397 2.29053282738 5.03292417526 9.72271060944 14.1895065308 16.7235546112 16.7216320038 14.1800575256 9.71074104309 5.02202749252 2.29022789001 2.26572275162 3.8370347023 6.70050573349 9.41050338745 10.9662017822 10.9653186798 9.40456867218 6.69350767136 3.83057904243 2.26560878754 
2.26577234268 3.84049701691 6.70965528488 9.42624855042 10.9855041504 10.9842720032 9.4203042984 6.70224761963 3.83389902115 2.26565814018 2.2906024456 5.03571224213 9.72954368591 14.1995420456 16.7364597321 16.7344512939 14.1898546219 9.717420578 5.02472066879 2.29029345512 2.31423544884 5.93063783646 11.816740036 17.3717536926 20.6942272186 20.6915740967 17.3594150543 11.8017911911 5.91653966904 2.31374382973 2.33122467995 6.45969772339 12.9925756454 19.1314678192 22.8342266083 22.8312740326 19.1177597046 12.9760913849 6.44387102127 2.33060359955 2.34035468102 6.72481060028 13.5710105896 19.980178833 23.8450603485 23.8419876099 19.9658660889 13.5537967682 6.70815658569 2.33966374397 2.34034752846 6.72460174561 13.570561409 19.9795246124 23.8442840576 23.8412208557 19.9652137756 13.5533561707 6.70795154572 2.33965706825 2.33118891716 6.45863819122 12.990234375 19.1279811859 22.830039978 22.8270988464 19.1143188477 12.9737844467 6.44283151627 2.33056855202 2.31418299675 5.92879295349 11.8126506805 17.3654937744 20.685754776 20.6832046509 17.3532447815 11.7977924347 5.9147310257 2.31369113922 2.2905330658 5.03294086456 9.72274589539 14.1895561218 16.723608017 16.7216835022 14.180103302 9.71077823639 5.02204418182 2.29022836685 2.26572275162 3.8370449543 6.70053005219 9.41053962708 10.9662456512 10.9653606415 9.40460586548 6.69353294373 3.83058977127 2.26560902596 
