2.26376914978 3.9875702858 7.04950284958 9.80374240875 11.3181238174 11.3169336319 9.79794692993 7.04174470901 3.98044586182 2.26365923882 2.29082131386 5.21803092957 10.0366191864 14.4787864685 16.9003105164 16.8984184265 14.4694242477 10.0243453979 5.20656299591 2.29049897194 2.31898856163 6.09558296204 12.1118373871 17.6000270844 20.6518325806 20.6494560242 17.5883731842 12.0966453552 6.08117437363 2.3184492588 2.33523035049 6.61729335785 13.2901239395 19.2744026184 22.6052150726 22.6026268005 19.2617263794 13.2734699249 6.6010966301 2.33457016945 2.34427118301 6.87972593307 13.8589420319 20.0629005432 23.513917923 23.5112571716 20.0497875214 13.8416280746 6.86267232895 2.34354376793 2.34426426888 6.8795208931 13.85850811 20.0622997284 23.5132293701 23.5105724335 20.0491847992 13.8411970139 6.86246776581 2.34353685379 2.33519411087 6.61624526978 13.2878141403 19.2711391449 22.6014556885 22.5988731384 19.2584877014 13.2711753845 6.60006141663 2.3345348835 2.31893229485 6.09381055832 12.1077318192 17.5940685272 20.6441764832 20.6418609619 17.5824775696 12.0925922394 6.07942342758 2.31839346886 2.29073786736 5.21533966064 10.0302009583 14.4691524506 16.8884391785 16.8865890503 14.4599161148 10.0179948807 5.20391607285 2.2904176712 2.26372289658 3.98404312134 7.04041290283 9.78888320923 11.2999343872 11.2990055084 9.78309822083 7.03284215927 3.97698807716 2.26361346245 
2.26360440254 3.83343100548 6.71811246872 9.38807201385 10.8840484619 10.882853508 9.3823928833 6.71068572998 3.82683539391 2.26350402832 2.28885531425 5.03217172623 9.67170333862 14.0621681213 16.5170154572 16.5150527954 14.052772522 9.65973091125 5.0212635994 2.28855729103 2.31591701508 5.9102807045 11.7605638504 17.2426166534 20.4259586334 20.423412323 17.2306785583 11.7456483841 5.89638137817 2.31541132927 2.33192157745 6.44181346893 12.9683971405 19.0173740387 22.5463943481 22.5435714722 19.0041885376 12.9519176483 6.42608785629 2.33129644394 2.34108400345 6.71200704575 13.5652713776 19.8726291656 23.5509738922 23.5480422974 19.8588886261 13.5480575562 6.69539737701 2.34039115906 2.34107685089 6.71179628372 13.5648145676 19.8719787598 23.5502109528 23.5472812653 19.8582401276 13.5476074219 6.69519042969 2.34038424492 2.33188533783 6.44074726105 12.96600914 19.0139007568 22.5422801971 22.5394649506 19.000743866 12.9495544434 6.42503499985 2.33126115799 2.3158621788 5.90849304199 11.756436348 17.2363948822 20.4179039001 20.415430069 17.2245197296 11.7415838242 5.89461994171 2.31535673141 2.28877663612 5.0295214653 9.66526889801 14.0524787903 16.5045852661 16.5026874542 14.043258667 9.65340423584 5.01867961884 2.28848218918 2.26356387138 3.83015084267 6.70949649811 9.37333297729 10.8661594391 10.8652381897 9.36764144897 6.70235538483 3.82365870476 2.26346325874 
2.2635781765 3.8287768364 6.70716667175 9.37302017212 10.8672494888 10.8660564423 9.36734867096 6.69975423813 3.82219839096 2.2634780407 2.28875946999 5.02550268173 9.65744018555 14.0437612534 16.4973239899 16.4953651428 14.0343704224 9.64548492432 5.01461553574 2.28846263885 2.31575059891 5.90238761902 11.744263649 17.2211399078 20.4031734467 20.4006271362 17.2092094421 11.7293682098 5.88851213455 2.31524634361 2.33170628548 6.43310642242 12.9504814148 18.9935817719 22.521270752 22.5184459686 18.9804039001 12.9340238571 6.41740655899 2.33108353615 2.34084367752 6.70285224915 13.5465021133 19.8476104736 23.5244750977 23.5215435028 19.8338813782 13.5293092728 6.68627023697 2.34015274048 2.34083652496 6.7026424408 13.546049118 19.8469619751 23.5237197876 23.5207862854 19.8332309723 13.5288581848 6.68606233597 2.34014582634 2.33167028427 6.43204116821 12.9481010437 18.9901180267 22.5171642303 22.5143470764 18.9769630432 12.9316654205 6.41635560989 2.33104777336 2.31569600105 5.90060377121 11.7401437759 17.214925766 20.3951301575 20.3926563263 17.2030582428 11.725312233 5.88675498962 2.31519174576 2.28868150711 5.02285671234 9.65101051331 14.034081459 16.4848957062 16.4829998016 14.0248680115 9.6391620636 5.01203680038 2.28838777542 2.26353788376 3.82550621033 6.69856929779 9.3582906723 10.8493824005 10.8484630585 9.35260677338 6.69144392014 3.81903219223 2.26343798637 
2.26357793808 3.8287191391 6.70703125 9.37283420563 10.8670415878 10.8658504486 9.36716175079 6.69961833954 3.82214069366 2.2634780407 2.28875875473 5.0254201889 9.65726089478 14.0435333252 16.4970798492 16.4951190948 14.0341434479 9.64530849457 5.01453256607 2.28846168518 2.31574869156 5.90229082108 11.7440633774 17.2208709717 20.4028911591 20.4003486633 17.208940506 11.7291688919 5.88841485977 2.31524467468 2.33170390129 6.43299913406 12.9502620697 18.9932861328 22.5209579468 22.5181331635 18.9801063538 12.9338035583 6.41729831696 2.33108091354 2.3408408165 6.7027387619 13.5462703705 19.8473014832 23.524148941 23.5212173462 19.8335704803 13.5290775299 6.68615674973 2.34015011787 2.34083366394 6.70252895355 13.5458154678 19.8466529846 23.523393631 23.5204582214 19.8329238892 13.5286283493 6.68594932556 2.34014296532 2.33166766167 6.43193387985 12.9478778839 18.9898223877 22.5168476105 22.5140304565 18.9766693115 12.9314422607 6.4162478447 2.33104491234 2.31569433212 5.90050649643 11.7399425507 17.2146606445 20.3948497772 20.3923740387 17.2027873993 11.7251081467 5.88665628433 2.31518983841 2.28868031502 5.02277374268 9.65083312988 14.0338525772 16.4846515656 16.4827537537 14.0246391296 9.63898658752 5.01195478439 2.28838658333 2.26353764534 3.82544875145 6.69843435287 9.35810375214 10.8491744995 10.8482551575 9.35241985321 6.69130992889 3.81897473335 2.26343727112 
2.2635781765 3.828738451 6.70707702637 9.37289524078 10.8671121597 10.8659200668 9.36722373962 6.69966363907 3.82215976715 2.2634780407 2.28875899315 5.02544689178 9.65732097626 14.0436105728 16.4971637726 16.4952030182 14.0342206955 9.64536762238 5.01456069946 2.28846216202 2.31574940681 5.90232229233 11.7441310883 17.2209606171 20.4029827118 20.4004402161 17.2090301514 11.7292346954 5.88844776154 2.31524515152 2.33170485497 6.43303489685 12.9503383636 18.9933853149 22.521062851 22.518239975 18.9802074432 12.9338769913 6.41733551025 2.3310816288 2.34084200859 6.70277643204 13.5463457108 19.8474063873 23.5242576599 23.5213241577 19.8336734772 13.5291538239 6.68619537354 2.34015107155 2.34083485603 6.70256662369 13.5458927155 19.8467559814 23.5234966278 23.5205688477 19.8330287933 13.5287046432 6.68598747253 2.34014415741 2.33166861534 6.43196964264 12.9479532242 18.9899215698 22.5169563293 22.5141353607 18.9767665863 12.9315166473 6.41628360748 2.33104586601 2.31569504738 5.90053987503 11.7400074005 17.2147483826 20.3949432373 20.3924674988 17.2028808594 11.7251768112 5.8866891861 2.31519055367 2.28868055344 5.02280139923 9.65089416504 14.0339307785 16.4847354889 16.4828357697 14.0247163773 9.63904571533 5.01198196411 2.28838682175 2.26353788376 3.82546806335 6.6984796524 9.35816669464 10.8492460251 10.8483247757 9.35248374939 6.69135522842 3.81899404526 2.26343727112 
2.26357841492 3.82876014709 6.70712661743 9.37296581268 10.8671894073 10.8659973145 9.36729335785 6.69971418381 3.82218146324 2.2634780407 2.2887597084 5.02547836304 9.65738677979 14.0436954498 16.4972515106 16.4952907562 14.0343027115 9.6454334259 5.01459169388 2.28846240044 2.31574988365 5.90235900879 11.7442073822 17.2210597992 20.4030914307 20.4005470276 17.2091293335 11.729309082 5.88848400116 2.31524562836 2.33170557022 6.43307495117 12.9504175186 18.9934940338 22.5211811066 22.5183544159 18.9803180695 12.9339599609 6.41737508774 2.33108258247 2.34084272385 6.70281887054 13.5464344025 19.8475189209 23.5243797302 23.521446228 19.8337898254 13.5292415619 6.68623685837 2.34015202522 2.34083604813 6.70260953903 13.5459785461 19.8468704224 23.5236206055 23.520690918 19.8331432343 13.5287914276 6.68602895737 2.34014487267 2.3316693306 6.4320101738 12.9480361938 18.9900283813 22.5170707703 22.5142478943 18.9768791199 12.931599617 6.41632461548 2.33104705811 2.31569552422 5.90057563782 11.7400827408 17.2148475647 20.3950481415 20.3925743103 17.2029781342 11.7252521515 5.88672590256 2.31519126892 2.28868103027 5.02283287048 9.65095996857 14.0340137482 16.4848251343 16.482925415 14.0247993469 9.63911056519 5.01201248169 2.288387537 2.26353788376 3.82548975945 6.69853019714 9.35823631287 10.8493213654 10.848402977 9.35255241394 6.69140577316 3.81901526451 2.26343774796 
2.26357841492 3.8287820816 6.70717906952 9.37303733826 10.867269516 10.8660774231 9.36736679077 6.69976663589 3.82220339775 2.2634780407 2.2887597084 5.02551031113 9.65745639801 14.0437841415 16.4973487854 16.495388031 14.0343923569 9.64550113678 5.01462316513 2.28846287727 2.31575083733 5.90239715576 11.7442817688 17.2211608887 20.4032020569 20.4006595612 17.2092323303 11.7293891907 5.88852119446 2.31524705887 2.3317065239 6.43311691284 12.9505052567 18.9936084747 22.5213012695 22.5184745789 18.980430603 12.9340467453 6.41741657257 2.33108377457 2.34084415436 6.70286369324 13.5465288162 19.8476409912 23.5245094299 23.5215759277 19.8339080811 13.5293312073 6.68628072739 2.3401529789 2.34083724022 6.70265293121 13.5460710526 19.8469905853 23.5237503052 23.5208206177 19.8332633972 13.5288820267 6.68607330322 2.34014606476 2.33167028427 6.43205213547 12.9481210709 18.9901428223 22.5171947479 22.5143718719 18.9769916534 12.9316854477 6.41636610031 2.3310482502 2.31569623947 5.90061283112 11.7401628494 17.2149486542 20.395154953 20.3926830292 17.2030792236 11.7253284454 5.88676261902 2.31519198418 2.28868150711 5.02286481857 9.65102863312 14.0341014862 16.4849205017 16.4830207825 14.0248889923 9.63917922974 5.01204538345 2.28838777542 2.26353788376 3.82551193237 6.69858169556 9.35830688477 10.8494033813 10.8484830856 9.35262298584 6.69145727158 3.81903743744 2.26343798637 
