14.0008382797 13.7812042236 13.0323114395 11.8723526001 11.1427679062 11.1433830261 11.8751096725 13.0349197388 13.7824773788 14.0008611679 21.9891319275 21.6020374298 20.5320949554 19.0069694519 18.0335235596 18.0343284607 19.0105628967 20.5356235504 21.6039657593 21.9892349243 29.9807777405 29.5239009857 28.5610218048 27.2930107117 26.4494457245 26.4501476288 27.2960414886 28.5639896393 29.5258464813 29.9809246063 37.9832839966 37.6474609375 37.0168457031 36.2375831604 35.7242088318 35.7246246338 36.2394294739 37.0187187195 37.6487922668 37.9834213257 45.9989051819 45.8751831055 45.6566886902 45.3974647522 45.2287597656 45.2288856506 45.3980712891 45.6573143005 45.8756523132 45.9989585876 54.0211410522 54.1455192566 54.3651695251 54.6257324219 54.7955131531 54.7953681946 54.6251220703 54.3645362854 54.1450538635 54.0210800171 62.0367355347 62.3729972839 63.0046005249 63.7851409912 64.2994308472 64.2989959717 63.7832946777 63.0027389526 62.3716773987 62.0366020203 70.0392150879 70.4961853027 71.4596405029 72.7290115356 73.5726547241 73.5719985962 72.726020813 71.4566726685 70.4942626953 70.0390625 78.0308380127 78.4175415039 79.4874038696 81.0130386353 81.9864730835 81.9856567383 81.0095596313 79.4838943481 78.4156341553 78.03074646 86.0191497803 86.2383728027 86.9857559204 88.1422653198 88.8693695068 88.8691177368 88.139465332 86.9833221436 86.2371368408 86.0191268921 
14.0007801056 13.7809209824 13.0322332382 11.8725299835 11.1431188583 11.1437330246 11.8752861023 13.0348377228 13.7821960449 14.0008039474 21.9890708923 21.6016216278 20.5314350128 19.0055465698 18.0312690735 18.032075882 19.0091457367 20.5349655151 21.603553772 21.9891738892 29.9807186127 29.5233974457 28.5597553253 27.2899799347 26.444065094 26.4447727203 27.293012619 28.5627288818 29.5253429413 29.9808635712 37.9832458496 37.6470336914 37.0155677795 36.2335395813 35.7151565552 35.7155838013 36.2354011536 37.0174331665 37.6483612061 37.983379364 45.9988861084 45.8750076294 45.6561126709 45.3953933716 45.2244758606 45.2246055603 45.3959999084 45.65675354 45.8754806519 45.9989471436 54.021156311 54.1456947327 54.3657417297 54.6278305054 54.7998580933 54.7997016907 54.6271972656 54.3651008606 54.1452255249 54.0211029053 62.0367736816 62.37342453 63.0058784485 63.7891845703 64.3084487915 64.3080291748 63.7873191833 63.0040168762 62.3721084595 62.0366439819 70.039276123 70.4966812134 71.4608917236 72.7320556641 73.5780181885 73.5773468018 72.7290420532 71.4579391479 70.494758606 70.0391311646 78.0308990479 78.4179611206 79.4880447388 81.0144500732 81.9887313843 81.9878997803 81.0109481812 79.4845504761 78.416053772 78.0308074951 86.019203186 86.2386550903 86.9858322144 88.1420898438 88.8690032959 88.8687591553 88.139289856 86.9833908081 86.2374267578 86.0191879272 
14.0007801056 13.780921936 13.0322256088 11.8725128174 11.1430940628 11.1437091827 11.8752689362 13.0348320007 13.7821960449 14.0008039474 21.9890708923 21.6016178131 20.5314216614 19.0055294037 18.0312423706 18.0320529938 19.0091247559 20.534954071 21.6035499573 21.9891738892 29.9807186127 29.523393631 28.5597496033 27.2899532318 26.4440441132 26.4447517395 27.2929916382 28.5627212524 29.5253391266 29.9808635712 37.9832458496 37.6470336914 37.0155601501 36.2335166931 35.7151222229 35.7155532837 36.2353782654 37.0174217224 37.6483573914 37.983379364 45.9988861084 45.8750076294 45.6561164856 45.3953781128 45.2244606018 45.2245979309 45.3959960938 45.6567497253 45.8754806519 45.9989471436 54.021156311 54.1456947327 54.3657455444 54.6278381348 54.7998733521 54.7997207642 54.6272087097 54.3651123047 54.1452293396 54.0211029053 62.0367736816 62.3734321594 63.0058860779 63.7892074585 64.3084793091 64.308052063 63.7873458862 63.004032135 62.3721084595 62.0366439819 70.039276123 70.4966888428 71.4609069824 72.7320632935 73.5780487061 73.5773773193 72.7290725708 71.4579391479 70.494758606 70.0391311646 78.0308990479 78.4179611206 79.488067627 81.014465332 81.9887466431 81.9879150391 81.0109786987 79.4845657349 78.4160461426 78.0308074951 86.019203186 86.2386627197 86.9858398438 88.1421203613 88.8690414429 88.8687896729 88.1393051147 86.9833984375 86.2374191284 86.0191879272 
14.0007801056 13.780919075 13.0322179794 11.8724966049 11.1430711746 11.1436853409 11.87525177 13.0348234177 13.7821941376 14.0008039474 21.9890708923 21.6016178131 20.5314121246 19.0055103302 18.0312194824 18.0320262909 19.0091094971 20.534942627 21.6035499573 21.9891738892 29.9807186127 29.5233898163 28.5597362518 27.2899341583 26.4440135956 26.4447212219 27.29296875 28.5627059937 29.5253372192 29.9808635712 37.9832420349 37.6470298767 37.0155563354 36.2334976196 35.7150878906 35.7155189514 36.2353553772 37.0174179077 37.6483573914 37.983379364 45.9988861084 45.8750114441 45.6561088562 45.3953704834 45.2244491577 45.2245826721 45.395980835 45.6567497253 45.8754730225 45.9989471436 54.021156311 54.1456947327 54.3657493591 54.6278457642 54.7998809814 54.7997360229 54.6272201538 54.3651161194 54.1452293396 54.0211029053 62.0367736816 62.3734359741 63.0059089661 63.7892227173 64.3085174561 64.3080978394 63.7873573303 63.0040397644 62.3721084595 62.0366439819 70.039276123 70.4966888428 71.4609146118 72.7320861816 73.5780715942 73.5774002075 72.7290878296 71.4579696655 70.4947662354 70.0391311646 78.0308990479 78.4179611206 79.4880828857 81.0144958496 81.9887619019 81.987953186 81.0110168457 79.4845733643 78.416053772 78.0308074951 86.019203186 86.2386627197 86.9858551025 88.1421203613 88.8690567017 88.868812561 88.1393280029 86.9834060669 86.2374267578 86.0191879272 
14.0007801056 13.7809200287 13.0322065353 11.8724784851 11.1430473328 11.143661499 11.8752336502 13.0348157883 13.7821941376 14.0008039474 21.9890708923 21.6016159058 20.5314006805 19.005487442 18.0311908722 18.0320014954 19.0090827942 20.5349311829 21.6035461426 21.9891738892 29.9807186127 29.5233879089 28.5597248077 27.2899131775 26.443983078 26.4446926117 27.2929439545 28.5626983643 29.5253353119 29.9808635712 37.9832420349 37.6470298767 37.0155448914 36.2334747314 35.7150611877 35.7154884338 36.2353363037 37.017414093 37.6483573914 37.983379364 45.9988861084 45.8750114441 45.6561088562 45.395362854 45.2244338989 45.2245674133 45.3959732056 45.6567497253 45.8754806519 45.9989471436 54.021156311 54.1456985474 54.3657493591 54.6278533936 54.7999076843 54.7997512817 54.6272277832 54.3651161194 54.1452293396 54.0211029053 62.0367774963 62.3734397888 63.0059013367 63.7892417908 64.308555603 64.3081283569 63.7873764038 63.0040473938 62.3721199036 62.0366439819 70.039276123 70.4966964722 71.4609375 72.7321090698 73.5780944824 73.5774230957 72.7291107178 71.4579696655 70.4947738647 70.0391311646 78.0308990479 78.41796875 79.4880905151 81.0145111084 81.98878479 81.9879684448 81.0110244751 79.484588623 78.4160614014 78.0308074951 86.019203186 86.2386627197 86.9858551025 88.1421432495 88.8690948486 88.8688354492 88.1393356323 86.9834136963 86.2374343872 86.0191879272 
14.0007801056 13.7809171677 13.0322027206 11.8724603653 11.1430244446 11.1436376572 11.8752164841 13.0348091125 13.7821922302 14.0008039474 21.9890708923 21.6016139984 20.5313930511 19.0054702759 18.031167984 18.0319747925 19.0090637207 20.5349216461 21.6035442352 21.9891738892 29.9807186127 29.5233840942 28.559709549 27.289888382 26.4439601898 26.4446640015 27.2929210663 28.5626869202 29.5253295898 29.9808635712 37.9832420349 37.6470222473 37.0155334473 36.2334518433 35.7150154114 35.7154502869 36.2353172302 37.0173988342 37.6483573914 37.983379364 45.9988861084 45.8750038147 45.6561012268 45.3953475952 45.2244186401 45.2245521545 45.3959655762 45.6567420959 45.8754806519 45.9989471436 54.021156311 54.1456947327 54.3657531738 54.6278686523 54.7999229431 54.7997703552 54.6272392273 54.3651123047 54.1452293396 54.0211029053 62.0367774963 62.3734436035 63.0059242249 63.7892684937 64.30859375 64.3081588745 63.7873954773 63.0040550232 62.3721199036 62.0366439819 70.039276123 70.4967041016 71.4609527588 72.7321395874 73.5781402588 73.5774688721 72.729133606 71.4579925537 70.4947814941 70.0391311646 78.0308990479 78.4179763794 79.4880905151 81.014541626 81.9888153076 81.9880065918 81.0110473633 79.4845962524 78.4160690308 78.0308074951 86.019203186 86.2386627197 86.9858551025 88.1421508789 88.8691329956 88.8688583374 88.1393508911 86.9834213257 86.2374343872 86.0191879272 
14.0007801056 13.780916214 13.0321931839 11.8724431992 11.1429977417 11.1436128616 11.8751983643 13.0347986221 13.7821922302 14.0008029938 21.9890708923 21.6016082764 20.5313796997 19.005443573 18.0311393738 18.0319480896 19.0090427399 20.5349121094 21.6035404205 21.9891738892 29.9807186127 29.5233802795 28.5596961975 27.2898654938 26.4439315796 26.4446353912 27.2929019928 28.5626754761 29.5253314972 29.9808635712 37.9832420349 37.6470184326 37.0155220032 36.2334327698 35.7149810791 35.7154083252 36.235294342 37.0173950195 37.648349762 37.983379364 45.9988861084 45.875 45.6561050415 45.3953399658 45.2244033813 45.2245330811 45.3959503174 45.6567344666 45.8754692078 45.9989471436 54.021156311 54.1457023621 54.3657493591 54.6278762817 54.7999267578 54.7997817993 54.6272506714 54.3651237488 54.1452293396 54.0211029053 62.0367774963 62.3734397888 63.0059242249 63.7892875671 64.3086242676 64.3081970215 63.7874259949 63.004070282 62.3721199036 62.0366439819 70.039276123 70.4967041016 71.4609680176 72.7321472168 73.5781555176 73.5774841309 72.7291564941 71.4580001831 70.4947814941 70.0391311646 78.0308990479 78.41796875 79.4881057739 81.0145492554 81.9888458252 81.98802948 81.0110626221 79.4845962524 78.4160766602 78.0308074951 86.019203186 86.2386627197 86.9858551025 88.1421737671 88.8691482544 88.868888855 88.1393661499 86.9834442139 86.2374343872 86.0191879272 
