14.0150327682 13.8852024078 13.225728035 12.2063713074 11.5299720764 11.5305309296 12.2088375092 13.2280197144 13.8862905502 14.0149888992 22.0104923248 21.7697048187 20.9036331177 19.5730991364 18.6941070557 18.6947574615 19.5764331818 20.9065666199 21.7712345123 22.0104866028 30.0064945221 29.7514743805 29.0200233459 27.9323120117 27.1956977844 27.196269989 27.9350185394 29.0224399567 29.7528533936 30.0065174103 38.0042228699 37.8373222351 37.3698425293 36.7001228333 36.2485313416 36.2488822937 36.7017707825 37.3713531494 37.8382034302 38.0042572021 46.0075683594 45.9493637085 45.7897262573 45.5654716492 45.4151191711 45.4152336121 45.5660171509 45.7902412415 45.9496765137 46.0075798035 54.0124397278 54.0709838867 54.2315254211 54.4570465088 54.6083145142 54.6081924438 54.456489563 54.231010437 54.0706863403 54.0124320984 62.0157699585 62.1829566956 62.6512756348 63.3221817017 63.7746543884 63.7742996216 63.3205451965 62.6497688293 62.1820716858 62.0157318115 70.0134811401 70.2686691284 71.0006942749 72.0896224976 72.8265075684 72.8259887695 72.0869674683 70.998298645 70.2672805786 70.0134658813 78.0094833374 78.2500610352 79.1162567139 80.4472808838 81.3267822266 81.3261108398 80.4441070557 79.1133270264 78.2485198975 78.0094985962 86.0049743652 86.1344604492 86.7924880981 87.8089599609 88.482131958 88.4820632935 87.806350708 86.7900924683 86.1333770752 86.0050048828 
14.00481987 13.8124465942 13.0992212296 12.0036773682 11.2555036545 11.2561244965 12.0063505173 13.1016693115 13.8136577606 14.004825592 21.9963970184 21.653503418 20.669418335 19.1738986969 18.1986198425 18.199344635 19.1776237488 20.6727161407 21.6553001404 21.9964618683 29.9879016876 29.5992012024 28.720911026 27.5299015045 26.7280502319 26.7286643982 27.5328426361 28.7236442566 29.600944519 29.9880180359 37.9883804321 37.7030448914 37.1435050964 36.4269866943 35.9432678223 35.943649292 36.4287376404 37.1451759338 37.7042198181 37.988494873 46.0012245178 45.8965835571 45.7065391541 45.4694061279 45.3094711304 45.3096008301 45.4699897766 45.7070922852 45.8969917297 46.0012664795 54.0188179016 54.1240692139 54.3152351379 54.5537261963 54.714679718 54.7145500183 54.5531387329 54.3146743774 54.123664856 54.0187721252 62.0316314697 62.3173828125 62.8779602051 63.5958518982 64.0805511475 64.0801849365 63.5940971375 62.8762893677 62.3162155151 62.0315132141 70.032081604 70.4208831787 71.2998580933 72.4924621582 73.2945785522 73.2940139771 72.4895782471 71.29712677 70.4191360474 70.0319671631 78.0235748291 78.3661270142 79.3501205444 80.8464660645 81.8222351074 81.8214950562 80.8429412842 79.3468017578 78.3643112183 78.0235137939 86.0151672363 86.2070922852 86.9186325073 88.0107574463 88.7557601929 88.7557373047 88.0078582764 86.9160690308 86.2058639526 86.0151596069 
14.0007400513 13.784330368 13.0494604111 11.9165763855 11.1475982666 11.1482524872 11.9193353653 13.051990509 13.7855873108 14.0007648468 21.9917831421 21.6132698059 20.5757637024 18.984161377 17.9127807617 17.9135971069 18.9881649017 20.5792503357 21.6151695251 21.9918708801 29.9833087921 29.5544376373 28.6143436432 27.2997570038 26.4133987427 26.4140853882 27.303030014 28.6173095703 29.5563182831 29.9834499359 37.9850311279 37.6675834656 37.0523338318 36.2639007568 35.7340011597 35.7344169617 36.2658348083 37.0541763306 37.6688537598 37.9851608276 45.9998703003 45.8822860718 45.6696891785 45.4107704163 45.2369232178 45.2370567322 45.4113998413 45.6703033447 45.8827362061 45.9999198914 54.0201797485 54.1384010315 54.3521690369 54.6125183105 54.7874565125 54.7873077393 54.6118812561 54.3515586853 54.1379470825 54.0201301575 62.0349807739 62.3528594971 62.9691429138 63.7589874268 64.289932251 64.2895126343 63.7570571899 62.9673156738 62.3515853882 62.0348587036 70.0366897583 70.4656448364 71.4063568115 72.7226104736 73.609085083 73.6084442139 72.7194061279 71.403427124 70.463760376 70.0365524292 78.0281906128 78.4063110352 79.4436416626 81.0358734131 82.1075973511 82.1067504883 81.0320129395 79.4401473999 78.4044113159 78.0280914307 86.019241333 86.2351379395 86.9683380127 88.0983047485 88.8631057739 88.8630142212 88.0959243774 86.9657516479 86.23387146 86.019203186 
13.9991931915 13.7736701965 13.0309286118 11.8846387863 11.1105003357 11.1111621857 11.8874292374 13.0334882736 13.7749452591 13.9992265701 21.9899787903 21.5975646973 20.539478302 18.9112205505 17.8051376343 17.8060016632 18.9153194427 20.5430393219 21.5995044708 21.9900741577 29.9816112518 29.5368289948 28.569644928 27.2021789551 26.2456283569 26.2463684082 27.2056427002 28.5727043152 29.5387554169 29.9817562103 37.9837226868 37.6537666321 37.0172157288 36.1833267212 35.6145744324 35.615032196 36.1853866577 37.0191383362 37.6550827026 37.9838562012 45.9993782043 45.876953125 45.6557502747 45.3804130554 45.1949043274 45.1950492859 45.3810844421 45.6563949585 45.8774261475 45.9994354248 54.0206718445 54.1437644958 54.3661994934 54.6430168152 54.8297615051 54.8296012878 54.6423416138 54.3655433655 54.1432876587 54.0206184387 62.0362968445 62.36668396 63.0043029785 63.8396377563 64.4094848633 64.409034729 63.8375778198 63.0023803711 62.3653755188 62.0361557007 70.0383758545 70.483253479 71.4510574341 72.8202133179 73.7767486572 73.7760848999 72.8168334961 71.4480438232 70.4813232422 70.038230896 78.0299911499 78.4220199585 79.4798965454 81.1087493896 82.2150344849 82.2141342163 81.1047973633 79.4763031006 78.4200744629 78.0298919678 86.0207901001 86.2457962036 86.9867935181 88.1301269531 88.9000778198 88.8999710083 88.1277160645 86.9841918945 86.2444992065 86.0207443237 
13.9988365173 13.7711935043 13.0266485214 11.8775320053 11.1025619507 11.1032266617 11.8803291321 13.0292158127 13.7724704742 13.9988708496 21.9895553589 21.5938549042 20.5309429169 18.8945236206 17.7819461823 17.7828159332 18.8986473083 20.5345230103 21.5958061218 21.989654541 29.9811878204 29.532585144 28.5590763092 27.1793632507 26.2029571533 26.2037315369 27.1828613281 28.5621490479 29.5345287323 29.981338501 37.9834136963 37.650428772 37.0085296631 36.1616630554 35.5747642517 35.5752334595 36.1637687683 37.0104751587 37.6517677307 37.9835510254 45.9992599487 45.875667572 45.6524085999 45.371799469 45.1803779602 45.1805343628 45.3724784851 45.6530685425 45.8761482239 45.9993133545 54.0207862854 54.1450614929 54.369556427 54.6516952515 54.844455719 54.8442993164 54.6509971619 54.3689079285 54.1445808411 54.0207328796 62.0365982056 62.3700256348 63.013004303 63.8613243103 64.4493026733 64.4488296509 63.859210968 63.0110778809 62.3687057495 62.0364685059 70.0387954712 70.487487793 71.4616470337 72.8430557251 73.8193435669 73.8186340332 72.8396148682 71.4585876465 70.4855651855 70.0386505127 78.0304107666 78.4257202148 79.4883956909 81.1254425049 82.2381439209 82.2372741699 81.1214599609 79.4847946167 78.4237670898 78.0303192139 86.021156311 86.2482681274 86.9910736084 88.1372070312 88.9079818726 88.907875061 88.134803772 86.9884490967 86.2469711304 86.0211105347 
13.9988021851 13.7709388733 13.0262117386 11.87682724 11.1017904282 11.1024541855 11.8796234131 13.0287771225 13.7722177505 13.9988355637 21.9895095825 21.5934638977 20.5300655365 18.8928718567 17.7797241211 17.7805938721 18.8969974518 20.5336418152 21.5954151154 21.9896068573 29.9811439514 29.5321331024 28.5579338074 27.1770305634 26.1990146637 26.1997966766 27.1805324554 28.5610141754 29.534072876 29.981294632 37.9833831787 37.6500587463 37.0075454712 36.1591453552 35.5693130493 35.5697860718 36.1612586975 37.0095024109 37.6513938904 37.9835205078 45.9992446899 45.8755187988 45.652015686 45.3706626892 45.1783294678 45.178478241 45.3713417053 45.652671814 45.8759994507 45.9993019104 54.0208129883 54.1452064514 54.3699607849 54.6528549194 54.8465995789 54.8464164734 54.6521492004 54.3693008423 54.1447296143 54.0207481384 62.0366363525 62.3704032898 63.0139846802 63.8638458252 64.4547348022 64.4542617798 63.8617401123 63.0120582581 62.3690834045 62.0365066528 70.038848877 70.4879455566 71.4627761841 72.8453826904 73.8232574463 73.8225479126 72.8419494629 71.4597320557 70.4860229492 70.0386962891 78.0304641724 78.4261016846 79.4892807007 81.1270751953 82.2403793335 82.2394714355 81.1231079102 79.4856796265 78.4241638184 78.0303573608 86.0211791992 86.2485198975 86.9914932251 88.1379241943 88.9087524414 88.9086532593 88.1354980469 86.9888916016 86.2472229004 86.0211486816 
13.9988002777 13.7709321976 13.0261926651 11.8767910004 11.1017427444 11.1024055481 11.8795862198 13.028758049 13.7722091675 13.9988355637 21.9895057678 21.5934524536 20.5300292969 18.8928031921 17.7796287537 17.7805023193 18.8969249725 20.5336036682 21.5954017639 21.98960495 29.9811420441 29.5321121216 28.557888031 27.1769351959 26.1988658905 26.1996440887 27.1804351807 28.560968399 29.5340538025 29.9812870026 37.983379364 37.6500511169 37.0075035095 36.1590499878 35.5690689087 35.5695457458 36.1611671448 37.0094604492 37.6513824463 37.9835166931 45.9992446899 45.8755111694 45.6520118713 45.3706169128 45.1782608032 45.1784172058 45.371307373 45.6526603699 45.875995636 45.9992980957 54.0208129883 54.1452178955 54.369972229 54.6528930664 54.8466720581 54.846496582 54.6521949768 54.3693313599 54.1447372437 54.0207481384 62.0366363525 62.3704185486 63.0140228271 63.8639411926 64.4549713135 64.454498291 63.861831665 63.0120925903 62.3690910339 62.0365104675 70.038848877 70.4879608154 71.4628372192 72.8454818726 73.8234024048 73.8227081299 72.8420410156 71.459777832 70.4860305786 70.0386962891 78.0304641724 78.4261245728 79.4893112183 81.1271514893 82.2404632568 82.2395706177 81.1231689453 79.4857330322 78.4241638184 78.0303573608 86.0211791992 86.2485275269 86.9915313721 88.1379470825 88.9087982178 88.9086990356 88.1355361938 86.9889144897 86.2472229004 86.0211486816 
