2.26506924629 4.11247634888 7.28500843048 10.0896701813 11.5916557312 11.5904951096 10.0838060379 7.27706623077 4.10496091843 2.26494288445 2.29191255569 5.32202911377 10.2588777542 14.6376991272 16.9328117371 16.9310588837 14.6287117004 10.2464838028 5.31020784378 2.2915725708 2.31447172165 6.16736650467 12.223446846 17.5274295807 20.3761825562 20.3739948273 17.5164337158 12.2084312439 6.15265035629 2.31395339966 2.32768368721 6.64929580688 13.2705593109 19.0131473541 22.1238117218 22.1214408875 19.0012168884 13.2542915344 6.63300561905 2.3270585537 2.33446192741 6.88375377655 13.764005661 19.7048015594 22.9302902222 22.9278411865 19.6924571991 13.747168541 6.86674070358 2.33378148079 2.33445692062 6.88357257843 13.7636356354 19.7042636871 22.929681778 22.9272346497 19.6919231415 13.7467956543 6.86656284332 2.333776474 2.32765650749 6.64835166931 13.2685470581 19.0102405548 22.1204471588 22.1180725098 18.9983253479 13.2522964478 6.63207244873 2.32703208923 2.31442832947 6.16569137573 12.21971035 17.5221118927 20.3691062927 20.3669700623 17.511182785 12.2047376633 6.15099477768 2.31391000748 2.29184174538 5.31943941116 10.2526483536 14.6286478043 16.9220695496 16.920331955 14.6197605133 10.2403078079 5.30765295029 2.29150342941 2.26501369476 4.10882568359 7.27571821213 10.074763298 11.5730705261 11.5721597672 10.0689411163 7.26791000366 4.10136032104 2.26488733292 
2.26560521126 3.95178246498 6.95710325241 9.7099313736 11.2262477875 11.2250595093 9.70407772064 6.94943904877 3.9447953701 2.26548647881 2.29121947289 5.15368127823 9.94818687439 14.3533687592 16.7650127411 16.7631263733 14.3440752029 9.93597507477 5.14234256744 2.29089856148 2.31500434875 6.02576494217 11.9772434235 17.4119930267 20.469045639 20.4666652679 17.4003429413 11.962264061 6.01142978668 2.3144993782 2.33143568039 6.53175592422 13.105553627 19.0443534851 22.3849010468 22.3823051453 19.0316677094 13.0891256332 6.51576280594 2.33080506325 2.34012889862 6.78095626831 13.6514091492 19.8107433319 23.2731266022 23.27044487 19.7976055145 13.6343212128 6.76417398453 2.33943200111 2.3401222229 6.78076267242 13.6509914398 19.8101539612 23.2724552155 23.2697715759 19.7970199585 13.6339111328 6.76398134232 2.33942580223 2.33140087128 6.53075695038 13.1033382416 19.0411682129 22.3812084198 22.3786144257 19.0285053253 13.086933136 6.51477718353 2.33077073097 2.31495285034 6.02401399612 11.9733190536 17.4061565399 20.4614276886 20.4591140747 17.394575119 11.958398819 6.00970315933 2.31444811821 2.29114961624 5.15104627609 9.94179344177 14.343914032 16.7532291412 16.7513885498 14.3347759247 9.92966842651 5.13976383209 2.29083132744 2.26555418968 3.94832539558 6.94815540314 9.69495391846 11.2078428268 11.2069358826 9.68912696838 6.94072198868 3.9414203167 2.26543569565 
2.26568365097 3.89136958122 6.83255672455 9.56024074554 11.0732402802 11.0720481873 9.55441951752 6.82500171661 3.8845846653 2.26556754112 2.29068565369 5.0860285759 9.8217048645 14.2187519073 16.6532936096 16.6513633728 14.2094221115 9.80957984924 5.07488775253 2.29037284851 2.31424570084 5.96465301514 11.8681125641 17.3204364777 20.4691867828 20.4666919708 17.308599472 11.8531999588 5.95048093796 2.31375074387 2.33083343506 6.48080539703 13.0171918869 19.0219154358 22.4943180084 22.4915752411 19.0088615417 13.0007801056 6.4649438858 2.33021187782 2.339666605 6.73745584488 13.5786409378 19.8324718475 23.4405498505 23.4377098083 19.8189086914 13.5615253448 6.72078132629 2.33897852898 2.33965969086 6.73725652695 13.578212738 19.8318519592 23.4398384094 23.43699646 19.8182945251 13.5611000061 6.72058486938 2.33897137642 2.33079910278 6.47978496552 13.0149354935 19.0185966492 22.4904136658 22.4876708984 19.0055713654 12.998547554 6.46393585205 2.33017778397 2.314193964 5.96288108826 11.864151001 17.3144264221 20.4613075256 20.4588871002 17.3026561737 11.8493013382 5.94873571396 2.31369900703 2.29061770439 5.08339643478 9.815284729 14.2092466354 16.6412029266 16.6393280029 14.200088501 9.80325889587 5.07231807709 2.29030799866 2.26563477516 3.8880045414 6.82377672195 9.5452671051 11.054898262 11.0539884567 9.53946399689 6.8164935112 3.88131523132 2.26551938057 
2.26570129395 3.8720035553 6.79243612289 9.51133537292 11.0218858719 11.0206947327 9.50552940369 6.78491544724 3.86528348923 2.26558637619 2.29049777985 5.06399726868 9.78010177612 14.1729412079 16.6104717255 16.6085357666 14.16360569 9.76800537109 5.05292081833 2.29018807411 2.31397199631 5.94470071793 11.8317718506 17.28465271 20.4555778503 20.453042984 17.2727928162 11.8168849945 5.93058204651 2.31348013878 2.33064222336 6.46458768845 12.988984108 19.0088691711 22.5294113159 22.5266036987 18.9957122803 12.9725856781 6.44876670837 2.33002328873 2.33955860138 6.72421503067 13.5567216873 19.8375644684 23.5056400299 23.5027256012 19.8238525391 13.5396022797 6.70757293701 2.33887290955 2.33955192566 6.72401332855 13.5562858582 19.8369369507 23.504901886 23.501991272 19.823223114 13.5391750336 6.70737409592 2.33886623383 2.33060693741 6.46355867386 12.9867086411 19.0055007935 22.5254058838 22.5226020813 18.9923706055 12.970334053 6.44775104523 2.32998919487 2.31392073631 5.94292116165 11.8278026581 17.2786026001 20.4476146698 20.4451541901 17.2668018341 11.8129758835 5.92882966995 2.3134291172 2.29043054581 5.0613656044 9.77367115021 14.1634216309 16.5983104706 16.5964317322 14.1542673111 9.76168060303 5.05035591125 2.2901237011 2.26565313339 3.8686671257 6.78370809555 9.49637031555 11.003572464 11.002664566 9.49057769775 6.77647447586 3.86204767227 2.26553821564 
2.2657058239 3.86560082436 6.77914524078 9.49506950378 11.004655838 11.0034637451 9.48926830292 6.77163600922 3.85890293121 2.2655916214 2.29043316841 5.05666828156 9.76621246338 14.1574497223 16.5955963135 16.5936603546 14.1481122971 9.75412464142 5.04561281204 2.29012441635 2.31387925148 5.93804740906 11.8196153641 17.2721786499 20.4483547211 20.4458065033 17.260307312 11.8047399521 5.92394733429 2.3133893013 2.33057379723 6.45926570892 12.9796829224 19.0038757324 22.5407218933 22.5378932953 18.9906864166 12.9632883072 6.44345760345 2.32995629311 2.33953070641 6.71999025345 13.5499038696 19.8396492004 23.5300216675 23.5270786285 19.825876236 13.532787323 6.7033572197 2.33884572983 2.3395242691 6.71978855133 13.5494718552 19.8390140533 23.5292720795 23.5263328552 19.8252449036 13.5323562622 6.70315790176 2.33883929253 2.33053827286 6.45823335648 12.9774045944 19.0004844666 22.5366744995 22.5338478088 18.987323761 12.9610328674 6.44243955612 2.32992124557 2.31382799149 5.93626594543 11.8156404495 17.2661151886 20.4403629303 20.4378890991 17.2543106079 11.8008270264 5.92219352722 2.31333708763 2.29036617279 5.05403709412 9.75977897644 14.1479272842 16.5834178925 16.581533432 14.1387701035 9.7478017807 5.04304981232 2.29006004333 2.26565790176 3.86227416992 6.77043676376 9.48010540009 10.9863538742 10.9854440689 9.47431659698 6.76321840286 3.85567831993 2.26554369926 
2.26570701599 3.86320233345 6.77416276932 9.48896789551 10.9981832504 10.9969902039 9.48316764832 6.76665782928 3.85651278496 2.26559257507 2.2904086113 5.05391836166 9.76099395752 14.1516008377 16.589931488 16.5879955292 14.1422634125 9.74891281128 5.04287147522 2.29010033607 2.3138449192 5.93555355072 11.815073967 17.2674541473 20.4451885223 20.4426383972 17.2555847168 11.8001976013 5.92145872116 2.31335544586 2.33054733276 6.45729207993 12.9762372971 19.0019283295 22.5448932648 22.5420570374 18.9887313843 12.9598455429 6.44149017334 2.32992982864 2.33952283859 6.71845054626 13.5474624634 19.8407058716 23.5399894714 23.5370368958 19.826915741 13.5303430557 6.70182275772 2.3388376236 2.33951568604 6.71824884415 13.5470256805 19.8400688171 23.539232254 23.5362854004 19.8262786865 13.529914856 6.70162200928 2.33883047104 2.33051204681 6.45625782013 12.9739551544 18.9985294342 22.5408248901 22.5379905701 18.9853572845 12.9575862885 6.44047021866 2.32989501953 2.31379389763 5.93377065659 11.8110952377 17.2613868713 20.4371814728 20.4347076416 17.2495803833 11.7962846756 5.91970539093 2.31330370903 2.29034161568 5.05128765106 9.75456142426 14.142074585 16.5777397156 16.5758609772 14.1329174042 9.74258518219 5.04030799866 2.29003620148 2.26565933228 3.85987997055 6.76545953751 9.47400283813 10.9798851013 10.9789733887 9.46821594238 6.75824689865 3.85329294205 2.26554512978 
2.26570796967 3.86219406128 6.77206707001 9.48640155792 10.9954595566 10.9942655563 9.48060321808 6.76456403732 3.85550642014 2.26559329033 2.29039812088 5.05276298523 9.75880241394 14.1491365433 16.5875377655 16.5855998993 14.139799118 9.7467212677 5.04171943665 2.29009008408 2.31383156776 5.93450641632 11.8131752014 17.2654705048 20.4437904358 20.4412403107 17.2535972595 11.7983016968 5.9204158783 2.31334161758 2.33053565025 6.45647335052 12.9748153687 19.001121521 22.5466537476 22.5438117981 18.9879188538 12.9584226608 6.44067335129 2.32991886139 2.33951997757 6.71782302856 13.5464849472 19.8412780762 23.5445098877 23.5415496826 19.8274765015 13.5293664932 6.70119571686 2.33883476257 2.33951306343 6.71761989594 13.5460472107 19.840637207 23.5437488556 23.5407905579 19.826839447 13.5289354324 6.70099592209 2.33882832527 2.33050084114 6.45543909073 12.9725294113 18.997718811 22.5425739288 22.5397377014 18.9845428467 12.9561605453 6.43965291977 2.32988405228 2.31378006935 5.9327249527 11.8091955185 17.2593994141 20.4357795715 20.4333019257 17.2475910187 11.7943868637 5.91866111755 2.31328964233 2.2903316021 5.05013179779 9.75236988068 14.1396121979 16.5753440857 16.5734634399 14.1304559708 9.74039649963 5.03915691376 2.29002594948 2.26566028595 3.85887241364 6.76336812973 9.47143650055 10.9771642685 10.9762525558 9.4656496048 6.75615692139 3.85228872299 2.26554584503 
