14.0014209747 13.7847166061 13.0344743729 11.8835697174 11.1633882523 11.1639957428 11.8862876892 13.0370759964 13.7859897614 14.0014390945 21.9903354645 21.6099681854 20.5495262146 19.0480937958 18.0953044891 18.0960941315 19.0516109467 20.5530166626 21.6118812561 21.9904289246 29.9821033478 29.5374145508 28.5872173309 27.3439865112 26.5361614227 26.536819458 27.3469219208 28.5901489258 29.5393295288 29.9822444916 37.98462677 37.6578140259 37.0375404358 36.2820053101 35.7954750061 35.7958679199 36.2837791443 37.0393714905 37.6591186523 37.9847564697 45.9994125366 45.8790092468 45.6647224426 45.4153327942 45.2552947998 45.2554168701 45.4159049988 45.6653442383 45.8794708252 45.9994621277 54.0206451416 54.1416740417 54.3570899963 54.6077651978 54.7687721252 54.7686309814 54.6071815491 54.356464386 54.1412086487 54.0205802917 62.0353851318 62.3626327515 62.98387146 63.7406616211 64.2280883789 64.2276992798 63.738899231 62.9820556641 62.3613357544 62.0352554321 70.0378875732 70.4826583862 71.4334411621 72.6780090332 73.4860153198 73.4853973389 72.6751251221 71.4305267334 70.4807662964 70.0377578735 78.0296401978 78.4096298218 79.4700088501 80.9719314575 81.9247589111 81.9239501953 80.9685058594 79.466545105 78.4077529907 78.0295562744 86.0185775757 86.2348632812 86.9835891724 88.131187439 88.8489303589 88.8486709595 88.1284179688 86.9811172485 86.2336273193 86.0185470581 
14.0008363724 13.7814340591 13.0312309265 11.8795967102 11.1584672928 11.1590776443 11.8823165894 13.0338344574 13.7827072144 14.0008602142 21.9896812439 21.6049842834 20.5392608643 19.0253868103 18.0594615936 18.0602645874 19.0289459229 20.5427722931 21.6069107056 21.9897766113 29.9814968109 29.5314025879 28.5711460114 27.3046207428 26.4623756409 26.4630718231 27.3076457977 28.5741214752 29.5333347321 29.9816379547 37.9841690063 37.6527366638 37.0224380493 36.24061203 35.7255477905 35.7259750366 36.2424659729 37.0243034363 37.6540565491 37.9843101501 45.9992294312 45.876953125 45.6581687927 45.3973960876 45.2277793884 45.2279205322 45.3980102539 45.6587982178 45.8774185181 45.9992866516 54.020816803 54.1437416077 54.3636741638 54.6257896423 54.7965087891 54.7963562012 54.6251678467 54.3630371094 54.1432723999 54.0207557678 62.0358505249 62.3677177429 62.9989891052 63.7820739746 64.2980422974 64.2976150513 63.7802238464 62.9971237183 62.3664016724 62.0357093811 70.0384979248 70.4886856079 71.449508667 72.7173538208 73.5596694946 73.5590133667 72.7143936157 71.4465255737 70.4867630005 70.0383453369 78.0303039551 78.414604187 79.4802474976 80.9945983887 81.9604797363 81.9596786499 80.9911422729 79.4767532349 78.4127120972 78.0301971436 86.0191574097 86.2381439209 86.9868392944 88.1351013184 88.853805542 88.8535232544 88.1323318481 86.984375 86.2369003296 86.0191421509 
14.000825882 13.7813777924 13.031165123 11.8795127869 11.1583681107 11.1589784622 11.882229805 13.0337743759 13.7826509476 14.0008478165 21.9896697998 21.6048984528 20.5390720367 19.0250091553 18.0589103699 18.059715271 19.0285682678 20.542591095 21.6068248749 21.9897670746 29.9814853668 29.5312976837 28.5708560944 27.3039608002 26.4612693787 26.4619731903 27.3069801331 28.5738277435 29.5332279205 29.98163414 37.984161377 37.6526412964 37.022151947 36.2397651672 35.7238769531 35.7243041992 36.2416305542 37.024017334 37.6539611816 37.9842948914 45.9992256165 45.876914978 45.6580467224 45.3969535828 45.2270317078 45.2271652222 45.3975715637 45.6586799622 45.8773765564 45.9992790222 54.0208206177 54.1437797546 54.3638000488 54.6262321472 54.7972717285 54.7971191406 54.6256103516 54.3631629944 54.1433181763 54.0207633972 62.0358505249 62.3678016663 62.9992904663 63.782913208 64.2997055054 64.2992782593 63.7810592651 62.9974136353 62.3664894104 62.0357246399 70.0385131836 70.4887924194 71.4497833252 72.7180328369 73.5607757568 73.5601196289 72.7150497437 71.4468307495 70.486869812 70.0383682251 78.0303115845 78.4146957397 79.480430603 80.9949645996 81.9610443115 81.9602203369 80.9915084839 79.4769363403 78.4127807617 78.0302124023 86.0191650391 86.2381973267 86.986907959 88.1351776123 88.8538970947 88.8536300659 88.1324157715 86.9844512939 86.2369613647 86.0191497803 
14.000825882 13.781373024 13.0311555862 11.8794908524 11.1583404541 11.1589488983 11.8822116852 13.0337610245 13.7826452255 14.0008487701 21.9896659851 21.6048908234 20.5390529633 19.024969101 18.0588550568 18.0596599579 19.0285282135 20.5425662994 21.6068172455 21.9897632599 29.9814815521 29.5312843323 28.5708274841 27.303899765 26.4611797333 26.4618816376 27.3069248199 28.573797226 29.5332164764 29.9816322327 37.984161377 37.652633667 37.0221214294 36.2396965027 35.7237472534 35.7241668701 36.2415542603 37.0239906311 37.6539573669 37.9842987061 45.9992256165 45.876914978 45.6580352783 45.3969192505 45.226978302 45.227104187 45.3975296021 45.6586647034 45.8773765564 45.9992790222 54.0208206177 54.1437759399 54.3638114929 54.6262779236 54.7973327637 54.7971725464 54.6256523132 54.3631706238 54.1433181763 54.0207633972 62.0358543396 62.3678207397 62.9993019104 63.7829971313 64.2998352051 64.2994155884 63.7811431885 62.9974403381 62.3665008545 62.0357246399 70.0385131836 70.4887924194 71.4498214722 72.7180862427 73.5608596802 73.5601959229 72.7151107788 71.4468612671 70.486869812 70.0383682251 78.0303115845 78.4147109985 79.4804458618 80.995010376 81.9610977173 81.9602813721 80.9915542603 79.4769668579 78.4127960205 78.0302124023 86.0191650391 86.2382125854 86.986907959 88.1352005005 88.8539199829 88.8536682129 88.1324310303 86.9844589233 86.2369689941 86.0191497803 
14.000825882 13.781373024 13.0311460495 11.8794708252 11.1583137512 11.1589241028 11.882191658 13.0337514877 13.7826442719 14.0008487701 21.9896659851 21.6048851013 20.5390434265 19.0249423981 18.0588188171 18.059627533 19.0285053253 20.5425548553 21.6068153381 21.9897632599 29.9814815521 29.5312805176 28.5708122253 27.3038749695 26.461139679 26.4618396759 27.3068962097 28.5737857819 29.5332126617 29.9816303253 37.9841651917 37.652633667 37.0221138 36.2396659851 35.7236976624 35.7241210938 36.2415237427 37.0239830017 37.6539535522 37.9842987061 45.9992256165 45.8769073486 45.6580314636 45.396900177 45.2269477844 45.2270812988 45.3975143433 45.6586647034 45.8773765564 45.9992790222 54.0208206177 54.1437797546 54.3638153076 54.6262931824 54.7973632812 54.797203064 54.6256713867 54.3631820679 54.1433143616 54.0207633972 62.0358543396 62.3678245544 62.9993171692 63.7830276489 64.2998809814 64.2994613647 63.7811698914 62.9974555969 62.3665008545 62.0357246399 70.0385131836 70.4888000488 71.449836731 72.7181167603 73.5609054565 73.5602416992 72.715133667 71.4468765259 70.486869812 70.0383682251 78.0303115845 78.4147033691 79.4804458618 80.9950332642 81.9611434937 81.960319519 80.9915771484 79.4769897461 78.4128036499 78.0302124023 86.0191650391 86.2381973267 86.9869155884 88.1352233887 88.8539657593 88.8536911011 88.1324615479 86.9844665527 86.2369689941 86.0191497803 
14.000825882 13.7813692093 13.0311374664 11.8794527054 11.1582899094 11.1588973999 11.8821716309 13.0337429047 13.7826423645 14.0008487701 21.9896659851 21.6048851013 20.5390281677 19.0249176025 18.0587902069 18.059595108 19.0284805298 20.5425415039 21.6068115234 21.9897632599 29.9814815521 29.5312747955 28.5708026886 27.3038406372 26.4610977173 26.4618015289 27.3068599701 28.5737667084 29.533208847 29.9816303253 37.9841651917 37.6526298523 37.022102356 36.2396430969 35.7236557007 35.7240829468 36.2414932251 37.0239677429 37.6539497375 37.9842910767 45.9992256165 45.8769035339 45.6580238342 45.3968925476 45.2269325256 45.2270698547 45.3975028992 45.6586647034 45.877368927 45.9992790222 54.0208206177 54.1437835693 54.3638267517 54.6263046265 54.7973632812 54.7972106934 54.6256866455 54.3631820679 54.1433105469 54.0207633972 62.0358543396 62.3678245544 62.999332428 63.7830429077 64.2999191284 64.2994918823 63.7811927795 62.9974784851 62.3665122986 62.0357246399 70.0385131836 70.4888076782 71.4498672485 72.7181472778 73.5609512329 73.5602798462 72.7151641846 71.4468917847 70.4868850708 70.0383682251 78.0303115845 78.4147033691 79.4804840088 80.9950561523 81.9611663818 81.9603424072 80.9915924072 79.4769744873 78.4128112793 78.0302124023 86.0191650391 86.2381973267 86.986907959 88.1352462769 88.8539886475 88.8537063599 88.1324768066 86.9844665527 86.2369689941 86.0191497803 
14.000825882 13.7813692093 13.0311288834 11.8794345856 11.1582660675 11.1588745117 11.882153511 13.0337343216 13.7826404572 14.0008487701 21.9896659851 21.6048793793 20.5390167236 19.0248947144 18.0587558746 18.0595626831 19.0284557343 20.5425281525 21.606803894 21.9897632599 29.9814815521 29.5312709808 28.5707836151 27.303817749 26.4610519409 26.4617614746 27.3068408966 28.5737552643 29.5332050323 29.9816303253 37.9841651917 37.6526222229 37.0220870972 36.2396202087 35.7236251831 35.7240524292 36.2414741516 37.0239562988 37.6539459229 37.9842910767 45.9992256165 45.8769073486 45.6580238342 45.3968772888 45.2269172668 45.2270584106 45.3974838257 45.658657074 45.877368927 45.9992790222 54.0208206177 54.143787384 54.3638305664 54.6263275146 54.79737854 54.7972259521 54.6257019043 54.3631896973 54.1433143616 54.0207633972 62.0358543396 62.3678245544 62.9993362427 63.7830734253 64.299949646 64.2995300293 63.7812232971 62.9974861145 62.3665161133 62.0357246399 70.038520813 70.4888153076 71.4498748779 72.7181777954 73.5609817505 73.5603256226 72.7151947021 71.4469070435 70.4868850708 70.0383682251 78.0303115845 78.4147109985 79.4804763794 80.9950866699 81.96118927 81.9603805542 80.9916229248 79.4769973755 78.4128112793 78.0302124023 86.0191650391 86.2382125854 86.9869308472 88.1352615356 88.8540039062 88.853729248 88.1324920654 86.9844665527 86.2369689941 86.0191497803 
