2.26511454582 4.17235851288 7.38500213623 10.2182998657 11.7582426071 11.7570705414 10.2122879028 7.37702131271 4.16466665268 2.26498222351 2.2917239666 5.38199710846 10.3822927475 14.7912769318 17.1175956726 17.1158294678 14.7821855545 10.3698005676 5.36997747421 2.29137802124 2.31047105789 6.22995615005 12.3334798813 17.66248703 20.546245575 20.5440483093 17.6513652802 12.3184280396 6.21501684189 2.30997037888 2.32277774811 6.7094745636 13.3540000916 19.1231384277 22.2739086151 22.271528244 19.1110610962 13.3377199173 6.69303894043 2.32217168808 2.3289399147 6.93993806839 13.8312654495 19.8012485504 23.0701274872 23.0676689148 19.7887420654 13.8144264221 6.92283630371 2.32827877998 2.32893514633 6.93976068497 13.8309106827 19.8007164001 23.0695362091 23.067073822 19.7882118225 13.8140678406 6.92266082764 2.32827401161 2.32275247574 6.70854091644 13.3520450592 19.1202659607 22.2705726624 22.268196106 19.1082115173 13.3357810974 6.69211864471 2.32214641571 2.31043457985 6.22827243805 12.3298015594 17.6572380066 20.5391197205 20.536989212 17.6461925507 12.3148002625 6.21335601807 2.30993413925 2.29166173935 5.37940263748 10.3760242462 14.7821826935 17.106924057 17.1051692963 14.7732114792 10.3636016846 5.36742401123 2.29131770134 2.26505446434 4.16864156723 7.37558841705 10.2031650543 11.7390375137 11.7381477356 10.1972141266 7.36775445938 4.16100406647 2.26492190361 
2.26624965668 4.01472091675 7.0689702034 9.85967254639 11.4264764786 11.4252538681 9.85363674164 7.06124401093 4.00753974915 2.26612234116 2.29266810417 5.22825527191 10.1005992889 14.5696239471 17.0116558075 17.0097846985 14.5601472855 10.0882301331 5.21667909622 2.29233264923 2.3163318634 6.10775756836 12.1451807022 17.6085586548 20.6557235718 20.6533908844 17.5968971252 12.1300582886 6.09314680099 2.31581258774 2.33266401291 6.61159229279 13.2654485703 19.1927433014 22.5088615417 22.5063323975 19.180103302 13.2489519119 6.5953335762 2.33201932907 2.34022378922 6.8590130806 13.7967329025 19.9299430847 23.3640174866 23.361410141 19.9168739319 13.779624939 6.84196996689 2.33951973915 2.34021830559 6.85881900787 13.7963294983 19.9293670654 23.3633708954 23.3607673645 19.9162960052 13.7792263031 6.84177875519 2.33951473236 2.33263111115 6.61059522629 13.2632608414 19.1896343231 22.5052776337 22.502746582 19.177022934 13.2467908859 6.59435272217 2.33198714256 2.31627964973 6.10598945618 12.1412248611 17.6028633118 20.6480770111 20.6458244324 17.5912895203 12.1261711121 6.09140872955 2.31576061249 2.29259824753 5.22557449341 10.0940790176 14.5600194931 17.0000495911 16.9982147217 14.5507125854 10.0818138123 5.21406126022 2.29226565361 2.26619315147 4.01115751266 7.05981492996 9.84439468384 11.4072580338 11.4063663483 9.83840560913 7.05233955383 4.00406551361 2.26606583595 
2.26652479172 3.91899633408 6.87692117691 9.63401889801 11.1989107132 11.197684288 9.62802314758 6.86934995651 3.91213059425 2.26640152931 2.29191541672 5.12220191956 9.90797233582 14.3774366379 16.8769111633 16.874956131 14.367855072 9.89571666718 5.11092758179 2.2915930748 2.31534695625 6.01080369949 11.9748315811 17.4992656708 20.6878356934 20.6853694916 17.4871845245 11.9597826004 5.99644851685 2.31484293938 2.33199882507 6.52738857269 13.1209955215 19.1725387573 22.6513271332 22.6486320496 19.1593666077 13.1044664383 6.51134872437 2.33136773109 2.34082078934 6.78233957291 13.6755962372 19.9587917328 23.5600070953 23.5572357178 19.9451732635 13.6583833694 6.76550483704 2.34012269974 2.34081363678 6.78214073181 13.6751708984 19.9581851959 23.5593280792 23.556552887 19.9445743561 13.6579647064 6.76530838013 2.3401157856 2.33196353912 6.52636289597 13.1187391281 19.1692638397 22.6475257874 22.6448364258 19.1561260223 13.1022396088 6.51034069061 2.33133339882 2.31529474258 6.00900554657 11.9708337784 17.4932632446 20.6798877716 20.6775035858 17.4812679291 11.95586586 5.99468326569 2.31479096413 2.29184818268 5.11952590942 9.90140533447 14.367682457 16.8646144867 16.8627262115 14.3583049774 9.88927650452 5.10832881927 2.29152941704 2.26647162437 3.9155755043 6.86802196503 9.61869812012 11.1797895432 11.1788949966 9.61273670197 6.86077308655 3.90882182121 2.26634836197 
2.26661205292 3.87262201309 6.7830414772 9.52085876465 11.0791654587 11.0779399872 9.51490020752 6.77554702759 3.86591005325 2.26649165154 2.29150986671 5.06959056854 9.81086826324 14.2720689774 16.7812671661 16.7792816162 14.262471199 9.79867553711 5.05846738815 2.2911939621 2.31468367577 5.96201467514 11.8870382309 17.4163131714 20.6753883362 20.6728134155 17.4041404724 11.8720493317 5.94779062271 2.31418848038 2.33147001266 6.48506784439 13.0463571548 19.1373634338 22.7281837463 22.7253627777 19.1239147186 13.0298662186 6.46913814545 2.33084702492 2.34041714668 6.74516439438 13.6115598679 19.9553527832 23.6819000244 23.6789875031 19.9413700104 13.5943622589 6.72842359543 2.33972620964 2.34041070938 6.74496078491 13.6111249924 19.9547271729 23.6811828613 23.6782722473 19.9407520294 13.5939359665 6.72822284698 2.3397192955 2.33143496513 6.48402881622 13.0440702438 19.1339950562 22.7242279053 22.7214126587 19.1205844879 13.0276107788 6.46811628342 2.33081221581 2.31463122368 5.96020364761 11.8830213547 17.4102039337 20.6672153473 20.6647338867 17.3981151581 11.8681135178 5.94601249695 2.31413650513 2.29144430161 5.06691837311 9.80428409576 14.2622966766 16.7687664032 16.7668571472 14.2529201508 9.79223060608 5.05587863922 2.29113221169 2.26656079292 3.86927342415 6.7742767334 9.50553321838 11.060090065 11.0591936111 9.49959945679 6.76713943481 3.86268663406 2.26644039154 
2.26663637161 3.85603046417 6.74924898148 9.47960948944 11.0345973969 11.0333690643 9.4736661911 6.7417845726 3.84937429428 2.26651620865 2.29134941101 5.0505027771 9.77519607544 14.2321691513 16.7417430878 16.7397575378 14.2225723267 9.76303291321 5.03943538666 2.29103589058 2.31444358826 5.94425010681 11.8547868729 17.3820152283 20.6535930634 20.6509895325 17.3698291779 11.8398170471 5.9300737381 2.31395149231 2.33124399185 6.46992063522 13.0192575455 19.1173782349 22.7528781891 22.7499885559 19.1038684845 13.0027809143 6.45403146744 2.33062338829 2.34026837349 6.7321305275 13.5890827179 19.9499206543 23.7366847992 23.7336883545 19.9358291626 13.5718955994 6.71542358398 2.33957862854 2.34026122093 6.73192644119 13.5886478424 19.9492855072 23.7359390259 23.7329483032 19.9351959229 13.5714673996 6.7152223587 2.33957219124 2.33120846748 6.46887683868 13.0169610977 19.1139717102 22.7488136292 22.7459354401 19.1005039215 13.0005140305 6.45300388336 2.3305888176 2.31439137459 5.9424328804 11.8507595062 17.3758850098 20.6453437805 20.6428337097 17.3637809753 11.8358745575 5.92829179764 2.31389951706 2.29128432274 5.04783296585 9.76861190796 14.2223873138 16.7291908264 16.7272815704 14.2130146027 9.75658798218 5.03685235977 2.29097437859 2.26658535004 3.85270833969 6.74053192139 9.4642868042 11.0155420303 11.0146474838 9.45836448669 6.73343658447 3.84618186951 2.26646590233 
2.26663970947 3.85244679451 6.74191808701 9.47060585022 11.0248098373 11.0235824585 9.46466445923 6.73445606232 3.84580183029 2.26652002335 2.29131293297 5.04633522034 9.76734542847 14.2232227325 16.7327003479 16.730714798 14.2136287689 9.75518512726 5.03528022766 2.29099988937 2.31438708305 5.9403591156 11.8476333618 17.3741035461 20.6469154358 20.6443042755 17.3619174957 11.8326730728 5.92619371414 2.31389570236 2.33119654655 6.46664953232 13.0133972168 19.1123504639 22.7558860779 22.7529792786 19.0988349915 12.9969244003 6.45076704025 2.33057689667 2.34022879601 6.72937393188 13.5843391418 19.9480476379 23.7505989075 23.7475833893 19.9339389801 13.567152977 6.71267318726 2.33954000473 2.34022188187 6.72916936874 13.5839014053 19.9474105835 23.7498435974 23.7468299866 19.933303833 13.5667219162 6.71247243881 2.33953309059 2.3311612606 6.46560382843 13.0110960007 19.1089401245 22.751789093 22.7488861084 19.0954589844 12.9946565628 6.44973945618 2.33054161072 2.3143351078 5.93854188919 11.8436059952 17.3679618835 20.6386432648 20.6361293793 17.3558597565 11.8287286758 5.92440986633 2.31384301186 2.2912478447 5.04366540909 9.76075649261 14.2134399414 16.7201385498 16.7182273865 14.2040691376 9.74873924255 5.03269863129 2.29093837738 2.26658916473 3.84912967682 6.73321008682 9.45528507233 11.0057630539 11.0048656464 9.4493637085 6.72612190247 3.8426156044 2.26646995544 
2.26664018631 3.85201835632 6.74104309082 9.46953105927 11.0236415863 11.0224142075 9.46359062195 6.73358345032 3.84537625313 2.2665207386 2.29130792618 5.04583501816 9.76640319824 14.2221422195 16.7315998077 16.7296161652 14.2125463486 9.75424194336 5.03478145599 2.29099535942 2.31438016891 5.9398932457 11.8467712402 17.3731269836 20.646030426 20.6434192657 17.3609333038 11.8318099976 5.92572832108 2.31388878822 2.33119130135 6.46626758575 13.0127124786 19.1117572784 22.7560367584 22.7531261444 19.0982398987 12.9962425232 6.45038700104 2.33057165146 2.34022498131 6.72906589508 13.5838241577 19.9478969574 23.7525577545 23.7495307922 19.9337825775 13.5666389465 6.71236562729 2.33953619003 2.34021806717 6.72885990143 13.5833845139 19.9472560883 23.7517948151 23.7487754822 19.9331474304 13.5662050247 6.71216344833 2.33952951431 2.33115577698 6.46522045135 13.0104150772 19.1083431244 22.7519359589 22.7490310669 19.0948638916 12.993973732 6.44935798645 2.33053660393 2.31432843208 5.93807458878 11.8427419662 17.3669834137 20.6377601624 20.6352462769 17.3548774719 11.8278665543 5.92394447327 2.31383657455 2.29124307632 5.04316520691 9.75981140137 14.2123603821 16.719039917 16.7171268463 14.2029867172 9.74779701233 5.03219938278 2.29093408585 2.26658964157 3.84870290756 6.73233699799 9.45421028137 11.0045948029 11.0037002563 9.44829082489 6.72525072098 3.84219098091 2.26647019386 
