13.9446172714 21.7308959961 29.3226585388 37.2577133179 45.7014923096 54.3200454712 62.7628631592 70.6964645386 78.2882614136 86.0751113892 13.9129314423 21.5193367004 28.6678314209 36.5939979553 45.4357261658 54.587146759 63.4271697998 71.3505477905 78.4986953735 86.1066741943 13.9013824463 21.3795185089 28.3192520142 36.1982727051 45.266166687 54.7575492859 63.8231506348 71.69871521 78.6379470825 86.1181716919 13.8946743011 21.3102073669 28.1611824036 36.0228424072 45.1900978088 54.8340110779 63.9986953735 71.8566055298 78.7070159912 86.1248397827 13.8909492493 21.2802429199 28.0869598389 35.9424285889 45.1561088562 54.8681602478 64.0791625977 71.9307556152 78.7368545532 86.1285476685 13.890953064 21.2802581787 28.087015152 35.9424972534 45.1561393738 54.8681297302 64.0790939331 71.9307022095 78.7368392944 86.1285400391 13.8946857452 21.3103256226 28.1614704132 36.0231971741 45.1902351379 54.8338775635 63.9983291626 71.856338501 78.7068939209 86.1248321533 13.9013977051 21.3797645569 28.3198242188 36.1988945007 45.2665863037 54.7571296692 63.8225479126 71.6981582642 78.6377029419 86.1181640625 13.912979126 21.5197658539 28.669008255 36.5952186584 45.436214447 54.5866394043 63.4259719849 71.3493728638 78.4982757568 86.1066207886 13.9447507858 21.731590271 29.3246612549 37.2599372864 45.7025337219 54.3190231323 62.7606544495 70.6944961548 78.2875823975 86.0749893188 
13.9372491837 21.7106971741 29.2932662964 37.1926498413 45.6581268311 54.3636360168 62.827835083 70.7258300781 78.3084335327 86.0824508667 13.9011468887 21.4844875336 28.5740909576 36.4367637634 45.3578224182 54.665435791 63.5843811035 71.4440765381 78.5334701538 86.1184234619 13.882519722 21.3279533386 28.1507663727 36.0066604614 45.1759757996 54.8482017517 64.0147628784 71.866973877 78.6892547607 86.1369857788 13.8688097 21.2464408875 27.9853096008 35.8327674866 45.1013259888 54.9232215881 64.1887817383 72.0323181152 78.7704696655 86.1506195068 13.8609733582 21.2117176056 27.9179325104 35.7593345642 45.0701026917 54.9545898438 64.2622680664 72.0996398926 78.8050918579 86.1584320068 13.8609809875 21.2117366791 27.9179763794 35.7593841553 45.0701255798 54.9545631409 64.2622146606 72.0996017456 78.8050689697 86.158416748 13.8688373566 21.2465820312 27.985578537 35.8331031799 45.1014518738 54.9230957031 64.1884460449 72.0320587158 78.7703323364 86.1505737305 13.8825569153 21.3282356262 28.1514396667 36.0073280334 45.176410675 54.8477592468 64.0141067505 71.8663482666 78.6889648438 86.136932373 13.9012069702 21.4849643707 28.5755252838 36.438117981 45.3584289551 54.6648025513 63.5830459595 71.4426345825 78.5330047607 86.1183624268 13.9373874664 21.711391449 29.2952575684 37.1951446533 45.6592636108 54.3625335693 62.8253479004 70.7238998413 78.307762146 86.082321167 
13.9351291656 21.7057304382 29.2873878479 37.1767349243 45.6444244385 54.3774108887 62.8437194824 70.7316589355 78.3134078979 86.0845794678 13.897559166 21.4743671417 28.5441474915 36.3576660156 45.306350708 54.7171783447 63.6633644104 71.4739227295 78.5435714722 86.1219863892 13.8766975403 21.3033466339 28.0766334534 35.8573112488 45.0975418091 54.9270172119 64.1640625 71.9409255981 78.7137908936 86.1427764893 13.860953331 21.2033557892 27.8485164642 35.6499938965 45.0133934021 55.0115966797 64.3715667725 72.1688842773 78.8134002686 86.158454895 13.8510322571 21.1558818817 27.7523612976 35.5645294189 44.978969574 55.0461845398 64.4570999146 72.2649765015 78.8606948853 86.1683044434 13.8510437012 21.1559123993 27.7524280548 35.5645904541 44.9790039062 55.0461540222 64.4570465088 72.2649154663 78.8606567383 86.1683044434 13.8609857559 21.2035427094 27.8489131927 35.6503715515 45.0135383606 55.0114479065 64.3711776733 72.1684875488 78.8132171631 86.158416748 13.8767414093 21.3036727905 28.0774421692 35.8581314087 45.0980110168 54.9265480042 64.1632385254 71.9401397705 78.7134475708 86.1427307129 13.8976230621 21.4748649597 28.5456733704 36.3591957092 45.307094574 54.7163887024 63.6618766785 71.4723968506 78.5430908203 86.1219177246 13.9352664948 21.7063999176 29.2893257141 37.1793365479 45.6456108093 54.3762626648 62.8411140442 70.7298202515 78.3127670288 86.0844345093 
13.9344301224 21.7044277191 29.2866134644 37.1731948853 45.641494751 54.3803443909 62.8472480774 70.7324447632 78.3147125244 86.0852890015 13.8963117599 21.4717826843 28.5355701447 36.331653595 45.2853126526 54.7383155823 63.6893348694 71.4824676514 78.5461578369 86.1232299805 13.8746585846 21.2952308655 28.0491218567 35.7863540649 45.0488815308 54.9759292603 64.2348861694 71.9683532715 78.721862793 86.1447982788 13.857837677 21.1863861084 27.794670105 35.5368080139 44.9507331848 55.0745697021 64.4846801758 72.2225799561 78.8302993774 86.1615524292 13.8472185135 21.1316070557 27.6741065979 35.4312171936 44.9105529785 55.114944458 64.590385437 72.3430557251 78.8848724365 86.1721343994 13.8472290039 21.1316432953 27.6741905212 35.4312820435 44.9105911255 55.1148910522 64.5903167725 72.3429641724 78.8848419189 86.1721115112 13.8578739166 21.1865940094 27.7951393127 35.5372619629 44.9509048462 55.0743942261 64.4842300415 72.2221069336 78.8301086426 86.1615066528 13.8747014999 21.2955722809 28.0499782562 35.7873077393 45.0493927002 54.9754180908 64.2339324951 71.9675140381 78.721534729 86.1447601318 13.8963756561 21.472284317 28.5371227264 36.3332481384 45.2861289978 54.7374649048 63.6877746582 71.4809188843 78.5456771851 86.1231765747 13.9345645905 21.7050800323 29.2885169983 37.175819397 45.6426773071 54.3792266846 62.8446083069 70.7306442261 78.3140945435 86.0851364136 
13.9342098236 21.704158783 29.286945343 37.1728668213 45.6408538818 54.3809928894 62.8475723267 70.7321090698 78.3149719238 86.0854873657 13.8959207535 21.4713172913 28.5336856842 36.3245429993 45.2799606323 54.7436981201 63.696434021 71.4843444824 78.5466079712 86.123626709 13.8739595413 21.2927875519 28.0407752991 35.763507843 45.0290794373 54.99584198 64.2576904297 71.9766540527 78.7242965698 86.1455001831 13.8567485809 21.1804218292 27.774810791 35.4874649048 44.9170837402 55.1083869934 64.5339431763 72.2423706055 78.8362503052 86.1626358032 13.8457736969 21.1225833893 27.6445541382 35.3647499084 44.8705444336 55.1551475525 64.656791687 72.3725128174 78.8938598633 86.1735687256 13.845785141 21.1226234436 27.6446475983 35.3648262024 44.8705940247 55.1550979614 64.6567077637 72.372428894 78.8938140869 86.1735534668 13.8567838669 21.1806335449 27.7753067017 35.4879722595 44.9172706604 55.1081809998 64.5334243774 72.2418823242 78.8360290527 86.1626052856 13.874004364 21.2931365967 28.0416564941 35.7645225525 45.0296287537 54.9952697754 64.2566833496 71.9758224487 78.7239532471 86.1454544067 13.8959875107 21.4718227386 28.5352573395 36.3261642456 45.2807922363 54.7428207397 63.6948471069 71.4827728271 78.5461425781 86.1235580444 13.9343442917 21.7048072815 29.2888317108 37.1754989624 45.6420288086 54.3798751831 62.8449325562 70.7303390503 78.3143692017 86.085357666 
13.9341545105 21.7041320801 29.2871646881 37.1729278564 45.640789032 54.3810653687 62.8475074768 70.7319030762 78.3150177002 86.0855407715 13.895819664 21.4712848663 28.5334358215 36.3229637146 45.2788619995 54.7447891235 63.6980056763 71.484588623 78.5466537476 86.1237106323 13.8737668991 21.2921829224 28.0386753082 35.7581062317 45.0240402222 55.0008850098 64.263092041 71.9787597656 78.724899292 86.1457061768 13.8564357758 21.1787204742 27.7690830231 35.4724807739 44.9044418335 55.12109375 64.5489044189 72.248085022 78.8379364014 86.1629486084 13.8453540802 21.1199092865 27.6354675293 35.3408699036 44.8533630371 55.1724205017 64.6806411743 72.3815765381 78.8965301514 86.1739807129 13.8453645706 21.1199493408 27.6355743408 35.3409538269 44.8534164429 55.1723632812 64.6805496216 72.3814849854 78.896484375 86.1739807129 13.8564710617 21.1789360046 27.7695827484 35.4730186462 44.9046440125 55.1208724976 64.5483551025 72.2475967407 78.8377227783 86.1629104614 13.8738107681 21.2925338745 28.0395755768 35.7591438293 45.0246429443 55.0002937317 64.2620544434 71.9778900146 78.7245635986 86.1456375122 13.8958845139 21.4717884064 28.5350093842 36.3245887756 45.2797164917 54.7439079285 63.6964225769 71.4830245972 78.5461730957 86.1236572266 13.9342899323 21.7047748566 29.2890434265 37.1755714417 45.6419525146 54.3799552917 62.8448600769 70.7301101685 78.3143997192 86.0854034424 
13.9341430664 21.7041320801 29.2872314453 37.1729774475 45.6407852173 54.3810653687 62.8474655151 70.7318344116 78.3150100708 86.0855560303 13.8958005905 21.4712944031 28.5334396362 36.3227462769 45.2786979675 54.7449569702 63.6982269287 71.4845809937 78.5466461182 86.1237487793 13.8737268448 21.2920780182 28.0382957458 35.757183075 45.023475647 55.0014610291 64.2640075684 71.9791412354 78.7250061035 86.1457214355 13.8563699722 21.1783638 27.7678966522 35.4694671631 44.901550293 55.1239891052 64.5519104004 72.2492599487 78.8382797241 86.1630172729 13.8452644348 21.1193389893 27.6334857941 35.3350830078 44.8483734131 55.1774253845 64.6863937378 72.3835678101 78.8970947266 86.174079895 13.8452777863 21.1193771362 27.6335906982 35.3351745605 44.8484344482 55.1773719788 64.6863098145 72.3834533691 78.8970565796 86.1740646362 13.8564071655 21.1785850525 27.768404007 35.4700126648 44.9017715454 55.1237602234 64.551361084 72.2487716675 78.8380813599 86.162979126 13.8737735748 21.2924289703 28.0391902924 35.7582168579 45.0240707397 55.0008659363 64.2629699707 71.9782867432 78.7246704102 86.145690918 13.895866394 21.4717998505 28.5350189209 36.3243713379 45.2795448303 54.7440719604 63.6966323853 71.4830093384 78.5461578369 86.1236724854 13.9342794418 21.7047786713 29.2891159058 37.175617218 45.6419487 54.3799629211 62.8448104858 70.7300491333 78.3144073486 86.0854187012 
