2.26479315758 3.96271800995 6.94368934631 9.69423484802 11.2957420349 11.2944793701 9.68820667267 6.93613243103 3.95572423935 2.26467633247 2.2911221981 5.17395782471 9.96723747253 14.509853363 17.1017627716 17.0997695923 14.4998950958 9.95495891571 5.16258621216 2.290797472 2.31563186646 6.06617593765 12.0520658493 17.6725845337 20.9619007111 20.9593791962 17.660112381 12.0369215012 6.0517282486 2.31511664391 2.33284473419 6.59088182449 13.2247781754 19.3631534576 22.9461555481 22.9434146881 19.3495998383 13.2081394196 6.57471656799 2.33219861984 2.34166097641 6.85304737091 13.7936153412 20.1582641602 23.8661422729 23.8633270264 20.1442470551 13.776304245 6.8360581398 2.34094691277 2.34165406227 6.85283517838 13.7931680679 20.1576309204 23.865436554 23.8626174927 20.1436100006 13.7758569717 6.83584880829 2.34094047546 2.33280873299 6.58981561661 13.2224121094 19.359752655 22.9422149658 22.9394683838 19.3462219238 13.2058000565 6.57366704941 2.33216381073 2.31557703018 6.06431674957 12.0479078293 17.6664295197 20.953496933 20.9510822296 17.6540088654 12.0328292847 6.04989099503 2.31506276131 2.29104661942 5.17109870911 9.96029281616 14.4995822906 17.0890312195 17.0870780945 14.4897680283 9.94794273376 5.15969896317 2.29072260857 2.26473855972 3.95898771286 6.93393850327 9.6780128479 11.275557518 11.2746801376 9.67157459259 6.92614841461 3.95193243027 2.26461935043 
2.26527380943 3.85182404518 6.7262673378 9.43601322174 11.0168781281 11.015619278 9.43007278442 6.71886825562 3.84519147873 2.26516127586 2.29034471512 5.04787778854 9.7417974472 14.2685050964 16.8860244751 16.8839702606 14.2585258484 9.72965431213 5.03686285019 2.2900352478 2.31418800354 5.94354486465 11.8354129791 17.4771881104 20.9124660492 20.9097633362 17.4644412994 11.820400238 5.9294219017 2.31369447708 2.33130645752 6.47429847717 13.0175647736 19.2482070923 23.0452804565 23.042301178 19.2340888977 13.001001358 6.45843791962 2.33068180084 2.34050965309 6.74047851562 13.599738121 20.0961151123 24.0403938293 24.037311554 20.0814285278 13.5824337006 6.72378635406 2.33981490135 2.34050250053 6.74026679993 13.5992774963 20.095451355 24.0396099091 24.0365371704 20.0807628632 13.5819749832 6.72357749939 2.33980798721 2.3312702179 6.47320127487 13.0151615143 19.2446517944 23.0410633087 23.0380840302 19.2305622101 12.9986219406 6.45735692978 2.33064651489 2.31413221359 5.94158363342 11.8310680389 17.4707317352 20.9036178589 20.9010276794 17.4580135345 11.8160924911 5.92746782303 2.31363797188 2.29026985168 5.0448884964 9.73450946808 14.2580375671 16.8726272583 16.8706302643 14.2481946945 9.72222518921 5.03381729126 2.28996109962 2.26522064209 3.84812641144 6.71647262573 9.41950893402 10.9967393875 10.9958400726 9.41302967072 6.7087726593 3.84140825272 2.26510477066 
2.26533842087 3.83421683311 6.69139575958 9.39491462708 10.9714479446 10.9701910019 9.3889875412 6.68402290344 3.82764267921 2.26522636414 2.29020476341 5.02773523331 9.70564842224 14.2288475037 16.8453979492 16.8433437347 14.2188711166 9.69352245331 5.01677656174 2.28989768028 2.31393098831 5.92400407791 11.800693512 17.4394569397 20.8894462585 20.8867034912 17.4267063141 11.785700798 5.90993261337 2.31343984604 2.33102536201 6.45576953888 12.9842176437 19.2207183838 23.0593891144 23.0563545227 19.206533432 12.9676799774 6.43995714188 2.33040452003 2.34026050568 6.72278881073 13.5677185059 20.0779647827 24.0765419006 24.0733947754 20.06316185 13.5504369736 6.70614337921 2.33956885338 2.34025335312 6.72257518768 13.5672569275 20.077293396 24.0757522583 24.0726051331 20.0624923706 13.5499792099 6.70593214035 2.33956170082 2.33098888397 6.45466899872 12.9818105698 19.2171382904 23.055109024 23.0520687103 19.2029857635 12.9652938843 6.43887329102 2.33036899567 2.31387543678 5.92203521729 11.7963314056 17.4329776764 20.8805332184 20.8778991699 17.4202537537 11.7813835144 5.9079709053 2.31338405609 2.29013085365 5.02473211288 9.69832611084 14.2183647156 16.8319396973 16.8299446106 14.2085227966 9.68605613708 5.01371479034 2.28982400894 2.26528573036 3.830524683 6.68158912659 9.37837123871 10.951341629 10.9504404068 9.37188434601 6.67390394211 3.82386040688 2.26517105103 
2.26535010338 3.83088254929 6.68479299545 9.38714599609 10.9628334045 10.9615764618 9.38122177124 6.67742538452 3.82431960106 2.26523828506 2.29017758369 5.02391719818 9.69879722595 14.2213144302 16.8376274109 16.8355731964 14.2113389969 9.68667602539 5.01296949387 2.2898709774 2.31388354301 5.92030191422 11.7941551208 17.4322490692 20.8839969635 20.8812522888 17.4194946289 11.77917099 5.90624094009 2.313393116 2.33096837997 6.45226812363 12.977935791 19.2151432037 23.0619087219 23.0588645935 19.2009506226 12.9613990784 6.4364657402 2.33034801483 2.34021186829 6.71944570541 13.561674118 20.0743770599 24.0845241547 24.0813579559 20.0595550537 13.5443954468 6.7028093338 2.33952116966 2.34020519257 6.7192325592 13.5612077713 20.0737018585 24.0837211609 24.0805644989 20.0588798523 13.5439376831 6.7025976181 2.33951401711 2.33093166351 6.45116615295 12.9755268097 19.2115592957 23.0576095581 23.054561615 19.1973972321 12.9590129852 6.43537950516 2.33031225204 2.31382775307 5.91833162308 11.7897949219 17.4257621765 20.8750667572 20.8724308014 17.4130344391 11.774851799 5.90427684784 2.31333732605 2.29010367393 5.02091169357 9.69147014618 14.2108287811 16.8241539001 16.8221607208 14.2009849548 9.67920303345 5.00990486145 2.28979730606 2.26529717445 3.82719254494 6.67498445511 9.37059497833 10.9427337646 10.9418325424 9.36410713196 6.66730070114 3.82053828239 2.26518249512 
2.26535320282 3.83000087738 6.68304920197 9.38510036469 10.9605674744 10.9593095779 9.37917709351 6.67568302155 3.82343959808 2.26524138451 2.29017066956 5.02291059494 9.69699764252 14.2193403244 16.8355903625 16.8335361481 14.20936203 9.68487644196 5.01196622849 2.2898645401 2.31387138367 5.9193315506 11.7924480438 17.4303722382 20.8825378418 20.8797950745 17.4176235199 11.7774648666 5.90527248383 2.31338119507 2.33095383644 6.45135402679 12.9763059616 19.2136917114 23.0625991821 23.059551239 19.1994953156 12.9597682953 6.43555450439 2.33033370972 2.34019899368 6.71857643127 13.5601034164 20.0734519958 24.0868873596 24.0837230682 20.0586223602 13.5428285599 6.70194101334 2.33950805664 2.34019231796 6.71836185455 13.5596399307 20.0727787018 24.0860919952 24.0829277039 20.0579471588 13.5423698425 6.70173072815 2.33950185776 2.33091759682 6.45025348663 12.9738969803 19.210105896 23.0582923889 23.0552425385 19.1959400177 12.9573860168 6.43446779251 2.33029818535 2.31381511688 5.91736125946 11.7880897522 17.4238872528 20.8736038208 20.8709640503 17.4111633301 11.7731456757 5.90330839157 2.3133251667 2.2900967598 5.01990556717 9.68966960907 14.2088537216 16.8221149445 16.8201217651 14.1990098953 9.67740058899 5.00890016556 2.28979063034 2.26530075073 3.82631015778 6.67324018478 9.3685503006 10.9404706955 10.9395675659 9.36206150055 6.66555738449 3.81965923309 2.2651860714 
2.26535463333 3.82971048355 6.68247938156 9.38443756104 10.9598331451 10.9585762024 9.37851524353 6.67511224747 3.82315135002 2.2652425766 2.29016876221 5.02258348465 9.69641780853 14.218708992 16.8349380493 16.8328857422 14.2087316513 9.68429660797 5.01163911819 2.28986239433 2.31386733055 5.91902065277 11.7919044495 17.4297885895 20.8820858002 20.8793411255 17.4170322418 11.776922226 5.904961586 2.31337738037 2.33094930649 6.45106363297 12.9757928848 19.2132492065 23.062877655 23.0598258972 19.199054718 12.9592590332 6.43526506424 2.33032941818 2.3401954174 6.7183008194 13.5596170425 20.0731887817 24.087802887 24.0846309662 20.0583572388 13.5423374176 6.70166730881 2.33950471878 2.34018826485 6.71808719635 13.5591487885 20.0725135803 24.0870018005 24.0838336945 20.0576820374 13.5418777466 6.70145654678 2.33949756622 2.33091259003 6.44996261597 12.9733829498 19.2096595764 23.0585727692 23.0555152893 19.1954956055 12.9568719864 6.43417835236 2.33029389381 2.3138115406 5.91704940796 11.7875442505 17.4232997894 20.8731479645 20.8705101013 17.4105739594 11.772603035 5.90299654007 2.31332135201 2.29009437561 5.01957702637 9.68908596039 14.2082204819 16.8214626312 16.8194694519 14.1983795166 9.676820755 5.0085735321 2.28978848457 2.26530170441 3.82602095604 6.67267036438 9.36788749695 10.9397382736 10.938835144 9.36139774323 6.66498708725 3.81937050819 2.26518750191 
2.26535511017 3.82960176468 6.68226909637 9.38419723511 10.9595718384 10.9583120346 9.37827396393 6.67490148544 3.82304263115 2.26524353027 2.29016780853 5.02246284485 9.69620895386 14.2184867859 16.8347148895 16.832660675 14.2085113525 9.68408870697 5.01151990891 2.28986144066 2.31386590004 5.91890954971 11.791718483 17.4295959473 20.8819484711 20.8792037964 17.4168395996 11.7767353058 5.90485048294 2.31337618828 2.33094787598 6.450963974 12.9756221771 19.2131156921 23.063035965 23.0599861145 19.198923111 12.9590883255 6.4351644516 2.33032774925 2.34019398689 6.71820831299 13.5594511032 20.0731315613 24.0882377625 24.085067749 20.0583000183 13.542178154 6.70157527924 2.33950352669 2.34018707275 6.71799516678 13.5589866638 20.0724563599 24.0874443054 24.084274292 20.0576248169 13.541718483 6.70136451721 2.33949661255 2.33091115952 6.44986343384 12.9732160568 19.209526062 23.0587291718 23.0556735992 19.1953639984 12.956700325 6.43407869339 2.33029198647 2.31381034851 5.91693878174 11.7873573303 17.4231052399 20.8730068207 20.8703727722 17.4103794098 11.7724142075 5.90288639069 2.31331992149 2.29009342194 5.0194568634 9.68887901306 14.2080011368 16.8212394714 16.8192443848 14.1981582642 9.67661190033 5.00845336914 2.28978776932 2.26530241966 3.82591199875 6.67245864868 9.36764621735 10.9394721985 10.9385719299 9.3611574173 6.66477632523 3.81926226616 2.26518774033 
