1.0 1.00000011921 0.999510884285 1.03131437302 1.09083640575 1.09081196785 1.03123044968 1.00000023842 1.0 1.0 0.999999940395 1.00212669373 1.07604825497 1.18697869778 1.28697228432 1.28694343567 1.18687021732 1.03646028042 1.00209712982 1.0 1.0 1.06370699406 1.16299009323 1.28634190559 1.39716899395 1.39714288712 1.28624022007 1.11340916157 1.06363868713 1.00000011921 1.0 1.10012531281 1.20192801952 1.31610250473 1.41100382805 1.41097736359 1.31601786613 1.15104269981 1.10006332397 1.00000011921 1.0 1.12756192684 1.2356313467 1.3454144001 1.42262327671 1.42260277271 1.34533524513 1.18131625652 1.12749993801 1.00000011921 1.0 1.12755131721 1.23561823368 1.3453950882 1.42272472382 1.42269814014 1.34530901909 1.18130874634 1.12748932838 1.00000011921 1.0 1.10007691383 1.20188546181 1.31599450111 1.41110789776 1.41107034683 1.31590390205 1.15099906921 1.10001456738 1.0 1.0 1.04388701916 1.13326203823 1.24731647968 1.36532366276 1.36531865597 1.2472012043 1.09061837196 1.04381644726 1.00000011921 1.0 1.0020891428 1.07594716549 1.18701696396 1.28717088699 1.28707385063 1.18698871136 1.03636991978 1.0020595789 1.00000011921 1.0 1.00000011921 0.999519884586 1.0311923027 1.09050321579 1.09057843685 1.03105282784 1.00000011921 1.0 0.999999940395 
1.0 1.00000011921 0.999510884285 1.03131437302 1.09083640575 1.09081196785 1.03123044968 1.00000023842 1.0 1.0 0.999999940395 1.00212669373 1.07604825497 1.18697869778 1.28697228432 1.28694343567 1.18687021732 1.03646028042 1.00209712982 1.0 1.0 1.06370699406 1.16299009323 1.28634190559 1.41344892979 1.41342425346 1.28624022007 1.11340916157 1.06363868713 1.00000011921 1.0 1.10012531281 1.20192801952 1.31611645222 1.43130457401 1.43127822876 1.31603205204 1.15104269981 1.10006332397 1.00000011921 1.0 1.12756192684 1.2356313467 1.34833216667 1.45230674744 1.45228505135 1.34826207161 1.18131625652 1.12749993801 1.00000011921 1.0 1.12755131721 1.23561823368 1.34830987453 1.45253252983 1.45249843597 1.34823048115 1.18130874634 1.12748932838 1.00000011921 1.0 1.10007691383 1.20188546181 1.31600821018 1.43154454231 1.43150007725 1.31591773033 1.15099906921 1.10001456738 1.0 1.0 1.04388701916 1.13326203823 1.24731647968 1.36630165577 1.36629736423 1.2472012043 1.09061837196 1.04381644726 1.00000011921 1.0 1.0020891428 1.07594716549 1.18701696396 1.28717088699 1.28707385063 1.18698871136 1.03636991978 1.0020595789 1.00000011921 1.0 1.00000011921 0.999519884586 1.0311923027 1.09050321579 1.09057843685 1.03105282784 1.00000011921 1.0 0.999999940395 
1.0 1.00000011921 0.999510884285 1.03131437302 1.09083640575 1.09081196785 1.03123044968 1.00000023842 1.0 1.0 0.999999940395 1.00212669373 1.07604825497 1.18697869778 1.28697228432 1.28694343567 1.18687021732 1.03646028042 1.00209712982 1.0 1.0 1.06370699406 1.16299009323 1.28634190559 1.41344845295 1.41342377663 1.28624022007 1.11340916157 1.06363868713 1.00000011921 1.0 1.10012531281 1.20192801952 1.31611645222 1.43130517006 1.43127906322 1.31603205204 1.15104269981 1.10006332397 1.00000011921 1.0 1.12756192684 1.2356313467 1.34833216667 1.45232522488 1.45230352879 1.34826207161 1.18131625652 1.12749993801 1.00000011921 1.0 1.12755131721 1.23561823368 1.34830987453 1.45255255699 1.45251846313 1.34823048115 1.18130874634 1.12748932838 1.00000011921 1.0 1.10007691383 1.20188546181 1.31600821018 1.43154609203 1.43150138855 1.31591773033 1.15099906921 1.10001456738 1.0 1.0 1.04388701916 1.13326203823 1.24731647968 1.36630165577 1.36629736423 1.2472012043 1.09061837196 1.04381644726 1.00000011921 1.0 1.0020891428 1.07594716549 1.18701696396 1.28717088699 1.28707385063 1.18698871136 1.03636991978 1.0020595789 1.00000011921 1.0 1.00000011921 0.999519884586 1.0311923027 1.09050321579 1.09057843685 1.03105282784 1.00000011921 1.0 0.999999940395 
1.0 1.00000011921 0.999510884285 1.03131437302 1.09083640575 1.09081196785 1.03123044968 1.00000023842 1.0 1.0 0.999999940395 1.00212669373 1.07604825497 1.18697869778 1.28697228432 1.28694343567 1.18687021732 1.03646028042 1.00209712982 1.0 1.0 1.06370699406 1.16299009323 1.28634190559 1.41344678402 1.41342246532 1.28624022007 1.11340916157 1.06363868713 1.00000011921 1.0 1.10012531281 1.20192801952 1.31611645222 1.43131005764 1.43128395081 1.31603205204 1.15104269981 1.10006332397 1.00000011921 1.0 1.12756192684 1.2356313467 1.34833216667 1.45233392715 1.45231223106 1.34826207161 1.18131625652 1.12749993801 1.00000011921 1.0 1.12755131721 1.23561823368 1.34830987453 1.45256137848 1.45252740383 1.34823048115 1.18130874634 1.12748932838 1.00000011921 1.0 1.10007691383 1.20188546181 1.31600821018 1.43155145645 1.43150699139 1.31591773033 1.15099906921 1.10001456738 1.0 1.0 1.04388701916 1.13326203823 1.24731647968 1.36630165577 1.36629736423 1.2472012043 1.09061837196 1.04381644726 1.00000011921 1.0 1.0020891428 1.07594716549 1.18701696396 1.28717088699 1.28707385063 1.18698871136 1.03636991978 1.0020595789 1.00000011921 1.0 1.00000011921 0.999519884586 1.0311923027 1.09050321579 1.09057843685 1.03105282784 1.00000011921 1.0 0.999999940395 
1.0 1.00000011921 0.999510884285 1.03131437302 1.09083640575 1.09081196785 1.03123044968 1.00000023842 1.0 1.0 0.999999940395 1.00212669373 1.07604825497 1.18697869778 1.28697228432 1.28694343567 1.18687021732 1.03646028042 1.00209712982 1.0 1.0 1.06370699406 1.16299009323 1.28634190559 1.41344487667 1.41342055798 1.28624022007 1.11340916157 1.06363868713 1.00000011921 1.0 1.10012531281 1.20192801952 1.31611645222 1.43131542206 1.43128919601 1.31603205204 1.15104269981 1.10006332397 1.00000011921 1.0 1.12756192684 1.2356313467 1.34833216667 1.45234286785 1.45232117176 1.34826207161 1.18131625652 1.12749993801 1.00000011921 1.0 1.12755131721 1.23561823368 1.34830987453 1.45257031918 1.45253634453 1.34823048115 1.18130874634 1.12748932838 1.00000011921 1.0 1.10007691383 1.20188546181 1.31600821018 1.43155801296 1.4315135479 1.31591773033 1.15099906921 1.10001456738 1.0 1.0 1.04388701916 1.13326203823 1.24731647968 1.36630165577 1.36629736423 1.2472012043 1.09061837196 1.04381644726 1.00000011921 1.0 1.0020891428 1.07594716549 1.18701696396 1.28717088699 1.28707385063 1.18698871136 1.03636991978 1.0020595789 1.00000011921 1.0 1.00000011921 0.999519884586 1.0311923027 1.09050321579 1.09057843685 1.03105282784 1.00000011921 1.0 0.999999940395 
1.0 1.00000011921 0.999510884285 1.03131437302 1.09083640575 1.09081196785 1.03123044968 1.00000023842 1.0 1.0 0.999999940395 1.00212669373 1.07604825497 1.18697869778 1.28697228432 1.28694343567 1.18687021732 1.03646028042 1.00209712982 1.0 1.0 1.06370699406 1.16299009323 1.28634190559 1.4134465456 1.41342234612 1.28624022007 1.11340916157 1.06363868713 1.00000011921 1.0 1.10012531281 1.20192801952 1.31611645222 1.43132209778 1.43129634857 1.31603205204 1.15104269981 1.10006332397 1.00000011921 1.0 1.12756192684 1.2356313467 1.34833216667 1.45235168934 1.45232987404 1.34826207161 1.18131625652 1.12749993801 1.00000011921 1.0 1.12755131721 1.23561823368 1.34830987453 1.45257902145 1.45254504681 1.34823048115 1.18130874634 1.12748932838 1.00000011921 1.0 1.10007691383 1.20188546181 1.31600821018 1.43156611919 1.43152165413 1.31591773033 1.15099906921 1.10001456738 1.0 1.0 1.04388701916 1.13326203823 1.24731647968 1.36630165577 1.36629736423 1.2472012043 1.09061837196 1.04381644726 1.00000011921 1.0 1.0020891428 1.07594716549 1.18701696396 1.28717088699 1.28707385063 1.18698871136 1.03636991978 1.0020595789 1.00000011921 1.0 1.00000011921 0.999519884586 1.0311923027 1.09050321579 1.09057843685 1.03105282784 1.00000011921 1.0 0.999999940395 
1.0 1.00000011921 0.999510884285 1.03131437302 1.09083640575 1.09081196785 1.03123044968 1.00000023842 1.0 1.0 0.999999940395 1.00212669373 1.07604825497 1.18697869778 1.28697228432 1.28694343567 1.18687021732 1.03646028042 1.00209712982 1.0 1.0 1.06370699406 1.16299009323 1.28634190559 1.41345393658 1.4134298563 1.28624022007 1.11340916157 1.06363868713 1.00000011921 1.0 1.10012531281 1.20192801952 1.31611645222 1.43133020401 1.43130409718 1.31603205204 1.15104269981 1.10006332397 1.00000011921 1.0 1.12756192684 1.2356313467 1.34833216667 1.45236027241 1.4523383379 1.34826207161 1.18131625652 1.12749993801 1.00000011921 1.0 1.12755131721 1.23561823368 1.34830987453 1.45258772373 1.45255374908 1.34823048115 1.18130874634 1.12748932838 1.00000011921 1.0 1.10007691383 1.20188546181 1.31600821018 1.43157422543 1.43152952194 1.31591773033 1.15099906921 1.10001456738 1.0 1.0 1.04388701916 1.13326203823 1.24731647968 1.36630165577 1.36629736423 1.2472012043 1.09061837196 1.04381644726 1.00000011921 1.0 1.0020891428 1.07594716549 1.18701696396 1.28717088699 1.28707385063 1.18698871136 1.03636991978 1.0020595789 1.00000011921 1.0 1.00000011921 0.999519884586 1.0311923027 1.09050321579 1.09057843685 1.03105282784 1.00000011921 1.0 0.999999940395 
