14.0009698868 13.7818861008 13.0389213562 11.8626365662 11.0976486206 11.0982894897 11.8654909134 13.0415220261 13.7831602097 14.000992775 21.9888019562 21.5987052917 20.5209369659 18.9178333282 17.86353302 17.8643894196 18.9217300415 20.5245494843 21.6006412506 21.9889030457 29.9798278809 29.5113639832 28.5334091187 27.2014274597 26.2834014893 26.2841567993 27.2047119141 28.5364494324 29.5133361816 29.9799804688 37.9818572998 37.6361045837 36.9934310913 36.1759567261 35.6202049255 35.6206550598 36.177947998 36.995349884 37.6374588013 37.9819984436 45.9984664917 45.8708992004 45.6477165222 45.376121521 45.1941719055 45.1943092346 45.3767662048 45.6483573914 45.8713722229 45.9985237122 54.0215911865 54.1498603821 54.3743019104 54.6473922729 54.8306121826 54.8304519653 54.6467208862 54.3736457825 54.1493759155 54.0215301514 62.0381546021 62.3843841553 63.028137207 63.8470611572 64.4038619995 64.4034118652 63.8450622559 63.026222229 62.383026123 62.0380096436 70.0401611328 70.5086975098 71.4873275757 72.8209762573 73.7389984131 73.738319397 72.817779541 71.4842834473 70.5067138672 70.0399932861 78.0311737061 78.4207763672 79.498374939 81.1023406982 82.1567230225 82.1558837891 81.0986404419 79.4947357178 78.4188232422 78.0310592651 86.0190200806 86.2376022339 86.9787521362 88.1513748169 88.9136962891 88.91355896 88.1482772827 86.97605896 86.2363052368 86.018989563 
14.0009222031 13.7816104889 13.038602829 11.8622303009 11.0972862244 11.0979280472 11.8650846481 13.0412015915 13.7828855515 14.0009460449 21.9887466431 21.5982913971 20.5200977325 18.9161777496 17.8611507416 17.8620052338 18.9200763702 20.5237083435 21.600227356 21.9888496399 29.9797782898 29.5108680725 28.5321788788 27.1987476349 26.2785930634 26.2793464661 27.2020359039 28.5352191925 29.5128517151 29.979932785 37.9818153381 37.6357002258 36.9923171997 36.1727561951 35.6136283875 35.6140899658 36.1747589111 36.9942245483 37.6370544434 37.9819602966 45.9984512329 45.8707427979 45.6472587585 45.3746490479 45.1914596558 45.1916046143 45.3753051758 45.6479034424 45.8712158203 45.9985046387 54.0216026306 54.1500244141 54.3747673035 54.6488838196 54.8333740234 54.8332099915 54.6482086182 54.3741035461 54.1495323181 54.0215454102 62.0381965637 62.3847923279 63.0292778015 63.8502578735 64.4104156494 64.4099655151 63.8482551575 63.0273551941 62.383430481 62.0380477905 70.0402069092 70.5091934204 71.4885253906 72.8236618042 73.7437973022 73.7431182861 72.8204498291 71.4855270386 70.507194519 70.0400543213 78.031211853 78.4212036133 79.4992218018 81.1040039062 82.1591033936 82.1582489014 81.1002960205 79.4955825806 78.4192428589 78.0311203003 86.0190582275 86.2378768921 86.9790802002 88.1517868042 88.9140777588 88.9139099121 88.1486663818 86.9763565063 86.2365875244 86.01902771 
14.0009222031 13.7816095352 13.0385951996 11.8622150421 11.0972614288 11.097902298 11.8650684357 13.0411939621 13.7828826904 14.0009460449 21.9887466431 21.5982837677 20.5200881958 18.9161529541 17.8611221313 17.8619728088 18.9200553894 20.5236988068 21.6002235413 21.9888477325 29.9797744751 29.5108661652 28.53216362 27.198720932 26.2785568237 26.2793121338 27.2020072937 28.5352039337 29.5128440857 29.9799289703 37.9818153381 37.6356964111 36.9923057556 36.1727333069 35.6135940552 35.6140441895 36.1747360229 36.9942245483 37.637046814 37.9819602966 45.9984512329 45.8707427979 45.6472587585 45.3746376038 45.1914520264 45.1915893555 45.375289917 45.647895813 45.8712158203 45.9985046387 54.0216026306 54.1500205994 54.3747634888 54.648891449 54.8333892822 54.8332290649 54.6482086182 54.3741149902 54.1495323181 54.0215454102 62.0381965637 62.3847999573 63.0292778015 63.8502807617 64.4104614258 64.4100036621 63.8482818604 63.0273628235 62.383430481 62.0380477905 70.0402069092 70.5092010498 71.4885559082 72.8236846924 73.743850708 73.7431564331 72.8204727173 71.4855270386 70.5072021484 70.0400543213 78.031211853 78.4212036133 79.4992294312 81.104019165 82.1591339111 82.1582870483 81.1003189087 79.4955978394 78.4192504883 78.0311203003 86.0190582275 86.2378768921 86.9790802002 88.151802063 88.9140853882 88.9139404297 88.14868927 86.9763565063 86.2365875244 86.01902771 
14.0009222031 13.7816085815 13.0385894775 11.8621959686 11.0972366333 11.0978765488 11.8650503159 13.0411863327 13.7828817368 14.0009460449 21.9887466431 21.5982818604 20.5200748444 18.9161300659 17.8610897064 17.8619441986 18.9200305939 20.5236854553 21.6002159119 21.9888477325 29.9797744751 29.5108623505 28.5321445465 27.1986999512 26.2785186768 26.2792778015 27.2019863129 28.5351963043 29.5128440857 29.9799289703 37.9818153381 37.6356925964 36.9922943115 36.1727142334 35.6135559082 35.6140136719 36.1747131348 36.9942131042 37.637046814 37.9819602966 45.9984512329 45.8707351685 45.6472473145 45.3746299744 45.1914291382 45.1915779114 45.3752861023 45.647895813 45.8712158203 45.9985046387 54.0216026306 54.1500244141 54.3747787476 54.648891449 54.8334083557 54.8332366943 54.648223877 54.3741188049 54.1495323181 54.0215454102 62.0381965637 62.3847961426 63.0292816162 63.8503036499 64.4104919434 64.4100494385 63.8483009338 63.0273780823 62.383441925 62.0380477905 70.0402069092 70.5092010498 71.4885787964 72.8236999512 73.7438659668 73.7432098389 72.8205108643 71.4855575562 70.5072097778 70.0400543213 78.031211853 78.4212036133 79.4992523193 81.1040496826 82.1591567993 82.1583099365 81.1003417969 79.4955978394 78.4192504883 78.0311203003 86.0190734863 86.2378768921 86.9790802002 88.1518173218 88.9141082764 88.9139709473 88.1487045288 86.9763565063 86.236579895 86.01902771 
14.0009222031 13.7816066742 13.0385808945 11.8621768951 11.0972080231 11.0978498459 11.865032196 13.0411787033 13.7828807831 14.0009460449 21.9887466431 21.5982818604 20.5200634003 18.9161090851 17.8610572815 17.8619117737 18.920009613 20.5236759186 21.6002178192 21.9888477325 29.9797744751 29.5108585358 28.5321331024 27.1986751556 26.2784824371 26.2792377472 27.2019577026 28.5351791382 29.5128364563 29.9799289703 37.9818153381 37.6356887817 36.9922866821 36.1726875305 35.6135253906 35.6139793396 36.1746864319 36.9942054749 37.6370391846 37.9819602966 45.9984512329 45.8707351685 45.6472511292 45.374622345 45.1914215088 45.1915664673 45.3752746582 45.6478919983 45.8712120056 45.9985046387 54.0216026306 54.1500244141 54.3747749329 54.6489028931 54.8334083557 54.8332519531 54.648235321 54.3741188049 54.1495361328 54.0215454102 62.0381965637 62.3847923279 63.0293006897 63.8503265381 64.4105300903 64.4100723267 63.8483314514 63.0273704529 62.383441925 62.0380477905 70.0402069092 70.5092010498 71.4885787964 72.8237304688 73.7439117432 73.7432327271 72.8205184937 71.4855575562 70.5072174072 70.0400543213 78.031211853 78.4212036133 79.4992599487 81.1040725708 82.1591796875 82.1583480835 81.1003646851 79.4956054688 78.4192504883 78.0311203003 86.0190734863 86.2378768921 86.9791030884 88.1518325806 88.9141464233 88.9139785767 88.1487197876 86.9763946533 86.2365875244 86.01902771 
14.0009231567 13.7816047668 13.0385732651 11.8621587753 11.0971832275 11.0978250504 11.8650121689 13.0411710739 13.7828788757 14.0009460449 21.9887466431 21.598279953 20.5200538635 18.9160842896 17.8610305786 17.8618812561 18.9199848175 20.5236625671 21.6002159119 21.9888477325 29.9797744751 29.5108566284 28.5321216583 27.1986446381 26.2784347534 26.2791919708 27.2019309998 28.5351696014 29.5128364563 29.9799289703 37.9818153381 37.6356887817 36.9922828674 36.172668457 35.6134872437 35.6139450073 36.1746635437 36.9941902161 37.6370391846 37.9819564819 45.9984512329 45.8707351685 45.6472473145 45.3746185303 45.1914100647 45.1915588379 45.3752632141 45.6478843689 45.8712120056 45.9985046387 54.0216026306 54.1500205994 54.3747825623 54.6489181519 54.8334274292 54.8332633972 54.6482429504 54.3741188049 54.1495361328 54.0215454102 62.0381965637 62.3847923279 63.0293045044 63.8503417969 64.4105606079 64.4101104736 63.8483467102 63.0273933411 62.3834457397 62.0380477905 70.0402069092 70.5092010498 71.488609314 72.8237609863 73.7439422607 73.7432632446 72.8205566406 71.4855728149 70.5072097778 70.0400543213 78.031211853 78.4212112427 79.4992752075 81.104095459 82.1592178345 82.1583786011 81.100402832 79.4956207275 78.4192504883 78.0311203003 86.0190734863 86.2378768921 86.9791030884 88.1518554688 88.9141693115 88.9140090942 88.1487426758 86.9763870239 86.2365875244 86.01902771 
14.0009231567 13.7816047668 13.0385656357 11.8621416092 11.0971565247 11.0977993011 11.8649959564 13.0411653519 13.7828807831 14.0009469986 21.9887466431 21.598274231 20.5200424194 18.916059494 17.8609924316 17.8618469238 18.9199619293 20.523651123 21.6002120972 21.9888477325 29.9797744751 29.5108528137 28.5321140289 27.1986179352 26.2784004211 26.2791538239 27.2019100189 28.5351543427 29.5128307343 29.9799289703 37.9818153381 37.6356887817 36.9922714233 36.1726455688 35.6134529114 35.6139144897 36.1746444702 36.9941749573 37.6370429993 37.9819564819 45.9984512329 45.8707275391 45.6472511292 45.3746032715 45.1913948059 45.1915435791 45.3752593994 45.6478843689 45.8712120056 45.9985046387 54.0216026306 54.1500244141 54.3747825623 54.6489257812 54.833442688 54.8332824707 54.6482467651 54.3741226196 54.1495361328 54.0215454102 62.0381965637 62.3847999573 63.0293121338 63.8503761292 64.4105987549 64.4101409912 63.8483734131 63.0274009705 62.3834381104 62.0380477905 70.0402069092 70.5092010498 71.4886016846 72.8237838745 73.7439956665 73.743309021 72.8205871582 71.4855728149 70.5072250366 70.0400543213 78.031211853 78.4212112427 79.4992752075 81.1041107178 82.1592483521 82.1584091187 81.1004104614 79.4956359863 78.4192581177 78.0311203003 86.0190734863 86.2378845215 86.9791107178 88.1518630981 88.9141921997 88.9140396118 88.148765564 86.9764022827 86.2365875244 86.01902771 
