14.0041227341 13.7970104218 13.0344724655 11.8373308182 11.0631580353 11.0638160706 11.8402175903 13.0371303558 13.7983188629 14.0041303635 21.9919662476 21.6219329834 20.5239868164 18.9273529053 17.9311676025 17.9319858551 18.9310569763 20.5276927948 21.6238384247 21.9920501709 29.9792461395 29.4975891113 28.4850254059 27.2073917389 26.390668869 26.3913383484 27.2103786469 28.4880962372 29.4996509552 29.9794006348 37.9800186157 37.6087417603 36.9543914795 36.1892738342 35.6999130249 35.7003173828 36.1910552979 36.9562797546 37.6101608276 37.9801750183 45.9973754883 45.859703064 45.6344299316 45.382484436 45.2220840454 45.2222099304 45.38306427 45.6350593567 45.8602027893 45.9974327087 54.0226860046 54.1610641479 54.3875160217 54.6407546997 54.8021125793 54.8019714355 54.6401672363 54.386882782 54.1605682373 54.0226249695 62.0400009155 62.4117355347 63.0671005249 63.8335113525 64.3237609863 64.3233566284 63.8317260742 63.0652198792 62.410320282 62.0398483276 70.0407409668 70.522354126 71.5355224609 72.8146591187 73.6315765381 73.6309204102 72.8116989136 71.5324478149 70.5203094482 70.0405883789 78.0279769897 78.3976364136 79.4952926636 81.0925521851 82.0888671875 82.0880432129 81.0889282227 79.4915924072 78.3957595825 78.0279006958 86.01587677 86.2225952148 86.9836578369 88.177230835 88.9487762451 88.9484634399 88.1743087769 86.9811325073 86.2213134766 86.0158615112 
14.0029993057 13.7943658829 13.0461330414 11.8681316376 11.105594635 11.1062526703 11.8709774017 13.0487422943 13.7956542969 14.0030136108 21.9908657074 21.6187400818 20.5298652649 18.9339828491 17.9275379181 17.9283771515 18.9377098083 20.5335464478 21.6206321716 21.9909591675 29.9784698486 29.4936714172 28.4810752869 27.1884689331 26.3393440247 26.3400535583 27.1915340424 28.4841480255 29.4957332611 29.9786300659 37.9795074463 37.6050872803 36.9464836121 36.1597518921 35.6431312561 35.6435546875 36.161605835 36.948387146 37.6065101624 37.9796638489 45.9971885681 45.858127594 45.6299247742 45.3686180115 45.1983680725 45.1985015869 45.3692245483 45.630569458 45.8586235046 45.9972572327 54.0228729248 54.1626548767 54.3920516968 54.6546897888 54.8260040283 54.8258514404 54.6540603638 54.3913955688 54.1621437073 54.022808075 62.0405197144 62.4153862 63.0750083923 63.86302948 64.3805541992 64.3801193237 63.8611717224 63.0731048584 62.4139709473 62.0403594971 70.041519165 70.5262756348 71.5394515991 72.8335113525 73.6827545166 73.6820831299 72.8304901123 71.5363616943 70.5242233276 70.0413589478 78.029083252 78.4008255005 79.4893722534 81.0858535767 82.0923233032 82.0914764404 81.0822219849 79.4857177734 78.3989562988 78.0289840698 86.0169906616 86.2252349854 86.9720306396 88.1463775635 88.9063720703 88.9060668945 88.1434707642 86.9695663452 86.2239837646 86.0169677734 
14.0029945374 13.7943782806 13.0463056564 11.8685321808 11.1061410904 11.1068000793 11.8713760376 13.0489149094 13.7956666946 14.0030078888 21.9908638 21.618768692 20.5300731659 18.9343738556 17.9280033112 17.9288406372 18.9380989075 20.5337486267 21.6206626892 21.9909534454 29.9784679413 29.4937057495 28.481256485 27.1888027191 26.3397350311 26.3404426575 27.191865921 28.484331131 29.4957695007 29.9786300659 37.9795074463 37.6051177979 36.9465942383 36.1599693298 35.6433792114 35.6438102722 36.1618270874 36.9485092163 37.6065406799 37.9796638489 45.9971885681 45.8581390381 45.6299667358 45.3686943054 45.1984481812 45.1985855103 45.3693008423 45.6305999756 45.8586463928 45.997253418 54.0228729248 54.1626319885 54.3920059204 54.6546211243 54.825920105 54.8257751465 54.6539955139 54.3913650513 54.1621322632 54.022808075 62.040512085 62.4153594971 63.0748901367 63.8628082275 64.3803100586 64.3798751831 63.86095047 63.0729866028 62.4139404297 62.0403594971 70.0415115356 70.5262298584 71.5392837524 72.833190918 73.6823577881 73.6817016602 72.8301620483 71.5362014771 70.5241775513 70.0413589478 78.029083252 78.4007949829 79.4891738892 81.0854644775 82.0918655396 82.0910186768 81.0818252563 79.4855194092 78.3989334106 78.0289916992 86.016998291 86.225227356 86.971862793 88.145980835 88.9057998657 88.9055328369 88.1430664062 86.9693984985 86.2239685059 86.0169830322 
14.0029945374 13.7943763733 13.046295166 11.8685092926 11.1061096191 11.1067676544 11.8713512421 13.0489053726 13.7956647873 14.0030078888 21.9908638 21.6187705994 20.5300579071 18.9343509674 17.9279747009 17.928812027 18.938079834 20.5337371826 21.6206645966 21.9909534454 29.9784679413 29.4937057495 28.4812469482 27.188785553 26.3397102356 26.3404216766 27.1918449402 28.4843158722 29.495765686 29.9786300659 37.9795074463 37.6051177979 36.9465942383 36.1599578857 35.6433601379 35.6437911987 36.1618156433 36.9485015869 37.6065368652 37.9796638489 45.9971885681 45.8581390381 45.6299667358 45.368686676 45.1984519958 45.1985816956 45.3692893982 45.6305961609 45.8586425781 45.997253418 54.0228729248 54.1626358032 54.3920059204 54.6546173096 54.825920105 54.8257675171 54.6539993286 54.3913650513 54.1621322632 54.022808075 62.040512085 62.4153594971 63.0748939514 63.8628234863 64.380317688 64.3798904419 63.8609619141 63.0729904175 62.4139404297 62.0403594971 70.0415115356 70.5262374878 71.5392913818 72.8332061768 73.6823806763 73.6817169189 72.8301773071 71.5362014771 70.5241851807 70.0413589478 78.029083252 78.4008026123 79.4891891479 81.0854797363 82.0919036865 82.0910415649 81.0818481445 79.485534668 78.3989334106 78.0289916992 86.016998291 86.225227356 86.9718780518 88.1459960938 88.9058380127 88.9055557251 88.1430892944 86.9693984985 86.2239685059 86.0169830322 
14.0029964447 13.7943754196 13.0462865829 11.8684854507 11.1060762405 11.1067333221 11.8713283539 13.0488939285 13.7956638336 14.0030097961 21.9908638 21.618768692 20.5300483704 18.9343261719 17.927947998 17.9287834167 18.9380531311 20.5337257385 21.6206588745 21.9909534454 29.9784679413 29.4937076569 28.4812355042 27.1887664795 26.3396873474 26.3403930664 27.1918296814 28.4843044281 29.495765686 29.9786300659 37.9795074463 37.6051177979 36.9465789795 36.159942627 35.6433486938 35.6437759399 36.1618003845 36.9484901428 37.6065368652 37.9796638489 45.9971885681 45.8581390381 45.6299591064 45.3686790466 45.1984443665 45.1985816956 45.3692855835 45.6305961609 45.8586463928 45.997253418 54.0228729248 54.1626434326 54.3920097351 54.654624939 54.8259277344 54.8257789612 54.6540031433 54.3913650513 54.1621360779 54.022808075 62.040512085 62.4153709412 63.0749015808 63.8628387451 64.3803329468 64.3799057007 63.8609848022 63.0729942322 62.4139480591 62.0403594971 70.0415115356 70.5262451172 71.5392913818 72.8332214355 73.6824111938 73.6817398071 72.8302001953 71.5362014771 70.5241928101 70.0413589478 78.029083252 78.4007873535 79.4892044067 81.0855178833 82.0919189453 82.0910644531 81.0818862915 79.485534668 78.3989334106 78.0289916992 86.0169906616 86.225227356 86.9718780518 88.1460189819 88.9058837891 88.9055786133 88.1431274414 86.9694061279 86.2239685059 86.0169830322 
14.0029964447 13.7943754196 13.0462732315 11.8684597015 11.1060419083 11.1067018509 11.8713026047 13.0488843918 13.7956619263 14.0030097961 21.9908657074 21.6187667847 20.5300331116 18.9343032837 17.9279193878 17.9287548065 18.9380283356 20.5337142944 21.6206588745 21.9909534454 29.9784679413 29.4937038422 28.4812240601 27.1887454987 26.3396644592 26.3403701782 27.1918048859 28.4842987061 29.495765686 29.9786300659 37.9795074463 37.6051139832 36.9465751648 36.1599273682 35.6433410645 35.6437606812 36.1617889404 36.9484863281 37.6065368652 37.9796638489 45.9971885681 45.8581314087 45.6299552917 45.3686790466 45.1984405518 45.1985702515 45.3692855835 45.6305961609 45.8586463928 45.997253418 54.0228729248 54.1626434326 54.3920135498 54.6546325684 54.8259353638 54.8257865906 54.654006958 54.3913726807 54.1621360779 54.022808075 62.040512085 62.4153709412 63.0749053955 63.8628463745 64.3803482056 64.3799209595 63.8609924316 63.0730018616 62.4139480591 62.0403594971 70.0415115356 70.5262451172 71.5392913818 72.8332519531 73.6824417114 73.6817550659 72.8302307129 71.5362243652 70.5242004395 70.0413589478 78.029083252 78.4007873535 79.4892044067 81.0855178833 82.0919494629 82.0910949707 81.0819015503 79.4855422974 78.3989334106 78.0289916992 86.0169906616 86.2252349854 86.9718933105 88.1460418701 88.9058990479 88.9056167603 88.143157959 86.9694290161 86.2239685059 86.0169830322 
14.0029964447 13.7943725586 13.0462636948 11.868434906 11.106010437 11.1066684723 11.8712797165 13.048874855 13.7956619263 14.0030097961 21.9908657074 21.6187610626 20.5300216675 18.9342765808 17.9278926849 17.9287281036 18.9380054474 20.5337028503 21.6206550598 21.9909534454 29.9784679413 29.4937000275 28.481212616 27.1887245178 26.339641571 26.3403491974 27.1917877197 28.484287262 29.4957618713 29.9786300659 37.9795074463 37.6051101685 36.9465675354 36.1599159241 35.6433181763 35.6437416077 36.1617698669 36.9484786987 37.6065368652 37.9796638489 45.9971885681 45.8581352234 45.6299552917 45.3686676025 45.1984329224 45.1985702515 45.3692817688 45.6305885315 45.8586387634 45.997253418 54.0228729248 54.1626434326 54.3920211792 54.6546325684 54.8259468079 54.8257827759 54.654006958 54.3913650513 54.1621360779 54.022808075 62.040512085 62.4153633118 63.0749130249 63.8628616333 64.3803710938 64.3799285889 63.8610038757 63.0730171204 62.4139556885 62.0403594971 70.0415115356 70.5262451172 71.5393218994 72.8332672119 73.6824569702 73.6817779541 72.8302459717 71.5362319946 70.5242004395 70.0413589478 78.029083252 78.4007949829 79.4892349243 81.0855484009 82.0919952393 82.0911254883 81.0819244385 79.4855651855 78.3989334106 78.0289916992 86.0169906616 86.225227356 86.9718933105 88.1460723877 88.905960083 88.9056396484 88.143157959 86.9694519043 86.2239685059 86.0169830322 
