1.0 1.00000011921 0.995929658413 1.05114281178 1.10317802429 1.10315752029 1.05106985569 1.00000023842 1.0 1.0 0.999999940395 1.00139081478 1.08429658413 1.17591762543 1.24263572693 1.24261772633 1.1758491993 1.03807210922 1.00136733055 1.0 1.0 1.05951309204 1.16286718845 1.25043296814 1.28496897221 1.28495693207 1.25037181377 1.10842227936 1.05944144726 1.00000011921 1.0 1.09319531918 1.19611561298 1.26454794407 1.29069256783 1.29068398476 1.26449680328 1.14171481133 1.09313261509 1.00000011921 1.0 1.11810207367 1.21740698814 1.27325081825 1.29327523708 1.29326951504 1.2732104063 1.16764140129 1.11804246902 1.00000011921 1.0 1.11809372902 1.21740067005 1.27324414253 1.29328835011 1.29328203201 1.27320194244 1.16763544083 1.11803424358 1.00000011921 1.0 1.09315395355 1.19608390331 1.26450383663 1.2906973362 1.29068732262 1.26445102692 1.14167773724 1.09309160709 1.0 1.0 1.04048407078 1.13705611229 1.23326563835 1.2813668251 1.28136003017 1.23319411278 1.0890532732 1.0404099226 1.00000011921 1.0 1.0013667345 1.0842192173 1.17589235306 1.24265742302 1.24261426926 1.17584359646 1.03799676895 1.00134396553 1.00000011921 1.0 1.00000011921 0.995945096016 1.05103647709 1.10299217701 1.10302662849 1.05094408989 1.00000011921 1.0 0.999999940395 
1.0 1.00000011921 0.995929658413 1.05114281178 1.10317802429 1.10315752029 1.05106985569 1.00000023842 1.0 1.0 0.999999940395 1.00139081478 1.08429658413 1.17591762543 1.25216495991 1.25214719772 1.1758491993 1.03807210922 1.00136733055 1.0 1.0 1.05951309204 1.16286718845 1.26578700542 1.36259067059 1.36257970333 1.26572620869 1.10842227936 1.05944144726 1.00000011921 1.0 1.09319531918 1.19770336151 1.2945754528 1.38575577736 1.3857446909 1.29452610016 1.14171481133 1.09313261509 1.00000011921 1.0 1.11810207367 1.22790050507 1.3249206543 1.40507888794 1.40507173538 1.32488226891 1.16764140129 1.11804246902 1.00000011921 1.0 1.11809372902 1.22789251804 1.32490134239 1.405169487 1.40515697002 1.32485747337 1.16763544083 1.11803424358 1.00000011921 1.0 1.09315395355 1.19766998291 1.29449832439 1.38585031033 1.38583076 1.29444432259 1.14167773724 1.09309160709 1.0 1.0 1.04048407078 1.13705611229 1.23444366455 1.32537543774 1.32537138462 1.23437201977 1.0890532732 1.0404099226 1.00000011921 1.0 1.0013667345 1.0842192173 1.17589235306 1.2522213459 1.25216674805 1.17584359646 1.03799676895 1.00134396553 1.00000011921 1.0 1.00000011921 0.995945096016 1.05103647709 1.10299217701 1.10302662849 1.05094408989 1.00000011921 1.0 0.999999940395 
1.0 1.00000011921 0.995929658413 1.05114281178 1.10317802429 1.10315752029 1.05106985569 1.00000023842 1.0 1.0 0.999999940395 1.00139081478 1.08429658413 1.17591762543 1.25216495991 1.25214719772 1.1758491993 1.03807210922 1.00136733055 1.0 1.0 1.05951309204 1.16286718845 1.26578700542 1.36302852631 1.36301779747 1.26572620869 1.10842227936 1.05944144726 1.00000011921 1.0 1.09319531918 1.19770336151 1.2945754528 1.38778424263 1.38777387142 1.29452610016 1.14171481133 1.09313261509 1.00000011921 1.0 1.11810207367 1.22790050507 1.32537055016 1.41027843952 1.41027235985 1.3253326416 1.16764140129 1.11804246902 1.00000011921 1.0 1.11809372902 1.22789251804 1.32535254955 1.41039454937 1.41038167477 1.32530832291 1.16763544083 1.11803424358 1.00000011921 1.0 1.09315395355 1.19766998291 1.29449832439 1.38790202141 1.38788282871 1.29444432259 1.14167773724 1.09309160709 1.0 1.0 1.04048407078 1.13705611229 1.23444366455 1.32537543774 1.32537138462 1.23437201977 1.0890532732 1.0404099226 1.00000011921 1.0 1.0013667345 1.0842192173 1.17589235306 1.2522213459 1.25216674805 1.17584359646 1.03799676895 1.00134396553 1.00000011921 1.0 1.00000011921 0.995945096016 1.05103647709 1.10299217701 1.10302662849 1.05094408989 1.00000011921 1.0 0.999999940395 
1.0 1.00000011921 0.995929658413 1.05114281178 1.10317802429 1.10315752029 1.05106985569 1.00000023842 1.0 1.0 0.999999940395 1.00139081478 1.08429658413 1.17591762543 1.25216495991 1.25214719772 1.1758491993 1.03807210922 1.00136733055 1.0 1.0 1.05951309204 1.16286718845 1.26578700542 1.36302852631 1.36301779747 1.26572620869 1.10842227936 1.05944144726 1.00000011921 1.0 1.09319531918 1.19770336151 1.2945754528 1.38778924942 1.38777923584 1.29452610016 1.14171481133 1.09313261509 1.00000011921 1.0 1.11810207367 1.22790050507 1.32538437843 1.41041409969 1.41040825844 1.32534635067 1.16764140129 1.11804246902 1.00000011921 1.0 1.11809372902 1.22789251804 1.32536661625 1.41053235531 1.41051959991 1.3253223896 1.16763544083 1.11803424358 1.00000011921 1.0 1.09315395355 1.19766998291 1.29449832439 1.38790857792 1.3878891468 1.29444432259 1.14167773724 1.09309160709 1.0 1.0 1.04048407078 1.13705611229 1.23444366455 1.32537543774 1.32537138462 1.23437201977 1.0890532732 1.0404099226 1.00000011921 1.0 1.0013667345 1.0842192173 1.17589235306 1.2522213459 1.25216674805 1.17584359646 1.03799676895 1.00134396553 1.00000011921 1.0 1.00000011921 0.995945096016 1.05103647709 1.10299217701 1.10302662849 1.05094408989 1.00000011921 1.0 0.999999940395 
1.0 1.00000011921 0.995929658413 1.05114281178 1.10317802429 1.10315752029 1.05106985569 1.00000023842 1.0 1.0 0.999999940395 1.00139081478 1.08429658413 1.17591762543 1.25216495991 1.25214719772 1.1758491993 1.03807210922 1.00136733055 1.0 1.0 1.05951309204 1.16286718845 1.26578700542 1.36302852631 1.36301779747 1.26572620869 1.10842227936 1.05944144726 1.00000011921 1.0 1.09319531918 1.19770336151 1.2945754528 1.38779425621 1.38778424263 1.29452610016 1.14171481133 1.09313261509 1.00000011921 1.0 1.11810207367 1.22790050507 1.32539224625 1.41042625904 1.41042029858 1.3253544569 1.16764140129 1.11804246902 1.00000011921 1.0 1.11809372902 1.22789251804 1.32537484169 1.41054475307 1.41053199768 1.32533037663 1.16763544083 1.11803424358 1.00000011921 1.0 1.09315395355 1.19766998291 1.29449832439 1.38791394234 1.38789474964 1.29444432259 1.14167773724 1.09309160709 1.0 1.0 1.04048407078 1.13705611229 1.23444366455 1.32537543774 1.32537138462 1.23437201977 1.0890532732 1.0404099226 1.00000011921 1.0 1.0013667345 1.0842192173 1.17589235306 1.2522213459 1.25216674805 1.17584359646 1.03799676895 1.00134396553 1.00000011921 1.0 1.00000011921 0.995945096016 1.05103647709 1.10299217701 1.10302662849 1.05094408989 1.00000011921 1.0 0.999999940395 
1.0 1.00000011921 0.995929658413 1.05114281178 1.10317802429 1.10315752029 1.05106985569 1.00000023842 1.0 1.0 0.999999940395 1.00139081478 1.08429658413 1.17591762543 1.25216495991 1.25214719772 1.1758491993 1.03807210922 1.00136733055 1.0 1.0 1.05951309204 1.16286718845 1.26578700542 1.36302852631 1.36301779747 1.26572620869 1.10842227936 1.05944144726 1.00000011921 1.0 1.09319531918 1.19770336151 1.2945754528 1.38780081272 1.38779091835 1.29452610016 1.14171481133 1.09313261509 1.00000011921 1.0 1.11810207367 1.22790050507 1.32540023327 1.41043567657 1.41042971611 1.32536220551 1.16764140129 1.11804246902 1.00000011921 1.0 1.11809372902 1.22789251804 1.32538259029 1.41055393219 1.41054129601 1.32533812523 1.16763544083 1.11803424358 1.00000011921 1.0 1.09315395355 1.19766998291 1.29449832439 1.38792061806 1.38790142536 1.29444432259 1.14167773724 1.09309160709 1.0 1.0 1.04048407078 1.13705611229 1.23444366455 1.32537543774 1.32537138462 1.23437201977 1.0890532732 1.0404099226 1.00000011921 1.0 1.0013667345 1.0842192173 1.17589235306 1.2522213459 1.25216674805 1.17584359646 1.03799676895 1.00134396553 1.00000011921 1.0 1.00000011921 0.995945096016 1.05103647709 1.10299217701 1.10302662849 1.05094408989 1.00000011921 1.0 0.999999940395 
1.0 1.00000011921 0.995929658413 1.05114281178 1.10317802429 1.10315752029 1.05106985569 1.00000023842 1.0 1.0 0.999999940395 1.00139081478 1.08429658413 1.17591762543 1.25216495991 1.25214719772 1.1758491993 1.03807210922 1.00136733055 1.0 1.0 1.05951309204 1.16286718845 1.26578700542 1.36302852631 1.36301779747 1.26572620869 1.10842227936 1.05944144726 1.00000011921 1.0 1.09319531918 1.19770336151 1.2945754528 1.3878082037 1.38779807091 1.29452610016 1.14171481133 1.09313261509 1.00000011921 1.0 1.11810207367 1.22790050507 1.32540786266 1.41044461727 1.41043877602 1.3253698349 1.16764140129 1.11804246902 1.00000011921 1.0 1.11809372902 1.22789251804 1.3253903389 1.41056311131 1.41055035591 1.32534611225 1.16763544083 1.11803424358 1.00000011921 1.0 1.09315395355 1.19766998291 1.29449832439 1.38792777061 1.38790857792 1.29444432259 1.14167773724 1.09309160709 1.0 1.0 1.04048407078 1.13705611229 1.23444366455 1.32537543774 1.32537138462 1.23437201977 1.0890532732 1.0404099226 1.00000011921 1.0 1.0013667345 1.0842192173 1.17589235306 1.2522213459 1.25216674805 1.17584359646 1.03799676895 1.00134396553 1.00000011921 1.0 1.00000011921 0.995945096016 1.05103647709 1.10299217701 1.10302662849 1.05094408989 1.00000011921 1.0 0.999999940395 
