14.0014314651 13.7829799652 13.0235891342 11.8803243637 11.184551239 11.1851406097 11.8829565048 13.026222229 13.7842597961 14.0014505386 21.9900779724 21.6093463898 20.5516338348 19.0932369232 18.1863937378 18.1871471405 19.0965957642 20.5550804138 21.6112594604 21.9901695251 29.9820289612 29.5380153656 28.597492218 27.39569664 26.6313972473 26.6320209503 27.3984909058 28.6003646851 29.5399169922 29.9821720123 37.9847869873 37.6602706909 37.0480499268 36.3180198669 35.8587875366 35.8591575623 36.3197021484 37.0498352051 37.6615638733 37.984916687 45.9995193481 45.8803977966 45.6692352295 45.4284095764 45.2772941589 45.2774085999 45.4289588928 45.6698226929 45.8808479309 45.9995765686 54.0205307007 54.1402702332 54.3525352478 54.594581604 54.74659729 54.7464675903 54.5940246582 54.3519325256 54.1398124695 54.0204772949 62.0352287292 62.3601760864 62.9733467102 63.7045860291 64.164642334 64.164276123 63.7029037476 62.9715538025 62.3588752747 62.0350990295 70.0379638672 70.4820785522 71.4231719971 72.6262435913 73.3907318115 73.3901519775 72.6234741211 71.4203033447 70.480178833 70.0378189087 78.0298919678 78.4102478027 79.4679260254 80.9267883301 81.8336639404 81.8328933716 80.9235076904 79.4645004272 78.4083709717 78.0298080444 86.0185546875 86.2366104126 86.994468689 88.1346588135 88.8282623291 88.8279647827 88.1319885254 86.9919586182 86.2353515625 86.0185317993 
14.0008811951 13.7802629471 13.0223474503 11.8800191879 11.1834373474 11.1840305328 11.8826503754 13.024971962 13.7815418243 14.0009040833 21.9894828796 21.6051921844 20.5437393188 19.0747699738 18.1560649872 18.1568279266 19.0781612396 20.547203064 21.6071147919 21.9895801544 29.9815044403 29.5328865051 28.5836200714 27.3602218628 26.5632991791 26.5639724731 27.3630943298 28.5865306854 29.5348014832 29.9816493988 37.9843940735 37.6558418274 37.0341758728 36.2778930664 35.7876396179 35.7880477905 36.2796630859 37.0360069275 37.6571502686 37.9845237732 45.9993667603 45.8785820007 45.6630744934 45.4101638794 45.2481422424 45.2482757568 45.4107475281 45.6637001038 45.8790359497 45.9994239807 54.0206794739 54.1420974731 54.3587226868 54.6129302979 54.7759666443 54.7758255005 54.6123428345 54.3580970764 54.1416320801 54.0206222534 62.0356254578 62.3646011353 62.9872283936 63.744720459 64.2358093262 64.2353973389 63.7429504395 62.9853973389 62.3632965088 62.0354881287 70.0384902954 70.487197876 71.4370422363 72.6616973877 73.458694458 73.4580688477 72.6588668823 71.4341430664 70.4852905273 70.0383529663 78.0304946899 78.4143981934 79.4758071899 80.9452133179 81.8638916016 81.8631134033 80.94190979 79.4723434448 78.4125061035 78.0304107666 86.0191116333 86.2393264771 86.9957046509 88.1349105835 88.8293228149 88.8290252686 88.1322555542 86.9932174683 86.238067627 86.0190734863 
14.0008811951 13.7802562714 13.0223369598 11.8800048828 11.1834173203 11.1840105057 11.8826351166 13.0249643326 13.7815361023 14.0009031296 21.9894828796 21.605178833 20.543712616 19.0747184753 18.1559906006 18.1567573547 19.0781116486 20.5471744537 21.6071033478 21.9895801544 29.9815006256 29.5328712463 28.5835895538 27.3601322174 26.5631694794 26.5638389587 27.3630008698 28.5864887238 29.5347862244 29.9816417694 37.9843940735 37.655834198 37.0341377258 36.2777748108 35.7873840332 35.7877922058 36.2795410156 37.0359687805 37.6571388245 37.9845237732 45.9993667603 45.8785705566 45.6630592346 45.4100990295 45.2480049133 45.2481307983 45.4106826782 45.6636810303 45.8790245056 45.9994239807 54.0206794739 54.1420974731 54.3587379456 54.6129951477 54.7761154175 54.775970459 54.6124038696 54.3581199646 54.1416435242 54.0206222534 62.0356216431 62.3646087646 62.9872665405 63.744846344 64.2360610962 64.2356491089 63.7430839539 62.9854354858 62.3633117676 62.0354881287 70.0384902954 70.4872207642 71.4370727539 72.6617889404 73.4588317871 73.4581985474 72.6589508057 71.4341583252 70.4853057861 70.0383529663 78.0305023193 78.4144134521 79.4758300781 80.9452590942 81.8639678955 81.8631896973 80.9419631958 79.4723739624 78.4125137329 78.0304107666 86.0191116333 86.2393264771 86.9957275391 88.1349182129 88.8293533325 88.8290557861 88.132270813 86.9932174683 86.2380752563 86.0190734863 
14.0008811951 13.780251503 13.0223321915 11.8799848557 11.1833944321 11.1839866638 11.8826179504 13.0249547958 13.7815322876 14.0009031296 21.9894828796 21.6051807404 20.5437011719 19.0746974945 18.1559619904 18.1567325592 19.0780906677 20.5471668243 21.6071033478 21.9895801544 29.9815006256 29.5328712463 28.5835723877 27.3601093292 26.5631408691 26.5638065338 27.3629798889 28.5864753723 29.534784317 29.9816417694 37.9843940735 37.6558265686 37.0341262817 36.2777519226 35.7873573303 35.7877578735 36.2795219421 37.0359611511 37.6571388245 37.9845237732 45.9993667603 45.8785705566 45.6630516052 45.4100837708 45.2479782104 45.2481155396 45.4106750488 45.6636657715 45.8790245056 45.9994239807 54.0206794739 54.1420974731 54.3587532043 54.6130027771 54.7761154175 54.7759780884 54.612411499 54.3581199646 54.1416473389 54.0206222534 62.0356216431 62.3646087646 62.9872817993 63.7448654175 64.2360916138 64.2356872559 63.7431030273 62.9854469299 62.3633117676 62.0354881287 70.0384902954 70.4872207642 71.4370880127 72.6618041992 73.4588623047 73.4582366943 72.6589660645 71.4341812134 70.4853134155 70.0383529663 78.0305023193 78.4144134521 79.4758377075 80.9452819824 81.8639984131 81.8632202148 80.9419784546 79.4723892212 78.4125137329 78.0304107666 86.0191116333 86.2393341064 86.9957275391 88.1349334717 88.8293762207 88.8290710449 88.1322860718 86.9932250977 86.2380752563 86.0190734863 
14.0008811951 13.7802495956 13.0223245621 11.8799695969 11.1833715439 11.183962822 11.8826007843 13.0249481201 13.7815322876 14.0009031296 21.9894828796 21.605178833 20.5436897278 19.0746803284 18.1559371948 18.156703949 19.0780696869 20.5471534729 21.6071014404 21.9895801544 29.9815006256 29.5328674316 28.5835533142 27.360086441 26.5631084442 26.5637798309 27.3629550934 28.5864696503 29.5347824097 29.9816417694 37.9843940735 37.6558227539 37.034122467 36.2777328491 35.7873153687 35.787727356 36.279499054 37.0359458923 37.6571350098 37.9845237732 45.9993667603 45.8785667419 45.6630439758 45.4100799561 45.2479782104 45.2481040955 45.4106636047 45.6636734009 45.8790245056 45.9994239807 54.0206794739 54.1420974731 54.358745575 54.6130180359 54.776134491 54.7759933472 54.6124191284 54.3581199646 54.1416473389 54.0206222534 62.0356216431 62.364616394 62.9872817993 63.7448883057 64.2361297607 64.2357330322 63.7431182861 62.9854545593 62.3633155823 62.0354881287 70.0384902954 70.4872131348 71.4371032715 72.6618347168 73.4588928223 73.4582672119 72.658996582 71.4342041016 70.4853057861 70.0383529663 78.0305023193 78.4144210815 79.4758453369 80.9453048706 81.8640136719 81.8632507324 80.9419937134 79.47240448 78.4125213623 78.0304107666 86.0191116333 86.2393341064 86.9957427979 88.1349563599 88.8293991089 88.8291015625 88.1323013306 86.9932327271 86.2380752563 86.0190734863 
14.0008811951 13.780248642 13.0223150253 11.8799505234 11.183347702 11.1839389801 11.8825807571 13.0249404907 13.7815303802 14.0009040833 21.9894828796 21.6051750183 20.5436782837 19.0746555328 18.1559085846 18.1566772461 19.0780487061 20.5471439362 21.6070976257 21.9895801544 29.9814968109 29.5328617096 28.5835456848 27.3600597382 26.5630741119 26.5637435913 27.3629283905 28.5864562988 29.5347747803 29.9816417694 37.9843940735 37.6558265686 37.0341148376 36.2777061462 35.7872810364 35.787689209 36.2794799805 37.0359382629 37.6571311951 37.9845237732 45.9993667603 45.8785667419 45.6630439758 45.4100723267 45.2479629517 45.2480926514 45.4106483459 45.6636657715 45.8790283203 45.9994239807 54.0206794739 54.1421089172 54.3587608337 54.61302948 54.7761573792 54.776008606 54.6124267578 54.358127594 54.1416511536 54.0206222534 62.0356216431 62.3646202087 62.9872894287 63.7449035645 64.2361679077 64.2357559204 63.7431373596 62.9854660034 62.363319397 62.0354919434 70.0384902954 70.4872207642 71.4371032715 72.6618652344 73.4589385986 73.4582977295 72.6590194702 71.434211731 70.4853134155 70.0383529663 78.0305023193 78.4144210815 79.4758529663 80.9453353882 81.8640518188 81.8632736206 80.9420166016 79.4723968506 78.4125213623 78.0304107666 86.0191116333 86.2393264771 86.9957504272 88.1349716187 88.8294143677 88.8291244507 88.1323165894 86.9932479858 86.2380752563 86.0190734863 
14.0008811951 13.780248642 13.0223064423 11.8799333572 11.1833248138 11.1839160919 11.882563591 13.024930954 13.7815294266 14.0009040833 21.9894828796 21.6051692963 20.5436687469 19.074634552 18.1558799744 18.1566486359 19.0780277252 20.5471305847 21.607093811 21.9895801544 29.9815006256 29.5328598022 28.583530426 27.3600406647 26.563041687 26.5637073517 27.362909317 28.58644104 29.5347728729 29.9816417694 37.9843940735 37.6558189392 37.0340995789 36.2776908875 35.7872505188 35.7876548767 36.2794532776 37.0359306335 37.6571311951 37.9845237732 45.9993667603 45.8785667419 45.6630439758 45.4100608826 45.2479476929 45.2480812073 45.4106445312 45.6636657715 45.8790283203 45.9994239807 54.0206794739 54.1421051025 54.3587608337 54.6130371094 54.7761611938 54.7760238647 54.6124382019 54.3581237793 54.1416473389 54.0206298828 62.0356216431 62.364616394 62.9873123169 63.744934082 64.2361984253 64.2357940674 63.7431602478 62.9854774475 62.363319397 62.0354919434 70.0384902954 70.4872207642 71.4371337891 72.6618804932 73.4589691162 73.4583358765 72.6590423584 71.4342193604 70.4853134155 70.0383529663 78.0305023193 78.4144210815 79.4758682251 80.945350647 81.864074707 81.8633041382 80.9420318604 79.4724273682 78.4125289917 78.0304107666 86.0191116333 86.2393264771 86.9957427979 88.1349868774 88.8294525146 88.8291473389 88.1323242188 86.9932479858 86.2380752563 86.0190734863 
