14.0156764984 13.8779602051 13.1681089401 12.1430931091 11.5629196167 11.5633792877 12.1453752518 13.1705493927 13.8791046143 14.015627861 22.0114974976 21.7730140686 20.8960342407 19.7130966187 19.0223922729 19.02293396 19.7157230377 20.8989028931 21.774564743 22.0114898682 30.0081100464 29.7673950195 29.0582561493 28.1127567291 27.5345916748 27.5350513458 28.1148929596 29.0605201721 29.7687282562 30.0081253052 38.0060653687 37.8497581482 37.4076423645 36.8322677612 36.4746246338 36.4749107361 36.8335762024 37.4090385437 37.850605011 38.0060882568 46.0077896118 45.9534187317 45.8046760559 45.6132354736 45.4938583374 45.4939575195 45.6136703491 45.8051452637 45.9536933899 46.0078048706 54.0122070312 54.0668487549 54.2163581848 54.4087677002 54.5288085938 54.5287094116 54.4083328247 54.2158889771 54.0665740967 54.0121917725 62.013923645 62.1704483032 62.6132850647 63.1896133423 63.5478668213 63.5475959778 63.1883125305 62.6119041443 62.1696166992 62.0139007568 70.0118789673 70.2527236938 70.9624176025 71.9088516235 72.4872589111 72.4868011475 71.9067459106 70.9601593018 70.2514038086 70.0118713379 78.0084991455 78.2467956543 79.1240158081 80.3073883057 80.998336792 80.9977874756 80.3047943115 79.1211624146 78.2452468872 78.0084991455 86.0043258667 86.141746521 86.8501968384 87.873046875 88.451133728 88.450920105 87.8707885742 86.8478164673 86.1405944824 86.0043716431 
14.005903244 13.813744545 13.0739011765 11.9766340256 11.3160457611 11.316570282 11.9791927338 13.0764350891 13.8149862289 14.005903244 21.9973258972 21.6621131897 20.6779689789 19.351146698 18.573015213 18.5736236572 19.3541316986 20.6811542511 21.6639022827 21.9973869324 29.9896030426 29.6161212921 28.7800674438 27.7495346069 27.1131458282 27.1136550903 27.7518787384 28.7825927734 29.6178073883 29.9897079468 37.9912414551 37.7246246338 37.2061233521 36.5881614685 36.1983680725 36.198677063 36.5895881653 37.2076339722 37.7257232666 37.9913406372 46.0021972656 45.9065132141 45.7326774597 45.5276451111 45.3980865479 45.3981895447 45.5281219482 45.7331886292 45.9068946838 46.0022354126 54.017829895 54.114025116 54.2887458801 54.4948577881 54.6251525879 54.6250534058 54.4943885803 54.2882499695 54.1136474609 54.0177955627 62.0287666321 62.2957496643 62.8151283264 63.4341468811 63.8246231079 63.8243217468 63.4327163696 62.813621521 62.2946510315 62.02866745 70.030380249 70.403968811 71.2406616211 72.272354126 72.9089508057 72.9084701538 72.27003479 71.2381439209 70.4022979736 70.0302810669 78.0226593018 78.3575744629 79.3418045044 80.6692352295 81.4476242065 81.4470062256 80.6663208008 79.3386459351 78.3558120728 78.0225982666 86.0140991211 86.2058563232 86.9441986084 88.0387496948 88.6971054077 88.6968841553 88.0361938477 86.9417724609 86.2046356201 86.0140991211 
14.0019836426 13.7896232605 13.0399007797 11.9158096313 11.2170190811 11.2176017761 11.9184532166 13.0424718857 13.7908916473 14.0020027161 21.9928264618 21.6250801086 20.5947093964 19.1610450745 18.2775192261 18.2782230377 19.1643676758 20.5980739594 21.6269569397 21.9929103851 29.9850769043 29.5711860657 28.6625003815 27.5108661652 26.7989444733 26.7995243073 27.5135116577 28.665271759 29.5730075836 29.985206604 37.9873428345 37.6848220825 37.1021003723 36.4185905457 35.9879455566 35.9882926941 36.4201660156 37.1038017273 37.6860427856 37.9874610901 46.0004196167 45.8893241882 45.6915435791 45.4667701721 45.3247489929 45.3248634338 45.4672851562 45.6921005249 45.8897590637 46.0004768372 54.0196228027 54.1312942505 54.330116272 54.556060791 54.6988945007 54.6987800598 54.5555305481 54.3295555115 54.1308670044 54.019569397 62.0326766968 62.3355903625 62.9192581177 63.6039352417 64.0353775024 64.0350265503 63.6023635864 62.9175605774 62.3343734741 62.0325584412 70.0349121094 70.4489059448 71.3581771851 72.5111160278 73.2232971191 73.2227401733 72.5084991455 71.3553924561 70.4470901489 70.0347824097 78.0271530151 78.3945846558 79.424949646 80.8591156006 81.7428741455 81.7421569824 80.8558883667 79.4216079712 78.3927307129 78.0270690918 86.0180053711 86.2299575806 86.9781570435 88.0991973877 88.7956161499 88.7953643799 88.0965270996 86.9757232666 86.2287139893 86.0179748535 
14.0003013611 13.7794837952 13.0265550613 11.8938856125 11.1845226288 11.1851215363 11.8965549469 13.0291414261 13.7807617188 14.000328064 21.9909439087 21.6097602844 20.559753418 19.0812454224 18.1435070038 18.1442813873 19.0847110748 20.5631942749 21.6116790771 21.9910316467 29.9833297729 29.5531673431 28.613407135 27.3869094849 26.6008281708 26.6014518738 27.3897972107 28.6163139343 29.5550479889 29.9834651947 37.9860038757 37.6699981689 37.0591392517 36.3179550171 35.8473167419 35.8476982117 36.3196716309 37.0609436035 37.6712722778 37.986125946 45.9999237061 45.8834152222 45.6731071472 45.429485321 45.2745742798 45.2746925354 45.4300498962 45.6736984253 45.8838615417 45.9999771118 54.0201225281 54.1372337341 54.3486480713 54.5935211182 54.7493438721 54.749206543 54.5929412842 54.3480415344 54.1367797852 54.0200653076 62.0340118408 62.3504180908 62.9622421265 63.7046699524 64.1761703491 64.1757888794 63.7029457092 62.9604492188 62.349155426 62.0338897705 70.0366668701 70.4669189453 71.4072418213 72.6350784302 73.42137146 73.4207763672 72.6322250366 71.4043579102 70.465057373 70.0365219116 78.0290298462 78.4098815918 79.459854126 80.9387893677 81.8765792847 81.8757858276 80.9354171753 79.4564208984 78.407989502 78.0289459229 86.0196990967 86.2400894165 86.9914932251 88.1209411621 88.8279037476 88.8276367188 88.1182479858 86.9890441895 86.2388458252 86.0196762085 
13.9997253418 13.7760696411 13.0223703384 11.8876304626 11.1761302948 11.1767339706 11.8903064728 13.0249586105 13.7773485184 13.9997549057 21.9902992249 21.6045646667 20.5481739044 19.0554199219 18.1029987335 18.1037902832 19.058927536 20.5516357422 21.6064929962 21.9903907776 29.9827251434 29.5469341278 28.5962467194 27.3442897797 26.5197715759 26.5204486847 27.3472671509 28.5991916656 29.5488319397 29.9828624725 37.9855461121 37.6647758484 37.0433731079 36.2753868103 35.7763900757 35.7767982483 36.2771911621 37.0452232361 37.6660766602 37.9856758118 45.9997444153 45.881313324 45.6663398743 45.4115028381 45.2477912903 45.2479286194 45.4120941162 45.6669540405 45.8817710876 45.9997940063 54.0202903748 54.1393508911 54.3554496765 54.6115913391 54.7763023376 54.7761573792 54.6109924316 54.3548164368 54.1388969421 54.0202407837 62.0344696045 62.3556442261 62.9780273438 63.7472610474 64.2471542358 64.2467346191 63.7454528809 62.9761734009 62.3543586731 62.0343475342 70.0372695923 70.4731521606 71.4243927002 72.6776809692 73.5023040771 73.501663208 72.6747436523 71.4214706421 70.4712677002 70.0371322632 78.0296783447 78.4150772095 79.4714050293 80.9645767212 81.9169692993 81.9161758423 80.961151123 79.4679794312 78.4131698608 78.029586792 86.0202636719 86.2434921265 86.9956665039 88.1271438599 88.836227417 88.8359680176 88.1244277954 86.9932022095 86.2422561646 86.0202331543 
13.9996042252 13.775352478 13.0215415955 11.8864917755 11.1746711731 11.1752738953 11.8891677856 13.0241327286 13.7766342163 13.9996347427 21.9901657104 21.6034698486 20.5457801819 19.0502738953 18.095205307 18.0959968567 19.0537910461 20.5492515564 21.6054019928 21.9902572632 29.9825973511 29.5456085205 28.5925636292 27.3355464935 26.5038814545 26.504573822 27.3385295868 28.5955085754 29.5475120544 29.9827384949 37.9854507446 37.6636695862 37.0398864746 36.2651481628 35.7558708191 35.7562904358 36.2669830322 37.0417480469 37.6649703979 37.9855766296 45.999710083 45.8808631897 45.6648826599 45.4067192078 45.2390060425 45.2391395569 45.4073219299 45.6655082703 45.8813285828 45.9997596741 54.0203285217 54.1397972107 54.3569145203 54.6164016724 54.7851829529 54.7850227356 54.6157836914 54.3562850952 54.139339447 54.0202827454 62.0345611572 62.3567581177 62.9815063477 63.7574996948 64.2676620483 64.2672348022 63.7556533813 62.9796524048 62.3554649353 62.0344314575 70.037399292 70.4744873047 71.4280776978 72.6864242554 73.5181503296 73.5175018311 72.6834716797 71.4251480103 70.4725952148 70.0372543335 78.0298156738 78.4161682129 79.4738006592 80.9697036743 81.9247436523 81.9239425659 80.9662857056 79.4703598022 78.4142684937 78.0297241211 86.0203781128 86.2442169189 86.9964904785 88.1282730103 88.8376846313 88.8374176025 88.1255569458 86.9940414429 86.2429656982 86.0203552246 
13.99958992 13.7752656937 13.0214424133 11.8863601685 11.1745080948 11.1751117706 11.8890361786 13.0240306854 13.7765455246 13.9996185303 21.990146637 21.6033344269 20.5454845428 19.0496730804 18.0943279266 18.095123291 19.0531921387 20.5489559174 21.6052627563 21.9902381897 29.9825820923 29.5454368591 28.592086792 27.3344631195 26.502161026 26.5028553009 27.3374557495 28.5950431824 29.5473403931 29.9827232361 37.9854431152 37.6635246277 37.0394325256 36.2637786865 35.7528266907 35.7532463074 36.2656135559 37.0412902832 37.6648216248 37.9855728149 45.9997062683 45.8808021545 45.6646842957 45.40599823 45.2374801636 45.2376174927 45.4065971375 45.6653137207 45.8812599182 45.9997558594 54.0203399658 54.1398620605 54.3571090698 54.6171379089 54.7867355347 54.7865829468 54.616519928 54.3564796448 54.1393928528 54.0202941895 62.0345687866 62.3568992615 62.9819602966 63.7588615417 64.270690918 64.2702713013 63.7570266724 62.9801025391 62.3556137085 62.0344429016 70.0374145508 70.4746551514 71.428565979 72.6875076294 73.5198745728 73.5192108154 72.6845474243 71.4256134033 70.4727630615 70.0372619629 78.0298309326 78.4162979126 79.4740905762 80.9703063965 81.9256286621 81.9248199463 80.9668731689 79.4706420898 78.4143981934 78.0297393799 86.0204086304 86.2442855835 86.9965820312 88.12840271 88.8378448486 88.8375778198 88.1256866455 86.9941482544 86.2430496216 86.0203781128 
