1.0 1.00000011921 0.996393918991 1.04612374306 1.09839558601 1.09837472439 1.04605424404 1.00000023842 1.0 1.0 0.999999940395 1.00065243244 1.08018863201 1.17320382595 1.24930477142 1.24928760529 1.17313790321 1.03286242485 1.00063872337 1.0 1.0 1.05504465103 1.1607221365 1.26126968861 1.32132387161 1.32130885124 1.26121008396 1.10424971581 1.05497050285 1.00000011921 1.0 1.08931040764 1.19677186012 1.2835278511 1.33272337914 1.332711339 1.28347158432 1.13840568066 1.08924484253 1.00000011921 1.0 1.11499559879 1.22479116917 1.30001342297 1.33897089958 1.33896279335 1.29996454716 1.16553211212 1.11493265629 1.00000011921 1.0 1.1149866581 1.22478401661 1.30000174046 1.33899903297 1.33898901939 1.29995036125 1.16552710533 1.11492395401 1.00000011921 1.0 1.08926856518 1.19673871994 1.28346538544 1.3327422142 1.33272743225 1.28340673447 1.13836991787 1.08920371532 1.0 1.0 1.03523886204 1.1338943243 1.23245239258 1.30867087841 1.30866479874 1.23238539696 1.08337807655 1.03516483307 1.00000011921 1.0 1.00063824654 1.08011066914 1.1731801033 1.24935293198 1.24930179119 1.17313396931 1.03279066086 1.0006248951 1.00000011921 1.0 1.00000011921 0.996415197849 1.04601800442 1.09821259975 1.09824883938 1.04592788219 1.00000011921 1.0 0.999999940395 
1.0 1.00000011921 0.996393918991 1.04612374306 1.09839558601 1.09837472439 1.04605424404 1.00000023842 1.0 1.0 0.999999940395 1.00065243244 1.08018863201 1.17320382595 1.25076675415 1.25075042248 1.17313790321 1.03286242485 1.00063872337 1.0 1.0 1.05504465103 1.1607221365 1.26549708843 1.36421895027 1.36420834064 1.26543819904 1.10424971581 1.05497050285 1.00000011921 1.0 1.08931040764 1.19677424431 1.29561626911 1.38845074177 1.38844025135 1.29556870461 1.13840568066 1.08924484253 1.00000011921 1.0 1.11499559879 1.22838139534 1.32741737366 1.40943360329 1.40942788124 1.32737958431 1.16553211212 1.11493265629 1.00000011921 1.0 1.1149866581 1.22837328911 1.32739782333 1.40953290462 1.40952110291 1.32735443115 1.16552710533 1.11492395401 1.00000011921 1.0 1.08926856518 1.19674086571 1.29553890228 1.38855171204 1.38853251934 1.29548597336 1.13836991787 1.08920371532 1.0 1.0 1.03523886204 1.1338943243 1.23245239258 1.32549858093 1.32549631596 1.23238539696 1.08337807655 1.03516483307 1.00000011921 1.0 1.00063824654 1.08011066914 1.1731801033 1.25082182884 1.25076854229 1.17313396931 1.03279066086 1.0006248951 1.00000011921 1.0 1.00000011921 0.996415197849 1.04601800442 1.09821259975 1.09824883938 1.04592788219 1.00000011921 1.0 0.999999940395 
1.0 1.00000011921 0.996393918991 1.04612374306 1.09839558601 1.09837472439 1.04605424404 1.00000023842 1.0 1.0 0.999999940395 1.00065243244 1.08018863201 1.17320382595 1.25076675415 1.25075042248 1.17313790321 1.03286242485 1.00063872337 1.0 1.0 1.05504465103 1.1607221365 1.26549708843 1.36493229866 1.36492204666 1.26543819904 1.10424971581 1.05497050285 1.00000011921 1.0 1.08931040764 1.19677424431 1.29561626911 1.39031851292 1.39030885696 1.29556870461 1.13840568066 1.08924484253 1.00000011921 1.0 1.11499559879 1.22838139534 1.3282968998 1.41337788105 1.41337275505 1.32825994492 1.16553211212 1.11493265629 1.00000011921 1.0 1.1149866581 1.22837328911 1.32827830315 1.41349184513 1.4134799242 1.32823491096 1.16552710533 1.11492395401 1.00000011921 1.0 1.08926856518 1.19674086571 1.29553890228 1.39043414593 1.39041519165 1.29548597336 1.13836991787 1.08920371532 1.0 1.0 1.03523886204 1.1338943243 1.23245239258 1.32549858093 1.32549631596 1.23238539696 1.08337807655 1.03516483307 1.00000011921 1.0 1.00063824654 1.08011066914 1.1731801033 1.25082182884 1.25076854229 1.17313396931 1.03279066086 1.0006248951 1.00000011921 1.0 1.00000011921 0.996415197849 1.04601800442 1.09821259975 1.09824883938 1.04592788219 1.00000011921 1.0 0.999999940395 
1.0 1.00000011921 0.996393918991 1.04612374306 1.09839558601 1.09837472439 1.04605424404 1.00000023842 1.0 1.0 0.999999940395 1.00065243244 1.08018863201 1.17320382595 1.25076675415 1.25075042248 1.17313790321 1.03286242485 1.00063872337 1.0 1.0 1.05504465103 1.1607221365 1.26549708843 1.36493194103 1.36492156982 1.26543819904 1.10424971581 1.05497050285 1.00000011921 1.0 1.08931040764 1.19677424431 1.29561626911 1.39043438435 1.39042448997 1.29556870461 1.13840568066 1.08924484253 1.00000011921 1.0 1.11499559879 1.22838139534 1.32838761806 1.41376769543 1.41376233101 1.3283509016 1.16553211212 1.11493265629 1.00000011921 1.0 1.1149866581 1.22837328911 1.32836937904 1.41388452053 1.41387248039 1.32832622528 1.16552710533 1.11492395401 1.00000011921 1.0 1.08926856518 1.19674086571 1.29553890228 1.39055275917 1.39053356647 1.29548597336 1.13836991787 1.08920371532 1.0 1.0 1.03523886204 1.1338943243 1.23245239258 1.32549858093 1.32549631596 1.23238539696 1.08337807655 1.03516483307 1.00000011921 1.0 1.00063824654 1.08011066914 1.1731801033 1.25082182884 1.25076854229 1.17313396931 1.03279066086 1.0006248951 1.00000011921 1.0 1.00000011921 0.996415197849 1.04601800442 1.09821259975 1.09824883938 1.04592788219 1.00000011921 1.0 0.999999940395 
1.0 1.00000011921 0.996393918991 1.04612374306 1.09839558601 1.09837472439 1.04605424404 1.00000023842 1.0 1.0 0.999999940395 1.00065243244 1.08018863201 1.17320382595 1.25076675415 1.25075042248 1.17313790321 1.03286242485 1.00063872337 1.0 1.0 1.05504465103 1.1607221365 1.26549708843 1.36493194103 1.36492156982 1.26543819904 1.10424971581 1.05497050285 1.00000011921 1.0 1.08931040764 1.19677424431 1.29561626911 1.39044928551 1.39043939114 1.29556870461 1.13840568066 1.08924484253 1.00000011921 1.0 1.11499559879 1.22838139534 1.32840895653 1.41383516788 1.41382980347 1.32837176323 1.16553211212 1.11493265629 1.00000011921 1.0 1.1149866581 1.22837328911 1.3283905983 1.41395258904 1.41394066811 1.32834732533 1.16552710533 1.11492395401 1.00000011921 1.0 1.08926856518 1.19674086571 1.29553890228 1.39056837559 1.39054906368 1.29548597336 1.13836991787 1.08920371532 1.0 1.0 1.03523886204 1.1338943243 1.23245239258 1.32549858093 1.32549631596 1.23238539696 1.08337807655 1.03516483307 1.00000011921 1.0 1.00063824654 1.08011066914 1.1731801033 1.25082182884 1.25076854229 1.17313396931 1.03279066086 1.0006248951 1.00000011921 1.0 1.00000011921 0.996415197849 1.04601800442 1.09821259975 1.09824883938 1.04592788219 1.00000011921 1.0 0.999999940395 
1.0 1.00000011921 0.996393918991 1.04612374306 1.09839558601 1.09837472439 1.04605424404 1.00000023842 1.0 1.0 0.999999940395 1.00065243244 1.08018863201 1.17320382595 1.25076675415 1.25075042248 1.17313790321 1.03286242485 1.00063872337 1.0 1.0 1.05504465103 1.1607221365 1.26549708843 1.36493194103 1.36492156982 1.26543819904 1.10424971581 1.05497050285 1.00000011921 1.0 1.08931040764 1.19677424431 1.29561626911 1.39045608044 1.39044606686 1.29556870461 1.13840568066 1.08924484253 1.00000011921 1.0 1.11499559879 1.22838139534 1.32841944695 1.41385638714 1.41385090351 1.32838261127 1.16553211212 1.11493265629 1.00000011921 1.0 1.1149866581 1.22837328911 1.32840120792 1.4139739275 1.41396212578 1.32835817337 1.16552710533 1.11492395401 1.00000011921 1.0 1.08926856518 1.19674086571 1.29553890228 1.39057528973 1.39055645466 1.29548597336 1.13836991787 1.08920371532 1.0 1.0 1.03523886204 1.1338943243 1.23245239258 1.32549858093 1.32549631596 1.23238539696 1.08337807655 1.03516483307 1.00000011921 1.0 1.00063824654 1.08011066914 1.1731801033 1.25082182884 1.25076854229 1.17313396931 1.03279066086 1.0006248951 1.00000011921 1.0 1.00000011921 0.996415197849 1.04601800442 1.09821259975 1.09824883938 1.04592788219 1.00000011921 1.0 0.999999940395 
1.0 1.00000011921 0.996393918991 1.04612374306 1.09839558601 1.09837472439 1.04605424404 1.00000023842 1.0 1.0 0.999999940395 1.00065243244 1.08018863201 1.17320382595 1.25076675415 1.25075042248 1.17313790321 1.03286242485 1.00063872337 1.0 1.0 1.05504465103 1.1607221365 1.26549708843 1.3649314642 1.36492109299 1.26543819904 1.10424971581 1.05497050285 1.00000011921 1.0 1.08931040764 1.19677424431 1.29561626911 1.39046311378 1.39045333862 1.29556870461 1.13840568066 1.08924484253 1.00000011921 1.0 1.11499559879 1.22838139534 1.3284277916 1.4138686657 1.41386318207 1.32839095592 1.16553211212 1.11493265629 1.00000011921 1.0 1.1149866581 1.22837328911 1.3284099102 1.41398620605 1.41397452354 1.32836675644 1.16552710533 1.11492395401 1.00000011921 1.0 1.08926856518 1.19674086571 1.29553890228 1.39058256149 1.39056348801 1.29548597336 1.13836991787 1.08920371532 1.0 1.0 1.03523886204 1.1338943243 1.23245239258 1.32549858093 1.32549631596 1.23238539696 1.08337807655 1.03516483307 1.00000011921 1.0 1.00063824654 1.08011066914 1.1731801033 1.25082182884 1.25076854229 1.17313396931 1.03279066086 1.0006248951 1.00000011921 1.0 1.00000011921 0.996415197849 1.04601800442 1.09821259975 1.09824883938 1.04592788219 1.00000011921 1.0 0.999999940395 
