2.26400780678 4.03307056427 7.14586544037 9.91563796997 11.4124803543 11.4113082886 9.90986633301 7.13801336288 4.02579498291 2.26389408112 2.29145407677 5.2617764473 10.119342804 14.5311613083 16.8852291107 16.8834075928 14.5219945908 10.1070289612 5.25017976761 2.29112410545 2.31922054291 6.12662792206 12.1644163132 17.5694255829 20.5120658875 20.5097866058 17.5581207275 12.1492729187 6.11212491989 2.31867694855 2.33489704132 6.63832855225 13.3020439148 19.1771507263 22.3884029388 22.3859214783 19.1648769379 13.2855186462 6.62207794189 2.33423566818 2.34361577034 6.89368438721 13.8476829529 19.9321250916 23.2593860626 23.2568321228 19.9194278717 13.830532074 6.87661743164 2.34288907051 2.34360933304 6.89348745346 13.8472728729 19.9315490723 23.2587337494 23.2561779022 19.9188499451 13.8301200867 6.87642192841 2.34288263321 2.33486199379 6.63730764389 13.2998285294 19.1740283966 22.384809494 22.3823318481 19.1617679596 13.2833213806 6.62106847763 2.33420109749 2.31916666031 6.12488937378 12.1604213715 17.5637130737 20.5047264099 20.5024909973 17.5524654388 12.1453123093 6.11040592194 2.31862306595 2.29137039185 5.25912284851 10.1130113602 14.5217628479 16.8738288879 16.8720378876 14.5126991272 10.1007509232 5.2475605011 2.2910425663 2.26396036148 4.02949523926 7.13670063019 9.90089035034 11.394408226 11.3934755325 9.89513301849 7.12898683548 4.02227258682 2.2638463974 
2.26398611069 3.84667062759 6.75050878525 9.43285369873 10.9238634109 10.9226760864 9.4271736145 6.74303102493 3.84002733231 2.26388287544 2.28947401047 5.04673624039 9.70548820496 14.0849094391 16.513420105 16.5114860535 14.0755996704 9.6934928894 5.03577756882 2.28917217255 2.31619167328 5.92318677902 11.7913160324 17.2476940155 20.3847389221 20.3822288513 17.2358932495 11.776391983 5.90923023224 2.31568408012 2.3322122097 6.45413160324 12.9918556213 19.0067405701 22.4822444916 22.4794616699 18.993724823 12.9753808975 6.43835926056 2.33158564568 2.34132671356 6.72307395935 13.5835542679 19.8532409668 23.4752216339 23.4723377228 19.839679718 13.5663557053 6.70642662048 2.34063243866 2.34132003784 6.72286605835 13.5831041336 19.852596283 23.4744739532 23.4715919495 19.8390350342 13.5659103394 6.70621967316 2.3406252861 2.33217549324 6.45307159424 12.989487648 19.0033111572 22.478181839 22.4754047394 18.9903125763 12.9730377197 6.43731117249 2.33154964447 2.3161380291 5.92140722275 11.7872123718 17.2415313721 20.3768138885 20.3743743896 17.2297897339 11.7723407745 5.90747451782 2.31563067436 2.28939557076 5.0440993309 9.69908714294 14.0753116608 16.5011978149 16.4993133545 14.066157341 9.68717956543 5.03319835663 2.28909611702 2.2639439106 3.84337091446 6.74185562134 9.41819190979 10.9061050415 10.905172348 9.41250324249 6.73463010788 3.83681774139 2.26384139061 
2.26392745972 3.83620119095 6.72588157654 9.39909076691 10.8865232468 10.8853387833 9.39342784882 6.71843528748 3.8295955658 2.26382493973 2.28926134109 5.03185558319 9.67369937897 14.0439214706 16.4697418213 16.4678058624 14.0346240997 9.66173553467 5.02094459534 2.2889611721 2.3158249855 5.90571260452 11.7552318573 17.2002182007 20.3345737457 20.332069397 17.1884326935 11.7403478622 5.89180803299 2.31532073021 2.33174228668 6.43500375748 12.9525260925 18.9547538757 22.4278717041 22.4250926971 18.9417476654 12.9361000061 6.41928577423 2.33112001419 2.34080600739 6.70307254791 13.5426168442 19.7991065979 23.4195480347 23.4166545868 19.7855567932 13.52546978 6.68648386002 2.34011602402 2.34079885483 6.70286512375 13.5421695709 19.7984657288 23.4187965393 23.4159049988 19.7849178314 13.5250253677 6.6862783432 2.3401093483 2.33170580864 6.4339466095 12.950170517 18.9513301849 22.4238185883 22.4210395813 18.9383506775 12.9337615967 6.41824102402 2.33108401299 2.31577205658 5.90393924713 11.7511386871 17.1940689087 20.3266773224 20.3242301941 17.1823425293 11.7363061905 5.89005804062 2.31526756287 2.2891831398 5.02922821045 9.66730880737 14.0343418121 16.4575195312 16.4556369781 14.0252008438 9.65544033051 5.01837682724 2.28888583183 2.26388597488 3.83292174339 6.7172703743 9.38445568085 10.868806839 10.8678760529 9.37878036499 6.71008396149 3.82640957832 2.26378393173 
2.26392650604 3.83599066734 6.72538614273 9.3984079361 10.8857688904 10.8845825195 9.39274692535 6.71793937683 3.82938575745 2.26382422447 2.28925681114 5.03155469894 9.67305755615 14.0430898666 16.4688529968 16.4669189453 14.0337944031 9.66109275818 5.02064418793 2.28895688057 2.31581759453 5.905356884 11.7544965744 17.1992473602 20.3335475922 20.3310432434 17.187461853 11.7396154404 5.89145517349 2.31531381607 2.3317322731 6.43461227417 12.9517221451 18.9536857605 22.4267463684 22.4239654541 18.9406814575 12.9352960587 6.41889667511 2.33111000061 2.34079527855 6.70266151428 13.5417785645 19.7979831696 23.4183578491 23.4154682159 19.7844352722 13.5246305466 6.68607378006 2.34010529518 2.34078836441 6.70245456696 13.5413293839 19.7973423004 23.4176120758 23.4147224426 19.7837982178 13.5241832733 6.68586730957 2.34009861946 2.33169651031 6.43355560303 12.9493637085 18.9502658844 22.4226932526 22.4199142456 18.9372844696 12.9329586029 6.4178519249 2.33107447624 2.31576442719 5.90358400345 11.7504024506 17.1931018829 20.3256511688 20.3232116699 17.1813735962 11.7355747223 5.88970422745 2.31526064873 2.28917860985 5.02892780304 9.66666603088 14.0335111618 16.4566326141 16.454750061 14.0243721008 9.65479564667 5.01807689667 2.28888177872 2.26388502121 3.83271169662 6.71677684784 9.38377380371 10.8680534363 10.8671216965 9.37809848785 6.70958900452 3.82620000839 2.26378250122 
2.26392650604 3.83600687981 6.72542333603 9.39846229553 10.8858251572 10.8846416473 9.39279937744 6.71797847748 3.82940244675 2.26382422447 2.28925728798 5.03157806396 9.67310523987 14.0431556702 16.4689235687 16.4669895172 14.0338573456 9.66114234924 5.02066802979 2.28895735741 2.31581807137 5.9053850174 11.7545566559 17.1993236542 20.3336315155 20.3311252594 17.1875362396 11.7396726608 5.89148187637 2.31531453133 2.33173322678 6.43464279175 12.9517860413 18.9537677765 22.4268341064 22.4240512848 18.9407634735 12.9353599548 6.41892623901 2.33111047745 2.34079575539 6.70269346237 13.541844368 19.7980709076 23.4184551239 23.415561676 19.7845230103 13.5246944427 6.68610572815 2.34010601044 2.34078907967 6.70248699188 13.5413951874 19.7974300385 23.4176998138 23.4148139954 19.7838840485 13.5242490768 6.68590068817 2.3400990963 2.33169722557 6.43358564377 12.949426651 18.9503479004 22.4227809906 22.420003891 18.9373664856 12.9330215454 6.41788291931 2.33107495308 2.3157646656 5.90361166 11.7504587173 17.1931743622 20.3257331848 20.3232917786 17.1814498901 11.7356328964 5.88973283768 2.31526112556 2.2891793251 5.02895069122 9.66671657562 14.0335741043 16.4566993713 16.4548206329 14.0244369507 9.65484523773 5.01809978485 2.28888201714 2.26388502121 3.83272790909 6.71681261063 9.38382816315 10.8681106567 10.8671808243 9.37815189362 6.70962715149 3.82621598244 2.26378273964 
2.26392650604 3.8360285759 6.72547483444 9.39853191376 10.8859033585 10.8847179413 9.39286994934 6.71802854538 3.82942342758 2.26382422447 2.28925776482 5.03160810471 9.67317199707 14.0432395935 16.4690132141 16.4670772552 14.0339412689 9.66120910645 5.02069854736 2.28895807266 2.31581878662 5.90542125702 11.7546291351 17.199420929 20.3337345123 20.3312282562 17.1876335144 11.7397451401 5.89151906967 2.31531524658 2.33173418045 6.4346818924 12.9518651962 18.9538764954 22.4269504547 22.4241676331 18.9408740997 12.9354400635 6.4189658165 2.33111166954 2.34079694748 6.70273542404 13.5419301987 19.7981834412 23.4185733795 23.415681839 19.7846355438 13.5247802734 6.68614721298 2.34010720253 2.34079027176 6.70252895355 13.5414810181 19.797542572 23.4178237915 23.4149341583 19.7840003967 13.5243358612 6.68594264984 2.34010052681 2.33169817924 6.43362474442 12.9495077133 18.9504566193 22.4228935242 22.4201183319 18.9374732971 12.9331016541 6.41792154312 2.33107590675 2.31576538086 5.90364837646 11.750535965 17.1932754517 20.3258342743 20.323392868 17.1815471649 11.7357053757 5.8897690773 2.3152616024 2.2891793251 5.0289812088 9.66678333282 14.0336608887 16.4567909241 16.4549064636 14.024520874 9.65491008759 5.01813030243 2.28888249397 2.26388502121 3.83274888992 6.71686458588 9.3838968277 10.868185997 10.8672580719 9.37822055817 6.70967721939 3.82623791695 2.26378273964 
2.26392674446 3.83605051041 6.72552633286 9.39860248566 10.8859825134 10.8847990036 9.39294147491 6.71808099747 3.82944536209 2.26382422447 2.28925800323 5.03164052963 9.67323875427 14.0433273315 16.4691028595 16.4671707153 14.034029007 9.6612739563 5.02072954178 2.28895831108 2.31581926346 5.90545845032 11.7547054291 17.1995220184 20.3338375092 20.3313350677 17.1877384186 11.7398233414 5.89155578613 2.315315485 2.33173537254 6.43472480774 12.9519500732 18.9539871216 22.4270629883 22.4242858887 18.9409828186 12.9355239868 6.41900730133 2.3311123848 2.34079837799 6.70277833939 13.542016983 19.7983036041 23.4186992645 23.4158058167 19.7847537994 13.5248670578 6.68619012833 2.34010863304 2.34079122543 6.70257139206 13.5415706635 19.7976608276 23.4179458618 23.415058136 19.7841148376 13.5244245529 6.68598508835 2.34010148048 2.33169913292 6.43366670609 12.9495925903 18.9505672455 22.4230117798 22.4202384949 18.937587738 12.9331865311 6.41796207428 2.33107686043 2.31576633453 5.90368509293 11.7506103516 17.1933727264 20.3259391785 20.3234996796 17.1816482544 11.7357845306 5.88980484009 2.31526255608 2.28918004036 5.02901268005 9.66684818268 14.033747673 16.4568824768 16.4550037384 14.024605751 9.65497684479 5.01816129684 2.28888297081 2.26388502121 3.83277106285 6.71691608429 9.3839673996 10.8682661057 10.8673391342 9.37829208374 6.70972919464 3.82625937462 2.26378273964 
