14.0027427673 13.7911052704 13.0321893692 11.8950338364 11.2080078125 11.2085933685 11.8976230621 13.0348186493 13.7923822403 14.0027580261 21.9913654327 21.6222324371 20.5678653717 19.116027832 18.223815918 18.2245597839 19.1193313599 20.5713214874 21.6241149902 21.9914531708 29.9821453094 29.536989212 28.5914993286 27.3952064514 26.6406211853 26.641242981 27.3979644775 28.5943870544 29.538898468 29.9822845459 37.9839859009 37.652557373 37.034122467 36.3050422668 35.8476028442 35.8479804993 36.3067054749 37.0359191895 37.6538658142 37.9841194153 45.9991760254 45.8766517639 45.6624221802 45.4210472107 45.2703437805 45.2704734802 45.4215927124 45.6630249023 45.8771095276 45.9992370605 54.020866394 54.1440353394 54.3593711853 54.6019706726 54.7535667419 54.7534294128 54.6014137268 54.358757019 54.1435623169 54.0208091736 62.036026001 62.3678817749 62.9872665405 63.7175445557 64.1757888794 64.1754074097 63.715877533 62.9854621887 62.3665771484 62.0358963013 70.0378417969 70.4830551147 71.4291152954 72.6266555786 73.3814163208 73.380821228 72.6239471436 71.4262313843 70.4811553955 70.0377044678 78.0286102295 78.3973693848 79.4516448975 80.9039230347 81.7961502075 81.7953872681 80.900680542 79.4482040405 78.3955154419 78.0285110474 86.0172576904 86.2284927368 86.9859237671 88.1200866699 88.8051223755 88.8047790527 88.1174850464 86.9833908081 86.2272338867 86.0172576904 
14.0023069382 13.7889156342 13.0310811996 11.8943424225 11.2061624527 11.2067508698 11.896935463 13.033706665 13.7901935577 14.0023212433 21.9908866882 21.6187763214 20.5610485077 19.1002731323 18.1980361938 18.1987915039 19.1036014557 20.5645179749 21.6206665039 21.990978241 29.9817085266 29.5326213837 28.5792694092 27.3648014069 26.5851764679 26.5858325958 27.3676204681 28.5821876526 29.5345439911 29.9818553925 37.9836502075 37.6486968994 37.0219612122 36.2713546753 35.7943687439 35.7947616577 36.2730865479 37.0237998962 37.6500282288 37.9837837219 45.9990501404 45.8750457764 45.6568717957 45.4064102173 45.2487068176 45.2488250732 45.4069862366 45.6574935913 45.8755226135 45.9991035461 54.0209999084 54.1456375122 54.3649406433 54.6166763306 54.775352478 54.7752189636 54.6160926819 54.3643188477 54.1451683044 54.0209388733 62.0363693237 62.3717308044 62.9994277954 63.7512435913 64.229057312 64.2286529541 63.7495155334 62.9975776672 62.3704109192 62.0362434387 70.038269043 70.487411499 71.4413452148 72.657043457 73.4367675781 73.4361419678 72.6542663574 71.4384307861 70.4855117798 70.0381317139 78.0290908813 78.4008178711 79.458442688 80.9196395874 81.8218612671 81.8210906982 80.9163665771 79.4549789429 78.3989562988 78.0289916992 86.0176849365 86.2306671143 86.9870529175 88.1207427979 88.806930542 88.8065948486 88.1181335449 86.9845199585 86.2294235229 86.0176620483 
14.0022830963 13.7887868881 13.0309848785 11.8942499161 11.2060041428 11.2065925598 11.8968391418 13.0336093903 13.7900648117 14.0022974014 21.9908561707 21.6185703278 20.5606231689 19.0993728638 18.1966609955 18.1974182129 19.1027030945 20.5640888214 21.6204605103 21.9909515381 29.9816837311 29.5323467255 28.5785255432 27.3630638123 26.5822792053 26.5829315186 27.3658828735 28.5814437866 29.5342693329 29.9818267822 37.9836273193 37.6484527588 37.0211524963 36.2690353394 35.7904281616 35.7908248901 36.2707748413 37.0229949951 37.6497802734 37.9837646484 45.9990348816 45.8749427795 45.6565093994 45.4052238464 45.246925354 45.2470474243 45.405796051 45.6571273804 45.8754081726 45.9990882874 54.0210113525 54.145740509 54.3653182983 54.6178627014 54.7771568298 54.7770080566 54.6172866821 54.3646850586 54.1452636719 54.0209503174 62.0363845825 62.3719787598 63.0002403259 63.7535629272 64.2329788208 64.2325897217 63.7518234253 62.9984016418 62.3706588745 62.0362586975 70.0383071899 70.4876861572 71.4420852661 72.6587753296 73.4396743774 73.4390487671 72.65599823 71.439163208 70.485786438 70.0381622314 78.0291061401 78.4010314941 79.4588699341 80.920539856 81.8232269287 81.8224563599 80.9172821045 79.4553909302 78.3991546631 78.0290145874 86.0177078247 86.2308120728 86.9871444702 88.1208343506 88.8070831299 88.8067550659 88.1182174683 86.9846115112 86.2295532227 86.0177001953 
14.0022792816 13.7887687683 13.0309619904 11.8942184448 11.2059612274 11.2065486908 11.8968095779 13.0335884094 13.7900466919 14.0022945404 21.9908542633 21.6185379028 20.5605506897 19.0992279053 18.1964511871 18.1972103119 19.1025600433 20.5640144348 21.620426178 21.990945816 29.9816741943 29.5323066711 28.5784072876 27.3628025055 26.5818748474 26.5825309753 27.3656253815 28.5813179016 29.5342292786 29.9818248749 37.9836273193 37.6484146118 37.0210266113 36.2686691284 35.7897987366 35.7901992798 36.270401001 37.0228652954 37.6497421265 37.9837608337 45.9990348816 45.8749275208 45.6564483643 45.4050254822 45.2466278076 45.2467422485 45.4055938721 45.6570663452 45.8753967285 45.9990882874 54.0210075378 54.1457633972 54.3653717041 54.6180686951 54.7774658203 54.7773132324 54.6174888611 54.3647499084 54.1452789307 54.0209503174 62.0363845825 62.3720169067 63.000377655 63.7539215088 64.2336120605 64.233215332 63.7521896362 62.9985275269 62.3706893921 62.0362586975 70.0383148193 70.4877319336 71.442199707 72.6590423584 73.4400863647 73.4394454956 72.65625 71.4392852783 70.4858322144 70.0381622314 78.0291137695 78.4010696411 79.4589538574 80.9206771851 81.823425293 81.8226623535 80.9174118042 79.4554748535 78.3992004395 78.0290222168 86.0177154541 86.2308349609 86.9871673584 88.1208496094 88.8071365356 88.8067855835 88.1182556152 86.98462677 86.2295684814 86.0177001953 
14.0022764206 13.7887611389 13.0309514999 11.894197464 11.2059326172 11.2065200806 11.8967895508 13.033577919 13.7900371552 14.0022926331 21.990852356 21.6185283661 20.5605258942 19.0991783142 18.1963882446 18.197145462 19.1025104523 20.5639915466 21.6204185486 21.9909439087 29.9816741943 29.5322933197 28.5783653259 27.3627262115 26.5817623138 26.5824127197 27.3655452728 28.5812854767 29.5342140198 29.9818210602 37.9836196899 37.6484069824 37.0209884644 36.2685623169 35.7896308899 35.7900276184 36.2702980042 37.0228347778 37.6497306824 37.983757019 45.9990348816 45.8749237061 45.6564331055 45.4049720764 45.2465362549 45.2466583252 45.4055480957 45.6570472717 45.8753929138 45.9990882874 54.0210113525 54.1457633972 54.3653945923 54.6181373596 54.7775497437 54.7774047852 54.6175384521 54.3647651672 54.1452903748 54.0209503174 62.0363922119 62.3720359802 63.0003967285 63.7540359497 64.2337875366 64.2333908081 63.7522964478 62.9985656738 62.3707084656 62.0362548828 70.0383148193 70.4877471924 71.442237854 72.6591262817 73.4401855469 73.4395599365 72.6563415527 71.4393157959 70.4858398438 70.0381622314 78.0291213989 78.4010772705 79.4589691162 80.9207305908 81.8235092163 81.8227310181 80.9174575806 79.4554977417 78.3992004395 78.0290222168 86.0177154541 86.2308425903 86.9871673584 88.120880127 88.8071594238 88.8068161011 88.118270874 86.9846343994 86.2295761108 86.0177078247 
14.0022764206 13.7887592316 13.0309381485 11.8941783905 11.2059087753 11.206495285 11.8967704773 13.0335645676 13.7900381088 14.0022926331 21.990852356 21.6185207367 20.560508728 19.0991477966 18.1963481903 18.1971054077 19.102481842 20.5639762878 21.6204128265 21.9909439087 29.981678009 29.532289505 28.5783462524 27.3626785278 26.5817012787 26.5823535919 27.3654994965 28.5812683105 29.5342102051 29.9818210602 37.9836196899 37.648399353 37.0209693909 36.2685127258 35.7895545959 35.7899589539 36.2702445984 37.022808075 37.649723053 37.983757019 45.9990348816 45.8749160767 45.6564254761 45.4049453735 45.2464981079 45.2466239929 45.4055252075 45.6570358276 45.8753929138 45.9990882874 54.0210113525 54.1457710266 54.3653945923 54.6181526184 54.7775726318 54.7774353027 54.6175689697 54.3647727966 54.1452941895 54.0209503174 62.0363922119 62.3720436096 63.0004234314 63.7540893555 64.2338562012 64.2334594727 63.7523498535 62.9985847473 62.370716095 62.0362586975 70.0383148193 70.4877624512 71.4422683716 72.6591644287 73.4402542114 73.4396133423 72.6563796997 71.4393463135 70.4858398438 70.0381622314 78.0291213989 78.4010772705 79.4589691162 80.9207687378 81.8235473633 81.822769165 80.9174880981 79.4555358887 78.3992156982 78.0290222168 86.0177154541 86.2308349609 86.9871826172 88.1209182739 88.8071899414 88.806854248 88.1182861328 86.9846343994 86.2295684814 86.0177078247 
14.0022764206 13.7887554169 13.0309305191 11.8941602707 11.2058830261 11.2064704895 11.8967533112 13.0335550308 13.7900333405 14.0022926331 21.990852356 21.618516922 20.5604953766 19.0991191864 18.1963119507 18.1970710754 19.1024551392 20.5639629364 21.6204071045 21.990945816 29.981678009 29.532283783 28.578327179 27.3626441956 26.581659317 26.5823135376 27.3654670715 28.5812473297 29.534204483 29.9818210602 37.9836196899 37.6483955383 37.0209579468 36.2684745789 35.7895011902 35.7899017334 36.2702102661 37.0227966309 37.649723053 37.983757019 45.9990386963 45.8749160767 45.6564102173 45.4049263 45.2464752197 45.2466049194 45.405506134 45.657043457 45.8753890991 45.9990882874 54.0210113525 54.1457672119 54.3654022217 54.6181678772 54.77759552 54.7774620056 54.6175842285 54.3647727966 54.1452941895 54.0209503174 62.0363922119 62.3720397949 63.0004463196 63.7541236877 64.2339019775 64.2335128784 63.7523765564 62.9986038208 62.3707199097 62.0362586975 70.0383148193 70.4877700806 71.4422912598 72.6591949463 73.4402923584 73.4396591187 72.6564102173 71.4393615723 70.4858474731 70.0381622314 78.0291213989 78.4010848999 79.4589996338 80.9207839966 81.8235702515 81.822807312 80.9175186157 79.4555435181 78.3992080688 78.0290222168 86.0177154541 86.2308349609 86.9871749878 88.1209335327 88.8072052002 88.8068695068 88.1183013916 86.9846496582 86.2295684814 86.0177078247 
