13.9395360947 21.7204036713 29.3202590942 37.2045326233 45.6599884033 54.3617706299 62.8158760071 70.6988143921 78.2987594604 86.0801773071 13.9038095474 21.4966602325 28.5968780518 36.4371376038 45.3536300659 54.6696434021 63.583946228 71.4212722778 78.5213241577 86.1157684326 13.8853244781 21.3422794342 28.1834869385 36.0071182251 45.1687545776 54.8554534912 64.0141983032 71.8342666626 78.674949646 86.134185791 13.8720493317 21.2626552582 28.021402359 35.833240509 45.0935211182 54.9310569763 64.1881866455 71.9962158203 78.7543182373 86.1473999023 13.8638324738 21.2293663025 27.9549789429 35.7594642639 45.0619316101 54.9628105164 64.2620010376 72.0625762939 78.7874984741 86.1555786133 13.8638362885 21.229385376 27.9550323486 35.7595214844 45.0619544983 54.9627723694 64.2619476318 72.0625228882 78.7874832153 86.1555633545 13.8720750809 21.2627887726 28.0216674805 35.8335762024 45.0936508179 54.9309234619 64.1878585815 71.9959564209 78.7541732788 86.1473770142 13.8853616714 21.3425559998 28.1841278076 36.0077857971 45.1692237854 54.8549804688 64.0135498047 71.8336410522 78.6746826172 86.1341247559 13.9038696289 21.4971294403 28.5983104706 36.4384841919 45.3542404175 54.6690063477 63.5826301575 71.4198379517 78.520866394 86.1156997681 13.9396743774 21.7210960388 29.3222293854 37.2070999146 45.6611824036 54.3606147766 62.813331604 70.6969604492 78.2980804443 86.0800476074 
13.9359846115 21.711566925 29.307888031 37.178352356 45.6397476196 54.382106781 62.842010498 70.7111663818 78.3075942993 86.0837097168 13.8979721069 21.4805736542 28.5497131348 36.3166046143 45.2744140625 54.7492599487 63.7043151855 71.4682998657 78.5373840332 86.1215896606 13.8764133453 21.305727005 28.0699901581 35.7764167786 45.0392150879 54.9856491089 64.2447357178 71.9474639893 78.7113876343 86.1430435181 13.8595581055 21.1998176575 27.8247356415 35.5368232727 44.9427680969 55.082572937 64.4845428467 72.1924972534 78.81690979 86.1598205566 13.8484716415 21.1477985382 27.7104206085 35.4358024597 44.9035606384 55.1219673157 64.5856628418 72.3067474365 78.8687286377 86.1708602905 13.8484840393 21.1478309631 27.7105121613 35.4358711243 44.9036026001 55.1219215393 64.5856018066 72.3066635132 78.8686828613 86.1708602905 13.8595924377 21.200012207 27.8251781464 35.5372581482 44.9429244995 55.0824050903 64.4841079712 72.1920623779 78.8167114258 86.1597976685 13.8764562607 21.3060646057 28.0708141327 35.7773551941 45.0397491455 54.9851036072 64.243812561 71.9466629028 78.7110519409 86.1429977417 13.8980350494 21.4810695648 28.5512809753 36.3181991577 45.2752456665 54.7483825684 63.7027626038 71.4667282104 78.5369186401 86.1215133667 13.9361190796 21.7122116089 29.3097629547 37.1810951233 45.6409797668 54.3809318542 62.8392715454 70.7094345093 78.3069915771 86.0835952759 
13.9355106354 21.7106742859 29.307264328 37.1767044067 45.6382751465 54.3835830688 62.8436660767 70.7117996216 78.3084869385 86.0841903687 13.8971824646 21.4792518616 28.5448894501 36.3016777039 45.2633094788 54.7604217529 63.7192192078 71.4730911255 78.5387115479 86.1223678589 13.875120163 21.3010540009 28.0535316467 35.7331199646 45.0047569275 55.0202789307 64.2879486084 71.9638671875 78.7160415649 86.1443481445 13.8576059341 21.1894989014 27.7904529572 35.4545974731 44.8895568848 55.136051178 64.5666656494 72.2266845703 78.8271865845 86.161781311 13.8460054398 21.1326961517 27.6606445312 35.3299255371 44.8411750793 55.1846656799 64.6914672852 72.3563842773 78.8837661743 86.173324585 13.8460159302 21.1327323914 27.6607456207 35.3300018311 44.8412246704 55.1846084595 64.6913833618 72.3562850952 78.8837280273 86.1733169556 13.8576440811 21.1897087097 27.7909412384 35.4551124573 44.8897476196 55.1358413696 64.5661392212 72.2261886597 78.8269729614 86.1617507935 13.8751630783 21.301399231 28.0543899536 35.7341499329 45.0053520203 55.0196723938 64.2869262695 71.9630508423 78.7157058716 86.1442947388 13.8972482681 21.4797477722 28.5464859009 36.3033065796 45.2641830444 54.7594985962 63.7176246643 71.4715042114 78.5382385254 86.1223144531 13.9356451035 21.7113113403 29.3091068268 37.1794700623 45.6395072937 54.3824272156 62.8408889771 70.7101135254 78.3078994751 86.0840530396 
13.9354381561 21.7105636597 29.3072814941 37.176612854 45.6381607056 54.3836975098 62.84375 70.7117843628 78.30859375 86.0842590332 13.8970584869 21.4791259766 28.544342041 36.2996635437 45.2620124817 54.7617263794 63.7212219238 71.4736328125 78.5388412476 86.1224899292 13.8749008179 21.3003444672 28.0510482788 35.7266044617 44.9993362427 55.0257225037 64.2944564819 71.9663467407 78.716758728 86.1445617676 13.8572731018 21.1876945496 27.7842788696 35.4389343262 44.8779754639 55.147693634 64.5822982788 72.2328567505 78.8289794922 86.1621017456 13.8455581665 21.1299152374 27.6512260437 35.3069496155 44.8260192871 55.1998977661 64.7144088745 72.365776062 78.8865356445 86.1737747192 13.8455686569 21.1299571991 27.6513290405 35.3070297241 44.8260726929 55.1998329163 64.7143249512 72.3656768799 78.8864898682 86.1737670898 13.8573102951 21.1879081726 27.7847671509 35.4394798279 44.8781814575 55.1474685669 64.5817642212 72.2323532104 78.8287734985 86.162071228 13.8749475479 21.3006916046 28.0519180298 35.7276496887 44.9999580383 55.0250854492 64.2934265137 71.9654998779 78.7164077759 86.1445083618 13.8971233368 21.4796218872 28.5459346771 36.3013076782 45.2628974915 54.7607955933 63.7196235657 71.4720535278 78.5383605957 86.1224365234 13.9355697632 21.7112007141 29.3091144562 37.1793785095 45.6393852234 54.3825378418 62.8409729004 70.7100982666 78.308013916 86.0841293335 
13.9354228973 21.7105484009 29.3072834015 37.1766052246 45.6381416321 54.3837127686 62.8437690735 70.7117767334 78.3086242676 86.084274292 13.8970336914 21.4791049957 28.5442504883 36.2992858887 45.2617721558 54.7619743347 63.7216033936 71.4737319946 78.5388565063 86.1225128174 13.8748550415 21.300195694 28.0505523682 35.725402832 44.9982566833 55.0267982483 64.2956542969 71.9668426514 78.7169036865 86.1446075439 13.8572006226 21.1872940063 27.7829227448 35.435585022 44.8753662109 55.1503181458 64.585647583 72.2341995239 78.8293762207 86.1621780396 13.8454618454 21.1292953491 27.6490859985 35.3015060425 44.8223304749 55.2036018372 64.7198410034 72.3679122925 78.8871612549 86.173866272 13.8454704285 21.1293354034 27.6491928101 35.3015937805 44.8223876953 55.2035446167 64.7197570801 72.3678131104 78.8871154785 86.1738586426 13.8572397232 21.1875114441 27.783416748 35.4361381531 44.8755683899 55.1500892639 64.5850982666 72.2337188721 78.8291625977 86.162147522 13.8748998642 21.3005428314 28.0514202118 35.7264595032 44.9988937378 55.0261573792 64.2946090698 71.9659957886 78.7165527344 86.1445541382 13.8970985413 21.4796028137 28.5458450317 36.3009300232 45.2626495361 54.7610321045 63.7200012207 71.4721450806 78.5383834839 86.1224517822 13.9355545044 21.7111778259 29.3091220856 37.1793708801 45.6393699646 54.3825645447 62.8409767151 70.7100982666 78.3080368042 86.0841369629 
13.935418129 21.7105369568 29.3072872162 37.1765975952 45.6381378174 54.3837127686 62.8437805176 70.7117843628 78.3086166382 86.0842895508 13.8970270157 21.4790992737 28.5442256927 36.2991905212 45.2617073059 54.7620391846 63.721698761 71.4737548828 78.5388641357 86.1225128174 13.8748426437 21.300157547 28.050409317 35.7251052856 44.9980316162 55.0270271301 64.2959442139 71.9670028687 78.7169494629 86.1446151733 13.8571815491 21.1871852875 27.7825527191 35.4347076416 44.8746757507 55.151008606 64.586517334 72.2345733643 78.8294830322 86.1622085571 13.8454341888 21.129119873 27.6484870911 35.2999763489 44.8212966919 55.2046470642 64.7213745117 72.3685073853 78.8873214722 86.1738891602 13.8454456329 21.12915802 27.6485900879 35.3000640869 44.821346283 55.2045822144 64.721282959 72.3684082031 78.8872833252 86.1738891602 13.8572216034 21.1874008179 27.7830448151 35.4352645874 44.8748931885 55.1507720947 64.5859680176 72.2340774536 78.8292770386 86.1621780396 13.8748884201 21.3005046844 28.051279068 35.7261695862 44.998664856 55.0263824463 64.2948989868 71.9661331177 78.7165908813 86.144569397 13.8970928192 21.4795970917 28.5458183289 36.3008346558 45.2625999451 54.7610931396 63.7201004028 71.4721603394 78.5383911133 86.1224594116 13.935549736 21.7111721039 29.3091239929 37.1793746948 45.6393661499 54.3825645447 62.8409881592 70.7100982666 78.3080368042 86.0841369629 
13.9354171753 21.7105369568 29.3072795868 37.1765975952 45.6381378174 54.3837242126 62.8437767029 70.7117843628 78.308631897 86.084274292 13.8970251083 21.479095459 28.5442085266 36.2991638184 45.2616882324 54.7620582581 63.7217254639 71.473777771 78.5388717651 86.1225128174 13.874838829 21.3001403809 28.050359726 35.7250175476 44.9979743958 55.0270881653 64.296043396 71.967048645 78.7169723511 86.1446075439 13.857172966 21.1871452332 27.7824192047 35.4344329834 44.8744659424 55.151222229 64.5867996216 72.234703064 78.8295288086 86.1622238159 13.8454265594 21.1290550232 27.6482753754 35.2994613647 44.8209648132 55.2049865723 64.7218780518 72.3687210083 78.8873977661 86.1739120483 13.8454360962 21.1290950775 27.6483802795 35.2995529175 44.8210067749 55.2049179077 64.7218017578 72.3686218262 78.8873519897 86.1739044189 13.8572120667 21.1873588562 27.7829151154 35.4349784851 44.8746833801 55.1509857178 64.5862503052 72.2342147827 78.8293228149 86.1621780396 13.8748846054 21.3004894257 28.0512275696 35.7260742188 44.9986076355 55.0264472961 64.2949905396 71.9662017822 78.7166137695 86.1445770264 13.8970909119 21.4795894623 28.5458068848 36.3008041382 45.2625770569 54.7611160278 63.7201309204 71.4721832275 78.5383987427 86.1224594116 13.9355478287 21.7111701965 29.3091201782 37.1793708801 45.6393623352 54.3825645447 62.8409957886 70.7100982666 78.3080444336 86.0841369629 
