13.9384803772 21.7283325195 29.356004715 37.1933288574 45.6308441162 54.3910522461 62.8268661499 70.6631011963 78.2909088135 86.081237793 13.9007358551 21.5114192963 28.6108131409 36.2289543152 45.2090759277 54.8149375916 63.791557312 71.4070510864 78.5066299438 86.1188278198 13.8793697357 21.3445301056 28.152513504 35.6588783264 44.9284629822 55.0969734192 64.3616104126 71.8647766113 78.6727142334 86.14012146 13.8608226776 21.2467002869 27.9210014343 35.3917770386 44.8141441345 55.2118606567 64.6288223267 72.0960388184 78.7701873779 86.1585922241 13.8473730087 21.2001037598 27.8071117401 35.2744407654 44.7685661316 55.2576599121 64.7462539673 72.209815979 78.8165817261 86.1719665527 13.8473815918 21.2001247406 27.8071994781 35.2744979858 44.7686233521 55.2576065063 64.7462158203 72.2097549438 78.8165740967 86.1719589233 13.8608636856 21.2468643188 27.9213886261 35.3922424316 44.8143310547 55.2116928101 64.62840271 72.0956878662 78.7700424194 86.158531189 13.8794155121 21.3448734283 28.1533069611 35.6598396301 44.9292373657 55.0962524414 64.3607330322 71.8640823364 78.6724090576 86.1400527954 13.9008131027 21.5119819641 28.6126060486 36.2305679321 45.2100830078 54.8139266968 63.7901382446 71.4052200317 78.5060653687 86.1187515259 13.9386310577 21.7290706635 29.3581695557 37.1965904236 45.6323242188 54.3897094727 62.8235282898 70.6607894897 78.2901229858 86.0810699463 
13.9384183884 21.7281551361 29.3556842804 37.1929397583 45.6307220459 54.391166687 62.8272628784 70.6634292603 78.2910766602 86.0812988281 13.9006528854 21.5111980438 28.6100654602 36.2276077271 45.2083969116 54.815612793 63.7929000854 71.4077911377 78.5068511963 86.1189117432 13.8792581558 21.3440952301 28.15102005 35.6559448242 44.9257164001 55.0997161865 64.3645477295 71.8662719727 78.6731567383 86.1402282715 13.8606843948 21.2460021973 27.9184379578 35.3850669861 44.8073959351 55.2186355591 64.6355133057 72.0986022949 78.7708892822 86.1587142944 13.8472242355 21.1992206573 27.8037967682 35.2638664246 44.7590408325 55.2672309875 64.7568054199 72.2131347656 78.8174514771 86.1721038818 13.8472309113 21.1992435455 27.8038825989 35.2639274597 44.7591056824 55.2671775818 64.7567596436 72.2130584717 78.8174514771 86.1721115112 13.8607282639 21.2461624146 27.9188270569 35.3855552673 44.8075942993 55.2184638977 64.6350784302 72.0982513428 78.7707290649 86.1586761475 13.8793048859 21.3444385529 28.1518058777 35.6569099426 44.9265441895 55.0989685059 64.3636703491 71.8655776978 78.6728286743 86.1401748657 13.9007301331 21.5117588043 28.6118621826 36.2292327881 45.2094078064 54.8146095276 63.7914810181 71.4059677124 78.5062866211 86.1188278198 13.9385728836 21.72889328 29.3578510284 37.1962051392 45.6322097778 54.389831543 62.8239250183 70.6611251831 78.2902984619 86.0811309814 
13.9384183884 21.7281551361 29.355676651 37.1929359436 45.6307220459 54.3911743164 62.8272628784 70.6634292603 78.2910842896 86.0812988281 13.9006519318 21.5111923218 28.6100521088 36.2276000977 45.2083930969 54.8156204224 63.7929077148 71.4078063965 78.5068664551 86.1189117432 13.8792572021 21.3440895081 28.1509933472 35.6559295654 44.9257011414 55.0997238159 64.3645706177 71.8662872314 78.6731643677 86.1402282715 13.8606843948 21.2459926605 27.9184112549 35.3850402832 44.8073806763 55.2186470032 64.6355438232 72.0986175537 78.7708892822 86.1587219238 13.8472242355 21.1992073059 27.8037662506 35.2638244629 44.759021759 55.2672462463 64.7568435669 72.2131652832 78.8174667358 86.1721038818 13.8472299576 21.1992321014 27.803850174 35.2638893127 44.7590942383 55.26720047 64.7567901611 72.2130889893 78.8174514771 86.1721115112 13.8607273102 21.2461566925 27.9188098907 35.3855285645 44.8075828552 55.2184829712 64.635093689 72.0982666016 78.7707443237 86.1586685181 13.8793039322 21.3444328308 28.1517906189 35.6568908691 44.9265327454 55.0989761353 64.3636779785 71.8655853271 78.6728439331 86.1401748657 13.9007301331 21.5117588043 28.6118545532 36.229221344 45.2094039917 54.8146095276 63.7914848328 71.4059677124 78.5062942505 86.1188278198 13.9385728836 21.7288894653 29.357837677 37.1961975098 45.6322059631 54.3898391724 62.8239173889 70.6611251831 78.2902984619 86.0811309814 
13.9384183884 21.7281551361 29.3556728363 37.1929321289 45.6307220459 54.3911781311 62.8272705078 70.6634368896 78.2910842896 86.0812988281 13.9006519318 21.5111885071 28.6100406647 36.2275886536 45.2083854675 54.8156204224 63.7929229736 71.4078140259 78.5068664551 86.1189117432 13.8792572021 21.344083786 28.1509819031 35.6559066772 44.9256973267 55.0997390747 64.3645935059 71.866317749 78.6731719971 86.1402435303 13.8606834412 21.2459831238 27.918390274 35.3850059509 44.8073654175 55.2186737061 64.6355819702 72.0986404419 78.7708969116 86.1587219238 13.8472223282 21.1991958618 27.803735733 35.2637901306 44.7590103149 55.2672729492 64.7568893433 72.2131958008 78.817489624 86.1721191406 13.8472299576 21.1992225647 27.8038234711 35.2638511658 44.7590713501 55.2672119141 64.7568359375 72.2131347656 78.8174667358 86.1721115112 13.8607254028 21.2461452484 27.9187831879 35.3854942322 44.807559967 55.2184906006 64.6351242065 72.0982894897 78.7707672119 86.1586685181 13.8793029785 21.3444290161 28.1517772675 35.656879425 44.9265213013 55.09897995 64.3637084961 71.8656082153 78.6728439331 86.1401748657 13.9007301331 21.5117511749 28.6118431091 36.2292098999 45.2093963623 54.8146209717 63.7915039062 71.4059829712 78.5062942505 86.1188278198 13.9385728836 21.7288894653 29.357837677 37.1961936951 45.6322021484 54.3898391724 62.823928833 70.6611251831 78.2902984619 86.0811309814 
13.938419342 21.7281513214 29.3556690216 37.1929206848 45.6307144165 54.3911819458 62.8272743225 70.6634368896 78.2910919189 86.0812988281 13.9006519318 21.5111865997 28.6100349426 36.2275772095 45.2083816528 54.8156318665 63.7929344177 71.4078292847 78.5068664551 86.1189117432 13.8792562485 21.344078064 28.1509666443 35.6558914185 44.9256896973 55.0997543335 64.3646087646 71.8663330078 78.6731719971 86.1402435303 13.8606834412 21.2459754944 27.9183692932 35.384979248 44.8073501587 55.2186813354 64.6356048584 72.0986709595 78.770904541 86.1587142944 13.8472213745 21.1991882324 27.8037166595 35.2637481689 44.7589874268 55.2672843933 64.7569274902 72.213218689 78.817489624 86.1721115112 13.8472290039 21.1992149353 27.8037967682 35.2638092041 44.7590522766 55.2672348022 64.7568817139 72.2131347656 78.8174819946 86.1721038818 13.8607234955 21.246137619 27.918762207 35.3854675293 44.8075408936 55.2185096741 64.6351623535 72.0983123779 78.7707595825 86.1586685181 13.8793020248 21.3444232941 28.1517620087 35.6568603516 44.9265213013 55.098991394 64.3637161255 71.8656234741 78.6728515625 86.1401748657 13.9007282257 21.5117492676 28.611831665 36.2291946411 45.2093963623 54.814617157 63.791519165 71.40599823 78.5063018799 86.1188278198 13.9385728836 21.7288894653 29.357831955 37.1961860657 45.6322021484 54.3898391724 62.8239364624 70.6611404419 78.2902984619 86.0811309814 
13.938419342 21.7281513214 29.3556652069 37.1929168701 45.6307144165 54.3911819458 62.8272857666 70.663444519 78.2910919189 86.0812988281 13.9006500244 21.511182785 28.6100234985 36.2275619507 45.2083778381 54.8156318665 63.7929420471 71.4078445435 78.5068740845 86.1189117432 13.8792552948 21.3440723419 28.1509513855 35.6558685303 44.9256820679 55.0997581482 64.3646316528 71.8663482666 78.6731719971 86.1402435303 13.8606815338 21.2459640503 27.9183444977 35.3849487305 44.8073348999 55.2187042236 64.6356430054 72.0987014771 78.7709197998 86.1587295532 13.8472204208 21.1991767883 27.803686142 35.2637062073 44.758972168 55.2673072815 64.7569656372 72.2132339478 78.8175048828 86.1721115112 13.8472290039 21.1991996765 27.8037700653 35.2637634277 44.7590370178 55.2672538757 64.7569198608 72.2131652832 78.8174819946 86.1721038818 13.8607225418 21.246131897 27.9187355042 35.385433197 44.8075256348 55.2185249329 64.6351928711 72.0983505249 78.7707748413 86.1586685181 13.8793020248 21.3444156647 28.1517391205 35.6568374634 44.9265060425 55.0990066528 64.3637390137 71.8656387329 78.6728591919 86.1401748657 13.9007282257 21.5117454529 28.6118240356 36.2291870117 45.2093887329 54.8146247864 63.7915267944 71.4060134888 78.5063018799 86.1188278198 13.9385709763 21.7288856506 29.3578300476 37.1961784363 45.6322021484 54.3898468018 62.8239326477 70.6611480713 78.2902984619 86.0811309814 
13.9384183884 21.7281494141 29.3556613922 37.1929130554 45.6307067871 54.3911819458 62.827293396 70.663444519 78.2910919189 86.0812988281 13.9006509781 21.5111808777 28.6100120544 36.2275505066 45.2083740234 54.8156433105 63.7929611206 71.4078445435 78.5068740845 86.1189117432 13.8792552948 21.3440666199 28.1509361267 35.6558494568 44.9256668091 55.0997695923 64.3646469116 71.8663635254 78.6731872559 86.1402435303 13.8606824875 21.2459564209 27.9183216095 35.3849182129 44.807308197 55.2187194824 64.6356735229 72.0987091064 78.7709197998 86.1587295532 13.8472194672 21.1991653442 27.8036594391 35.2636680603 44.7589530945 55.2673225403 64.7570037842 72.2132720947 78.8175201416 86.1721115112 13.8472280502 21.1991920471 27.8037414551 35.2637214661 44.7590103149 55.2672691345 64.7569580078 72.2131881714 78.8174972534 86.1721115112 13.8607225418 21.2461223602 27.918712616 35.3854026794 44.807510376 55.2185516357 64.6352233887 72.0983505249 78.7707824707 86.1586685181 13.8793010712 21.3444061279 28.1517276764 35.6568183899 44.9264907837 55.0990142822 64.3637542725 71.8656463623 78.6728668213 86.1401748657 13.9007282257 21.5117435455 28.6118106842 36.2291755676 45.2093811035 54.8146324158 63.7915382385 71.4060287476 78.5063095093 86.1188278198 13.9385709763 21.7288856506 29.3578224182 37.1961784363 45.6321983337 54.3898544312 62.8239440918 70.6611480713 78.2903060913 86.0811309814 
