14.0092411041 13.8368110657 13.1187973022 12.0287866592 11.3667602539 11.3672790527 12.0313692093 13.1212759018 13.838010788 14.009223938 22.0009593964 21.6931705475 20.7361221313 19.4183330536 18.6297664642 18.6303787231 19.4213428497 20.7392520905 21.6948833466 22.0010032654 29.993314743 29.6476783752 28.8431415558 27.813243866 27.1622772217 27.1627998352 27.8156394958 28.8456058502 29.6492938995 29.9934005737 37.9946517944 37.753112793 37.2534561157 36.6293907166 36.2302932739 36.2306137085 36.6308441162 37.2549552917 37.7541465759 37.9947319031 46.0036125183 45.9185409546 45.7495079041 45.5419006348 45.4091339111 45.4092330933 45.5423812866 45.7500076294 45.9188842773 46.0036430359 54.0164108276 54.1019363403 54.2718925476 54.4806060791 54.6141433716 54.6140289307 54.4801254272 54.2713775635 54.1015853882 54.0163764954 62.0253562927 62.267250061 62.7677764893 63.3929138184 63.7927360535 63.7924232483 63.3914527893 62.7662658691 62.2662162781 62.0252685547 70.0266799927 70.372428894 71.1776046753 72.2086715698 72.8598556519 72.8593673706 72.2063064575 71.1751403809 70.370803833 70.0265884399 78.0190124512 78.3264923096 79.2836608887 80.6021118164 81.3909759521 81.3903656006 80.5992126465 79.2805328369 78.3247833252 78.0189743042 86.0107574463 86.1827926636 86.8992538452 87.9865341187 88.6462402344 88.6460571289 87.98387146 86.8967132568 86.1815872192 86.0107803345 
14.0021095276 13.7906541824 13.0466098785 11.9087924957 11.1833438873 11.1839466095 11.9115085602 13.0491800308 13.7919158936 14.0021286011 21.992389679 21.6224403381 20.5820541382 19.0900211334 18.1413478851 18.1421070099 19.0935611725 20.5854873657 21.6243247986 21.9924736023 29.9841575623 29.5602455139 28.6324634552 27.4159202576 26.6395759583 26.6401996613 27.4187870026 28.6353416443 29.5621032715 29.984287262 37.9861755371 37.6739883423 37.0732383728 36.3469657898 35.8795585632 35.8799285889 36.3486747742 37.0750083923 37.6752433777 37.9862976074 46.0000267029 45.8848609924 45.6791381836 45.4404296875 45.2867202759 45.2868461609 45.4409828186 45.6797218323 45.8853034973 46.0000801086 54.0200119019 54.1357955933 54.3426475525 54.5826377869 54.7372932434 54.7371520996 54.5820770264 54.3420448303 54.1353492737 54.0199623108 62.03383255 62.3464355469 62.9481887817 63.6757545471 64.1440734863 64.143699646 63.6740455627 62.9464111328 62.3451690674 62.033706665 70.0358276367 70.459815979 71.3882217407 72.6062240601 73.3828277588 73.382232666 72.6034164429 71.3853378296 70.4579620361 70.035697937 78.0275878906 78.3971557617 79.4375 80.9301986694 81.8790435791 81.8782653809 80.9267959595 79.4340744019 78.3952560425 78.0275115967 86.0178833008 86.2288742065 86.9711303711 88.1057510376 88.8288040161 88.8285903931 88.1028518677 86.9684753418 86.2275924683 86.0178527832 
14.000497818 13.780670166 13.0326337814 11.8865184784 11.1539745331 11.1545906067 11.889251709 13.0352210999 13.7819395065 14.0005235672 21.9905567169 21.6074695587 20.5483875275 19.0158500671 18.022228241 18.0230484009 19.0195140839 20.5518951416 21.6093959808 21.990650177 29.9824581146 29.5427761078 28.5856437683 27.3023033142 26.4468383789 26.4475307465 27.3054008484 28.5886173248 29.5446834564 29.9825973511 37.9848709106 37.6597175598 37.0330085754 36.2491149902 35.7333908081 35.7338066101 36.2509803772 37.0348739624 37.661026001 37.984992981 45.9995422363 45.8792037964 45.6621170044 45.4029541016 45.2335472107 45.2336807251 45.4035644531 45.6627388 45.8796653748 45.9995994568 54.0205001831 54.1414833069 54.3597602844 54.620300293 54.790802002 54.7906570435 54.6196784973 54.35912323 54.1410179138 54.0204429626 62.0351409912 62.3607139587 62.9884529114 63.77368927 64.2903900146 64.2899780273 63.7718238831 62.9865875244 62.3593978882 62.0350074768 70.0375289917 70.4772949219 71.4350357056 72.7198486328 73.5754470825 73.5748214722 72.7168273926 71.4320449829 70.4753646851 70.0373840332 78.0294189453 78.412109375 79.4711227417 81.0042648315 81.9979095459 81.9970779419 81.0007629395 79.4675979614 78.4101715088 78.0293273926 86.019493103 86.2388305664 86.9850234985 88.1278305054 88.8579864502 88.8577880859 88.1248931885 86.9823684692 86.2375488281 86.0194702148 
14.0002222061 13.7789545059 13.0303153992 11.8830299377 11.1497869492 11.1504039764 11.885764122 13.0329027176 13.7802267075 14.000248909 21.9902381897 21.6048545837 20.5426006317 19.0035305023 18.0037689209 18.0045967102 19.0072097778 20.5461101532 21.6067867279 21.9903335571 29.9821529388 29.5396442413 28.5773277283 27.2825508118 26.4102039337 26.4109172821 27.2856788635 28.5803165436 29.5415649414 29.9822940826 37.9846382141 37.6571159363 37.0254325867 36.228931427 35.699131012 35.6995658875 36.2308425903 37.0273246765 37.6584320068 37.9847679138 45.9994468689 45.8781585693 45.6588745117 45.394317627 45.2202415466 45.2203788757 45.3949356079 45.6595039368 45.8786239624 45.9995040894 54.0205993652 54.1425323486 54.3630104065 54.628993988 54.8042297363 54.804069519 54.6283531189 54.3623733521 54.1420593262 54.0205421448 62.0353660583 62.363319397 62.9960327148 63.793888092 64.3246612549 64.3242340088 63.7919769287 62.9941291809 62.3620071411 62.0352363586 70.0378341675 70.4804153442 71.4433517456 72.7396011353 73.6120376587 73.611366272 72.736541748 71.4403533936 70.4784927368 70.0376968384 78.0297317505 78.4147186279 79.476890564 81.0165786743 82.0163269043 82.0155029297 81.0130462646 79.4733810425 78.4127731323 78.0296478271 86.0197601318 86.2405548096 86.9873428345 88.1312866211 88.8621673584 88.8619384766 88.1283493042 86.9846725464 86.2392578125 86.019744873 
14.0001688004 13.7786283493 13.0298681259 11.8823652267 11.1490001678 11.1496181488 11.8851013184 13.0324573517 13.7798995972 14.0001955032 21.9901771545 21.6043548584 20.5414848328 19.0012111664 18.0003509521 18.0011787415 19.0048999786 20.545003891 21.6062831879 21.990272522 29.982088089 29.5390357971 28.5757160187 27.2788410187 26.4034519196 26.4041728973 27.2819747925 28.5787162781 29.5409584045 29.9822330475 37.984588623 37.6566123962 37.0239257812 36.2248077393 35.6916694641 35.6921081543 36.2267189026 37.0258216858 37.6579170227 37.9847221375 45.9994316101 45.8779602051 45.658241272 45.3924026489 45.2172393799 45.2173690796 45.393032074 45.6588783264 45.8784217834 45.9994850159 54.020614624 54.142742157 54.363658905 54.6309127808 54.8072776794 54.8071136475 54.6302719116 54.3630027771 54.1422729492 54.020565033 62.0354118347 62.3638305664 62.9975395203 63.7980232239 64.3321151733 64.3316802979 63.7961044312 62.9956321716 62.3625068665 62.0352783203 70.0378952026 70.4810180664 71.4449539185 72.7433166504 73.6187591553 73.6181030273 72.7402572632 71.4419708252 70.4790878296 70.0377426147 78.0297927856 78.4152297974 79.4780044556 81.0188903809 82.0197219849 82.0189056396 81.0153579712 79.4744949341 78.4132766724 78.0297012329 86.019821167 86.2408676147 86.9877700806 88.1319580078 88.8629226685 88.8627166748 88.1289978027 86.9851150513 86.2395782471 86.0197982788 
14.0001554489 13.7785463333 13.0297546387 11.882188797 11.1487941742 11.1494112015 11.884926796 13.0323419571 13.7798185349 14.0001831055 21.9901618958 21.6042251587 20.5412025452 19.0006370544 17.9995117188 18.0003395081 19.0043258667 20.5447235107 21.6061592102 21.9902572632 29.9820728302 29.5388832092 28.5753040314 27.2779197693 26.4018325806 26.4025554657 27.2810611725 28.5783023834 29.5408058167 29.982219696 37.9845809937 37.6564750671 37.0235443115 36.2237281799 35.6896705627 35.6901092529 36.2256469727 37.0254364014 37.6577949524 37.9847106934 45.9994277954 45.8778991699 45.6580848694 45.3918800354 45.2164154053 45.216545105 45.3924980164 45.6587257385 45.8783683777 45.9994850159 54.0206222534 54.1427955627 54.3638153076 54.6314468384 54.8081054688 54.8079528809 54.6308059692 54.3631629944 54.1423187256 54.020565033 62.0354309082 62.3639564514 62.9979248047 63.7990875244 64.3341217041 64.3336868286 63.7971687317 62.9960212708 62.3626327515 62.0352897644 70.0379104614 70.4811859131 71.4453735352 72.7442321777 73.6203842163 73.6197052002 72.7411651611 71.4423828125 70.4792480469 70.0377731323 78.0298156738 78.4153518677 79.4782791138 81.0194625854 82.0205688477 82.019744873 81.0159301758 79.4747543335 78.4134063721 78.0297088623 86.0198364258 86.2409591675 86.9879074097 88.1321258545 88.8631439209 88.8629226685 88.1291885376 86.9852294922 86.2396697998 86.0198059082 
14.0001544952 13.7785196304 13.0297145844 11.8821249008 11.1487140656 11.1493320465 11.8848619461 13.0323019028 13.779794693 14.0001792908 21.9901580811 21.6041870117 20.5411071777 19.0004501343 17.9992389679 18.0000667572 19.0041389465 20.5446300507 21.6061191559 21.9902534485 29.9820709229 29.5388336182 28.5751628876 27.2776279449 26.4013252258 26.4020462036 27.2807598114 28.578168869 29.5407562256 29.982213974 37.984577179 37.6564407349 37.0234184265 36.2233810425 35.6890068054 35.6894454956 36.2252960205 37.0253067017 37.657749176 37.984703064 45.9994277954 45.8778800964 45.6580276489 45.3917007446 45.2161369324 45.2162666321 45.392326355 45.6586723328 45.8783493042 45.9994850159 54.0206222534 54.1428184509 54.3638648987 54.6316261292 54.8083839417 54.8082275391 54.6309814453 54.3632087708 54.1423339844 54.020565033 62.0354309082 62.3639984131 62.9980545044 63.7994422913 64.3347854614 64.3343505859 63.7975234985 62.9961471558 62.3626785278 62.0352935791 70.0379180908 70.4812316895 71.4455032349 72.7445373535 73.6208877563 73.6202087402 72.7414703369 71.4425048828 70.4793014526 70.0377731323 78.0298233032 78.4153900146 79.4783782959 81.0196456909 82.0208435059 82.0200042725 81.0161209106 79.474861145 78.413444519 78.0297164917 86.0198440552 86.2409744263 86.9879226685 88.1322021484 88.8632278442 88.8630065918 88.1292419434 86.9852600098 86.239692688 86.0198059082 
