1.0 1.00000011921 0.999879300594 1.02923440933 1.08729970455 1.08727300167 1.02914559841 1.00000023842 1.0 1.0 0.999999940395 1.00074505806 1.07382512093 1.18209075928 1.27701950073 1.27699410915 1.18200182915 1.03050982952 1.00073075294 1.0 1.0 1.05674278736 1.16066277027 1.28113496304 1.37453866005 1.37451565266 1.28104972839 1.10734248161 1.05667054653 1.00000011921 1.0 1.09333324432 1.19962787628 1.30729973316 1.38830542564 1.38828444481 1.30721962452 1.14470267296 1.09326803684 1.00000011921 1.0 1.12119007111 1.23382258415 1.33208465576 1.39901292324 1.3989969492 1.33201169968 1.17545831203 1.12112545967 1.00000011921 1.0 1.12117981911 1.2338116169 1.33206868172 1.39909362793 1.39907264709 1.33199071884 1.17545258999 1.12111496925 1.00000011921 1.0 1.09328615665 1.19958806038 1.30721235275 1.38838303089 1.3883535862 1.30712819099 1.1446608305 1.09322035313 1.0 1.0 1.03617346287 1.13018095493 1.24154388905 1.34891557693 1.34891426563 1.24144744873 1.08333647251 1.0361007452 1.00000011921 1.0 1.00072789192 1.07373011112 1.1821321249 1.27717781067 1.27709507942 1.18211209774 1.03042805195 1.00071370602 1.00000011921 1.0 1.00000011921 0.999882400036 1.02910506725 1.08700370789 1.08706831932 1.02896213531 1.00000011921 1.0 0.999999940395 
1.0 1.00000011921 0.999879300594 1.02923440933 1.08729970455 1.08727300167 1.02914559841 1.00000023842 1.0 1.0 0.999999940395 1.00074505806 1.07382512093 1.18209075928 1.27746152878 1.27743673325 1.18200182915 1.03050982952 1.00073075294 1.0 1.0 1.05674278736 1.16066277027 1.28243279457 1.40418422222 1.40416276455 1.28234887123 1.10734248161 1.05667054653 1.00000011921 1.0 1.09333324432 1.19962787628 1.31194138527 1.42375540733 1.42373359203 1.31187009811 1.14470267296 1.09326803684 1.00000011921 1.0 1.12119007111 1.23415994644 1.34626889229 1.44479715824 1.4447799921 1.34620940685 1.17545831203 1.12112545967 1.00000011921 1.0 1.12117981911 1.23414838314 1.34624731541 1.44497144222 1.4449442625 1.34617865086 1.17545258999 1.12111496925 1.00000011921 1.0 1.09328615665 1.19958806038 1.31184101105 1.42394518852 1.42390871048 1.31176269054 1.1446608305 1.09322035313 1.0 1.0 1.03617346287 1.13018095493 1.24154388905 1.35728347301 1.35728144646 1.24144744873 1.08333647251 1.0361007452 1.00000011921 1.0 1.00072789192 1.07373011112 1.1821321249 1.27762103081 1.27753686905 1.18211209774 1.03042805195 1.00071370602 1.00000011921 1.0 1.00000011921 0.999882400036 1.02910506725 1.08700370789 1.08706831932 1.02896213531 1.00000011921 1.0 0.999999940395 
1.0 1.00000011921 0.999879300594 1.02923440933 1.08729970455 1.08727300167 1.02914559841 1.00000023842 1.0 1.0 0.999999940395 1.00074505806 1.07382512093 1.18209075928 1.27746152878 1.27743673325 1.18200182915 1.03050982952 1.00073075294 1.0 1.0 1.05674278736 1.16066277027 1.28243279457 1.40507817268 1.40505707264 1.28234887123 1.10734248161 1.05667054653 1.00000011921 1.0 1.09333324432 1.19962787628 1.31194138527 1.42500698566 1.42498540878 1.31187009811 1.14470267296 1.09326803684 1.00000011921 1.0 1.12119007111 1.23415994644 1.34652531147 1.44716870785 1.44715178013 1.34646677971 1.17545831203 1.12112545967 1.00000011921 1.0 1.12117981911 1.23414838314 1.3465051651 1.44736051559 1.44733321667 1.34643650055 1.17545258999 1.12111496925 1.00000011921 1.0 1.09328615665 1.19958806038 1.31184101105 1.42521512508 1.42517828941 1.31176269054 1.1446608305 1.09322035313 1.0 1.0 1.03617346287 1.13018095493 1.24154388905 1.35728347301 1.35728144646 1.24144744873 1.08333647251 1.0361007452 1.00000011921 1.0 1.00072789192 1.07373011112 1.1821321249 1.27762103081 1.27753686905 1.18211209774 1.03042805195 1.00071370602 1.00000011921 1.0 1.00000011921 0.999882400036 1.02910506725 1.08700370789 1.08706831932 1.02896213531 1.00000011921 1.0 0.999999940395 
1.0 1.00000011921 0.999879300594 1.02923440933 1.08729970455 1.08727300167 1.02914559841 1.00000023842 1.0 1.0 0.999999940395 1.00074505806 1.07382512093 1.18209075928 1.27746152878 1.27743673325 1.18200182915 1.03050982952 1.00073075294 1.0 1.0 1.05674278736 1.16066277027 1.28243279457 1.40513420105 1.40511310101 1.28234887123 1.10734248161 1.05667054653 1.00000011921 1.0 1.09333324432 1.19962787628 1.31194138527 1.42509484291 1.42507326603 1.31187009811 1.14470267296 1.09326803684 1.00000011921 1.0 1.12119007111 1.23415994644 1.34653258324 1.44740819931 1.44739127159 1.34647405148 1.17545831203 1.12112545967 1.00000011921 1.0 1.12117981911 1.23414838314 1.34651303291 1.44760417938 1.44757676125 1.34644436836 1.17545258999 1.12111496925 1.00000011921 1.0 1.09328615665 1.19958806038 1.31184101105 1.4253064394 1.42526984215 1.31176269054 1.1446608305 1.09322035313 1.0 1.0 1.03617346287 1.13018095493 1.24154388905 1.35728347301 1.35728144646 1.24144744873 1.08333647251 1.0361007452 1.00000011921 1.0 1.00072789192 1.07373011112 1.1821321249 1.27762103081 1.27753686905 1.18211209774 1.03042805195 1.00071370602 1.00000011921 1.0 1.00000011921 0.999882400036 1.02910506725 1.08700370789 1.08706831932 1.02896213531 1.00000011921 1.0 0.999999940395 
1.0 1.00000011921 0.999879300594 1.02923440933 1.08729970455 1.08727300167 1.02914559841 1.00000023842 1.0 1.0 0.999999940395 1.00074505806 1.07382512093 1.18209075928 1.27746152878 1.27743673325 1.18200182915 1.03050982952 1.00073075294 1.0 1.0 1.05674278736 1.16066277027 1.28243279457 1.40514421463 1.4051232338 1.28234887123 1.10734248161 1.05667054653 1.00000011921 1.0 1.09333324432 1.19962787628 1.31194138527 1.42510783672 1.42508637905 1.31187009811 1.14470267296 1.09326803684 1.00000011921 1.0 1.12119007111 1.23415994644 1.34653615952 1.44745123386 1.44743418694 1.34647774696 1.17545831203 1.12112545967 1.00000011921 1.0 1.12117981911 1.23414838314 1.34651660919 1.4476480484 1.44762063026 1.34644818306 1.17545258999 1.12111496925 1.00000011921 1.0 1.09328615665 1.19958806038 1.31184101105 1.42532074451 1.42528390884 1.31176269054 1.1446608305 1.09322035313 1.0 1.0 1.03617346287 1.13018095493 1.24154388905 1.35728347301 1.35728144646 1.24144744873 1.08333647251 1.0361007452 1.00000011921 1.0 1.00072789192 1.07373011112 1.1821321249 1.27762103081 1.27753686905 1.18211209774 1.03042805195 1.00071370602 1.00000011921 1.0 1.00000011921 0.999882400036 1.02910506725 1.08700370789 1.08706831932 1.02896213531 1.00000011921 1.0 0.999999940395 
1.0 1.00000011921 0.999879300594 1.02923440933 1.08729970455 1.08727300167 1.02914559841 1.00000023842 1.0 1.0 0.999999940395 1.00074505806 1.07382512093 1.18209075928 1.27746152878 1.27743673325 1.18200182915 1.03050982952 1.00073075294 1.0 1.0 1.05674278736 1.16066277027 1.28243279457 1.40515100956 1.40512990952 1.28234887123 1.10734248161 1.05667054653 1.00000011921 1.0 1.09333324432 1.19962787628 1.31194138527 1.42511487007 1.42509353161 1.31187009811 1.14470267296 1.09326803684 1.00000011921 1.0 1.12119007111 1.23415994644 1.34654200077 1.44746661186 1.44744956493 1.34648346901 1.17545831203 1.12112545967 1.00000011921 1.0 1.12117981911 1.23414838314 1.34652280807 1.44766414165 1.44763672352 1.34645402431 1.17545258999 1.12111496925 1.00000011921 1.0 1.09328615665 1.19958806038 1.31184101105 1.4253282547 1.42529153824 1.31176269054 1.1446608305 1.09322035313 1.0 1.0 1.03617346287 1.13018095493 1.24154388905 1.35728347301 1.35728144646 1.24144744873 1.08333647251 1.0361007452 1.00000011921 1.0 1.00072789192 1.07373011112 1.1821321249 1.27762103081 1.27753686905 1.18211209774 1.03042805195 1.00071370602 1.00000011921 1.0 1.00000011921 0.999882400036 1.02910506725 1.08700370789 1.08706831932 1.02896213531 1.00000011921 1.0 0.999999940395 
1.0 1.00000011921 0.999879300594 1.02923440933 1.08729970455 1.08727300167 1.02914559841 1.00000023842 1.0 1.0 0.999999940395 1.00074505806 1.07382512093 1.18209075928 1.27746152878 1.27743673325 1.18200182915 1.03050982952 1.00073075294 1.0 1.0 1.05674278736 1.16066277027 1.28243279457 1.40515780449 1.40513658524 1.28234887123 1.10734248161 1.05667054653 1.00000011921 1.0 1.09333324432 1.19962787628 1.31194138527 1.42512214184 1.42510092258 1.31187009811 1.14470267296 1.09326803684 1.00000011921 1.0 1.12119007111 1.23415994644 1.34654915333 1.44747698307 1.44745993614 1.34649038315 1.17545831203 1.12112545967 1.00000011921 1.0 1.12117981911 1.23414838314 1.34652996063 1.44767463207 1.44764697552 1.34646117687 1.17545258999 1.12111496925 1.00000011921 1.0 1.09328615665 1.19958806038 1.31184101105 1.42533576488 1.42529904842 1.31176269054 1.1446608305 1.09322035313 1.0 1.0 1.03617346287 1.13018095493 1.24154388905 1.35728347301 1.35728144646 1.24144744873 1.08333647251 1.0361007452 1.00000011921 1.0 1.00072789192 1.07373011112 1.1821321249 1.27762103081 1.27753686905 1.18211209774 1.03042805195 1.00071370602 1.00000011921 1.0 1.00000011921 0.999882400036 1.02910506725 1.08700370789 1.08706831932 1.02896213531 1.00000011921 1.0 0.999999940395 
