0.98167604208 1.00778067112 1.03551805019 1.09067618847 1.16686403751 1.16683638096 1.09060716629 1.02608168125 1.00774717331 0.981729865074 0.972438812256 1.04686844349 1.16061961651 1.28381168842 1.3874951601 1.38747620583 1.28373539448 1.09431397915 1.04680740833 0.972500562668 0.96958398819 1.13196086884 1.26992404461 1.40152037144 1.51818859577 1.51817178726 1.40144741535 1.19823157787 1.13188314438 0.969628572464 0.96823912859 1.17707073689 1.31587672234 1.4354057312 1.54139459133 1.54137766361 1.43534326553 1.24419426918 1.17699885368 0.968272387981 0.966645002365 1.21299278736 1.3557677269 1.46987378597 1.56188952923 1.56187725067 1.46982038021 1.28267121315 1.21291697025 0.966675639153 0.966647028923 1.21298229694 1.35575795174 1.4698523283 1.56200659275 1.56198740005 1.46979260445 1.28266978264 1.21290683746 0.966677725315 0.968244016171 1.17702233791 1.31583762169 1.43531310558 1.54151380062 1.54148542881 1.4352452755 1.24415957928 1.17695188522 0.968277156353 0.970232963562 1.10046947002 1.23073267937 1.35361433029 1.47497236729 1.47496819496 1.35354018211 1.16151571274 1.10040485859 0.970278739929 0.972445011139 1.04678535461 1.16049361229 1.28384149075 1.38759183884 1.38751935959 1.28380584717 1.09422039986 1.04672706127 0.972505927086 0.981703579426 1.0077406168 1.03550052643 1.09045767784 1.16666400433 1.16675233841 1.09032392502 1.02607536316 1.00770843029 0.98175495863 
0.981655478477 1.00708961487 1.03452980518 1.08934307098 1.16527593136 1.16524863243 1.08927500248 1.02509045601 1.00705695152 0.981709182262 0.972410917282 1.04593646526 1.15949547291 1.28254747391 1.38623547554 1.38621640205 1.28247106075 1.09321224689 1.04587614536 0.972472786903 0.969525277615 1.1308991909 1.26882565022 1.40026772022 1.52314019203 1.52312409878 1.40019488335 1.19719004631 1.1308221817 0.969570100307 0.968152344227 1.17598557472 1.31471896172 1.43466734886 1.54888963699 1.54887390137 1.43460643291 1.24320089817 1.17591369152 0.968185722828 0.966525316238 1.21193826199 1.35497677326 1.47290122509 1.57444357872 1.57443284988 1.47285115719 1.28210699558 1.21186256409 0.96655613184 0.966527462006 1.21192777157 1.35496640205 1.47288060188 1.5745998621 1.57458031178 1.47282278538 1.28210568428 1.21185231209 0.966558337212 0.968156993389 1.17593717575 1.31468045712 1.43457555771 1.54905092716 1.54902160168 1.43450856209 1.24316632748 1.17586684227 0.968190610409 0.970177054405 1.0994052887 1.22957885265 1.35213530064 1.47394788265 1.4739459753 1.35206115246 1.16041755676 1.09934139252 0.970223009586 0.97241717577 1.04585361481 1.15936923027 1.28257906437 1.38632845879 1.38625609875 1.28254330158 1.09311830997 1.04579615593 0.972478091717 0.981682896614 1.00705003738 1.03451371193 1.08912348747 1.16507852077 1.16516757011 1.08898961544 1.02508497238 1.00701904297 0.981734335423 
0.981654644012 1.00706672668 1.03449690342 1.08929955959 1.16522407532 1.16519653797 1.08923137188 1.02505755424 1.00703406334 0.981708168983 0.972409963608 1.04590582848 1.15945899487 1.28250575066 1.38619315624 1.38617396355 1.28242897987 1.09317600727 1.04584550858 0.972471654415 0.969523191452 1.13086509705 1.26879119873 1.40022170544 1.52319121361 1.52317452431 1.40014898777 1.19715535641 1.13078796864 0.96956795454 0.968149065971 1.17595148087 1.31468462944 1.43462991714 1.54910004139 1.54908442497 1.43456876278 1.24316895008 1.17587983608 0.968182384968 0.966521084309 1.21190667152 1.35495007038 1.47301363945 1.57503902912 1.57502830029 1.47296392918 1.28208768368 1.21183097363 0.966551959515 0.966523170471 1.2118960619 1.35493981838 1.4729937315 1.57520079613 1.57518076897 1.47293591499 1.28208601475 1.21182060242 0.966553986073 0.968154013157 1.17590332031 1.31464600563 1.43453800678 1.54926609993 1.54923689365 1.43447113037 1.24313390255 1.17583274841 0.968187212944 0.970174968243 1.099370718 1.22954130173 1.35209035873 1.47390794754 1.47390627861 1.35201609135 1.16038095951 1.09930706024 0.970220923424 0.972416043282 1.04582309723 1.15933227539 1.28253734112 1.38628590107 1.38621342182 1.28250145912 1.09308183193 1.04576551914 0.972477138042 0.981682062149 1.0070271492 1.03448104858 1.08907985687 1.16502690315 1.16511559486 1.08894598484 1.02505207062 1.00699591637 0.981733441353 
0.981654644012 1.00706470013 1.03449428082 1.08929622173 1.16522049904 1.16519284248 1.08922827244 1.02505469322 1.00703191757 0.981708168983 0.97240960598 1.04590344429 1.15945637226 1.28250288963 1.38619041443 1.38617110252 1.28242635727 1.09317350388 1.0458432436 0.972471415997 0.969522893429 1.13086295128 1.26878917217 1.40021896362 1.5231897831 1.52317333221 1.40014588833 1.19715321064 1.13078570366 0.969567537308 0.96814852953 1.17594957352 1.31468319893 1.43462789059 1.54911923409 1.54910349846 1.43456685543 1.24316728115 1.17587780952 0.968181967735 0.966520369053 1.21190500259 1.35494935513 1.47303295135 1.5751131773 1.57510256767 1.47298312187 1.28208768368 1.2118294239 0.966551244259 0.966522574425 1.21189463139 1.35493934155 1.4730130434 1.57527577877 1.57525610924 1.4729552269 1.28208625317 1.21181917191 0.966553270817 0.968153357506 1.17590129375 1.31464457512 1.43453621864 1.54928636551 1.54925715923 1.43446922302 1.24313247204 1.17583096027 0.968186795712 0.970174729824 1.09936833382 1.22953879833 1.35208725929 1.47390556335 1.47390377522 1.3520128727 1.1603782177 1.09930467606 0.970220446587 0.972415745258 1.04582071304 1.159329772 1.28253448009 1.38628339767 1.38621068001 1.28249871731 1.09307932854 1.04576313496 0.972476899624 0.981682002544 1.00702512264 1.03447830677 1.08907675743 1.16502296925 1.16511201859 1.0889428854 1.0250493288 1.00699400902 0.981733322144 
0.981654405594 1.00706458092 1.03449428082 1.08929681778 1.1652213335 1.16519367695 1.08922863007 1.02505469322 1.00703191757 0.981708049774 0.97240960598 1.0459035635 1.15945672989 1.28250336647 1.38619101048 1.38617193699 1.28242695332 1.09317362309 1.04584336281 0.972471296787 0.969522595406 1.13086354733 1.26878988743 1.4002199173 1.52319300175 1.52317643166 1.40014708042 1.1971539259 1.13078629971 0.969567298889 0.968148291111 1.17595028877 1.31468462944 1.43462967873 1.54912793636 1.54911184311 1.43456852436 1.24316859245 1.17587852478 0.968181669712 0.966520130634 1.21190619469 1.3549516201 1.47304320335 1.57513427734 1.57512354851 1.47299325466 1.28208982944 1.21183037758 0.966550886631 0.966522276402 1.21189582348 1.35494124889 1.47302341461 1.57529735565 1.5752774477 1.47296559811 1.28208827972 1.21182012558 0.966552972794 0.968153119087 1.17590212822 1.31464576721 1.43453812599 1.549295187 1.5492657423 1.43447113037 1.24313366413 1.17583167553 0.968186438084 0.970174491405 1.09936881065 1.2295396328 1.35208821297 1.47390687466 1.47390472889 1.35201382637 1.16037917137 1.09930491447 0.970220327377 0.972415626049 1.04582095146 1.15933012962 1.28253507614 1.38628387451 1.38621151447 1.28249931335 1.09307944775 1.04576337337 0.97247672081 0.981681764126 1.00702500343 1.03447818756 1.08907699585 1.16502380371 1.16511285305 1.08894348145 1.02504920959 1.00699400902 0.981733202934 
0.981654405594 1.00706458092 1.03449463844 1.08929765224 1.1652225256 1.16519498825 1.08922958374 1.02505469322 1.00703203678 0.981707930565 0.972409367561 1.04590415955 1.15945744514 1.28250455856 1.38619220257 1.38617300987 1.28242790699 1.09317433834 1.04584383965 0.972471177578 0.969522476196 1.13086426258 1.26879143715 1.40022158623 1.52319824696 1.52318191528 1.40014874935 1.19715511799 1.13078713417 0.969567298889 0.968147993088 1.17595160007 1.31468629837 1.4346319437 1.54913568497 1.54911994934 1.43457126617 1.24317014217 1.17587983608 0.968181312084 0.966519773006 1.2119076252 1.35495424271 1.47305214405 1.57514715195 1.57513606548 1.47300231457 1.28209245205 1.21183180809 0.966550648212 0.966522097588 1.21189713478 1.3549438715 1.47303235531 1.57530987263 1.57528996468 1.47297441959 1.28209078312 1.2118216753 0.96655267477 0.968152821064 1.17590332031 1.31464755535 1.43454027176 1.54930341244 1.54927384853 1.43447339535 1.24313509464 1.17583274841 0.96818625927 0.970174193382 1.09936952591 1.22954082489 1.3520898819 1.47390902042 1.47390723228 1.35201561451 1.16038024426 1.09930574894 0.970220208168 0.972415626049 1.04582154751 1.15933096409 1.28253614902 1.3862849474 1.38621270657 1.28250026703 1.093080163 1.045763731 0.972476601601 0.981681764126 1.00702512264 1.0344786644 1.08907794952 1.1650249958 1.16511404514 1.0889441967 1.02504968643 1.00699388981 0.981733083725 
0.981654167175 1.00706481934 1.03449499607 1.08929848671 1.1652238369 1.16519641876 1.08923053741 1.02505528927 1.00703215599 0.98170787096 0.972409307957 1.04590463638 1.15945839882 1.28250551224 1.38619351387 1.38617420197 1.28242886066 1.09317493439 1.04584431648 0.972471058369 0.969522237778 1.13086521626 1.26879298687 1.40022325516 1.52320492268 1.52318811417 1.40015041828 1.19715631008 1.13078808784 0.969567000866 0.968147754669 1.17595279217 1.31468760967 1.43463456631 1.54914402962 1.5491284132 1.43457341194 1.24317169189 1.17588090897 0.96818113327 0.966519474983 1.21190905571 1.35495686531 1.4730604887 1.57515752316 1.57514691353 1.47301077843 1.28209507465 1.21183311939 0.966550350189 0.96652162075 1.21189856529 1.3549464941 1.47304081917 1.57532095909 1.57530105114 1.47298324108 1.28209364414 1.21182310581 0.966552317142 0.968152582645 1.17590451241 1.31464934349 1.43454289436 1.54931163788 1.5492824316 1.43447589874 1.24313676357 1.17583405972 0.968185961246 0.970174252987 1.09937024117 1.2295422554 1.35209178925 1.47391140461 1.47390949726 1.35201752186 1.16038155556 1.0993065834 0.970219969749 0.972415328026 1.04582190514 1.15933191776 1.28253686428 1.3862862587 1.38621377945 1.28250145912 1.09308087826 1.04576444626 0.972476422787 0.981681704521 1.00702536106 1.03447878361 1.08907878399 1.16502654552 1.16511535645 1.08894503117 1.02504992485 1.00699412823 0.981733083725 
