0.981069087982 1.00727760792 1.03931677341 1.10143077374 1.17583978176 1.1758210659 1.10137867928 1.02705442905 1.00724279881 0.981124520302 0.971909761429 1.04532980919 1.16376304626 1.27484858036 1.36475872993 1.36474728584 1.27478122711 1.09187066555 1.04526412487 0.971971929073 0.968912363052 1.12971830368 1.26965391636 1.38509309292 1.48473775387 1.48473072052 1.3850376606 1.19476151466 1.12964034081 0.968958675861 0.967766821384 1.17363476753 1.313616395 1.41970205307 1.51334428787 1.51333594322 1.41965663433 1.23924732208 1.17356228828 0.967800080776 0.966278135777 1.20820319653 1.34932780266 1.45221805573 1.53515076637 1.53514695168 1.45218276978 1.27503693104 1.20812749863 0.966308057308 0.966279745102 1.20819306374 1.34931969643 1.4521985054 1.53523230553 1.53522372246 1.45215761662 1.27503407001 1.20811748505 0.966309607029 0.967772305012 1.17358887196 1.31358098984 1.41962683201 1.5134292841 1.51341438293 1.41957592964 1.23921382427 1.17351686954 0.967805504799 0.969641566277 1.0971622467 1.23453688622 1.34678113461 1.44693243504 1.44693374634 1.34672284126 1.15905380249 1.09709608555 0.96968883276 0.971916794777 1.04525184631 1.16365969181 1.27483868599 1.36478066444 1.36473536491 1.27479434013 1.09179079533 1.04518771172 0.971978545189 0.981098234653 1.00723838806 1.03928363323 1.10124838352 1.17570972443 1.17576980591 1.10115504265 1.02703714371 1.00720441341 0.981152415276 
0.981074094772 1.00712871552 1.03907251358 1.10105586052 1.17540812492 1.17538952827 1.10100388527 1.02682316303 1.0070939064 0.981129586697 0.971916139126 1.04510235786 1.16346096992 1.27449274063 1.36439275742 1.36438155174 1.27442538738 1.09158682823 1.04503679276 0.97197830677 0.968914031982 1.12943816185 1.26932179928 1.38467359543 1.48432016373 1.48431277275 1.3846180439 1.19445371628 1.12936031818 0.968960285187 0.967761993408 1.17334055901 1.31329989433 1.4193174839 1.514149189 1.51414239407 1.41927182674 1.2389626503 1.17326807976 0.967795193195 0.966268956661 1.20791172981 1.34900283813 1.45206034184 1.53897511959 1.53897237778 1.45202457905 1.27477371693 1.20783627033 0.966298937798 0.966270565987 1.20790147781 1.3489947319 1.45204102993 1.53907740116 1.53906917572 1.4519995451 1.27477073669 1.20782589912 0.966300606728 0.967767298222 1.17329442501 1.3132648468 1.41924226284 1.51424980164 1.51423585415 1.41919124126 1.23892903328 1.17322266102 0.967800736427 0.969644367695 1.0968888998 1.23419845104 1.34633970261 1.44651710987 1.44651854038 1.34628140926 1.15873456001 1.09682321548 0.969691455364 0.971923232079 1.0450245142 1.16335761547 1.27448308468 1.36441457272 1.36436891556 1.27443885803 1.09150695801 1.04496073723 0.971984803677 0.981103181839 1.00708961487 1.03903961182 1.1008733511 1.17527878284 1.17533898354 1.1007796526 1.02680635452 1.00705575943 0.981157302856 
0.981074094772 1.00712919235 1.03907346725 1.10105752945 1.17540991306 1.17539155483 1.10100543499 1.0268239975 1.00709438324 0.981129586697 0.971915960312 1.04510295391 1.16346240044 1.27449429035 1.36439454556 1.36438310146 1.2744269371 1.09158802032 1.04503762722 0.971977949142 0.968913912773 1.12943935394 1.26932346821 1.38467550278 1.48432183266 1.48431479931 1.38462042809 1.19445514679 1.12936139107 0.968960165977 0.96776175499 1.17334198952 1.31330192089 1.4193199873 1.51415193081 1.51414513588 1.41927444935 1.23896467686 1.17326951027 0.967794895172 0.966268777847 1.20791351795 1.3490049839 1.4520636797 1.53898513317 1.53898203373 1.45202803612 1.27477586269 1.20783782005 0.966298699379 0.966270387173 1.20790326595 1.34899687767 1.45204436779 1.53908765316 1.5390791893 1.45200276375 1.27477288246 1.20782768726 0.966300368309 0.967767179012 1.17329609394 1.31326675415 1.41924500465 1.51425278187 1.51423847675 1.41919386387 1.23893105984 1.17322421074 0.967800498009 0.96964430809 1.09689021111 1.23419988155 1.34634172916 1.44651937485 1.44652056694 1.34628343582 1.15873599052 1.09682428837 0.969691336155 0.971923053265 1.04502534866 1.16335868835 1.27448487282 1.36441648006 1.3643707037 1.27444028854 1.09150826931 1.04496145248 0.971984744072 0.981103181839 1.0070899725 1.0390406847 1.10087490082 1.17528069019 1.17534077168 1.10078132153 1.02680706978 1.00705623627 0.981157243252 
0.981073975563 1.00712954998 1.03907418251 1.10105907917 1.1754117012 1.17539322376 1.10100710392 1.02682483196 1.00709474087 0.981129407883 0.971915960312 1.04510402679 1.16346347332 1.27449584007 1.36439621449 1.3643848896 1.27442824841 1.09158909321 1.04503858089 0.971978068352 0.968913793564 1.12944066525 1.26932513714 1.38467741013 1.48432397842 1.48431646824 1.38462257385 1.19445669651 1.12936282158 0.968960046768 0.967761516571 1.17334365845 1.31330406666 1.41932249069 1.51415467262 1.51414775848 1.41927707195 1.238966465 1.17327129841 0.967794775963 0.966268658638 1.2079154253 1.3490074873 1.45206701756 1.53899466991 1.5389919281 1.45203113556 1.27477777004 1.20783960819 0.96629858017 0.966270327568 1.20790529251 1.34899902344 1.45204758644 1.53909695148 1.53908896446 1.45200634003 1.27477502823 1.20782935619 0.966300189495 0.967766940594 1.17329752445 1.31326889992 1.41924750805 1.51425528526 1.51424098015 1.41919648647 1.23893272877 1.17322587967 0.967800319195 0.969644188881 1.0968914032 1.23420155048 1.34634387493 1.44652140141 1.44652247429 1.3462857008 1.15873754025 1.09682559967 0.96969127655 0.97192299366 1.04502606392 1.16335999966 1.27448630333 1.36441779137 1.36437225342 1.27444195747 1.09150910378 1.04496240616 0.971984624863 0.981103122234 1.00709033012 1.03904139996 1.10087621212 1.17528271675 1.17534267902 1.10078287125 1.02680766582 1.0070567131 0.981157064438 
0.981073856354 1.00712990761 1.03907501698 1.10106039047 1.17541348934 1.17539513111 1.10100829601 1.02682554722 1.0070950985 0.981129407883 0.971915960312 1.04510474205 1.16346466541 1.27449727058 1.364397645 1.3643862009 1.27443003654 1.09159016609 1.04503929615 0.971978008747 0.968913495541 1.12944197655 1.26932680607 1.38467955589 1.48432588577 1.4843184948 1.3846244812 1.19445800781 1.12936401367 0.968959748745 0.967761397362 1.17334532738 1.31330633163 1.41932487488 1.5141569376 1.51415014267 1.41927957535 1.23896813393 1.17327284813 0.967794716358 0.966268420219 1.20791721344 1.34900963306 1.45207023621 1.53900408745 1.53900122643 1.45203447342 1.27477991581 1.20784139633 0.966298341751 0.966270029545 1.20790696144 1.3490011692 1.45205068588 1.53910660744 1.539098382 1.45200943947 1.27477693558 1.20783126354 0.966300010681 0.967766702175 1.17329907417 1.31327068806 1.41925001144 1.51425790787 1.51424348354 1.41919887066 1.23893475533 1.17322742939 0.967800080776 0.969644129276 1.09689259529 1.23420321941 1.34634578228 1.44652342796 1.44652462006 1.34628760815 1.15873885155 1.09682667255 0.969691216946 0.971922755241 1.04502701759 1.16336131096 1.27448773384 1.36441957951 1.36437392235 1.27444338799 1.09151029587 1.04496312141 0.971984565258 0.98110306263 1.00709080696 1.03904223442 1.10087788105 1.17528438568 1.17534434795 1.10078430176 1.02680826187 1.00705695152 0.981157124043 
0.981073796749 1.00713026524 1.03907585144 1.10106194019 1.17541539669 1.17539691925 1.10100996494 1.02682626247 1.00709569454 0.981129169464 0.971915781498 1.04510569572 1.16346609592 1.2744987011 1.36439943314 1.36438810825 1.27443146706 1.09159111977 1.04504013062 0.971977829933 0.968913376331 1.12944328785 1.26932823658 1.38468170166 1.48432767391 1.48432004452 1.38462638855 1.19445967674 1.12936532497 0.968959748745 0.967761099339 1.17334675789 1.31330823898 1.41932737827 1.51415967941 1.51415264606 1.41928184032 1.23897004128 1.17327439785 0.967794537544 0.966268181801 1.20791888237 1.34901165962 1.45207333565 1.53901314735 1.53901052475 1.45203757286 1.27478194237 1.20784330368 0.966297984123 0.966269731522 1.20790874958 1.34900295734 1.45205402374 1.53911602497 1.53910756111 1.45201265812 1.27477872372 1.20783305168 0.966299653053 0.967766523361 1.17330062389 1.31327283382 1.41925227642 1.51426029205 1.51424622536 1.41920125484 1.23893642426 1.1732288599 0.967800080776 0.969643890858 1.09689366817 1.23420464993 1.34634768963 1.4465252161 1.44652664661 1.34628975391 1.15874004364 1.09682786465 0.969691097736 0.971922755241 1.04502773285 1.16336262226 1.27448928356 1.36442136765 1.36437559128 1.27444493771 1.09151136875 1.04496395588 0.971984386444 0.981103003025 1.00709116459 1.03904306889 1.10087943077 1.17528629303 1.17534613609 1.10078585148 1.02680921555 1.00705742836 0.981157064438 
0.981073796749 1.00713074207 1.0390765667 1.1010633707 1.17541718483 1.17539870739 1.10101127625 1.02682685852 1.00709605217 0.981129109859 0.971915602684 1.04510641098 1.16346740723 1.27450025082 1.36440074444 1.36438941956 1.27443289757 1.09159219265 1.04504096508 0.971977651119 0.968913257122 1.12944459915 1.26933014393 1.38468360901 1.48432946205 1.48432195187 1.3846282959 1.19446110725 1.12936663628 0.968959510326 0.967761039734 1.17334842682 1.31331014633 1.41932952404 1.51416194439 1.51415491104 1.41928398609 1.23897171021 1.17327582836 0.96779447794 0.966268062592 1.2079205513 1.34901356697 1.45207607746 1.53902244568 1.53901958466 1.45204043388 1.27478373051 1.20784473419 0.966297924519 0.966269493103 1.20791041851 1.34900522232 1.45205688477 1.53912508488 1.53911674023 1.45201563835 1.27478098869 1.20783472061 0.966299533844 0.967766523361 1.17330217361 1.31327486038 1.4192545414 1.51426243782 1.51424849033 1.41920351982 1.23893821239 1.17323040962 0.967799901962 0.969643890858 1.09689497948 1.23420608044 1.34634971619 1.44652712345 1.44652831554 1.34629154205 1.15874159336 1.09682905674 0.969690918922 0.971922636032 1.04502880573 1.16336357594 1.27449071407 1.36442255974 1.36437702179 1.27444624901 1.09151244164 1.04496467113 0.971984386444 0.981102824211 1.00709164143 1.03904378414 1.10088074207 1.17528796196 1.17534804344 1.1007874012 1.02680969238 1.00705778599 0.981156945229 
