1.0 1.00000011921 0.995899140835 1.05202007294 1.10335540771 1.10333585739 1.05194950104 1.00000023842 1.0 1.0 0.999999940395 1.00140452385 1.08441472054 1.17534387112 1.2442882061 1.24427008629 1.17527651787 1.03832030296 1.00138068199 1.0 1.0 1.0591417551 1.16304421425 1.25323009491 1.29150414467 1.2914917469 1.25316989422 1.10801827908 1.05906975269 1.00000011921 1.0 1.0926412344 1.19736027718 1.26875674725 1.29845166206 1.29844248295 1.26870536804 1.1412756443 1.09257781506 1.00000011921 1.0 1.11753022671 1.21986579895 1.27860593796 1.3017655611 1.30176019669 1.27856492996 1.16723453999 1.1174697876 1.00000011921 1.0 1.11752200127 1.21985924244 1.27859807014 1.30178070068 1.30177426338 1.27855551243 1.16722905636 1.11746156216 1.00000011921 1.0 1.09260010719 1.19732797146 1.26870965958 1.29845750332 1.29844677448 1.26865649223 1.14123952389 1.09253716469 1.0 1.0 1.04041433334 1.13722264767 1.23402345181 1.28668534756 1.28667843342 1.23395323753 1.08868122101 1.04034018517 1.00000011921 1.0 1.00138020515 1.08433806896 1.1753153801 1.24431014061 1.24426591396 1.17526686192 1.03824615479 1.00135707855 1.00000011921 1.0 1.00000011921 0.995912492275 1.05191719532 1.10317778587 1.10320997238 1.05182814598 1.00000011921 1.0 0.999999940395 
1.0 1.00000011921 0.995899140835 1.05202007294 1.10335540771 1.10333585739 1.05194950104 1.00000023842 1.0 1.0 0.999999940395 1.00140452385 1.08441472054 1.17534387112 1.25083696842 1.25081968307 1.17527651787 1.03832030296 1.00138068199 1.0 1.0 1.0591417551 1.16304421425 1.26510071754 1.35999119282 1.35998094082 1.26504170895 1.10801827908 1.05906975269 1.00000011921 1.0 1.0926412344 1.19785881042 1.29394519329 1.38455200195 1.38454198837 1.29389679432 1.1412756443 1.09257781506 1.00000011921 1.0 1.11753022671 1.22787606716 1.32353878021 1.40504539013 1.40503895283 1.32350182533 1.16723453999 1.1174697876 1.00000011921 1.0 1.11752200127 1.22786796093 1.32351946831 1.40513896942 1.40512681007 1.3234770298 1.16722905636 1.11746156216 1.00000011921 1.0 1.09260010719 1.19782555103 1.29386937618 1.38465237617 1.38463413715 1.29381632805 1.14123952389 1.09253716469 1.0 1.0 1.04041433334 1.13722264767 1.23426961899 1.3237285614 1.32372403145 1.23419952393 1.08868122101 1.04034018517 1.00000011921 1.0 1.00138020515 1.08433806896 1.1753153801 1.25088620186 1.25083363056 1.17526686192 1.03824615479 1.00135707855 1.00000011921 1.0 1.00000011921 0.995912492275 1.05191719532 1.10317778587 1.10320997238 1.05182814598 1.00000011921 1.0 0.999999940395 
1.0 1.00000011921 0.995899140835 1.05202007294 1.10335540771 1.10333585739 1.05194950104 1.00000023842 1.0 1.0 0.999999940395 1.00140452385 1.08441472054 1.17534387112 1.25083696842 1.25081968307 1.17527651787 1.03832030296 1.00138068199 1.0 1.0 1.0591417551 1.16304421425 1.26510071754 1.35999119282 1.35998094082 1.26504170895 1.10801827908 1.05906975269 1.00000011921 1.0 1.0926412344 1.19785881042 1.29394519329 1.38487195969 1.38486266136 1.29389679432 1.1412756443 1.09257781506 1.00000011921 1.0 1.11753022671 1.22787606716 1.32355499268 1.40725421906 1.40724873543 1.32351815701 1.16723453999 1.1174697876 1.00000011921 1.0 1.11752200127 1.22786796093 1.32353639603 1.40736699104 1.40735507011 1.32349348068 1.16722905636 1.11746156216 1.00000011921 1.0 1.09260010719 1.19782555103 1.29386937618 1.38498270512 1.38496470451 1.29381632805 1.14123952389 1.09253716469 1.0 1.0 1.04041433334 1.13722264767 1.23426961899 1.3237285614 1.32372403145 1.23419952393 1.08868122101 1.04034018517 1.00000011921 1.0 1.00138020515 1.08433806896 1.1753153801 1.25088620186 1.25083363056 1.17526686192 1.03824615479 1.00135707855 1.00000011921 1.0 1.00000011921 0.995912492275 1.05191719532 1.10317778587 1.10320997238 1.05182814598 1.00000011921 1.0 0.999999940395 
1.0 1.00000011921 0.995899140835 1.05202007294 1.10335540771 1.10333585739 1.05194950104 1.00000023842 1.0 1.0 0.999999940395 1.00140452385 1.08441472054 1.17534387112 1.25083696842 1.25081968307 1.17527651787 1.03832030296 1.00138068199 1.0 1.0 1.0591417551 1.16304421425 1.26510071754 1.35999119282 1.35998094082 1.26504170895 1.10801827908 1.05906975269 1.00000011921 1.0 1.0926412344 1.19785881042 1.29394519329 1.38487195969 1.38486266136 1.29389679432 1.1412756443 1.09257781506 1.00000011921 1.0 1.11753022671 1.22787606716 1.32355761528 1.40726292133 1.4072573185 1.3235206604 1.16723453999 1.1174697876 1.00000011921 1.0 1.11752200127 1.22786796093 1.32353901863 1.40737557411 1.40736377239 1.3234962225 1.16722905636 1.11746156216 1.00000011921 1.0 1.09260010719 1.19782555103 1.29386937618 1.38498270512 1.38496470451 1.29381632805 1.14123952389 1.09253716469 1.0 1.0 1.04041433334 1.13722264767 1.23426961899 1.3237285614 1.32372403145 1.23419952393 1.08868122101 1.04034018517 1.00000011921 1.0 1.00138020515 1.08433806896 1.1753153801 1.25088620186 1.25083363056 1.17526686192 1.03824615479 1.00135707855 1.00000011921 1.0 1.00000011921 0.995912492275 1.05191719532 1.10317778587 1.10320997238 1.05182814598 1.00000011921 1.0 0.999999940395 
1.0 1.00000011921 0.995899140835 1.05202007294 1.10335540771 1.10333585739 1.05194950104 1.00000023842 1.0 1.0 0.999999940395 1.00140452385 1.08441472054 1.17534387112 1.25083696842 1.25081968307 1.17527651787 1.03832030296 1.00138068199 1.0 1.0 1.0591417551 1.16304421425 1.26510071754 1.35999119282 1.35998094082 1.26504170895 1.10801827908 1.05906975269 1.00000011921 1.0 1.0926412344 1.19785881042 1.29394519329 1.38487195969 1.38486266136 1.29389679432 1.1412756443 1.09257781506 1.00000011921 1.0 1.11753022671 1.22787606716 1.32355988026 1.40727138519 1.40726590157 1.3235231638 1.16723453999 1.1174697876 1.00000011921 1.0 1.11752200127 1.22786796093 1.32354152203 1.4073843956 1.40737235546 1.32349848747 1.16722905636 1.11746156216 1.00000011921 1.0 1.09260010719 1.19782555103 1.29386937618 1.38498270512 1.38496470451 1.29381632805 1.14123952389 1.09253716469 1.0 1.0 1.04041433334 1.13722264767 1.23426961899 1.3237285614 1.32372403145 1.23419952393 1.08868122101 1.04034018517 1.00000011921 1.0 1.00138020515 1.08433806896 1.1753153801 1.25088620186 1.25083363056 1.17526686192 1.03824615479 1.00135707855 1.00000011921 1.0 1.00000011921 0.995912492275 1.05191719532 1.10317778587 1.10320997238 1.05182814598 1.00000011921 1.0 0.999999940395 
1.0 1.00000011921 0.995899140835 1.05202007294 1.10335540771 1.10333585739 1.05194950104 1.00000023842 1.0 1.0 0.999999940395 1.00140452385 1.08441472054 1.17534387112 1.25083696842 1.25081968307 1.17527651787 1.03832030296 1.00138068199 1.0 1.0 1.0591417551 1.16304421425 1.26510071754 1.35999119282 1.35998094082 1.26504170895 1.10801827908 1.05906975269 1.00000011921 1.0 1.0926412344 1.19785881042 1.29394519329 1.38487195969 1.38486266136 1.29389679432 1.1412756443 1.09257781506 1.00000011921 1.0 1.11753022671 1.22787606716 1.32356238365 1.40727984905 1.40727424622 1.32352530956 1.16723453999 1.1174697876 1.00000011921 1.0 1.11752200127 1.22786796093 1.32354402542 1.40739238262 1.40738081932 1.32350099087 1.16722905636 1.11746156216 1.00000011921 1.0 1.09260010719 1.19782555103 1.29386937618 1.38498318195 1.38496518135 1.29381632805 1.14123952389 1.09253716469 1.0 1.0 1.04041433334 1.13722264767 1.23426961899 1.3237285614 1.32372403145 1.23419952393 1.08868122101 1.04034018517 1.00000011921 1.0 1.00138020515 1.08433806896 1.1753153801 1.25088620186 1.25083363056 1.17526686192 1.03824615479 1.00135707855 1.00000011921 1.0 1.00000011921 0.995912492275 1.05191719532 1.10317778587 1.10320997238 1.05182814598 1.00000011921 1.0 0.999999940395 
1.0 1.00000011921 0.995899140835 1.05202007294 1.10335540771 1.10333585739 1.05194950104 1.00000023842 1.0 1.0 0.999999940395 1.00140452385 1.08441472054 1.17534387112 1.25083696842 1.25081968307 1.17527651787 1.03832030296 1.00138068199 1.0 1.0 1.0591417551 1.16304421425 1.26510071754 1.35999119282 1.35998094082 1.26504170895 1.10801827908 1.05906975269 1.00000011921 1.0 1.0926412344 1.19785881042 1.29394519329 1.38487350941 1.38486421108 1.29389679432 1.1412756443 1.09257781506 1.00000011921 1.0 1.11753022671 1.22787606716 1.32356488705 1.40728795528 1.40728259087 1.32352805138 1.16723453999 1.1174697876 1.00000011921 1.0 1.11752200127 1.22786796093 1.32354652882 1.40740084648 1.40738892555 1.32350349426 1.16722905636 1.11746156216 1.00000011921 1.0 1.09260010719 1.19782555103 1.29386937618 1.38498497009 1.38496696949 1.29381632805 1.14123952389 1.09253716469 1.0 1.0 1.04041433334 1.13722264767 1.23426961899 1.3237285614 1.32372403145 1.23419952393 1.08868122101 1.04034018517 1.00000011921 1.0 1.00138020515 1.08433806896 1.1753153801 1.25088620186 1.25083363056 1.17526686192 1.03824615479 1.00135707855 1.00000011921 1.0 1.00000011921 0.995912492275 1.05191719532 1.10317778587 1.10320997238 1.05182814598 1.00000011921 1.0 0.999999940395 
