1.0 1.00000011921 0.999571382999 1.03268015385 1.08878517151 1.08875989914 1.03260326385 1.00000023842 1.0 1.0 0.999999940395 1.00029575825 1.07427954674 1.17633461952 1.26257288456 1.26255393028 1.17626512051 1.02655756474 1.00028967857 1.0 1.0 1.0514267683 1.16041851044 1.27440774441 1.37609148026 1.37607502937 1.27434241772 1.10265994072 1.05135142803 1.00000011921 1.0 1.0878278017 1.19876360893 1.30419397354 1.39604282379 1.396027565 1.30413579941 1.13949167728 1.08776021004 1.00000011921 1.0 1.11567127705 1.23269164562 1.33387839794 1.41292178631 1.41291058064 1.33382844925 1.16960799694 1.11560511589 1.00000011921 1.0 1.11566209793 1.23268282413 1.33385956287 1.41301727295 1.41300046444 1.33380401134 1.16960394382 1.11559593678 1.00000011921 1.0 1.08778369427 1.19872999191 1.30411124229 1.39613890648 1.39611423016 1.30404853821 1.13945627213 1.08771681786 1.0 1.0 1.03005027771 1.13027846813 1.23613357544 1.33993220329 1.33992826939 1.23605930805 1.07803058624 1.02997815609 1.00000011921 1.0 1.00028908253 1.07419037819 1.17632997036 1.26266300678 1.26259732246 1.17628896236 1.02648568153 1.00028324127 1.00000011921 1.0 1.00000011921 0.999574184418 1.03255689144 1.08856487274 1.08861732483 1.03244686127 1.00000011921 1.0 0.999999940395 
1.0 1.00000011921 0.999571382999 1.03268015385 1.08878517151 1.08875989914 1.03260326385 1.00000023842 1.0 1.0 0.999999940395 1.00029575825 1.07427954674 1.17633461952 1.26257288456 1.26255393028 1.17626512051 1.02655756474 1.00028967857 1.0 1.0 1.0514267683 1.16041851044 1.27440774441 1.38459026814 1.38457536697 1.27434241772 1.10265994072 1.05135142803 1.00000011921 1.0 1.0878278017 1.19876360893 1.30464506149 1.40791976452 1.4079054594 1.30458855629 1.13949167728 1.08776021004 1.00000011921 1.0 1.11567127705 1.23269164562 1.33892536163 1.43099021912 1.43098044395 1.33887982368 1.16960799694 1.11560511589 1.00000011921 1.0 1.11566209793 1.23268282413 1.33890640736 1.43113100529 1.43111300468 1.33885371685 1.16960394382 1.11559593678 1.00000011921 1.0 1.08778369427 1.19872999191 1.30456089973 1.40806484222 1.40803813934 1.30449938774 1.13945627213 1.08771681786 1.0 1.0 1.03005027771 1.13027846813 1.23613357544 1.34047520161 1.34047198296 1.23605930805 1.07803058624 1.02997815609 1.00000011921 1.0 1.00028908253 1.07419037819 1.17632997036 1.26266300678 1.26259732246 1.17628896236 1.02648568153 1.00028324127 1.00000011921 1.0 1.00000011921 0.999574184418 1.03255689144 1.08856487274 1.08861732483 1.03244686127 1.00000011921 1.0 0.999999940395 
1.0 1.00000011921 0.999571382999 1.03268015385 1.08878517151 1.08875989914 1.03260326385 1.00000023842 1.0 1.0 0.999999940395 1.00029575825 1.07427954674 1.17633461952 1.26257288456 1.26255393028 1.17626512051 1.02655756474 1.00028967857 1.0 1.0 1.0514267683 1.16041851044 1.27440774441 1.38471674919 1.38470208645 1.27434241772 1.10265994072 1.05135142803 1.00000011921 1.0 1.0878278017 1.19876360893 1.30464506149 1.40825891495 1.40824460983 1.30458855629 1.13949167728 1.08776021004 1.00000011921 1.0 1.11567127705 1.23269164562 1.33909416199 1.43181478977 1.43180513382 1.33904886246 1.16960799694 1.11560511589 1.00000011921 1.0 1.11566209793 1.23268282413 1.33907592297 1.43196129799 1.43194317818 1.33902359009 1.16960394382 1.11559593678 1.00000011921 1.0 1.08778369427 1.19872999191 1.30456089973 1.40840983391 1.40838313103 1.30449938774 1.13945627213 1.08771681786 1.0 1.0 1.03005027771 1.13027846813 1.23613357544 1.34047520161 1.34047198296 1.23605930805 1.07803058624 1.02997815609 1.00000011921 1.0 1.00028908253 1.07419037819 1.17632997036 1.26266300678 1.26259732246 1.17628896236 1.02648568153 1.00028324127 1.00000011921 1.0 1.00000011921 0.999574184418 1.03255689144 1.08856487274 1.08861732483 1.03244686127 1.00000011921 1.0 0.999999940395 
1.0 1.00000011921 0.999571382999 1.03268015385 1.08878517151 1.08875989914 1.03260326385 1.00000023842 1.0 1.0 0.999999940395 1.00029575825 1.07427954674 1.17633461952 1.26257288456 1.26255393028 1.17626512051 1.02655756474 1.00028967857 1.0 1.0 1.0514267683 1.16041851044 1.27440774441 1.38471758366 1.3847028017 1.27434241772 1.10265994072 1.05135142803 1.00000011921 1.0 1.0878278017 1.19876360893 1.30464506149 1.40828752518 1.40827310085 1.30458855629 1.13949167728 1.08776021004 1.00000011921 1.0 1.11567127705 1.23269164562 1.33911764622 1.43191230297 1.43190252781 1.33907258511 1.16960799694 1.11560511589 1.00000011921 1.0 1.11566209793 1.23268282413 1.33909976482 1.43205988407 1.43204200268 1.33904719353 1.16960394382 1.11559593678 1.00000011921 1.0 1.08778369427 1.19872999191 1.30456089973 1.40843939781 1.40841257572 1.30449938774 1.13945627213 1.08771681786 1.0 1.0 1.03005027771 1.13027846813 1.23613357544 1.34047520161 1.34047198296 1.23605930805 1.07803058624 1.02997815609 1.00000011921 1.0 1.00028908253 1.07419037819 1.17632997036 1.26266300678 1.26259732246 1.17628896236 1.02648568153 1.00028324127 1.00000011921 1.0 1.00000011921 0.999574184418 1.03255689144 1.08856487274 1.08861732483 1.03244686127 1.00000011921 1.0 0.999999940395 
1.0 1.00000011921 0.999571382999 1.03268015385 1.08878517151 1.08875989914 1.03260326385 1.00000023842 1.0 1.0 0.999999940395 1.00029575825 1.07427954674 1.17633461952 1.26257288456 1.26255393028 1.17626512051 1.02655756474 1.00028967857 1.0 1.0 1.0514267683 1.16041851044 1.27440774441 1.384719491 1.38470458984 1.27434241772 1.10265994072 1.05135142803 1.00000011921 1.0 1.0878278017 1.19876360893 1.30464506149 1.40829586983 1.40828156471 1.30458855629 1.13949167728 1.08776021004 1.00000011921 1.0 1.11567127705 1.23269164562 1.33912801743 1.43193638325 1.4319268465 1.33908259869 1.16960799694 1.11560511589 1.00000011921 1.0 1.11566209793 1.23268282413 1.33910989761 1.43208444118 1.43206644058 1.33905744553 1.16960394382 1.11559593678 1.00000011921 1.0 1.08778369427 1.19872999191 1.30456089973 1.40844810009 1.40842151642 1.30449938774 1.13945627213 1.08771681786 1.0 1.0 1.03005027771 1.13027846813 1.23613357544 1.34047520161 1.34047198296 1.23605930805 1.07803058624 1.02997815609 1.00000011921 1.0 1.00028908253 1.07419037819 1.17632997036 1.26266300678 1.26259732246 1.17628896236 1.02648568153 1.00028324127 1.00000011921 1.0 1.00000011921 0.999574184418 1.03255689144 1.08856487274 1.08861732483 1.03244686127 1.00000011921 1.0 0.999999940395 
1.0 1.00000011921 0.999571382999 1.03268015385 1.08878517151 1.08875989914 1.03260326385 1.00000023842 1.0 1.0 0.999999940395 1.00029575825 1.07427954674 1.17633461952 1.26257288456 1.26255393028 1.17626512051 1.02655756474 1.00028967857 1.0 1.0 1.0514267683 1.16041851044 1.27440774441 1.38472425938 1.38470935822 1.27434241772 1.10265994072 1.05135142803 1.00000011921 1.0 1.0878278017 1.19876360893 1.30464506149 1.40830314159 1.40828895569 1.30458855629 1.13949167728 1.08776021004 1.00000011921 1.0 1.11567127705 1.23269164562 1.33913600445 1.43194890022 1.43193924427 1.33909070492 1.16960799694 1.11560511589 1.00000011921 1.0 1.11566209793 1.23268282413 1.33911824226 1.43209731579 1.43207919598 1.33906567097 1.16960394382 1.11559593678 1.00000011921 1.0 1.08778369427 1.19872999191 1.30456089973 1.40845561028 1.4084290266 1.30449938774 1.13945627213 1.08771681786 1.0 1.0 1.03005027771 1.13027846813 1.23613357544 1.34047520161 1.34047198296 1.23605930805 1.07803058624 1.02997815609 1.00000011921 1.0 1.00028908253 1.07419037819 1.17632997036 1.26266300678 1.26259732246 1.17628896236 1.02648568153 1.00028324127 1.00000011921 1.0 1.00000011921 0.999574184418 1.03255689144 1.08856487274 1.08861732483 1.03244686127 1.00000011921 1.0 0.999999940395 
1.0 1.00000011921 0.999571382999 1.03268015385 1.08878517151 1.08875989914 1.03260326385 1.00000023842 1.0 1.0 0.999999940395 1.00029575825 1.07427954674 1.17633461952 1.26257288456 1.26255393028 1.17626512051 1.02655756474 1.00028967857 1.0 1.0 1.0514267683 1.16041851044 1.27440774441 1.384729743 1.38471508026 1.27434241772 1.10265994072 1.05135142803 1.00000011921 1.0 1.0878278017 1.19876360893 1.30464506149 1.40831065178 1.40829658508 1.30458855629 1.13949167728 1.08776021004 1.00000011921 1.0 1.11567127705 1.23269164562 1.33914399147 1.4319589138 1.43194937706 1.33909869194 1.16960799694 1.11560511589 1.00000011921 1.0 1.11566209793 1.23268282413 1.33912622929 1.43210732937 1.43208944798 1.33907353878 1.16960394382 1.11559593678 1.00000011921 1.0 1.08778369427 1.19872999191 1.30456089973 1.40846323967 1.40843653679 1.30449938774 1.13945627213 1.08771681786 1.0 1.0 1.03005027771 1.13027846813 1.23613357544 1.34047520161 1.34047198296 1.23605930805 1.07803058624 1.02997815609 1.00000011921 1.0 1.00028908253 1.07419037819 1.17632997036 1.26266300678 1.26259732246 1.17628896236 1.02648568153 1.00028324127 1.00000011921 1.0 1.00000011921 0.999574184418 1.03255689144 1.08856487274 1.08861732483 1.03244686127 1.00000011921 1.0 0.999999940395 
