1.0 1.00000011921 0.998307168484 1.03717446327 1.09013712406 1.09011459351 1.03710448742 1.00000023842 1.0 1.0 0.999999940395 1.0003964901 1.07390522957 1.17153120041 1.2545144558 1.25449776649 1.17146587372 1.02727675438 1.00038802624 1.0 1.0 1.04980778694 1.15844142437 1.26808035374 1.35208904743 1.35207390785 1.26802027225 1.09984147549 1.04973137379 1.00000011921 1.0 1.08506441116 1.19672930241 1.29528141022 1.36956000328 1.36954689026 1.29522585869 1.13577187061 1.08499586582 1.00000011921 1.0 1.11226606369 1.22955048084 1.31945824623 1.38216984272 1.3821606636 1.31940937042 1.16552722454 1.1121994257 1.00000011921 1.0 1.1122572422 1.22954285145 1.31944203377 1.38223171234 1.38221859932 1.31938910484 1.16552364826 1.11219060421 1.00000011921 1.0 1.08502185345 1.19669592381 1.29520726204 1.36961710453 1.36959803104 1.29514765739 1.13573718071 1.08495390415 1.0 1.0 1.02967822552 1.12901186943 1.23203504086 1.32609701157 1.32609379292 1.23196804523 1.07651209831 1.02960479259 1.00000011921 1.0 1.00038766861 1.07382106781 1.17151904106 1.25458502769 1.2545273304 1.17147767544 1.02720797062 1.00037968159 1.00000011921 1.0 1.00000011921 0.998318970203 1.03706204891 1.08993852139 1.08998227119 1.03696644306 1.00000011921 1.0 0.999999940395 
1.0 1.00000011921 0.998307168484 1.03717446327 1.09013712406 1.09011459351 1.03710448742 1.00000023842 1.0 1.0 0.999999940395 1.0003964901 1.07390522957 1.17153120041 1.25471639633 1.25469994545 1.17146587372 1.02727675438 1.00038802624 1.0 1.0 1.04980778694 1.15844142437 1.26952683926 1.37455403805 1.37454247475 1.26946663857 1.09984147549 1.04973137379 1.00000011921 1.0 1.08506441116 1.19672930241 1.30111646652 1.39875507355 1.39874315262 1.30106663704 1.13577187061 1.08499586582 1.00000011921 1.0 1.11226606369 1.23118960857 1.3346003294 1.42091345787 1.42090606689 1.3345593214 1.16552722454 1.1121994257 1.00000011921 1.0 1.1122572422 1.23118078709 1.33458054066 1.421028018 1.42101383209 1.33453333378 1.16552364826 1.11219060421 1.00000011921 1.0 1.08502185345 1.19669592381 1.30103576183 1.39887154102 1.39884960651 1.30098009109 1.13573718071 1.08495390415 1.0 1.0 1.02967822552 1.12901186943 1.23203504086 1.33266294003 1.33266055584 1.23196804523 1.07651209831 1.02960479259 1.00000011921 1.0 1.00038766861 1.07382106781 1.17151904106 1.25478613377 1.25472772121 1.17147767544 1.02720797062 1.00037968159 1.00000011921 1.0 1.00000011921 0.998318970203 1.03706204891 1.08993852139 1.08998227119 1.03696644306 1.00000011921 1.0 0.999999940395 
1.0 1.00000011921 0.998307168484 1.03717446327 1.09013712406 1.09011459351 1.03710448742 1.00000023842 1.0 1.0 0.999999940395 1.0003964901 1.07390522957 1.17153120041 1.25471639633 1.25469994545 1.17146587372 1.02727675438 1.00038802624 1.0 1.0 1.04980778694 1.15844142437 1.26952683926 1.37567877769 1.37566673756 1.26946663857 1.09984147549 1.04973137379 1.00000011921 1.0 1.08506441116 1.19672930241 1.30111646652 1.40063679218 1.40062499046 1.30106663704 1.13577187061 1.08499586582 1.00000011921 1.0 1.11226606369 1.23118960857 1.33569586277 1.42432296276 1.42431569099 1.33565580845 1.16552722454 1.1121994257 1.00000011921 1.0 1.1122572422 1.23118078709 1.33567655087 1.42444777489 1.4244338274 1.33562970161 1.16552364826 1.11219060421 1.00000011921 1.0 1.08502185345 1.19669592381 1.30103576183 1.40076434612 1.4007422924 1.30098009109 1.13573718071 1.08495390415 1.0 1.0 1.02967822552 1.12901186943 1.23203504086 1.33266294003 1.33266055584 1.23196804523 1.07651209831 1.02960479259 1.00000011921 1.0 1.00038766861 1.07382106781 1.17151904106 1.25478613377 1.25472772121 1.17147767544 1.02720797062 1.00037968159 1.00000011921 1.0 1.00000011921 0.998318970203 1.03706204891 1.08993852139 1.08998227119 1.03696644306 1.00000011921 1.0 0.999999940395 
1.0 1.00000011921 0.998307168484 1.03717446327 1.09013712406 1.09011459351 1.03710448742 1.00000023842 1.0 1.0 0.999999940395 1.0003964901 1.07390522957 1.17153120041 1.25471639633 1.25469994545 1.17146587372 1.02727675438 1.00038802624 1.0 1.0 1.04980778694 1.15844142437 1.26952683926 1.37578713894 1.37577533722 1.26946663857 1.09984147549 1.04973137379 1.00000011921 1.0 1.08506441116 1.19672930241 1.30111646652 1.40090489388 1.40089356899 1.30106663704 1.13577187061 1.08499586582 1.00000011921 1.0 1.11226606369 1.23118960857 1.33589482307 1.42492771149 1.42492079735 1.33585476875 1.16552722454 1.1121994257 1.00000011921 1.0 1.1122572422 1.23118078709 1.33587598801 1.42505586147 1.42504167557 1.33582901955 1.16552364826 1.11219060421 1.00000011921 1.0 1.08502185345 1.19669592381 1.30103576183 1.40103590488 1.40101361275 1.30098009109 1.13573718071 1.08495390415 1.0 1.0 1.02967822552 1.12901186943 1.23203504086 1.33266294003 1.33266055584 1.23196804523 1.07651209831 1.02960479259 1.00000011921 1.0 1.00038766861 1.07382106781 1.17151904106 1.25478613377 1.25472772121 1.17147767544 1.02720797062 1.00037968159 1.00000011921 1.0 1.00000011921 0.998318970203 1.03706204891 1.08993852139 1.08998227119 1.03696644306 1.00000011921 1.0 0.999999940395 
1.0 1.00000011921 0.998307168484 1.03717446327 1.09013712406 1.09011459351 1.03710448742 1.00000023842 1.0 1.0 0.999999940395 1.0003964901 1.07390522957 1.17153120041 1.25471639633 1.25469994545 1.17146587372 1.02727675438 1.00038802624 1.0 1.0 1.04980778694 1.15844142437 1.26952683926 1.37580120564 1.3757891655 1.26946663857 1.09984147549 1.04973137379 1.00000011921 1.0 1.08506441116 1.19672930241 1.30111646652 1.40096688271 1.4009553194 1.30106663704 1.13577187061 1.08499586582 1.00000011921 1.0 1.11226606369 1.23118960857 1.33595299721 1.42509019375 1.4250831604 1.33591294289 1.16552722454 1.1121994257 1.00000011921 1.0 1.1122572422 1.23118078709 1.33593428135 1.42521953583 1.42520523071 1.33588755131 1.16552364826 1.11219060421 1.00000011921 1.0 1.08502185345 1.19669592381 1.30103576183 1.40109872818 1.40107643604 1.30098009109 1.13573718071 1.08495390415 1.0 1.0 1.02967822552 1.12901186943 1.23203504086 1.33266294003 1.33266055584 1.23196804523 1.07651209831 1.02960479259 1.00000011921 1.0 1.00038766861 1.07382106781 1.17151904106 1.25478613377 1.25472772121 1.17147767544 1.02720797062 1.00037968159 1.00000011921 1.0 1.00000011921 0.998318970203 1.03706204891 1.08993852139 1.08998227119 1.03696644306 1.00000011921 1.0 0.999999940395 
1.0 1.00000011921 0.998307168484 1.03717446327 1.09013712406 1.09011459351 1.03710448742 1.00000023842 1.0 1.0 0.999999940395 1.0003964901 1.07390522957 1.17153120041 1.25471639633 1.25469994545 1.17146587372 1.02727675438 1.00038802624 1.0 1.0 1.04980778694 1.15844142437 1.26952683926 1.37580430508 1.37579226494 1.26946663857 1.09984147549 1.04973137379 1.00000011921 1.0 1.08506441116 1.19672930241 1.30111646652 1.40098834038 1.40097677708 1.30106663704 1.13577187061 1.08499586582 1.00000011921 1.0 1.11226606369 1.23118960857 1.3359773159 1.42514944077 1.42514264584 1.3359375 1.16552722454 1.1121994257 1.00000011921 1.0 1.1122572422 1.23118078709 1.33595871925 1.42527925968 1.42526507378 1.33591210842 1.16552364826 1.11219060421 1.00000011921 1.0 1.08502185345 1.19669592381 1.30103576183 1.40112054348 1.40109848976 1.30098009109 1.13573718071 1.08495390415 1.0 1.0 1.02967822552 1.12901186943 1.23203504086 1.33266294003 1.33266055584 1.23196804523 1.07651209831 1.02960479259 1.00000011921 1.0 1.00038766861 1.07382106781 1.17151904106 1.25478613377 1.25472772121 1.17147767544 1.02720797062 1.00037968159 1.00000011921 1.0 1.00000011921 0.998318970203 1.03706204891 1.08993852139 1.08998227119 1.03696644306 1.00000011921 1.0 0.999999940395 
1.0 1.00000011921 0.998307168484 1.03717446327 1.09013712406 1.09011459351 1.03710448742 1.00000023842 1.0 1.0 0.999999940395 1.0003964901 1.07390522957 1.17153120041 1.25471639633 1.25469994545 1.17146587372 1.02727675438 1.00038802624 1.0 1.0 1.04980778694 1.15844142437 1.26952683926 1.37580668926 1.37579464912 1.26946663857 1.09984147549 1.04973137379 1.00000011921 1.0 1.08506441116 1.19672930241 1.30111646652 1.40099978447 1.40098810196 1.30106663704 1.13577187061 1.08499586582 1.00000011921 1.0 1.11226606369 1.23118960857 1.33599150181 1.42517733574 1.42517066002 1.33595144749 1.16552722454 1.1121994257 1.00000011921 1.0 1.1122572422 1.23118078709 1.33597290516 1.42530751228 1.42529344559 1.33592581749 1.16552364826 1.11219060421 1.00000011921 1.0 1.08502185345 1.19669592381 1.30103576183 1.4011323452 1.40111005306 1.30098009109 1.13573718071 1.08495390415 1.0 1.0 1.02967822552 1.12901186943 1.23203504086 1.33266294003 1.33266055584 1.23196804523 1.07651209831 1.02960479259 1.00000011921 1.0 1.00038766861 1.07382106781 1.17151904106 1.25478613377 1.25472772121 1.17147767544 1.02720797062 1.00037968159 1.00000011921 1.0 1.00000011921 0.998318970203 1.03706204891 1.08993852139 1.08998227119 1.03696644306 1.00000011921 1.0 0.999999940395 
