1.0 1.00000011921 0.998964846134 1.03631544113 1.06735873222 1.06734859943 1.03623914719 1.00000023842 1.0 1.0 0.999999940395 1.00771927834 1.05546379089 1.08589041233 1.09433925152 1.09433603287 1.08585464954 1.04015696049 1.00765860081 1.0 1.0 1.05158746243 1.07565033436 1.09345924854 1.09909451008 1.09909236431 1.09343671799 1.06982803345 1.0515345335 1.00000011921 1.0 1.06640779972 1.0822685957 1.09567546844 1.10009372234 1.10009264946 1.09565913677 1.07840871811 1.06636762619 1.00000011921 1.0 1.07344710827 1.08550143242 1.09682643414 1.10045814514 1.10045778751 1.09681260586 1.0825060606 1.07341217995 1.00000011921 1.0 1.07344353199 1.08549892902 1.09682512283 1.10046255589 1.10046160221 1.09681117535 1.08250391483 1.07340836525 1.00000011921 1.0 1.06638622284 1.08225786686 1.09566688538 1.10009324551 1.10009157658 1.09565043449 1.07839536667 1.06634604931 1.0 1.0 1.04467022419 1.07385659218 1.09305310249 1.09913635254 1.09913682938 1.09302985668 1.06681120396 1.04461157322 1.00000011921 1.0 1.00764882565 1.0554087162 1.0858771801 1.09436023235 1.09435164928 1.08584952354 1.04008221626 1.00758755207 1.00000011921 1.0 1.00000011921 0.998953700066 1.03622496128 1.06718850136 1.06721735001 1.03610503674 1.00000011921 1.0 0.999999940395 
1.0 1.00000011921 0.998964846134 1.03652751446 1.09176898003 1.09174633026 1.03644883633 1.00000023842 1.0 1.0 0.999999940395 1.00771927834 1.07495999336 1.15112864971 1.1773147583 1.17730605602 1.1510412693 1.04173243046 1.00765860081 1.0 1.0 1.06579113007 1.13002061844 1.17521333694 1.19092285633 1.19091689587 1.17515695095 1.1089733839 1.06572365761 1.00000011921 1.0 1.09925842285 1.14698207378 1.18137717247 1.19349944592 1.19349598885 1.18133485317 1.13274168968 1.09919703007 1.00000011921 1.0 1.11860597134 1.15574717522 1.18468129635 1.19455122948 1.19454956055 1.18464553356 1.14520668983 1.11854577065 1.00000011921 1.0 1.11859762669 1.15574193001 1.18467831612 1.19456267357 1.19456017017 1.18464195728 1.14520132542 1.11853730679 1.00000011921 1.0 1.09921371937 1.146956563 1.18135428429 1.1935005188 1.19349586964 1.1813120842 1.13270926476 1.09915196896 1.0 1.0 1.0486369133 1.12077701092 1.17250955105 1.19044232368 1.19044327736 1.1724486351 1.09204697609 1.04856812954 1.00000011921 1.0 1.00764882565 1.07486057281 1.1511040926 1.1773661375 1.17734217644 1.151045084 1.04164254665 1.00758755207 1.00000011921 1.0 1.00000011921 0.998953700066 1.03642976284 1.09140205383 1.09148597717 1.03630304337 1.00000011921 1.0 0.999999940395 
1.0 1.00000011921 0.998964846134 1.03652751446 1.09176898003 1.09174633026 1.03644883633 1.00000023842 1.0 1.0 0.999999940395 1.00771927834 1.07495236397 1.18138933182 1.2382068634 1.23818922043 1.18127202988 1.04173243046 1.00765860081 1.0 1.0 1.06579113007 1.15609610081 1.2353066206 1.26835978031 1.26834785938 1.23521006107 1.11322283745 1.06572365761 1.00000011921 1.0 1.10088014603 1.18496668339 1.24757111073 1.27337348461 1.27336573601 1.24749469757 1.15037870407 1.10081887245 1.00000011921 1.0 1.12777101994 1.20231616497 1.25497615337 1.27567350864 1.27566885948 1.2549110651 1.17590785027 1.12770962715 1.00000011921 1.0 1.12776041031 1.20230746269 1.25497114658 1.27569663525 1.27569031715 1.25490486622 1.17590022087 1.1276986599 1.00000011921 1.0 1.10083091259 1.18493103981 1.24752557278 1.27338266373 1.27337217331 1.24744880199 1.15033495426 1.1007694006 1.0 1.0 1.0486369133 1.13124108315 1.22503519058 1.26578903198 1.26579022408 1.22492837906 1.09204697609 1.04856812954 1.00000011921 1.0 1.00764882565 1.07485210896 1.18139064312 1.23829495907 1.23824465275 1.18133795261 1.04164254665 1.00758755207 1.00000011921 1.0 1.00000011921 0.998953700066 1.03642976284 1.09140205383 1.09148597717 1.03630304337 1.00000011921 1.0 0.999999940395 
1.0 1.00000011921 0.998964846134 1.03652751446 1.09176898003 1.09174633026 1.03644883633 1.00000023842 1.0 1.0 0.999999940395 1.00771927834 1.07495236397 1.18503499031 1.27333843708 1.27331316471 1.18491780758 1.04173243046 1.00765860081 1.0 1.0 1.06579113007 1.16027414799 1.27007448673 1.32858848572 1.32857096195 1.26995813847 1.11322283745 1.06572365761 1.00000011921 1.0 1.10088014603 1.19906210899 1.28976845741 1.33649039268 1.33647537231 1.28966724873 1.1504611969 1.10081887245 1.00000011921 1.0 1.12777101994 1.22634160519 1.30380094051 1.34096992016 1.34095954895 1.30371141434 1.18101072311 1.12770962715 1.00000011921 1.0 1.12776041031 1.22633075714 1.30379223824 1.3410115242 1.34099888802 1.30370020866 1.18100297451 1.1276986599 1.00000011921 1.0 1.10083091259 1.19902014732 1.28969550133 1.33651685715 1.3364969492 1.28959262371 1.15041685104 1.1007694006 1.0 1.0 1.0486369133 1.13124108315 1.24513339996 1.32062673569 1.32062804699 1.24500882626 1.09204697609 1.04856812954 1.00000011921 1.0 1.00764882565 1.07485210896 1.18507111073 1.27348673344 1.27340757847 1.18504059315 1.04164254665 1.00758755207 1.00000011921 1.0 1.00000011921 0.998953700066 1.03642976284 1.09140205383 1.09148597717 1.03630304337 1.00000011921 1.0 0.999999940395 
1.0 1.00000011921 0.998964846134 1.03652751446 1.09176898003 1.09174633026 1.03644883633 1.00000023842 1.0 1.0 0.999999940395 1.00771927834 1.07495236397 1.18503499031 1.28686726093 1.28683722019 1.18491780758 1.04173243046 1.00765860081 1.0 1.0 1.06579113007 1.16027414799 1.28355264664 1.36998820305 1.36996400356 1.28343832493 1.11322283745 1.06572365761 1.00000011921 1.0 1.10088014603 1.19986832142 1.3097383976 1.38086819649 1.38084554672 1.30963623524 1.1504611969 1.10081887245 1.00000011921 1.0 1.12777101994 1.23408019543 1.33132123947 1.38846623898 1.3884499073 1.33122599125 1.18101072311 1.12770962715 1.00000011921 1.0 1.12776041031 1.23406720161 1.3313075304 1.3885358572 1.38851523399 1.33120775223 1.18100297451 1.1276986599 1.00000011921 1.0 1.10083091259 1.19982421398 1.30964267254 1.38092589378 1.380895257 1.30953729153 1.15041685104 1.1007694006 1.0 1.0 1.0486369133 1.13124108315 1.24628901482 1.35238981247 1.35238933563 1.24616670609 1.09204697609 1.04856812954 1.00000011921 1.0 1.00764882565 1.07485210896 1.18507111073 1.28707683086 1.2869784832 1.18504059315 1.04164254665 1.00758755207 1.00000011921 1.0 1.00000011921 0.998953700066 1.03642976284 1.09140205383 1.09148597717 1.03630304337 1.00000011921 1.0 0.999999940395 
1.0 1.00000011921 0.998964846134 1.03652751446 1.09176898003 1.09174633026 1.03644883633 1.00000023842 1.0 1.0 0.999999940395 1.00771927834 1.07495236397 1.18503499031 1.28904187679 1.28901255131 1.18491780758 1.04173243046 1.00765860081 1.0 1.0 1.06579113007 1.16027414799 1.28612470627 1.39461243153 1.39458465576 1.28601443768 1.11322283745 1.06572365761 1.00000011921 1.0 1.10088014603 1.19986832142 1.31619000435 1.40801274776 1.40798521042 1.31609725952 1.1504611969 1.10081887245 1.00000011921 1.0 1.12777101994 1.23434662819 1.3437680006 1.41916978359 1.41914796829 1.34368050098 1.18101072311 1.12770962715 1.00000011921 1.0 1.12776041031 1.2343326807 1.34374952316 1.41927289963 1.41924524307 1.34365582466 1.18100297451 1.1276986599 1.00000011921 1.0 1.10083091259 1.19982421398 1.3160803318 1.40811300278 1.40807449818 1.31598246098 1.15041685104 1.1007694006 1.0 1.0 1.0486369133 1.13124108315 1.24628901482 1.36563825607 1.36563467979 1.24616670609 1.09204697609 1.04856812954 1.00000011921 1.0 1.00764882565 1.07485210896 1.18507111073 1.28927564621 1.28917193413 1.18504059315 1.04164254665 1.00758755207 1.00000011921 1.0 1.00000011921 0.998953700066 1.03642976284 1.09140205383 1.09148597717 1.03630304337 1.00000011921 1.0 0.999999940395 
1.0 1.00000011921 0.998964846134 1.03652751446 1.09176898003 1.09174633026 1.03644883633 1.00000023842 1.0 1.0 0.999999940395 1.00771927834 1.07495236397 1.18503499031 1.28904187679 1.28901255131 1.18491780758 1.04173243046 1.00765860081 1.0 1.0 1.06579113007 1.16027414799 1.28612732887 1.40769338608 1.40766632557 1.28601706028 1.11322283745 1.06572365761 1.00000011921 1.0 1.10088014603 1.19986832142 1.31712853909 1.42267751694 1.4226474762 1.31704175472 1.1504611969 1.10081887245 1.00000011921 1.0 1.12777101994 1.23434662819 1.34850716591 1.43706047535 1.43703615665 1.34842741489 1.18101072311 1.12770962715 1.00000011921 1.0 1.12776041031 1.2343326807 1.34848606586 1.43719768524 1.43716549873 1.34839820862 1.18100297451 1.1276986599 1.00000011921 1.0 1.10083091259 1.19982421398 1.31701314449 1.42282187939 1.4227771759 1.31691992283 1.15041685104 1.1007694006 1.0 1.0 1.0486369133 1.13124108315 1.24628901482 1.36946618557 1.36946153641 1.24616670609 1.09204697609 1.04856812954 1.00000011921 1.0 1.00764882565 1.07485210896 1.18507111073 1.28927564621 1.28917193413 1.18504059315 1.04164254665 1.00758755207 1.00000011921 1.0 1.00000011921 0.998953700066 1.03642976284 1.09140205383 1.09148597717 1.03630304337 1.00000011921 1.0 0.999999940395 
