13.9573297501 21.7946929932 29.4825134277 37.3678512573 45.7204589844 54.3009872437 62.6523551941 70.5367660522 78.2246398926 86.0624465942 13.9279546738 21.6007118225 28.8753871918 36.6226501465 45.4024581909 54.62059021 63.3978462219 71.1430053711 78.4176254272 86.0917129517 13.918466568 21.4695720673 28.5381565094 36.1953544617 45.2046661377 54.8193740845 63.8252220154 71.4797821045 78.5482406616 86.1011352539 13.9127855301 21.410112381 28.3765869141 36.0025901794 45.1190032959 54.9054641724 64.018081665 71.6411209106 78.6074371338 86.1067962646 13.9089155197 21.3858852386 28.3019695282 35.9147834778 45.0807418823 54.9439163208 64.1059341431 71.7156524658 78.6315231323 86.1106567383 13.9089164734 21.3859004974 28.3020248413 35.9148635864 45.0807723999 54.9438934326 64.1058578491 71.7156143188 78.6315155029 86.1106338501 13.9127941132 21.410194397 28.3768768311 36.0030059814 45.119178772 54.9053077698 64.0176925659 71.6408691406 78.6073608398 86.1067962646 13.9184703827 21.4697551727 28.5386695862 36.1959877014 45.2052993774 54.8187904358 63.8246536255 71.4793167114 78.5480651855 86.1011581421 13.927986145 21.6010971069 28.876499176 36.6239547729 45.4029808044 54.6200790405 63.396648407 71.1419067383 78.4172515869 86.0916748047 13.9574480057 21.7953090668 29.4843120575 37.3702888489 45.7218894958 54.2996711731 62.6499023438 70.5348968506 78.2239990234 86.0623245239 
13.9474449158 21.7623901367 29.4235496521 37.2876434326 45.6792793274 54.3423690796 62.7325630188 70.5956420898 78.2568893433 86.0722961426 13.9139089584 21.5606975555 28.7690410614 36.4811897278 45.3408203125 54.6825294495 63.5393600464 71.2491607666 78.4575195312 86.1056976318 13.8965673447 21.4228992462 28.4022426605 36.0516204834 45.1397857666 54.884563446 63.9689979553 71.6155700684 78.5946578979 86.1229705811 13.8840942383 21.3549766541 28.2495613098 35.8716278076 45.0599212646 54.96484375 64.1490859985 71.7680664062 78.662361145 86.1353912354 13.8752737045 21.3285713196 28.1835403442 35.7939453125 45.0260772705 54.9988670349 64.2267990112 71.8340072632 78.6886672974 86.1441726685 13.8752803802 21.3285827637 28.1835823059 35.794002533 45.0261001587 54.9988441467 64.2267456055 71.8339767456 78.688659668 86.1441574097 13.8841190338 21.3550701141 28.2498168945 35.8720092773 45.0600776672 54.9647064209 64.148727417 71.7678222656 78.6622848511 86.1353607178 13.8965950012 21.4231090546 28.4027442932 36.0522346497 45.1404266357 54.8840026855 63.9684524536 71.6151199341 78.5944824219 86.1229476929 13.9139604568 21.5611152649 28.770357132 36.4825286865 45.3414459229 54.6819229126 63.5381622314 71.2478561401 78.4571151733 86.1056594849 13.9475822449 21.7630615234 29.4255142212 37.2904396057 45.6807403564 54.3410491943 62.7297439575 70.5935974121 78.256187439 86.0721511841 
13.9426851273 21.7455463409 29.3890342712 37.2439537048 45.6554069519 54.3663711548 62.7762336731 70.6301269531 78.2737045288 86.077041626 13.9072608948 21.5359191895 28.7036094666 36.3691177368 45.2861366272 54.7374954224 63.6514205933 71.3144378662 78.4822311401 86.1123123169 13.8878574371 21.387052536 28.2962360382 35.9041175842 45.070224762 54.9544868469 64.1165161133 71.7213745117 78.6303939819 86.131652832 13.8715867996 21.3096923828 28.1185150146 35.7183761597 44.9897155762 55.03540802 64.3023681641 71.89894104 78.7074432373 86.1478652954 13.8602733612 21.2772293091 28.0440540314 35.6403961182 44.9567337036 55.0685462952 64.3803787231 71.9733276367 78.7397613525 86.1591033936 13.8602828979 21.2772445679 28.0441017151 35.6404571533 44.9567642212 55.0685310364 64.3803482056 71.9733123779 78.7397384644 86.1590881348 13.8716239929 21.3098182678 28.1187915802 35.7187423706 44.9898605347 55.0352745056 64.3020324707 71.89868927 78.707321167 86.1478042603 13.8878974915 21.387336731 28.2969245911 35.9047813416 45.070854187 54.9539222717 64.1159133911 71.7207489014 78.6301422119 86.1316146851 13.9073257446 21.5364303589 28.7051792145 36.3706092834 45.286907196 54.7367172241 63.6500854492 71.3128509521 78.4817199707 86.1122436523 13.9428281784 21.7462444305 29.3910713196 37.2469863892 45.6569137573 54.3649902344 62.7731628418 70.6279907227 78.2729797363 86.0768966675 
13.9401912689 21.7363948822 29.3699741364 37.2206459045 45.6432723999 54.3785629272 62.7995681763 70.6491699219 78.2828369141 86.0795211792 13.9038934708 21.5226478577 28.6639404297 36.2997970581 45.2478675842 54.7759475708 63.7206878662 71.3540344238 78.4954681396 86.1156768799 13.8834276199 21.3670291901 28.2369995117 35.7910461426 45.0111465454 55.0138511658 64.2295532227 71.7804412842 78.650352478 86.1360549927 13.8664188385 21.2812843323 28.0302295685 35.584564209 44.9248886108 55.1005554199 64.436164856 71.9870529175 78.7357330322 86.1529998779 13.8542308807 21.2414245605 27.9364299774 35.4988021851 44.8901290894 55.1354789734 64.5219955444 72.0807952881 78.7754211426 86.1651382446 13.8542375565 21.2414474487 27.9364948273 35.4988555908 44.890171051 55.1354522705 64.5219573975 72.0807342529 78.7754058838 86.1651306152 13.8664588928 21.2814311981 28.0305709839 35.584941864 44.9250411987 55.1004257202 64.4358215332 71.9867401123 78.7356262207 86.1529846191 13.8834724426 21.3673343658 28.2377357483 35.7918128967 45.0118141174 55.0132675171 64.2288589478 71.7797927856 78.650062561 86.1360168457 13.9039649963 21.5231800079 28.6655921936 36.3013572693 45.2487487793 54.7750701904 63.7193107605 71.352355957 78.494934082 86.1156082153 13.9403400421 21.7371082306 29.3720722198 37.2237892151 45.6448135376 54.3771438599 62.7963523865 70.6469650269 78.2820892334 86.0793685913 
13.9389133453 21.7317180634 29.359960556 37.2080841064 45.6378479004 54.3840103149 62.8121337891 70.6591644287 78.2875061035 86.0808029175 13.902132988 21.5158596039 28.6430854797 36.2635879517 45.2249526978 54.7989768982 63.7568740845 71.3748397827 78.5022354126 86.11743927 13.8811950684 21.3566360474 28.2033367157 35.7222099304 44.9698181152 55.0553855896 64.2982940674 71.8140335083 78.660697937 86.1382827759 13.8637180328 21.2667579651 27.9840431213 35.4916687012 44.8751716614 55.1505241394 64.5290145874 72.0331115723 78.7502212524 86.1556854248 13.8512773514 21.2236061096 27.8778972626 35.3953514099 44.8375320435 55.1883468628 64.6254272461 72.1391906738 78.7931671143 86.1680755615 13.8512821198 21.2236251831 27.8779735565 35.395401001 44.8375701904 55.1883163452 64.6253738403 72.1391220093 78.7931671143 86.1680679321 13.8637552261 21.2668991089 27.9844074249 35.4920654297 44.875328064 55.1503829956 64.5286407471 72.0327835083 78.7500839233 86.1556549072 13.8812398911 21.3569507599 28.2040920258 35.7230567932 44.9705047607 55.0547790527 64.2975311279 71.8133544922 78.6604232788 86.1382522583 13.9022045135 21.5164070129 28.64478302 36.2651672363 45.2258834839 54.798034668 63.7554855347 71.3731307983 78.5016937256 86.1173706055 13.9390640259 21.7324352264 29.3620815277 37.2112693787 45.6393737793 54.3826332092 62.8088607788 70.6569061279 78.2867584229 86.0806427002 
13.9382896423 21.7295093536 29.3552970886 37.2022819519 45.6353988647 54.3864746094 62.8179397583 70.6638183594 78.2897186279 86.081413269 13.9012718201 21.512670517 28.6330051422 36.24659729 45.2145271301 54.8094558716 63.773853302 71.3848953247 78.5054321289 86.1182937622 13.8800783157 21.3514881134 28.1862602234 35.6864356995 44.944644928 55.0806884766 64.3340148926 71.8310852051 78.6658401489 86.1394042969 13.8623752594 21.2594432831 27.9595279694 35.4366569519 44.8419952393 55.1838722229 64.5839538574 72.0575637817 78.7575073242 86.1570205688 13.8497800827 21.2147312164 27.8483409882 35.3305473328 44.8011894226 55.2248687744 64.6901702881 72.1686706543 78.8020095825 86.1695632935 13.8497858047 21.214756012 27.8484153748 35.3305969238 44.8012428284 55.2248382568 64.6901321411 72.1685943604 78.8020019531 86.1695632935 13.86241436 21.259595871 27.9599113464 35.437084198 44.8421669006 55.183719635 64.5835723877 72.057220459 78.7573699951 86.1569900513 13.8801231384 21.3518028259 28.1870288849 35.6873474121 44.9453849792 55.0800323486 64.333190918 71.8303833008 78.6655502319 86.1393661499 13.9013442993 21.5132217407 28.634727478 36.2482032776 45.2154922485 54.8084907532 63.7724456787 71.3831481934 78.5048675537 86.1182174683 13.9384384155 21.7302303314 29.3574428558 37.2054977417 45.6369285583 54.385093689 62.8146362305 70.6615447998 78.2889480591 86.0812454224 
13.9379844666 21.7284736633 29.3531513214 37.1996383667 45.6342926025 54.387588501 62.8205833435 70.6659698486 78.2907485962 86.0817337036 13.9008598328 21.5111865997 28.6282405853 36.238735199 45.2099685669 54.8140411377 63.7817077637 71.3896484375 78.5068969727 86.1187057495 13.879529953 21.3490276337 28.1781520844 35.6694107056 44.931224823 55.0941772461 64.351020813 71.8391799927 78.6683044434 86.1399383545 13.8617324829 21.2558822632 27.9472446442 35.4073638916 44.8222579956 55.203704834 64.6131973267 72.0698165894 78.7610473633 86.1576538086 13.8490524292 21.210357666 27.8332958221 35.294418335 44.7787284851 55.2474403381 64.7262649536 72.1836547852 78.8063659668 86.1702804565 13.8490581512 21.2103805542 27.8333778381 35.2944717407 44.7787780762 55.2473983765 64.7262191772 72.1835861206 78.8063430786 86.1702880859 13.8617725372 21.2560348511 27.9476337433 35.4078216553 44.8224334717 55.203540802 64.6127853394 72.0694732666 78.7609176636 86.157623291 13.8795757294 21.3493442535 28.1789360046 35.6703491211 44.9319877625 55.0934791565 64.350151062 71.838470459 78.6679992676 86.1399078369 13.9009332657 21.5117454529 28.6299686432 36.2403450012 45.2109375 54.8130645752 63.7803039551 71.3878860474 78.5063323975 86.1186294556 13.9381389618 21.7291965485 29.355298996 37.2028617859 45.635799408 54.3862228394 62.8172721863 70.6636886597 78.2899856567 86.0815734863 
