2.2625541687 3.86577963829 6.79840993881 9.4771900177 10.9532766342 10.9520998001 9.47157001495 6.7908911705 3.85905170441 2.26245880127 2.28730750084 5.07699203491 9.75195884705 14.1328172684 16.5869216919 16.5849533081 14.1234474182 9.73996829987 5.06594848633 2.28701615334 2.3159942627 5.96495485306 11.8327159882 17.3567810059 20.5539722443 20.5514163971 17.344789505 11.8177223206 5.95098495483 2.31548261642 2.33212208748 6.49234867096 13.0729284286 19.1813621521 22.7104682922 22.7076644897 19.1681060791 13.0562696457 6.47654294968 2.33148932457 2.34148430824 6.76627779007 13.6885728836 20.059709549 23.7252635956 23.7223682404 20.0459289551 13.6711463928 6.74954843521 2.34078264236 2.34147715569 6.76606321335 13.6881046295 20.059047699 23.7245044708 23.7216110229 20.0452651978 13.6706800461 6.74933671951 2.34077525139 2.33208799362 6.49127483368 13.0704879761 19.1778011322 22.706319809 22.7035217285 19.1645717621 13.0538511276 6.47548341751 2.33145642281 2.31593585014 5.96318817139 11.8285598755 17.350435257 20.5458469391 20.5433597565 17.3385066986 11.8136253357 5.94924163818 2.3154232502 2.28722953796 5.07429838181 9.74560928345 14.12312603 16.5744667053 16.5725650787 14.1139202118 9.73371219635 5.06331348419 2.28694105148 2.26251673698 3.86245584488 6.78969192505 9.46256732941 10.9357376099 10.9348182678 9.45694160461 6.78241586685 3.85581684113 2.26242160797 
2.26230168343 3.81168484688 6.67402601242 9.30997180939 10.7694120407 10.7682437897 9.30442237854 6.66665267944 3.80515098572 2.26220989227 2.28631234169 5.00309324265 9.59673118591 13.9371509552 16.3812141418 16.3792457581 13.9278278351 9.58490467072 4.99228477478 2.28603076935 2.31429934502 5.88173246384 11.6640491486 17.1410331726 20.3346233368 20.3320598602 17.1290874481 11.6492347717 5.86800336838 2.31380271912 2.33002567291 6.40502882004 12.89702034 18.9613113403 22.5105552673 22.5077056885 18.9480609894 12.8805503845 6.38946962357 2.32941150665 2.33925509453 6.67766857147 13.5111131668 19.8452281952 23.5471572876 23.5441951752 19.8314094543 13.4938735962 6.66118812561 2.33857297897 2.33924794197 6.67745637894 13.5106449127 19.8445587158 23.546377182 23.5434188843 19.8307476044 13.4934082031 6.66097831726 2.33856630325 2.32999253273 6.40396261215 12.8945970535 18.9577541351 22.5063438416 22.5034999847 18.9445362091 12.8781509399 6.38842010498 2.32937932014 2.31424212456 5.87998199463 11.6599273682 17.1347236633 20.3265190125 20.3240261078 17.1228466034 11.6451778412 5.86628007889 2.31374502182 2.28623580933 5.00043821335 9.59042739868 13.9275178909 16.3687229156 16.3668289185 13.9183740616 9.57870483398 4.98969650269 2.28595781326 2.26226639748 3.80846095085 6.66551303864 9.29546260834 10.7520980835 10.7511949539 9.28989982605 6.65842008591 3.80202889442 2.26217460632 
2.2622961998 3.81067895889 6.67165088654 9.30670547485 10.7657728195 10.7646045685 9.30115890503 6.66428232193 3.80414772034 2.26220440865 2.28629183769 5.00164890289 9.59363365173 13.9331626892 16.3769569397 16.3749904633 13.9238405228 9.58180999756 4.9908452034 2.28601050377 2.31426358223 5.88002586365 11.660531044 17.1364078522 20.3297271729 20.3271598816 17.1244659424 11.6457204819 5.86630249023 2.31376671791 2.32997894287 6.4031496048 12.8931674957 18.956199646 22.5051708221 22.5023193359 18.9429550171 12.876701355 6.38759708405 2.32936549187 2.33920311928 6.6756978035 13.5070781708 19.8398609161 23.5414791107 23.538520813 19.8260440826 13.4898424149 6.65922355652 2.33852124214 2.3391957283 6.6754860878 13.5066146851 19.8391914368 23.5407085419 23.5377445221 19.8253803253 13.4893817902 6.65901327133 2.33851456642 2.32994580269 6.40208625793 12.8907442093 18.9526462555 22.500957489 22.4981174469 18.9394283295 12.8743047714 6.38654756546 2.32933282852 2.31420612335 5.87827634811 11.6564121246 17.1301002502 20.3216209412 20.3191280365 17.1182250977 11.6416654587 5.86458015442 2.31370925903 2.28621578217 4.99899530411 9.58733081818 13.9235305786 16.3644676208 16.3625717163 13.9143877029 9.57561302185 4.98825836182 2.28593802452 2.26226043701 3.80745649338 6.6631436348 9.29219818115 10.7484607697 10.7475595474 9.28663825989 6.65605306625 3.80102801323 2.2621691227 
2.2622961998 3.81068062782 6.67165756226 9.30671310425 10.7657804489 10.7646131516 9.30116653442 6.66428899765 3.8041498661 2.26220440865 2.28629183769 5.00165224075 9.5936422348 13.9331741333 16.3769683838 16.375 13.9238491058 9.5818157196 4.99084854126 2.28601074219 2.31426334381 5.88003015518 11.6605405807 17.1364173889 20.3297348022 20.327173233 17.1244773865 11.6457309723 5.86630725861 2.31376671791 2.32997918129 6.40315532684 12.8931770325 18.9562129974 22.5051803589 22.5023326874 18.9429664612 12.8767108917 6.38760137558 2.32936549187 2.3392033577 6.67570304871 13.5070877075 19.8398742676 23.5414981842 23.5385341644 19.8260555267 13.4898538589 6.65922737122 2.33852171898 2.33919620514 6.67549133301 13.5066242218 19.8392066956 23.540719986 23.5377578735 19.8253898621 13.4893932343 6.65901756287 2.338514328 2.32994580269 6.40209102631 12.8907527924 18.9526596069 22.5009708405 22.498128891 18.9394416809 12.8743133545 6.38655376434 2.32933282852 2.31420612335 5.87828111649 11.6564207077 17.1301136017 20.3216381073 20.3191394806 17.1182384491 11.6416740417 5.86458301544 2.31370949745 2.28621554375 4.99899816513 9.58733844757 13.923541069 16.3644790649 16.3625812531 13.9143972397 9.5756187439 4.98826122284 2.2859377861 2.26226043701 3.80745840073 6.66314983368 9.29220676422 10.7484703064 10.7475681305 9.28664493561 6.65605974197 3.801030159 2.2621691227 
2.2622961998 3.81070041656 6.6717042923 9.3067779541 10.7658519745 10.7646846771 9.3012304306 6.66433477402 3.80417013168 2.26220417023 2.28629255295 5.00168037415 9.59370422363 13.9332513809 16.3770523071 16.3750858307 13.9239301682 9.58187961578 4.99087619781 2.28601098061 2.31426382065 5.88006305695 11.6606092453 17.1365089417 20.3298339844 20.3272666931 17.1245670319 11.6457967758 5.86634016037 2.31376791 2.32997989655 6.40319156647 12.8932523727 18.9563140869 22.5052871704 22.5024375916 18.943069458 12.8767852783 6.38763809204 2.32936644554 2.33920407295 6.67574119568 13.5071697235 19.8399810791 23.5416069031 23.5386486053 19.8261604309 13.4899301529 6.65926599503 2.33852243423 2.33919715881 6.67552947998 13.5067024231 19.8393096924 23.5408344269 23.5378723145 19.8254985809 13.4894714355 6.65905666351 2.3385155201 2.32994651794 6.40212774277 12.8908309937 18.9527587891 22.5010795593 22.4982318878 18.9395427704 12.8743896484 6.38658952713 2.32933354378 2.31420707703 5.87831449509 11.6564893723 17.1302032471 20.3217315674 20.3192405701 17.1183280945 11.6417427063 5.86461687088 2.31370997429 2.28621602058 4.99902677536 9.58739948273 13.9236183167 16.3645629883 16.3626670837 13.9144763947 9.57567977905 4.98828935623 2.28593826294 2.26226043701 3.80747842789 6.66319513321 9.29227161407 10.7485437393 10.7476406097 9.28670978546 6.65610551834 3.80104994774 2.2621691227 
2.26229596138 3.81072258949 6.67175769806 9.30685043335 10.7659311295 10.7647647858 9.30130290985 6.6643872261 3.80419206619 2.26220440865 2.28629255295 5.00171232224 9.59377384186 13.933339119 16.3771476746 16.3751792908 13.9240169525 9.58194637299 4.99090862274 2.28601145744 2.31426501274 5.88010120392 11.6606864929 17.1366100311 20.3299427032 20.3273773193 17.124671936 11.6458749771 5.86637783051 2.31376862526 2.32998085022 6.40323400497 12.8933362961 18.9564266205 22.505405426 22.5025596619 18.9431819916 12.8768720627 6.38768100739 2.32936739922 2.33920550346 6.6757850647 13.5072555542 19.8400993347 23.5417346954 23.538772583 19.8262825012 13.490020752 6.65931034088 2.33852386475 2.33919858932 6.67557287216 13.5067911148 19.8394298553 23.5409584045 23.5379981995 19.8256168365 13.4895610809 6.65909910202 2.33851671219 2.32994818687 6.40216970444 12.890914917 18.9528713226 22.5011978149 22.4983539581 18.939655304 12.8744716644 6.38663053513 2.32933497429 2.3142080307 5.87835168839 11.6565685272 17.1303062439 20.3218402863 20.3193473816 17.1184310913 11.6418199539 5.86465454102 2.31371092796 2.28621673584 4.99905872345 9.58746910095 13.923707962 16.3646583557 16.3627605438 13.9145650864 9.5757484436 4.98832178116 2.2859389782 2.26226043701 3.80750060081 6.66324710846 9.29234409332 10.7486228943 10.7477216721 9.28678035736 6.65615797043 3.80107212067 2.26216936111 
2.26229667664 3.81074523926 6.6718082428 9.30692100525 10.7660121918 10.7648448944 9.30137443542 6.66443967819 3.80421423912 2.26220464706 2.28629302979 5.00174379349 9.59384059906 13.9334278107 16.3772392273 16.3752746582 13.9241037369 9.58201503754 4.99094057083 2.2860121727 2.31426596642 5.88013935089 11.6607666016 17.1367111206 20.3300495148 20.3274841309 17.1247730255 11.6459550858 5.86641454697 2.31376934052 2.32998180389 6.40327453613 12.8934221268 18.9565391541 22.505525589 22.5026760101 18.9432926178 12.8769540787 6.38772106171 2.32936835289 2.33920693398 6.67582893372 13.5073451996 19.8402175903 23.5418605804 23.5388946533 19.8263988495 13.4901094437 6.65935230255 2.33852481842 2.339199543 6.67561769485 13.5068788528 19.8395500183 23.5410842896 23.5381183624 19.8257389069 13.4896497726 6.65914392471 2.33851790428 2.32994890213 6.40221071243 12.8909988403 18.9529857635 22.5013160706 22.4984722137 18.9397640228 12.8745565414 6.38667201996 2.32933592796 2.31420874596 5.87838935852 11.6566467285 17.1304111481 20.3219470978 20.3194541931 17.1185321808 11.6418991089 5.86469173431 2.31371212006 2.28621721268 4.99909114838 9.58753490448 13.9237947464 16.3647518158 16.3628540039 13.9146518707 9.57581710815 4.98835325241 2.28593921661 2.26226091385 3.80752277374 6.66330003738 9.2924156189 10.7487020493 10.747800827 9.28685283661 6.65620994568 3.80109453201 2.26216959953 
