14.0026073456 13.7908096313 13.0356264114 11.8914833069 11.1883506775 11.1889467239 11.8941373825 13.0382461548 13.7920827866 14.0026226044 21.991476059 21.6206817627 20.5664520264 19.0952777863 18.1796150208 18.1803741455 19.0986690521 20.5699176788 21.6225738525 21.9915618896 29.9825935364 29.5419483185 28.5994815826 27.3913211823 26.6258602142 26.6264877319 27.3941268921 28.6023750305 29.5438461304 29.9827327728 37.9846115112 37.6582145691 37.0438537598 36.3140716553 35.8518943787 35.8522720337 36.3157577515 37.0456542969 37.6595153809 37.9847373962 45.9993591309 45.8788375854 45.6670608521 45.4262809753 45.2743148804 45.2744407654 45.4268417358 45.6676559448 45.8792915344 45.9994125366 54.020690918 54.1418304443 54.354724884 54.5967216492 54.7496032715 54.7494697571 54.5961685181 54.3541221619 54.1413764954 54.0206336975 62.0354042053 62.3622169495 62.9775428772 63.7085342407 64.171546936 64.1711807251 63.7068519592 62.9757385254 62.3609275818 62.0352706909 70.0373916626 70.4781188965 71.4211502075 72.6306228638 73.3962783813 73.3956756592 72.6278533936 71.4182815552 70.4762268066 70.0372543335 78.0284881592 78.3989181519 79.453086853 80.9247360229 81.8404541016 81.8396835327 80.9214248657 79.4496307373 78.3970489502 78.0283966064 86.0173950195 86.2287826538 86.9824752808 88.1234893799 88.8244018555 88.8240966797 88.120803833 86.9799575806 86.2275466919 86.0173721313 
14.0017499924 13.7861595154 13.0316619873 11.8866558075 11.1809949875 11.1815977097 11.8893127441 13.0342788696 13.7874326706 14.0017690659 21.9905166626 21.6134967804 20.5515651703 19.0614051819 18.1243553162 18.1251430511 19.0648593903 20.555059433 21.615404129 21.9906101227 29.9817295074 29.5331344604 28.5752029419 27.3311882019 26.5186138153 26.5192928314 27.3341140747 28.5781574249 29.5350608826 29.9818725586 37.9839324951 37.6506614685 37.0210609436 36.2538757324 35.7582817078 35.7586936951 36.2556686401 37.0229187012 37.6519851685 37.9840660095 45.9990997314 45.8757514954 45.6568489075 45.401424408 45.2379150391 45.2380371094 45.4020233154 45.6574668884 45.8762245178 45.9991531372 54.0209465027 54.1449279785 54.364982605 54.621711731 54.7862510681 54.7861175537 54.6211166382 54.3643531799 54.1444664001 54.0208969116 62.0360870361 62.3697814941 63.0003471375 63.7687683105 64.2652282715 64.2648086548 63.7669754028 62.9984817505 62.3684539795 62.035949707 70.0382614136 70.4869384766 71.4454193115 72.6907348633 73.5033874512 73.502746582 72.6878356934 71.4424667358 70.4850082397 70.0381240845 78.0294494629 78.4060821533 79.4679336548 80.9585342407 81.8955764771 81.8947753906 80.9551696777 79.4644546509 78.4042129517 78.0293579102 86.0182495117 86.2334289551 86.9864196777 88.1282196045 88.8316726685 88.8313827515 88.1255340576 86.9839172363 86.2321853638 86.0182266235 
14.0017051697 13.7859153748 13.0314283371 11.8863744736 11.1806182861 11.181219101 11.8890304565 13.0340461731 13.787191391 14.0017242432 21.9904708862 21.6131095886 20.5507545471 19.0596961975 18.1217594147 18.1225471497 19.0631523132 20.5542526245 21.6150169373 21.9905605316 29.9816799164 29.5326442719 28.573884964 27.3281078339 26.5132198334 26.5138988495 27.3310375214 28.576833725 29.5345726013 29.9818210602 37.9838943481 37.6502304077 37.0196990967 36.2500152588 35.7516937256 35.7521018982 36.2518157959 37.0215644836 37.6515579224 37.9840278625 45.9990844727 45.8755683899 45.6562309265 45.3995475769 45.2350616455 45.2351913452 45.4001426697 45.6568641663 45.8760414124 45.9991416931 54.0209655762 54.1451148987 54.3656044006 54.6236038208 54.7891235352 54.7889709473 54.6230010986 54.3649635315 54.1446418762 54.0209121704 62.0361175537 62.3702125549 63.0017051697 63.7726211548 64.271812439 64.2713928223 63.7708282471 62.9998512268 62.3688926697 62.035987854 70.0383148193 70.4874191284 71.4467315674 72.6938095093 73.5087661743 73.5081176758 72.6909103394 71.4437866211 70.4855041504 70.0381622314 78.0295028687 78.4064788818 79.46875 80.9602432251 81.898147583 81.897354126 80.9568634033 79.4652633667 78.4046020508 78.0294036865 86.0182952881 86.2336654663 86.9866485596 88.1285018921 88.8320541382 88.8317489624 88.1258239746 86.984161377 86.232421875 86.0182800293 
14.001701355 13.7858800888 13.0313911438 11.8863210678 11.1805477142 11.1811504364 11.8889770508 13.0340061188 13.7871580124 14.0017194748 21.9904632568 21.6130561829 20.5506401062 19.0594615936 18.1214199066 18.1222057343 19.0629177094 20.5541324615 21.6149635315 21.9905567169 29.981672287 29.5325737 28.5736961365 27.3276805878 26.5125465393 26.5132255554 27.3306179047 28.5766506195 29.5345039368 29.9818172455 37.9838905334 37.6501693726 37.0195045471 36.249458313 35.7507133484 35.7511329651 36.2512626648 37.0213661194 37.6514930725 37.9840240479 45.9990844727 45.8755455017 45.6561431885 45.3992538452 45.2346191406 45.2347450256 45.3998451233 45.6567802429 45.8760185242 45.9991378784 54.0209655762 54.1451416016 54.365688324 54.6239089966 54.7895736694 54.7894287109 54.623298645 54.3650512695 54.1446647644 54.0209121704 62.0361251831 62.3702659607 63.0019073486 63.77318573 64.2727890015 64.2723770142 63.7713851929 63.0000457764 62.3689537048 62.035987854 70.0383148193 70.487487793 71.4469299316 72.694229126 73.5094299316 73.5087890625 72.6913299561 71.4439697266 70.4855651855 70.0381698608 78.0295028687 78.4065475464 79.4688644409 80.9604797363 81.8984909058 81.8976898193 80.9571075439 79.4653701782 78.4046554565 78.0294113159 86.0182952881 86.2337112427 86.9866943359 88.1285629272 88.8321151733 88.831817627 88.1258850098 86.9841995239 86.232460022 86.0182800293 
14.0016975403 13.7858743668 13.0313739777 11.8862953186 11.180513382 11.1811170578 11.8889522552 13.03399086 13.7871494293 14.0017185211 21.9904613495 21.6130409241 20.5506057739 19.0593948364 18.1213264465 18.1221122742 19.0628490448 20.5541000366 21.6149482727 21.9905567169 29.9816741943 29.5325546265 28.5736446381 27.3275756836 26.5123844147 26.5130653381 27.3305091858 28.576593399 29.5344829559 29.9818134308 37.9838829041 37.6501541138 37.0194473267 36.2493171692 35.7504768372 35.7508888245 36.251121521 37.0213088989 37.6514778137 37.9840240479 45.9990844727 45.8755455017 45.6561126709 45.3991661072 45.2345085144 45.2346343994 45.3997650146 45.65675354 45.8760108948 45.9991378784 54.0209579468 54.1451454163 54.3657112122 54.6239776611 54.7896842957 54.7895431519 54.6233711243 54.3650741577 54.1446762085 54.0209121704 62.0361251831 62.3702926636 63.0019493103 63.7733230591 64.2730255127 64.272605896 63.771522522 63.0000991821 62.368976593 62.0359916687 70.0383148193 70.4874954224 71.446975708 72.6943359375 73.5095901489 73.5089492798 72.6914367676 71.4440307617 70.4855804443 70.0381698608 78.0295028687 78.4065475464 79.4688949585 80.9605407715 81.8985900879 81.8977813721 80.9571762085 79.4654159546 78.4046707153 78.0294189453 86.0182952881 86.2337112427 86.9867095947 88.1285934448 88.8321456909 88.8318557739 88.1259002686 86.9842300415 86.2324752808 86.0182800293 
14.0016975403 13.7858695984 13.0313625336 11.8862743378 11.1804876328 11.1810884476 11.8889331818 13.0339813232 13.7871446609 14.0017185211 21.9904632568 21.613035202 20.5505867004 19.0593585968 18.1212806702 18.1220664978 19.0628166199 20.5540809631 21.6149406433 21.9905567169 29.981672287 29.5325508118 28.5736217499 27.3275222778 26.5123138428 26.5129966736 27.3304595947 28.5765686035 29.5344772339 29.9818115234 37.9838829041 37.6501464844 37.0194282532 36.2492599487 35.7503814697 35.7507972717 36.2510566711 37.0212898254 37.651473999 37.9840202332 45.9990844727 45.875541687 45.6561126709 45.399143219 45.234462738 45.2345962524 45.3997383118 45.6567382812 45.8760070801 45.9991378784 54.0209579468 54.145149231 54.3657264709 54.624004364 54.7897338867 54.7895812988 54.6234016418 54.3650932312 54.1446762085 54.0209121704 62.0361328125 62.3702926636 63.0019760132 63.7733840942 64.2731170654 64.2727050781 63.7715873718 63.0001144409 62.3689804077 62.0359954834 70.0383148193 70.4875106812 71.4470291138 72.6943893433 73.5096664429 73.5090179443 72.6914901733 71.4440612793 70.4855880737 70.0381698608 78.0295028687 78.4065551758 79.4689178467 80.9605789185 81.8986282349 81.8978271484 80.9572067261 79.4654312134 78.4046783447 78.0294189453 86.0182952881 86.2337112427 86.9867095947 88.1286087036 88.8321685791 88.8318710327 88.1259155273 86.9842224121 86.2324752808 86.0182800293 
14.0016975403 13.7858667374 13.0313539505 11.8862552643 11.1804599762 11.181063652 11.8889102936 13.0339698792 13.7871417999 14.0017185211 21.9904632568 21.6130332947 20.5505714417 19.0593299866 18.1212425232 18.1220283508 19.0627880096 20.5540676117 21.614938736 21.9905548096 29.9816684723 29.5325431824 28.5735988617 27.3274879456 26.5122642517 26.5129432678 27.3304252625 28.5765533447 29.5344696045 29.9818077087 37.9838829041 37.6501464844 37.0194129944 36.2492179871 35.750328064 35.7507400513 36.2510185242 37.0212745667 37.6514625549 37.9840202332 45.9990844727 45.8755378723 45.6561050415 45.3991203308 45.2344398499 45.2345733643 45.3997192383 45.6567344666 45.8760032654 45.9991378784 54.0209579468 54.145149231 54.3657302856 54.6240196228 54.7897605896 54.7896156311 54.6234130859 54.3650932312 54.1446762085 54.0209121704 62.0361328125 62.3702926636 63.0019836426 63.7734222412 64.2731781006 64.2727584839 63.7716217041 63.0001335144 62.3689842224 62.0359992981 70.0383148193 70.4875106812 71.4470291138 72.6944274902 73.5097198486 73.5090637207 72.6915206909 71.4440765381 70.4856033325 70.0381851196 78.0295028687 78.4065628052 79.4689331055 80.960609436 81.8986587524 81.8978652954 80.9572372437 79.4654464722 78.4046783447 78.0294189453 86.0182952881 86.2337265015 86.9867248535 88.1286239624 88.8322067261 88.8318939209 88.1259384155 86.9842224121 86.2324752808 86.0182800293 
