0.982231259346 1.00978004932 1.03627860546 1.08671236038 1.1659154892 1.16588878632 1.08664655685 1.02750992775 1.0097464323 0.982282936573 0.973362922668 1.05232656002 1.15994465351 1.29569876194 1.41418612003 1.41415417194 1.29559218884 1.10228347778 1.05226862431 0.973421871662 0.970907747746 1.1407763958 1.27168226242 1.41426825523 1.52845585346 1.52842640877 1.41415905952 1.20725250244 1.1407033205 0.970947742462 0.969155669212 1.18645215034 1.31894898415 1.4449839592 1.54434812069 1.54431855679 1.44488537312 1.25378644466 1.18638455868 0.969187676907 0.96741527319 1.22286784649 1.35907673836 1.47404456139 1.55767357349 1.55764985085 1.47395253181 1.29294681549 1.22279500961 0.967446565628 0.967416405678 1.22285592556 1.35906291008 1.47402501106 1.55778825283 1.55775761604 1.47392630577 1.29294109344 1.22278285027 0.967447459698 0.96915948391 1.18639659882 1.31890058517 1.44487273693 1.54445910454 1.54441797733 1.44476902485 1.25374603271 1.18632805347 0.969190835953 0.971382200718 1.11046206951 1.23170530796 1.36630940437 1.49689626694 1.49689400196 1.36619746685 1.1714413166 1.11039626598 0.971423566341 0.973370671272 1.05222189426 1.15979528427 1.29579389095 1.41440415382 1.41429781914 1.29579353333 1.10215258598 1.05215930939 0.973429977894 0.982262551785 1.00973272324 1.03620624542 1.08643078804 1.1655831337 1.16569781303 1.08624565601 1.02745318413 1.00969958305 0.982315659523 
0.982029438019 1.0066794157 1.03212821484 1.08181893826 1.15995407104 1.15992677212 1.08175504208 1.02326846123 1.00664937496 0.98208117485 0.973102688789 1.04835557938 1.15579819679 1.29132151604 1.41125380993 1.41122555733 1.29121541977 1.09797716141 1.04830062389 0.973161935806 0.970548331738 1.13634240627 1.26721215248 1.41264772415 1.55558741093 1.5555614233 1.41253948212 1.20299434662 1.13627004623 0.970588862896 0.968714952469 1.18178939819 1.31447482109 1.44687438011 1.57533454895 1.5753057003 1.44679069519 1.24987637997 1.18172168732 0.968747913837 0.966910898685 1.21818292141 1.35613322258 1.48528730869 1.59762752056 1.59760415554 1.48521387577 1.29003274441 1.21810984612 0.96694290638 0.966911792755 1.21817064285 1.35611796379 1.48526191711 1.59784150124 1.59780597687 1.48517739773 1.29002952576 1.21809720993 0.966943562031 0.968719005585 1.18173396587 1.31442642212 1.44675290585 1.57556867599 1.57552087307 1.44666028023 1.24983465672 1.18166542053 0.968751072884 0.97103369236 1.10601401329 1.22701096535 1.36013400555 1.50204312801 1.50204014778 1.36002838612 1.16681003571 1.10594928265 0.971075594425 0.97311103344 1.04825115204 1.15564548969 1.29143106937 1.41146695614 1.41136157513 1.29143440723 1.09784281254 1.04819142818 0.973170697689 0.982061445713 1.00663435459 1.03205442429 1.08152627945 1.15963566303 1.15975093842 1.0813395977 1.02321147919 1.00660479069 0.982114493847 
0.982021570206 1.00654959679 1.0319532156 1.08161318302 1.15970170498 1.15967452526 1.08154928684 1.02308964729 1.00651991367 0.982073307037 0.973092496395 1.048189044 1.15562224388 1.29113185406 1.41104650497 1.41101825237 1.29102563858 1.0977935791 1.04813432693 0.973151862621 0.970533907413 1.13615739346 1.26703798771 1.41243970394 1.55671226978 1.55668616295 1.41233158112 1.20281982422 1.13608515263 0.970574438572 0.968698203564 1.18159723282 1.31427967548 1.44667053223 1.57671940327 1.57669138908 1.44658708572 1.24969649315 1.18152952194 0.968730986118 0.966893136501 1.21799278259 1.3559230566 1.48534500599 1.60027730465 1.60025405884 1.48527240753 1.28986620903 1.21791958809 0.966925144196 0.966894030571 1.21798062325 1.35590779781 1.48532176018 1.60051703453 1.60048079491 1.48523700237 1.28986275196 1.21790707111 0.966925859451 0.968702077866 1.18154203892 1.31423151493 1.44655001163 1.57697963715 1.57693147659 1.44645750523 1.24965512753 1.18147313595 0.968734264374 0.971019387245 1.10582685471 1.22682249546 1.35990905762 1.50181543827 1.50181257725 1.35980319977 1.16662347317 1.10576200485 0.971061050892 0.973100960255 1.04808497429 1.15546941757 1.29124188423 1.41125917435 1.41115355492 1.29124546051 1.09765911102 1.04802513123 0.973160624504 0.982053458691 1.0065048933 1.03187990189 1.08131968975 1.15938401222 1.1594991684 1.08113288879 1.02303266525 1.00647556782 0.982106566429 
0.982021033764 1.00654089451 1.0319416523 1.08159971237 1.15968549252 1.15965819359 1.08153581619 1.02307736874 1.00651097298 0.982072651386 0.973091721535 1.04817807674 1.15561079979 1.29111969471 1.41103339195 1.41100478172 1.29101347923 1.09778153896 1.04812312126 0.973150968552 0.970532715321 1.13614547253 1.26702773571 1.41242575645 1.55677688122 1.55675065517 1.41231763363 1.20280849934 1.13607311249 0.97057312727 0.968696713448 1.18158507347 1.31426918507 1.44665646553 1.57678842545 1.57676076889 1.44657301903 1.24968600273 1.18151736259 0.968729674816 0.96689170599 1.21798121929 1.35590839386 1.48533833027 1.60050439835 1.60048115253 1.48526573181 1.28985488415 1.21790790558 0.966923773289 0.966892778873 1.21796905994 1.35589301586 1.48531532288 1.60074961185 1.60071349144 1.48523080349 1.28985154629 1.2178953886 0.966924607754 0.968700766563 1.18152987957 1.31422078609 1.44653606415 1.57705390453 1.57700586319 1.44644343853 1.24964511395 1.18146109581 0.968732774258 0.971018195152 1.10581445694 1.22681057453 1.35989570618 1.50180101395 1.50179815292 1.35979020596 1.16661095619 1.1057497263 0.971060037613 0.973100185394 1.04807388783 1.15545773506 1.29122972488 1.41124546528 1.41113996506 1.29123330116 1.09764719009 1.04801404476 0.973159909248 0.982052922249 1.00649607182 1.03186821938 1.0813062191 1.15936768055 1.15948307514 1.08111941814 1.02302050591 1.00646650791 0.982105970383 
0.982020914555 1.00654029846 1.03194069862 1.08159935474 1.15968549252 1.15965807438 1.08153557777 1.02307665348 1.00651037693 0.982072532177 0.973091542721 1.0481774807 1.15561044216 1.2911195755 1.41103303432 1.41100478172 1.29101371765 1.09778106213 1.04812276363 0.973150789738 0.970532476902 1.13614535332 1.26702797413 1.41242611408 1.55678832531 1.55676233768 1.41231799126 1.20280849934 1.13607299328 0.97057300806 0.968696534634 1.18158507347 1.31426990032 1.44665694237 1.5767967701 1.57676887512 1.44657361507 1.24968659878 1.1815174818 0.968729257584 0.966891586781 1.21798145771 1.35590875149 1.48534035683 1.60053730011 1.60051441193 1.48526763916 1.28985548019 1.21790826321 0.966923415661 0.966892361641 1.21796941757 1.35589325428 1.48531723022 1.60078394413 1.60074782372 1.48523271084 1.28985202312 1.21789574623 0.966924190521 0.968700408936 1.18152999878 1.31422173977 1.44653654099 1.57706296444 1.5770149231 1.44644403458 1.24964559078 1.18146109581 0.968732476234 0.971017956734 1.10581421852 1.22681057453 1.35989642143 1.50180137157 1.50179874897 1.35979044437 1.16661071777 1.10574960709 0.971059799194 0.973100066185 1.04807329178 1.15545761585 1.29122972488 1.41124582291 1.41114008427 1.29123330116 1.09764659405 1.04801356792 0.973159611225 0.98205280304 1.00649535656 1.03186738491 1.08130574226 1.15936756134 1.15948271751 1.08111906052 1.02301943302 1.00646603107 0.982105910778 
0.982020735741 1.00654041767 1.03194117546 1.08160030842 1.15968704224 1.1596596241 1.08153653145 1.0230768919 1.00651049614 0.982072412968 0.973091363907 1.04817819595 1.15561151505 1.2911208868 1.41103482246 1.41100621223 1.29101479053 1.09778189659 1.04812335968 0.973150730133 0.970532238483 1.1361464262 1.26702964306 1.41242825985 1.55679678917 1.55677056313 1.41232001781 1.20280992985 1.13607394695 0.970572769642 0.968696296215 1.18158638477 1.31427168846 1.44665956497 1.57680392265 1.57677578926 1.44657588005 1.24968802929 1.18151879311 0.96872907877 0.966891229153 1.21798312664 1.35591065884 1.48534357548 1.60054981709 1.6005269289 1.48527085781 1.28985726833 1.21791005135 0.966923177242 0.966892123222 1.2179710865 1.35589504242 1.48532044888 1.60079693794 1.60076069832 1.48523592949 1.28985369205 1.21789741516 0.966923952103 0.968700110912 1.18153131008 1.3142234087 1.44653892517 1.57707047462 1.57702231407 1.44644641876 1.24964737892 1.1814622879 0.968732118607 0.971017837524 1.10581505299 1.22681200504 1.35989832878 1.50180339813 1.50180089474 1.35979259014 1.16661190987 1.10575032234 0.971059560776 0.973099887371 1.04807388783 1.15545880795 1.29123091698 1.411247015 1.41114139557 1.29123449326 1.09764754772 1.04801416397 0.973159432411 0.98205268383 1.00649571419 1.03186786175 1.08130669594 1.15936911106 1.15948450565 1.08112001419 1.02301990986 1.00646615028 0.982105851173 
0.982020735741 1.00654065609 1.03194153309 1.0816013813 1.15968883038 1.15966141224 1.08153772354 1.02307736874 1.00651085377 0.982072412968 0.973091244698 1.048178792 1.15561258793 1.29112231731 1.41103625298 1.41100800037 1.29101610184 1.09778273106 1.04812407494 0.973150491714 0.970532119274 1.13614737988 1.26703119278 1.41243040562 1.5568048954 1.55677878857 1.41232204437 1.20281159878 1.13607501984 0.970572650433 0.968696117401 1.18158793449 1.3142734766 1.44666182995 1.57681190968 1.57678377628 1.44657850266 1.24968993664 1.18152034283 0.968728899956 0.966891050339 1.21798479557 1.35591256618 1.48534703255 1.60055994987 1.60053682327 1.48527467251 1.28985929489 1.21791160107 0.966923117638 0.966891884804 1.21797251701 1.35589706898 1.48532390594 1.60080742836 1.60077118874 1.48523950577 1.28985583782 1.21789908409 0.966923713684 0.968699932098 1.18153274059 1.31422507763 1.44654154778 1.57707858086 1.57703053951 1.44644904137 1.24964892864 1.18146383762 0.968731939793 0.971017599106 1.10581612587 1.22681355476 1.35990059376 1.50180613995 1.50180339813 1.35979485512 1.16661334038 1.10575151443 0.971059322357 0.973099648952 1.04807448387 1.1554595232 1.29123222828 1.41124856472 1.41114294529 1.29123580456 1.09764826298 1.04801476002 0.973159432411 0.982052564621 1.0064958334 1.03186821938 1.08130788803 1.15937054157 1.15948605537 1.08112120628 1.0230203867 1.00646626949 0.982105851173 
