13.9353504181 21.7035980225 29.2825050354 37.1714324951 45.6439666748 54.3778572083 62.8490524292 70.736541748 78.3155441284 86.0843658447 13.8977766037 21.4727592468 28.5306167603 36.3660774231 45.3162460327 54.7072296143 63.6550254822 71.4874649048 78.5451507568 86.1217727661 13.8772525787 21.3016281128 28.0615234375 35.8753356934 45.113822937 54.9106674194 64.1461181641 71.9560623169 78.7154388428 86.1422271729 13.8612594604 21.2001476288 27.8408527374 35.6737327576 45.0321235657 54.9927749634 64.3479156494 72.176574707 78.8165893555 86.1581420898 13.8514175415 21.1529026031 27.7491130829 35.5909538269 44.9987258911 55.0263252258 64.4307556152 72.2682723999 78.8636627197 86.1679458618 13.8514270782 21.152929306 27.7491779327 35.5910110474 44.9987564087 55.0262947083 64.4307022095 72.2682037354 78.8636322021 86.1679382324 13.8612937927 21.2003364563 27.8412246704 35.6740951538 45.0322647095 54.9926185608 64.3475341797 72.1761856079 78.8163909912 86.1580963135 13.8772935867 21.3019618988 28.0623378754 35.8761405945 45.1142730713 54.9102096558 64.1453323364 71.9552612305 78.7151107788 86.1421890259 13.8978443146 21.4732551575 28.5321578979 36.3675956726 45.3169670105 54.7064743042 63.6535339355 71.4859085083 78.5446777344 86.121711731 13.9354896545 21.7042827606 29.2844676971 37.1739959717 45.6451034546 54.3767623901 62.846496582 70.7346572876 78.3148727417 86.0842208862 
13.9344558716 21.7031822205 29.2864189148 37.1711616516 45.6412124634 54.3806266785 62.8493003845 70.7326278687 78.3159790039 86.0852508545 13.8960437775 21.4714851379 28.5249004364 36.3333702087 45.2879753113 54.7356338501 63.6876487732 71.4931335449 78.5464477539 86.1234970093 13.8742113113 21.2919654846 28.0277328491 35.7745552063 45.0382194519 54.9866523743 64.246711731 71.9897460938 78.7250747681 86.1452560425 13.856502533 21.1759490967 27.7607097626 35.4925270081 44.9210281372 55.1044273376 64.5289459229 72.2564849854 78.8406906128 86.1628723145 13.8453922272 21.1163482666 27.6282558441 35.3633918762 44.870765686 55.1549339294 64.6582107544 72.3888244629 78.9000701904 86.1739425659 13.8454027176 21.1163921356 27.6283607483 35.3634719849 44.8708152771 55.1548805237 64.6581192017 72.3887252808 78.9000167847 86.1739349365 13.8565416336 21.1761684418 27.7612113953 35.493057251 44.9212341309 55.1042060852 64.5284118652 72.2559814453 78.8404769897 86.1628494263 13.8742589951 21.2923259735 28.0286273956 35.7755775452 45.0387763977 54.9860839844 64.2456970215 71.9888458252 78.7247085571 86.1451950073 13.896112442 21.4719810486 28.5264930725 36.3349838257 45.2887992859 54.7347755432 63.6860656738 71.4915390015 78.5459594727 86.1234359741 13.9345932007 21.7038326263 29.2883148193 37.1737632751 45.6423301697 54.3795585632 62.8466911316 70.7308273315 78.3153457642 86.085105896 
13.9344348907 21.7032318115 29.2867660522 37.1714363098 45.6412658691 54.3805847168 62.8490257263 70.7322921753 78.3159179688 86.0852661133 13.8960008621 21.4715900421 28.5251312256 36.3329086304 45.2875480652 54.7360649109 63.6881103516 71.4929199219 78.5463409424 86.1235275269 13.8741178513 21.2917785645 28.0270137787 35.7721939087 45.0360679626 54.9888114929 64.2490692139 71.990447998 78.7252578735 86.1453475952 13.8563318253 21.1750984192 27.7577610016 35.48462677 44.9143791199 55.1111068726 64.5368270874 72.259437561 78.8415374756 86.1630630493 13.8451509476 21.1148815155 27.6231250763 35.349647522 44.860824585 55.1649169922 64.6719360352 72.3939437866 78.9015274048 86.1741867065 13.8451623917 21.1149234772 27.6232280731 35.3497314453 44.8608779907 55.1648635864 64.671836853 72.3938446045 78.9014816284 86.1741714478 13.8563699722 21.175321579 27.7582645416 35.4851722717 44.9145965576 55.1108779907 64.536277771 72.2589111328 78.8413162231 86.1630249023 13.874162674 21.2921447754 28.0279102325 35.7732276917 45.0366516113 54.9882164001 64.248046875 71.9895629883 78.7249069214 86.1452941895 13.8960676193 21.4720878601 28.5267238617 36.3345222473 45.2883758545 54.735206604 63.6865234375 71.4913101196 78.5458526611 86.1234741211 13.9345703125 21.7038898468 29.2886543274 37.174041748 45.642375946 54.3795280457 62.8464126587 70.7304840088 78.315284729 86.0851287842 
13.9344348907 21.7032356262 29.2867736816 37.1714401245 45.6412658691 54.3805847168 62.8490219116 70.7322845459 78.31590271 86.0852661133 13.8959980011 21.4715957642 28.5251312256 36.3328819275 45.2875289917 54.7360877991 63.6881408691 71.4929046631 78.5463409424 86.1235427856 13.8741130829 21.2917671204 28.0269641876 35.7720832825 45.0359954834 54.9888763428 64.2491912842 71.9904937744 78.7252883911 86.1453475952 13.8563222885 21.1750392914 27.7575817108 35.4842071533 44.9140357971 55.1114578247 64.5372543335 72.2596130371 78.841583252 86.1630706787 13.8451366425 21.1147861481 27.6227970123 35.3487739563 44.8601875305 55.1655540466 64.6727981567 72.39427948 78.9016189575 86.1742019653 13.8451461792 21.1148300171 27.6229000092 35.3488693237 44.860244751 55.1654968262 64.6726989746 72.3941650391 78.9015884399 86.1742095947 13.8563604355 21.1752643585 27.7580814362 35.4847564697 44.9142456055 55.1112327576 64.5366973877 72.2590942383 78.8413772583 86.1630096436 13.8741569519 21.2921295166 28.0278568268 35.773109436 45.0365753174 54.9882926941 64.2481536865 71.9896240234 78.7249145508 86.1453018188 13.896065712 21.4720916748 28.5267333984 36.3345031738 45.2883605957 54.7352218628 63.6865463257 71.4912948608 78.5458526611 86.1234970093 13.9345703125 21.7038898468 29.2886676788 37.1740493774 45.6423721313 54.3795280457 62.8464050293 70.7304840088 78.315284729 86.0851287842 
13.9344348907 21.7032318115 29.2867698669 37.1714401245 45.6412582397 54.3805847168 62.8490219116 70.7322845459 78.3159179688 86.0852661133 13.8959970474 21.4715900421 28.5251255035 36.3328704834 45.2875213623 54.7360916138 63.6881484985 71.4929199219 78.546333313 86.1235427856 13.8741102219 21.2917613983 28.0269451141 35.7720527649 45.0359802246 54.9888916016 64.249206543 71.9905090332 78.7252807617 86.1453475952 13.8563194275 21.1750259399 27.7575435638 35.4841423035 44.9139938354 55.1114997864 64.5373077393 72.2596588135 78.8415985107 86.1630706787 13.8451356888 21.1147689819 27.6227416992 35.3486671448 44.8601264954 55.1656227112 64.6728897095 72.3943252563 78.9016342163 86.1741943359 13.8451442719 21.1148109436 27.6228466034 35.3487625122 44.8601799011 55.1655731201 64.6728134155 72.3942108154 78.9016036987 86.1741943359 13.8563575745 21.1752529144 27.7580451965 35.4846954346 44.9142074585 55.1112709045 64.5367507935 72.2591323853 78.8413772583 86.1630096436 13.8741588593 21.2921218872 28.0278377533 35.7730903625 45.0365600586 54.9883079529 64.2481842041 71.9896469116 78.7249221802 86.1453170776 13.8960647583 21.4720897675 28.5267219543 36.3344917297 45.2883453369 54.7352294922 63.6865730286 71.4913101196 78.5458526611 86.1234970093 13.9345703125 21.7038860321 29.2886638641 37.174041748 45.6423721313 54.3795280457 62.8464164734 70.7304840088 78.3152923584 86.0851287842 
13.9344329834 21.7032318115 29.2867698669 37.1714324951 45.641254425 54.3805847168 62.849029541 70.7322921753 78.3159179688 86.0852661133 13.8959960938 21.4715843201 28.5251178741 36.332862854 45.2875213623 54.7360992432 63.6881523132 71.4929275513 78.5463409424 86.1235427856 13.8741102219 21.2917518616 28.0269260406 35.7720375061 45.0359725952 54.988899231 64.2492294312 71.990524292 78.7252807617 86.1453552246 13.8563175201 21.1750183105 27.7575130463 35.4841156006 44.913974762 55.1115188599 64.5373382568 72.2596817017 78.8416137695 86.1630706787 13.8451347351 21.1147556305 27.6227092743 35.3486213684 44.8600997925 55.1656455994 64.6729507446 72.3943557739 78.9016571045 86.1741943359 13.8451461792 21.1148014069 27.6228084564 35.3487129211 44.8601493835 55.1655921936 64.6728668213 72.3942565918 78.9016113281 86.1741943359 13.8563575745 21.1752414703 27.758020401 35.484664917 44.9141998291 55.1112785339 64.5367889404 72.2591629028 78.8414001465 86.1630172729 13.8741569519 21.2921142578 28.0278263092 35.7730712891 45.0365600586 54.9883041382 64.2481994629 71.9896469116 78.724937439 86.1453170776 13.8960647583 21.4720897675 28.5267162323 36.3344802856 45.2883453369 54.7352333069 63.6865653992 71.491317749 78.5458450317 86.1234970093 13.9345693588 21.7038860321 29.2886562347 37.1740379333 45.6423721313 54.379524231 62.8464126587 70.7304840088 78.3152923584 86.0851287842 
13.9344329834 21.7032279968 29.2867622375 37.171421051 45.6412506104 54.3805923462 62.8490333557 70.7322921753 78.3159179688 86.0852661133 13.8959960938 21.4715824127 28.5251045227 36.3328552246 45.2875137329 54.7360992432 63.6881713867 71.4929275513 78.5463409424 86.1235427856 13.8741121292 21.2917480469 28.0269107819 35.7720222473 45.0359649658 54.9889068604 64.2492446899 71.9905548096 78.7252960205 86.1453552246 13.8563175201 21.1750068665 27.7574901581 35.484085083 44.9139556885 55.1115341187 64.5373687744 72.2596969604 78.8416290283 86.1630706787 13.8451328278 21.1147441864 27.622674942 35.3485794067 44.8600883484 55.1656723022 64.672996521 72.3943862915 78.9016647339 86.1742019653 13.8451433182 21.1147861481 27.6227779388 35.3486671448 44.8601379395 55.1656112671 64.6728973389 72.39427948 78.9016265869 86.1741943359 13.8563566208 21.1752338409 27.7579936981 35.4846343994 44.9141769409 55.1112976074 64.536819458 72.259185791 78.8414001465 86.1630172729 13.8741569519 21.2921085358 28.0278129578 35.7730522156 45.0365486145 54.988319397 64.2482147217 71.9896621704 78.7249298096 86.1453170776 13.8960638046 21.4720821381 28.5267066956 36.3344688416 45.2883377075 54.7352371216 63.6865844727 71.491317749 78.5458602905 86.1234970093 13.9345693588 21.7038841248 29.28865242 37.1740341187 45.6423683167 54.3795280457 62.8464241028 70.7304916382 78.3152999878 86.0851287842 
