2.26400327682 4.18782806396 7.45036220551 10.2570505142 11.6807661057 11.6796951294 10.2513952255 7.44225120544 4.18005275726 2.26387691498 2.28928494453 5.38109111786 10.3625183105 14.634677887 16.7967586517 16.7951202393 14.6261501312 10.3501634598 5.36909389496 2.28895306587 2.30818963051 6.19648361206 12.2276611328 17.3785552979 20.0557918549 20.0537395477 17.3681564331 12.2128362656 6.18173313141 2.30770134926 2.32028770447 6.65223360062 13.2059707642 18.77551651 21.7070274353 21.7047958374 18.7642211914 13.1899604797 6.63604974747 2.31969642639 2.3264336586 6.87107229233 13.6647195816 19.4247322083 22.468328476 22.4660129547 19.4130382538 13.6481637955 6.8542304039 2.32578969002 2.32642960548 6.870906353 13.6643781662 19.4242286682 22.467748642 22.4654388428 19.4125328064 13.6478214264 6.85406589508 2.32578516006 2.32026338577 6.65135288239 13.2041091919 18.7727928162 21.7038764954 21.7016410828 18.761505127 13.1881065369 6.63517713547 2.3196721077 2.30815315247 6.194896698 12.2241687775 17.3735866547 20.0492591858 20.0472431183 17.3632354736 12.2093677521 6.18015813828 2.30766439438 2.28922438622 5.37860012054 10.3566246033 14.6261024475 16.7867069244 16.785068512 14.6176319122 10.3442935944 5.36662387848 2.28889369965 2.26394748688 4.18415641785 7.44105958939 10.2424631119 11.6629037857 11.6620292664 10.2368478775 7.4330163002 4.17640972137 2.26382184029 
2.26514673233 4.05853652954 7.18676280975 9.96438407898 11.4339036942 11.4327630997 9.95863723755 7.17887830734 4.05118513107 2.26502418518 2.29128193855 5.25992870331 10.1385908127 14.4771528244 16.7513008118 16.7495555878 14.4682540894 10.1263151169 5.24828863144 2.29095172882 2.31481766701 6.10366487503 12.0992889404 17.379617691 20.2089996338 20.2068119049 17.3687019348 12.0843639374 6.08915042877 2.31430363655 2.32934045792 6.58574438095 13.1617240906 18.8848896027 21.9754829407 21.9731044769 18.8730335236 13.1455068588 6.56964111328 2.32871317863 2.33672332764 6.82192897797 13.6651773453 19.5873756409 22.7921161652 22.7896614075 19.5751094818 13.6483793259 6.8050775528 2.3360388279 2.33671808243 6.82174777985 13.6647987366 19.5868320465 22.7914943695 22.7890396118 19.5745716095 13.6480007172 6.80489635468 2.33603310585 2.32931137085 6.58479976654 13.1596851349 18.8819580078 21.9720973969 21.9697151184 18.8701190948 13.1434793472 6.56870555878 2.32868480682 2.31476974487 6.101998806 12.095541954 17.374250412 20.2019939423 20.199848175 17.3633861542 12.0806512833 6.08750152588 2.31425595284 2.29121184349 5.25735521317 10.1324367523 14.4681491852 16.7405052185 16.7387771606 14.4593439102 10.1202049255 5.24574804306 2.29088282585 2.26509404182 4.05496454239 7.1776175499 9.94969272614 11.415886879 11.4149770737 9.94397735596 7.16986036301 4.04766178131 2.26497149467 
2.26537895203 3.97321176529 7.01153230667 9.76168727875 11.2410354614 11.2398815155 9.75593757629 7.00379943848 3.96614384651 2.26526021957 2.29081606865 5.17031478882 9.97316932678 14.3244762421 16.664691925 16.6628665924 14.3154125214 9.96099185944 5.15893173218 2.29049611092 2.31453251839 6.02976703644 11.969833374 17.3256397247 20.2759895325 20.2736854553 17.3143405914 11.9549236298 6.01544761658 2.31402850151 2.33081173897 6.52605628967 13.0785112381 18.9187698364 22.1446704865 22.1421585083 18.9064712524 13.0621957779 6.51010799408 2.33018350601 2.33921194077 6.77038097382 13.6122436523 19.6663265228 23.0116024017 23.0090065002 19.6535892487 13.5952892303 6.75365066528 2.3385207653 2.33920574188 6.77019309998 13.6118402481 19.6657524109 23.0109424591 23.0083522797 19.6530170441 13.5948858261 6.75346279144 2.338514328 2.33077788353 6.52507972717 13.0763511658 18.9156742096 22.1410808563 22.1385688782 18.9033908844 13.060049057 6.50914287567 2.33015036583 2.31448173523 6.02805566788 11.9659824371 17.3199634552 20.2686653137 20.2664089203 17.3087215424 11.9511146545 6.01375341415 2.31397795677 2.29074692726 5.16771697998 9.96691989899 14.3152570724 16.6533203125 16.6515274048 14.3063135147 9.95480632782 5.15637588501 2.2904291153 2.26532864571 3.96974372864 7.00256729126 9.74696826935 11.2231349945 11.2222213745 9.74124240875 6.99500608444 3.96273803711 2.26521039009 
2.26545381546 3.92587280273 6.91368722916 9.64560604095 11.1264801025 11.1253166199 9.63987255096 6.90604019165 3.91896367073 2.26533770561 2.29042625427 5.11848783493 9.87646102905 14.2258281708 16.5926456451 16.5907802582 14.2167158127 9.86434745789 5.10725545883 2.29011297226 2.31408929825 5.98459720612 11.890422821 17.2728157043 20.2984447479 20.2960586548 17.2613239288 11.8755531311 5.97039699554 2.31359267235 2.33043718338 6.48981666565 13.018538475 18.9234962463 22.24559021 22.242975235 18.9109077454 13.002199173 6.47395992279 2.32981562614 2.33917760849 6.73956871033 13.5683021545 19.7044086456 23.1529312134 23.150226593 19.6913528442 13.55128479 6.72291469574 2.33849024773 2.33917117119 6.73937654495 13.5678834915 19.7038173676 23.1522426605 23.1495399475 19.6907577515 13.550868988 6.72272348404 2.33848404884 2.3304028511 6.48882198334 13.0163297653 18.9202861786 22.2418498993 22.239233017 18.9077186584 13.0000076294 6.47297525406 2.32978177071 2.31403827667 5.98286581039 11.8865337372 17.2669696808 20.2909069061 20.2885818481 17.2555274963 11.8717098236 5.96868515015 2.31354165077 2.2903585434 5.11588811874 9.87018299103 14.2165441513 16.5809822083 16.5791606903 14.2075643539 9.85813808441 5.10470294952 2.29004716873 2.26540517807 3.92247200012 6.90484380722 9.63088703156 11.108625412 11.1077070236 9.6251707077 6.89739561081 3.91563439369 2.26528906822 
2.26547384262 3.90063428879 6.86110877991 9.58234024048 11.0624895096 11.0613288879 9.57661819458 6.85350847244 3.89381051064 2.26535916328 2.2902033329 5.09043979645 9.82361316681 14.169593811 16.5458717346 16.5439910889 14.1604652405 9.81153678894 5.07928943634 2.28989362717 2.31378650665 5.9599943161 11.8466272354 17.2362327576 20.300743103 20.2983131409 17.2246627808 11.8317842484 5.94585895538 2.31329369545 2.33024835587 6.47052192688 12.9858961105 18.9206523895 22.3014163971 22.2987365723 18.9079055786 12.9695606232 6.45471191406 2.32963013649 2.33906173706 6.72424936295 13.5436878204 19.7238330841 23.2386608124 23.2358856201 19.7105827332 13.5266475677 6.70763206482 2.3383769989 2.33905506134 6.72405481339 13.5432624817 19.7232246399 23.237953186 23.2351760864 19.7099761963 13.52622509 6.70743751526 2.33837080002 2.33021378517 6.46951389313 12.9836654663 18.9173736572 22.2975635529 22.294883728 18.9046421051 12.9673452377 6.45371627808 2.32959651947 2.31373548508 5.95825099945 11.8427200317 17.2303028107 20.2930927277 20.2907161713 17.218788147 11.8279209137 5.94413757324 2.31324315071 2.29013586044 5.08783864975 9.81731796265 14.1602859497 16.5340919495 16.532251358 14.1512985229 9.80531692505 5.07673931122 2.28982853889 2.26542639732 3.89727067947 6.85233163834 9.5676279068 11.044667244 11.0437498093 9.56191921234 6.84494638443 3.89052271843 2.26531171799 
2.26548242569 3.88715195656 6.83294820786 9.54818153381 11.0274629593 11.0262985229 9.54246711731 6.82537269592 3.88037276268 2.26536822319 2.29007744789 5.07533454895 9.79498767853 14.1385383606 16.5182495117 16.5163612366 14.1294031143 9.78293037415 5.06422805786 2.28976941109 2.31361055374 5.9467458725 11.8226823807 17.21443367 20.2970809937 20.294626236 17.202835083 11.8078546524 5.9326467514 2.31312012672 2.33015441895 6.46030664444 12.9687223434 18.9173316956 22.3314781189 22.3287601471 18.9045009613 12.9523887634 6.4445233345 2.3295378685 2.33901429176 6.71639442444 13.5312519073 19.7343082428 23.2890510559 23.2862281799 19.7209472656 13.5142030716 6.69979429245 2.33833122253 2.33900737762 6.71619606018 13.5308246613 19.7336864471 23.2883243561 23.2855033875 19.7203273773 13.5137758255 6.69959831238 2.33832478523 2.33011960983 6.4592924118 12.9664745331 18.9140129089 22.3275547028 22.3248329163 18.9012012482 12.9501600266 6.4435210228 2.32950401306 2.31355953217 5.94499826431 11.8187608719 17.2084674835 20.2893638611 20.2869644165 17.1969203949 11.8039798737 5.93091917038 2.31306886673 2.29001045227 5.07273292542 9.78868579865 14.1292171478 16.5064163208 16.5045700073 14.12022686 9.77670764923 5.06167936325 2.28970479965 2.26543498039 3.88380742073 6.82420492172 9.53347301483 11.0096569061 11.0087394714 9.52777099609 6.81685304642 3.87710809708 2.26532053947 
2.26548671722 3.87980628014 6.81758069992 9.52944660187 11.0080766678 11.0069131851 9.52373695374 6.81001996994 3.87305212021 2.26537275314 2.29000592232 5.0670580864 9.77924442291 14.1212720871 16.502374649 16.5004844666 14.1121349335 9.7671995163 5.05597543716 2.28969931602 2.31351399422 5.93947124481 11.8094453812 17.2017707825 20.2928352356 20.2903575897 17.190158844 11.7946252823 5.92539215088 2.31302499771 2.3301012516 6.45477342606 12.9594020844 18.9148712158 22.3478012085 22.3450584412 18.9019947052 12.943072319 6.4390039444 2.32948589325 2.33899879456 6.71224546432 13.5248632431 19.7402000427 23.3186588287 23.3158111572 19.726776123 13.5078086853 6.69565582275 2.338316679 2.33899211884 6.71204662323 13.5244312286 19.739572525 23.3179244995 23.3150749207 19.72615242 13.5073823929 6.69545888901 2.33831000328 2.33006644249 6.4537563324 12.9571485519 18.911529541 22.3438339233 22.3410930634 18.8986759186 12.9408349991 6.43799829483 2.32945132256 2.3134624958 5.93771982193 11.805519104 17.1957893372 20.2850799561 20.2826690674 17.1842308044 11.7907485962 5.92366170883 2.3129734993 2.28993916512 5.06445646286 9.77293777466 14.111946106 16.4905147552 16.4886665344 14.1029539108 9.76097297668 5.0534286499 2.28963494301 2.26543927193 3.87647247314 6.80885982513 9.51474189758 10.9902868271 10.989364624 9.50904369354 6.8015255928 3.86980009079 2.26532554626 
