13.9351224899 21.7077007294 29.3012599945 37.1682739258 45.6352081299 54.3866729736 62.8521118164 70.7177886963 78.3114700317 86.0845794678 13.8964614868 21.4765548706 28.5307064056 36.3046760559 45.2698173523 54.7538833618 63.7162666321 71.4872741699 78.5413818359 86.1230926514 13.8745603561 21.2986755371 28.0454673767 35.7557182312 45.0266189575 54.998298645 64.2654342651 71.9719772339 78.7183914185 86.1449050903 13.8567180634 21.1892433167 27.797410965 35.5033836365 44.9268264771 55.0986061096 64.5179977417 72.2197875977 78.8274383545 86.1626739502 13.8449668884 21.1360359192 27.679315567 35.3961791992 44.8862876892 55.1393241882 64.6253204346 72.3377761841 78.8804473877 86.174369812 13.8449764252 21.1360702515 27.6794013977 35.3962478638 44.8863296509 55.139289856 64.62525177 72.3376998901 78.8804168701 86.1743469238 13.8567581177 21.1894454956 27.7978630066 35.5038337708 44.9269790649 55.0984230042 64.517539978 72.2193450928 78.8272476196 86.1626434326 13.8746051788 21.2990264893 28.0463027954 35.7566795349 45.0271606445 54.9977607727 64.2644729614 71.9711532593 78.7180480957 86.144859314 13.8965291977 21.4770545959 28.5323104858 36.3062820435 45.2706642151 54.7529907227 63.7147140503 71.4856872559 78.5408935547 86.1230239868 13.935256958 21.7083511353 29.3031311035 37.1710243225 45.6364097595 54.3855285645 62.8493499756 70.7160491943 78.3108520508 86.0844497681 
13.9349679947 21.7078533173 29.3027477264 37.1695022583 45.6353988647 54.3864746094 62.8508834839 70.7163085938 78.3113098145 86.0847320557 13.8961734772 21.4771060944 28.5315570831 36.3007087708 45.2663879395 54.7573318481 63.7202186584 71.4864044189 78.5408325195 86.1233673096 13.8740158081 21.2979011536 28.0414524078 35.7389144897 45.0099906921 55.0149993896 64.2821960449 71.9759521484 78.7191619873 86.1454391479 13.8558588028 21.1856479645 27.783536911 35.4589767456 44.8895111084 55.1360931396 64.5623092651 72.2336120605 78.8310165405 86.1635284424 13.8438129425 21.1298713684 27.6565132141 35.3288230896 44.837097168 55.1887626648 64.6925506592 72.360534668 78.8865814209 86.1755218506 13.8438262939 21.1299152374 27.6566085815 35.3289031982 44.8371505737 55.1886978149 64.6924819946 72.3604431152 78.8865432739 86.1755065918 13.8558988571 21.1858615875 27.7840137482 35.4595069885 44.8897247314 55.1358718872 64.5617675781 72.2331542969 78.8308105469 86.163482666 13.8740644455 21.2982501984 28.0423049927 35.7399368286 45.0106124878 55.0143814087 64.2811889648 71.9751281738 78.7188186646 86.1453933716 13.8962402344 21.477602005 28.5331687927 36.3023376465 45.267250061 54.7564163208 63.7186470032 71.4848175049 78.5403518677 86.1233062744 13.9351015091 21.7084960938 29.3045959473 37.1722602844 45.6365852356 54.3853569031 62.848110199 70.7145843506 78.3107070923 86.0846099854 
13.934967041 21.7078552246 29.302740097 37.1694946289 45.6353912354 54.3864746094 62.8508911133 70.7163085938 78.3113098145 86.0847320557 13.8961725235 21.4771022797 28.5315475464 36.3006973267 45.2663841248 54.7573394775 63.7202415466 71.4864196777 78.5408401489 86.1233673096 13.8740167618 21.2978992462 28.041437149 35.7389030457 45.0099983215 55.0150108337 64.2822113037 71.9759674072 78.7191772461 86.1454544067 13.8558578491 21.1856403351 27.7835140228 35.4589538574 44.8894996643 55.1361045837 64.5623245239 72.2336349487 78.8310241699 86.1635284424 13.8438148499 21.1298675537 27.6564884186 35.3287887573 44.8370857239 55.1887817383 64.6925888062 72.360534668 78.8865966797 86.1755218506 13.8438262939 21.1299057007 27.6565895081 35.3288726807 44.8371353149 55.1887207031 64.6925048828 72.360458374 78.8865585327 86.1754989624 13.8558979034 21.1858520508 27.7839927673 35.4594841003 44.8897094727 55.1358795166 64.5617904663 72.2331619263 78.8308258057 86.163482666 13.8740615845 21.2982444763 28.0422897339 35.7399215698 45.0106048584 55.0143814087 64.2812042236 71.975151062 78.7188262939 86.1453933716 13.8962402344 21.477596283 28.5331573486 36.3023223877 45.2672538757 54.7564239502 63.7186546326 71.4848327637 78.5403671265 86.1233062744 13.9350996017 21.7084960938 29.3045921326 37.1722488403 45.6365776062 54.3853569031 62.8481216431 70.7145996094 78.3107070923 86.0846099854 
13.934967041 21.7078514099 29.3027324677 37.1694908142 45.635383606 54.3864822388 62.8508987427 70.7163238525 78.3113174438 86.0847320557 13.8961715698 21.477098465 28.5315380096 36.3006858826 45.2663803101 54.7573356628 63.7202377319 71.4864425659 78.5408477783 86.1233673096 13.8740158081 21.2978878021 28.041425705 35.7388877869 45.0099868774 55.0150108337 64.2822265625 71.9759750366 78.7191848755 86.1454544067 13.8558568954 21.1856384277 27.783493042 35.4589271545 44.8894882202 55.1361198425 64.5623474121 72.2336502075 78.8310317993 86.1635284424 13.8438119888 21.1298542023 27.6564674377 35.328754425 44.8370666504 55.1887893677 64.6926269531 72.3605728149 78.8865966797 86.1755218506 13.8438243866 21.1298961639 27.6565589905 35.3288345337 44.8371162415 55.1887397766 64.6925430298 72.3604888916 78.8865737915 86.1755065918 13.8558979034 21.1858444214 27.7839698792 35.4594650269 44.8896942139 55.1358947754 64.5618133545 72.2331924438 78.8308258057 86.163482666 13.8740625381 21.298242569 28.0422744751 35.7399101257 45.0106010437 55.0143890381 64.2812194824 71.9751663208 78.7188339233 86.1453933716 13.8962402344 21.4775924683 28.5331459045 36.3023147583 45.2672462463 54.7564239502 63.7186660767 71.4848327637 78.5403671265 86.1233139038 13.9350996017 21.7084941864 29.3045787811 37.1722488403 45.6365699768 54.3853645325 62.8481216431 70.7146072388 78.3107147217 86.0846099854 
13.934967041 21.7078514099 29.302728653 37.1694793701 45.635383606 54.3864784241 62.8508987427 70.7163238525 78.3113174438 86.0847320557 13.8961725235 21.4770946503 28.5315284729 36.3006858826 45.2663726807 54.7573471069 63.7202568054 71.4864349365 78.5408477783 86.1233673096 13.8740158081 21.2978878021 28.0414104462 35.7388687134 45.009979248 55.0150260925 64.2822570801 71.9760131836 78.7191848755 86.1454544067 13.8558568954 21.1856269836 27.7834720612 35.4589004517 44.8894767761 55.1361351013 64.5623703003 72.2336807251 78.8310394287 86.1635284424 13.8438129425 21.1298465729 27.6564407349 35.3287162781 44.8370437622 55.1888237 64.6926651001 72.3606033325 78.8866119385 86.1755218506 13.8438224792 21.1298828125 27.6565322876 35.3287963867 44.837097168 55.1887588501 64.6925811768 72.3605194092 78.8865737915 86.1755065918 13.8558959961 21.185836792 27.7839508057 35.4594345093 44.8896865845 55.1359100342 64.5618438721 72.2332077026 78.8308410645 86.163482666 13.8740615845 21.2982349396 28.0422592163 35.7398872375 45.010597229 55.0144004822 64.2812347412 71.9751815796 78.7188339233 86.1453933716 13.8962402344 21.4775905609 28.5331382751 36.3023071289 45.2672424316 54.7564353943 63.7186698914 71.4848480225 78.5403747559 86.1233139038 13.9350996017 21.7084884644 29.3045787811 37.1722412109 45.6365737915 54.3853683472 62.8481330872 70.7146148682 78.3107223511 86.0846099854 
13.934967041 21.7078495026 29.3027210236 37.1694793701 45.635383606 54.3864784241 62.8509025574 70.7163314819 78.3113174438 86.0847320557 13.8961725235 21.4770927429 28.5315170288 36.3006668091 45.2663726807 54.7573509216 63.7202568054 71.4864501953 78.5408477783 86.1233673096 13.8740167618 21.2978801727 28.04139328 35.7388534546 45.0099754333 55.0150260925 64.2822647095 71.9760284424 78.7191925049 86.1454544067 13.8558549881 21.1856174469 27.7834529877 35.4588737488 44.889465332 55.1361503601 64.5624008179 72.2336959839 78.8310623169 86.1635284424 13.8438100815 21.1298370361 27.6564121246 35.3286743164 44.8370323181 55.188835144 64.6927032471 72.3606262207 78.8866271973 86.17552948 13.8438205719 21.1298732758 27.6565093994 35.3287582397 44.8370819092 55.1887741089 64.6926116943 72.3605422974 78.8865966797 86.1754989624 13.8558959961 21.1858272552 27.7839298248 35.4594039917 44.8896751404 55.1359214783 64.5618743896 72.2332305908 78.8308486938 86.163482666 13.8740606308 21.2982292175 28.0422401428 35.7398757935 45.0105895996 55.0144042969 64.2812652588 71.975189209 78.7188491821 86.1453933716 13.8962402344 21.4775886536 28.5331268311 36.3022994995 45.2672424316 54.7564353943 63.7186813354 71.4848556519 78.5403747559 86.1233139038 13.9350996017 21.7084884644 29.3045711517 37.1722335815 45.6365699768 54.3853683472 62.8481407166 70.7146148682 78.3107223511 86.0846099854 
13.934967041 21.7078456879 29.3027210236 37.1694717407 45.6353759766 54.3864898682 62.8509140015 70.7163314819 78.3113250732 86.0847320557 13.8961715698 21.4770870209 28.53150177 36.300655365 45.2663650513 54.7573509216 63.7202682495 71.4864730835 78.5408477783 86.1233673096 13.8740158081 21.2978725433 28.0413799286 35.7388381958 45.0099716187 55.0150337219 64.2822799683 71.9760360718 78.7191848755 86.1454544067 13.8558559418 21.1856098175 27.7834262848 35.4588508606 44.8894462585 55.1361541748 64.5624313354 72.2337265015 78.8310699463 86.1635284424 13.8438100815 21.129825592 27.6563911438 35.3286323547 44.8370132446 55.1888504028 64.6927566528 72.3606491089 78.8866271973 86.17552948 13.8438205719 21.129863739 27.6564826965 35.3287200928 44.8370666504 55.1887969971 64.6926651001 72.3605651855 78.8865966797 86.1754989624 13.8558940887 21.1858177185 27.7839050293 35.4593811035 44.8896636963 55.135925293 64.5618896484 72.233253479 78.8308563232 86.1634750366 13.8740606308 21.2982215881 28.0422267914 35.73985672 45.0105895996 55.0144119263 64.2812652588 71.975227356 78.7188415527 86.1453933716 13.8962402344 21.4775829315 28.533115387 36.3022918701 45.2672386169 54.7564430237 63.7186965942 71.4848709106 78.5403823853 86.1233139038 13.9350996017 21.7084884644 29.3045654297 37.1722335815 45.6365699768 54.3853683472 62.8481369019 70.7146072388 78.3107223511 86.0846099854 
