0.981398582458 1.00689411163 1.03561556339 1.09349346161 1.17128229141 1.17125654221 1.09342634678 1.02525091171 1.00686085224 0.981452703476 0.972231090069 1.04587292671 1.16349458694 1.28352999687 1.38291549683 1.38289690018 1.28345382214 1.09457874298 1.04581201077 0.972292363644 0.969399809837 1.13331484795 1.27107810974 1.39732336998 1.51197755337 1.51196265221 1.39725184441 1.19955337048 1.13323903084 0.969443500042 0.967953264713 1.178129673 1.31558895111 1.43045854568 1.53638136387 1.53636574745 1.43039906025 1.24462115765 1.17805933952 0.967986047268 0.966332912445 1.21330308914 1.35346853733 1.46538078785 1.55780935287 1.55779910088 1.46533215046 1.28188240528 1.21322906017 0.966363430023 0.966335177422 1.21329283714 1.35345923901 1.46535921097 1.55792307854 1.55790555477 1.46530425549 1.28188049793 1.21321880817 0.966365695 0.96795797348 1.17808175087 1.31555116177 1.43037056923 1.53649973869 1.53647351265 1.43030571938 1.24458611012 1.17801272869 0.967990934849 0.970038950443 1.10134315491 1.23360800743 1.35285234451 1.46795976162 1.46795868874 1.35277950764 1.16366016865 1.10127985477 0.970084071159 0.97223764658 1.04579126835 1.16337251663 1.28355062008 1.38299453259 1.38292765617 1.28351032734 1.09448587894 1.04573321342 0.972298145294 0.981426119804 1.00685501099 1.03559434414 1.09328138828 1.17109704018 1.17117869854 1.09315335751 1.02524244785 1.00682294369 0.981478273869 
0.981397092342 1.00665855408 1.0352640152 1.09299445152 1.17068517208 1.17065942287 1.09292769432 1.02490377426 1.00662541389 0.981451034546 0.972229123116 1.045540452 1.16307735443 1.28304731846 1.3824198246 1.38240146637 1.28297102451 1.09417593479 1.04547989368 0.972290277481 0.969388842583 1.13292515278 1.27065718174 1.39678251743 1.51237869263 1.5123642683 1.3967114687 1.19914591312 1.1328496933 0.969432592392 0.967932462692 1.17772912979 1.31516647339 1.42998242378 1.53859508038 1.5385812521 1.42992305756 1.24423801899 1.17765891552 0.967965483665 0.966305851936 1.21291434765 1.35304200649 1.46540772915 1.56368255615 1.56367337704 1.46535944939 1.28154170513 1.21284008026 0.966336429119 0.966308236122 1.21290409565 1.35303246975 1.46538734436 1.56383085251 1.56381297112 1.46533215046 1.28153908253 1.21282994747 0.966338813305 0.967937350273 1.17768120766 1.31512892246 1.42989528179 1.53874433041 1.53871881962 1.42983043194 1.24420309067 1.17761218548 0.967970490456 0.970029473305 1.1009567976 1.23316347599 1.35230374336 1.46746385098 1.46746325493 1.35223078728 1.16323411465 1.10089325905 0.970074355602 0.972235679626 1.04545903206 1.1629550457 1.28306853771 1.38249802589 1.38243114948 1.28302848339 1.09408318996 1.04540097713 0.972295999527 0.98142439127 1.00661957264 1.03524315357 1.09278178215 1.17050051689 1.1705827713 1.09265398979 1.02489578724 1.00658774376 0.981476485729 
0.981396913528 1.00665903091 1.03526473045 1.09299588203 1.17068696022 1.17066121101 1.09292900562 1.02490460873 1.00662589073 0.981450796127 0.972228944302 1.04554104805 1.16307842731 1.28304874897 1.38242137432 1.3824031353 1.28297257423 1.09417700768 1.04548060894 0.972290277481 0.969388723373 1.13292646408 1.27065861225 1.39678454399 1.51238071918 1.51236605644 1.39671337605 1.19914758205 1.13285088539 0.969432413578 0.967932224274 1.1777305603 1.31516838074 1.42998468876 1.53859734535 1.53858339787 1.42992520332 1.24423968792 1.17766034603 0.967965304852 0.966305613518 1.21291613579 1.35304415226 1.46541059017 1.5636934042 1.56368398666 1.46536254883 1.28154361248 1.2128418684 0.966336369514 0.966307938099 1.21290576458 1.35303449631 1.4653904438 1.56384181976 1.56382417679 1.4653352499 1.28154122829 1.21283149719 0.966338455677 0.967937231064 1.17768275738 1.31513082981 1.42989766598 1.53874707222 1.53872108459 1.42983269691 1.24420487881 1.17761361599 0.967970252037 0.970029354095 1.10095798969 1.2331649065 1.3523055315 1.46746587753 1.46746516228 1.35223281384 1.16323554516 1.10089457035 0.970074236393 0.972235500813 1.04545974731 1.16295599937 1.28307008743 1.38249945641 1.3824326992 1.2830299139 1.09408426285 1.04540193081 0.972295939922 0.981424331665 1.00661993027 1.03524398804 1.09278321266 1.17050242424 1.17058455944 1.09265530109 1.02489650249 1.0065882206 0.981476485729 
0.981396794319 1.00665938854 1.0352653265 1.09299731255 1.17068862915 1.17066287994 1.09293043613 1.02490520477 1.00662636757 0.981450796127 0.972228825092 1.04554188251 1.16307961941 1.28305029869 1.38242304325 1.38240468502 1.28297388554 1.09417796135 1.04548144341 0.972289979458 0.969388604164 1.13292789459 1.27066028118 1.39678668976 1.51238238811 1.51236784458 1.3967154026 1.19914901257 1.13285207748 0.969432353973 0.967932224274 1.17773199081 1.3151705265 1.42998695374 1.53860032558 1.5385863781 1.4299274683 1.24424147606 1.17766189575 0.967965126038 0.966305613518 1.21291792393 1.35304617882 1.4654135704 1.56370270252 1.56369328499 1.46536564827 1.28154551983 1.21284365654 0.966336131096 0.966307640076 1.21290755272 1.35303676128 1.46539330482 1.5638512373 1.56383323669 1.46533811092 1.28154313564 1.21283340454 0.966338396072 0.967937171459 1.17768442631 1.31513297558 1.42989993095 1.53875041008 1.53872466087 1.42983472347 1.24420678616 1.17761528492 0.967970073223 0.970029175282 1.10095918179 1.23316645622 1.35230779648 1.46746778488 1.46746695042 1.35223472118 1.16323673725 1.10089564323 0.970074117184 0.972235321999 1.0454608202 1.16295719147 1.28307151794 1.38250112534 1.38243436813 1.28303146362 1.09408521652 1.04540264606 0.972295880318 0.98142427206 1.00662016869 1.03524458408 1.09278464317 1.17050433159 1.17058634758 1.0926566124 1.02489721775 1.00658857822 0.98147636652 
0.98139667511 1.00665974617 1.03526604176 1.09299862385 1.17069065571 1.17066478729 1.09293174744 1.02490580082 1.00662660599 0.981450617313 0.972228646278 1.04554271698 1.16308069229 1.28305184841 1.38242471218 1.38240611553 1.28297543526 1.09417903423 1.04548227787 0.972289979458 0.969388484955 1.13292884827 1.27066218853 1.39678883553 1.51238465309 1.51236987114 1.39671742916 1.19915044308 1.132853508 0.969432234764 0.967931985855 1.17773389816 1.31517255306 1.42998921871 1.53860545158 1.53859138489 1.42992973328 1.24424338341 1.17766344547 0.967964947224 0.966305315495 1.21291983128 1.35304808617 1.46541655064 1.56371212006 1.56370270252 1.46536850929 1.2815476656 1.21284544468 0.966335833073 0.966307640076 1.21290922165 1.35303843021 1.46539628506 1.56386065483 1.56384265423 1.46534121037 1.2815451622 1.21283519268 0.966338098049 0.967936873436 1.17768585682 1.31513512135 1.42990231514 1.53875589371 1.53873002529 1.42983710766 1.2442085743 1.17761683464 0.967969834805 0.970029175282 1.10096025467 1.23316800594 1.35230958462 1.46746981144 1.46746921539 1.35223650932 1.16323816776 1.10089695454 0.970073997974 0.972235321999 1.04546129704 1.16295838356 1.28307294846 1.38250267506 1.38243603706 1.28303301334 1.0940861702 1.04540336132 0.972295701504 0.981424152851 1.00662052631 1.03524529934 1.09278583527 1.17050623894 1.17058813572 1.0926579237 1.02489769459 1.00658893585 0.981476247311 
0.981396555901 1.00665998459 1.0352666378 1.09299993515 1.17069232464 1.17066669464 1.09293305874 1.02490639687 1.00662708282 0.981450617313 0.972228705883 1.04554355145 1.16308200359 1.28305339813 1.3824262619 1.38240778446 1.28297674656 1.09418022633 1.04548287392 0.972289800644 0.969388484955 1.13293015957 1.27066349983 1.39679074287 1.51238644123 1.51237165928 1.39671957493 1.19915163517 1.1328548193 0.969432115555 0.967931807041 1.17773532867 1.31517457962 1.42999136448 1.53861153126 1.53859782219 1.42993211746 1.24424517155 1.1776651144 0.96796476841 0.966305136681 1.21292150021 1.35305047035 1.46541929245 1.5637216568 1.56371200085 1.46537148952 1.28154945374 1.21284723282 0.966335594654 0.966307401657 1.21291124821 1.35304105282 1.46539902687 1.56386995316 1.56385207176 1.46534383297 1.28154706955 1.21283686161 0.966338038445 0.967936694622 1.17768740654 1.31513702869 1.42990446091 1.53876316547 1.53873741627 1.42983961105 1.24421048164 1.17761838436 0.967969715595 0.970028817654 1.10096132755 1.23316943645 1.35231137276 1.46747195721 1.46747112274 1.35223841667 1.16323924065 1.10089790821 0.97007381916 0.97223508358 1.04546201229 1.16295957565 1.28307461739 1.3825044632 1.38243758678 1.28303420544 1.09408724308 1.04540419579 0.972295701504 0.981424152851 1.00662088394 1.0352460146 1.09278714657 1.17050790787 1.17058992386 1.09265935421 1.02489805222 1.00658917427 0.981476187706 
0.981396555901 1.00666046143 1.03526735306 1.09300112724 1.17069411278 1.17066836357 1.09293448925 1.02490699291 1.00662732124 0.981450617313 0.972228527069 1.0455442667 1.16308319569 1.28305459023 1.38242781162 1.38240945339 1.28297817707 1.09418118 1.04548370838 0.972289681435 0.969388246536 1.13293147087 1.27066504955 1.39679276943 1.512388587 1.51237404346 1.3967218399 1.19915318489 1.13285589218 0.969431817532 0.967931628227 1.1777368784 1.31517660618 1.42999386787 1.53861987591 1.53860592842 1.42993438244 1.24424695969 1.17766666412 0.96796476841 0.966304898262 1.21292328835 1.3530523777 1.46542227268 1.56373131275 1.5637216568 1.46537411213 1.28155136108 1.21284890175 0.966335475445 0.966307222843 1.21291291714 1.35304284096 1.46540188789 1.56387960911 1.56386172771 1.4653468132 1.28154909611 1.21283864975 0.966337740421 0.967936515808 1.17768883705 1.31513917446 1.42990684509 1.53877151012 1.53874576092 1.42984175682 1.24421215057 1.17761981487 0.967969417572 0.970028698444 1.10096263885 1.23317074776 1.35231328011 1.46747410297 1.46747338772 1.35224044323 1.16324043274 1.10089898109 0.970073699951 0.972234964371 1.04546284676 1.16296088696 1.2830760479 1.38250613213 1.3824390173 1.28303575516 1.09408831596 1.04540491104 0.972295463085 0.981424033642 1.00662136078 1.03524684906 1.09278845787 1.17050969601 1.17059159279 1.09266066551 1.02489888668 1.00658965111 0.981476128101 
