2.26557350159 3.8570971489 6.73480463028 9.450922966 11.0437355042 11.04246521 9.44495677948 6.72739934921 3.85045194626 2.26545882225 2.29139184952 5.05472660065 9.75990581512 14.3041276932 16.933555603 16.9314994812 14.2940988541 9.74772262573 5.04368925095 2.29107570648 2.31481456757 5.95235824585 11.867272377 17.5226383209 20.9586544037 20.9559669495 17.5098667145 11.8522167206 5.9381775856 2.31431722641 2.33192920685 6.48655605316 13.0539207458 19.2901000977 23.0705108643 23.0675735474 19.2759876251 13.0373191833 6.47062635422 2.33130168915 2.34112930298 6.75440502167 13.6368837357 20.1326313019 24.0514507294 24.048418045 20.1179695129 13.6195497513 6.73764228821 2.34043121338 2.34112215042 6.75419044495 13.6364183426 20.1319732666 24.0506858826 24.0476551056 20.1173095703 13.6190900803 6.73743009567 2.34042429924 2.33189296722 6.48544931412 13.0515089035 19.2865524292 23.0663375854 23.0633945465 19.2724647522 13.0349283218 6.46953392029 2.33126664162 2.31475901604 5.95038414001 11.8628978729 17.5161781311 20.9498176575 20.9472408295 17.5034351349 11.8478775024 5.93620920181 2.3142619133 2.29131698608 5.05173826218 9.75256538391 14.2935962677 16.9201316833 16.918132782 14.2837018967 9.74024200439 5.04064655304 2.29100131989 2.26551914215 3.85338783264 6.72500085831 9.43436145782 11.0234365463 11.0225315094 9.42785167694 6.71729660034 3.84665513039 2.26540184021 
2.26566338539 3.82952713966 6.67975378036 9.38524532318 10.9706840515 10.9694156647 9.37930297852 6.67238998413 3.82297372818 2.26555013657 2.29115200043 5.02272939682 9.70185279846 14.2390298843 16.865442276 16.8633861542 14.2290086746 9.68970680237 5.01178407669 2.29083967209 2.3143825531 5.9207649231 11.8104534149 17.4581718445 20.9107322693 20.9079914093 17.4453983307 11.7954378128 5.90666866302 2.31389045715 2.33142137527 6.45603656769 12.9979791641 19.2367172241 23.0800571442 23.0770168304 19.2225399017 12.9814186096 6.44018697739 2.33079957962 2.34064674377 6.7248468399 13.5823154449 20.0918941498 24.0987586975 24.0955982208 20.0770931244 13.5650215149 6.7081618309 2.33995437622 2.3406393528 6.72463178635 13.5818500519 20.0912189484 24.0979633331 24.0948066711 20.0764217377 13.5645589828 6.70795106888 2.33994722366 2.33138537407 6.45492696762 12.9955615997 19.2331371307 23.0757637024 23.072719574 19.2189846039 12.9790248871 6.43909215927 2.33076477051 2.31432747841 5.91878080368 11.8060665131 17.451675415 20.9017791748 20.8991508484 17.4389286041 11.7910881042 5.90468931198 2.31383562088 2.29107761383 5.01972293854 9.69446182251 14.228477478 16.8519325256 16.8499355316 14.2185897827 9.68216705322 5.00871753693 2.29076552391 2.26560974121 3.82582879066 6.66993570328 9.36863136292 10.9504308701 10.9495248795 9.36211395264 6.6622543335 3.8191819191 2.26549363136 
2.26566386223 3.82935786247 6.67941904068 9.38485336304 10.9702472687 10.9689788818 9.3789100647 6.67205572128 3.82280445099 2.26555037498 2.29115056992 5.0225353241 9.70150661469 14.2386474609 16.8650398254 16.862985611 14.2286233902 9.68936252594 5.01159095764 2.29083800316 2.31437945366 5.92057752609 11.810125351 17.4578018188 20.9104061127 20.9076652527 17.4450283051 11.7951087952 5.9064822197 2.31388783455 2.33141875267 6.45586204529 12.9976673126 19.236410141 23.0800762177 23.0770320892 19.2222290039 12.9811067581 6.44001293182 2.33079743385 2.34064364433 6.72468185425 13.5820178986 20.0916557312 24.0993289948 24.0961685181 20.0768508911 13.5647220612 6.70799684525 2.3399515152 2.34063720703 6.72446727753 13.5815505981 20.0909805298 24.098531723 24.0953788757 20.0761814117 13.5642604828 6.70778560638 2.33994412422 2.33138298988 6.45475196838 12.9952526093 19.2328300476 23.0757789612 23.0727329254 19.2186794281 12.9787130356 6.43891811371 2.33076238632 2.31432461739 5.91859340668 11.8057355881 17.4513072968 20.9014511108 20.8988265991 17.4385604858 11.7907562256 5.90450239182 2.31383299828 2.29107642174 5.01952838898 9.69411659241 14.2280921936 16.8515300751 16.8495330811 14.2182044983 9.68182086945 5.00852394104 2.2907640934 2.26561045647 3.82565951347 6.66960144043 9.3682384491 10.9499959946 10.9490890503 9.36172103882 6.66192054749 3.81901335716 2.2654941082 
2.26566386223 3.82936525345 6.67943716049 9.38488388062 10.970284462 10.9690160751 9.3789396286 6.67207431793 3.82281184196 2.2655506134 2.29115104675 5.02254772186 9.70153713226 14.2386894226 16.8650875092 16.8630332947 14.2286672592 9.68939304352 5.01160287857 2.29083824158 2.31438064575 5.92059612274 11.8101644516 17.457857132 20.9104728699 20.9077320099 17.4450836182 11.7951469421 5.90649986267 2.31388878822 2.33141946793 6.45588493347 12.9977140427 19.2364788055 23.080165863 23.0771217346 19.2222976685 12.9811553955 6.44003486633 2.33079767227 2.34064483643 6.72470664978 13.582069397 20.0917301178 24.099445343 24.0962905884 20.0769290924 13.5647745132 6.70802164078 2.33995199203 2.34063744545 6.72449207306 13.5816020966 20.0910568237 24.0986480713 24.095495224 20.076259613 13.5643119812 6.70780944824 2.33994483948 2.3313832283 6.45477390289 12.9952993393 19.2329006195 23.0758666992 23.0728206635 19.2187480927 12.978761673 6.43894004822 2.33076286316 2.31432533264 5.91861104965 11.805773735 17.4513645172 20.9015140533 20.8988876343 17.4386119843 11.7907953262 5.90452003479 2.31383347511 2.29107618332 5.01954126358 9.69414710999 14.2281370163 16.8515777588 16.8495807648 14.2182483673 9.68185138702 5.00853681564 2.29076433182 2.26561045647 3.82566690445 6.66962003708 9.36826896667 10.9500303268 10.9491243362 9.3617515564 6.66193914413 3.8190202713 2.2654941082 
2.26566410065 3.82937526703 6.67946338654 9.38492202759 10.970328331 10.9690580368 9.3789768219 6.67209911346 3.82282185555 2.2655506134 2.29115128517 5.022564888 9.70157337189 14.23873806 16.865146637 16.8630905151 14.2287158966 9.68942832947 5.01161956787 2.29083871841 2.31438088417 5.92061710358 11.8102111816 17.4579200745 20.9105396271 20.9078025818 17.4451503754 11.7951927185 5.90652084351 2.31388878822 2.33142018318 6.45590877533 12.9977693558 19.2365550995 23.0802574158 23.0772132874 19.2223758698 12.9812078476 6.44005918503 2.33079838753 2.34064531326 6.72473430634 13.5821275711 20.0918121338 24.0995540619 24.0963954926 20.0770149231 13.5648326874 6.70804929733 2.33995246887 2.34063839912 6.72451877594 13.5816583633 20.0911369324 24.0987567902 24.0956039429 20.0763397217 13.564371109 6.7078371048 2.33994555473 2.33138394356 6.45479869843 12.9953517914 19.2329750061 23.0759563446 23.0729141235 19.2188224792 12.9788141251 6.43896532059 2.33076381683 2.31432557106 5.91863250732 11.8058195114 17.4514274597 20.9015865326 20.8989562988 17.4386806488 11.7908401489 5.90454149246 2.31383395195 2.29107618332 5.01955795288 9.69418144226 14.2281847 16.8516349792 16.8496379852 14.2182979584 9.68188762665 5.00855255127 2.29076457024 2.26561069489 3.82567691803 6.66964483261 9.36830425262 10.9500741959 10.9491701126 9.36178684235 6.66196298599 3.81903076172 2.26549434662 
2.26566433907 3.82938575745 6.67948865891 9.38495826721 10.9703722 10.9691038132 9.3790140152 6.67212486267 3.82283210754 2.26555085182 2.29115128517 5.02258110046 9.70160961151 14.2387886047 16.8652000427 16.8631458282 14.228767395 9.68946552277 5.01163625717 2.29083848 2.31438112259 5.92063903809 11.810256958 17.4579868317 20.9106140137 20.9078788757 17.4452114105 11.7952404022 5.90654325485 2.31388926506 2.33142066002 6.45593500137 12.9978227615 19.2366294861 23.0803489685 23.0773048401 19.2224502563 12.9812631607 6.44008588791 2.3307993412 2.34064602852 6.72476100922 13.5821828842 20.0918960571 24.0996685028 24.0965061188 20.0770950317 13.5648889542 6.70807790756 2.33995342255 2.34063887596 6.72454690933 13.5817184448 20.0912208557 24.0988712311 24.0957107544 20.0764217377 13.5644283295 6.70786476135 2.33994674683 2.33138489723 6.45482444763 12.9954071045 19.2330513 23.076051712 23.073009491 19.2188987732 12.9788694382 6.43899106979 2.33076429367 2.3143260479 5.91865444183 11.8058652878 17.4514923096 20.9016590118 20.8990287781 17.4387435913 11.7908887863 5.90456390381 2.31383466721 2.29107689857 5.01957511902 9.69421863556 14.2282361984 16.8516921997 16.8496932983 14.2183475494 9.68192481995 5.00856971741 2.29076504707 2.26561069489 3.82568693161 6.66966962814 9.36834144592 10.9501209259 10.9492139816 9.36182403564 6.66198825836 3.81904172897 2.26549434662 
2.26566433907 3.82939600945 6.6795129776 9.38499450684 10.970416069 10.9691476822 9.3790512085 6.67214822769 3.82284259796 2.26555085182 2.29115152359 5.0225982666 9.70164394379 14.2388381958 16.8652553558 16.8632011414 14.2288169861 9.68950176239 5.01165246964 2.29083919525 2.31438159943 5.92066049576 11.8103027344 17.4580497742 20.9106826782 20.9079475403 17.4452762604 11.7952842712 5.90656423569 2.3138897419 2.33142161369 6.45595979691 12.9978742599 19.2367038727 23.0804405212 23.0774002075 19.2225246429 12.9813165665 6.4401102066 2.33079957962 2.34064674377 6.7247877121 13.5822401047 20.0919780731 24.099773407 24.0966148376 20.0771789551 13.5649461746 6.70810413361 2.3399541378 2.34064006805 6.72457361221 13.5817756653 20.0913009644 24.0989761353 24.0958213806 20.076505661 13.5644855499 6.70789241791 2.33994746208 2.33138513565 6.45485019684 12.9954586029 19.2331237793 23.0761451721 23.0730991364 19.2189731598 12.9789218903 6.43901538849 2.33076453209 2.3143260479 5.91867542267 11.8059120178 17.4515552521 20.901725769 20.8991031647 17.4388046265 11.7909326553 5.90458536148 2.31383514404 2.29107689857 5.01959085464 9.69425582886 14.2282848358 16.8517475128 16.8497486115 14.2183971405 9.68195915222 5.00858592987 2.29076552391 2.2656109333 3.82569718361 6.66969442368 9.36837863922 10.9501647949 10.9492588043 9.36186218262 6.66201257706 3.8190510273 2.26549458504 
