0.982356011868 1.00665283203 1.0305172205 1.07443320751 1.15423154831 1.15420198441 1.0743778944 1.022580266 1.00662434101 0.98240685463 0.973773002625 1.04893410206 1.15052735806 1.29844737053 1.43103837967 1.43100678921 1.29831445217 1.09896337986 1.04888451099 0.973830163479 0.971552312374 1.14145803452 1.26556420326 1.4194188118 1.57488703728 1.57485246658 1.4192763567 1.20867872238 1.14139211178 0.971589446068 0.969485282898 1.1879171133 1.31503689289 1.4571082592 1.59102571011 1.5909845829 1.45700466633 1.25725376606 1.18785583973 0.969516336918 0.967514634132 1.22495019436 1.35651564598 1.49390459061 1.60947906971 1.60944414139 1.49380862713 1.29787051678 1.22488331795 0.967546284199 0.967515349388 1.22493803501 1.35649812222 1.49388372898 1.60972058773 1.60967290401 1.49377644062 1.29786467552 1.22487139702 0.967546701431 0.969490766525 1.18786251545 1.31498801708 1.45696640015 1.59128189087 1.59121918678 1.45685827732 1.25721418858 1.18780231476 0.969521522522 0.971991598606 1.10961139202 1.22639787197 1.36856651306 1.52277898788 1.52276694775 1.36845088005 1.17152535915 1.10955739021 0.972031116486 0.973783612251 1.04883491993 1.15033054352 1.29841208458 1.43128859997 1.43116807938 1.29833006859 1.09883332253 1.04878497124 0.973842322826 0.982389330864 1.00661325455 1.03045475483 1.07433056831 1.15387535095 1.15387368202 1.07427859306 1.02254879475 1.00658524036 0.982441782951 
0.982318401337 1.00623095036 1.02998352051 1.07385897636 1.15356504917 1.15353548527 1.07380390167 1.02202403545 1.00620293617 0.982369363308 0.973726987839 1.04841065407 1.15004551411 1.29797422886 1.4304587841 1.43042743206 1.29784178734 1.0984300375 1.04836142063 0.973784208298 0.971496462822 1.14087414742 1.26504051685 1.41887831688 1.57932198048 1.57928776741 1.41873586178 1.20815432072 1.14080834389 0.97153365612 0.969429135323 1.18729269505 1.31441128254 1.45640826225 1.59555864334 1.59551894665 1.45630645752 1.25666928291 1.18723154068 0.969460129738 0.967461585999 1.22431111336 1.35578501225 1.4935593605 1.6166151762 1.61658108234 1.49346601963 1.29726529121 1.22424376011 0.967493236065 0.967462301254 1.22429895401 1.35576701164 1.49354124069 1.61693739891 1.61688768864 1.49343585968 1.29725968838 1.22423195839 0.967493772507 0.969434559345 1.18723893166 1.31436312199 1.45626974106 1.59589540958 1.59583032131 1.45616257191 1.25663125515 1.18717861176 0.969465255737 0.971936166286 1.10902416706 1.22583448887 1.36786139011 1.52202570438 1.52201414108 1.36774563789 1.17094910145 1.10897040367 0.97197586298 0.973738193512 1.04831361771 1.14984941483 1.29792976379 1.43068552017 1.43056499958 1.29784810543 1.09830117226 1.04826390743 0.973796844482 0.982352256775 1.00619351864 1.02992367744 1.07376432419 1.15324544907 1.15324449539 1.07371258736 1.02199470997 1.00616633892 0.982405006886 
0.9823179245 1.00622618198 1.02997732162 1.07385265827 1.15355908871 1.15352940559 1.07379770279 1.02201771736 1.0061981678 0.982368707657 0.973726391792 1.04840505123 1.15004050732 1.29796981812 1.43045294285 1.4304214716 1.29783725739 1.09842455387 1.04835605621 0.973783552647 0.971495628357 1.14086830616 1.26503670216 1.41887271404 1.57939755917 1.57936322689 1.41873025894 1.20814955235 1.14080238342 0.971532702446 0.969428002834 1.18728685379 1.31440675259 1.45640158653 1.59558916092 1.59554982185 1.45629954338 1.25666439533 1.18722558022 0.969459116459 0.967460811138 1.2243052721 1.35577774048 1.49355399609 1.61671507359 1.61668109894 1.493460536 1.29725933075 1.22423768044 0.9674924016 0.967461526394 1.22429311275 1.35575973988 1.49353635311 1.61704385281 1.61699390411 1.49343073368 1.29725420475 1.22422599792 0.967492938042 0.969433665276 1.18723297119 1.31435883045 1.45626306534 1.59593164921 1.59586668015 1.45615577698 1.25662648678 1.18717265129 0.969464480877 0.971935153008 1.1090182066 1.22582960129 1.367857337 1.5220195055 1.52200829983 1.36774158478 1.17094409466 1.10896408558 0.971974909306 0.973737478256 1.04830813408 1.14984452724 1.29792523384 1.43067979813 1.43055903912 1.2978438139 1.09829556942 1.04825854301 0.973796069622 0.982351779938 1.00618886948 1.02991771698 1.07375812531 1.1532394886 1.15323853493 1.07370638847 1.02198827267 1.00616145134 0.982404172421 
0.982317864895 1.00622630119 1.02997779846 1.07385325432 1.15356051922 1.15353083611 1.07379817963 1.02201783657 1.00619828701 0.982368648052 0.973726272583 1.04840552807 1.1500415802 1.29797112942 1.43045437336 1.4304227829 1.2978386879 1.09842503071 1.04835641384 0.973783433437 0.971495509148 1.14086914062 1.26503789425 1.4188747406 1.57941102982 1.57937669754 1.4187322855 1.20815086365 1.1408033371 0.971532523632 0.969427704811 1.18728804588 1.3144081831 1.45640361309 1.59559488297 1.59555578232 1.45630168915 1.25666618347 1.1872266531 0.96945899725 0.967460513115 1.2243065834 1.35577905178 1.49355626106 1.61672782898 1.61669373512 1.4934630394 1.29726088047 1.22423934937 0.967492222786 0.96746134758 1.22429418564 1.35576117039 1.49353861809 1.61705744267 1.61700797081 1.49343299866 1.29725551605 1.22422742844 0.967492759228 0.969433546066 1.18723404408 1.31436038017 1.45626521111 1.59593880177 1.59587371349 1.45615804195 1.25662827492 1.18717384338 0.969464242458 0.971935093403 1.10901892185 1.22583079338 1.36785900593 1.52202141285 1.52200996876 1.36774337292 1.17094504833 1.10896503925 0.971974670887 0.973737239838 1.04830861092 1.14984548092 1.29792666435 1.43068134785 1.43056070805 1.29784524441 1.09829616547 1.04825878143 0.973796010017 0.982351660728 1.00618886948 1.02991783619 1.07375872135 1.15324068069 1.15323996544 1.0737067461 1.02198839188 1.00616145134 0.982404112816 
0.98231780529 1.00622665882 1.0299782753 1.07385420799 1.15356254578 1.15353298187 1.07379889488 1.02201843262 1.00619840622 0.982368707657 0.973726034164 1.04840624332 1.15004265308 1.29797267914 1.4304561615 1.43042469025 1.29784023762 1.09842598438 1.04835700989 0.973783195019 0.971495270729 1.14087033272 1.26503968239 1.4188773632 1.57942032814 1.57938671112 1.4187349081 1.20815217495 1.14080452919 0.971532285213 0.969427525997 1.18728947639 1.31441032887 1.45640587807 1.59560239315 1.59556257725 1.45630383492 1.25666797161 1.18722808361 0.969458699226 0.967460274696 1.22430813313 1.35578119755 1.49355924129 1.61673688889 1.61670291424 1.493465662 1.29726290703 1.22424089909 0.967492043972 0.967460989952 1.22429597378 1.35576307774 1.4935413599 1.61706709862 1.61701750755 1.49343585968 1.29725754261 1.22422897816 0.9674924016 0.969433307648 1.18723547459 1.31436240673 1.45626759529 1.59594631195 1.59588122368 1.45616042614 1.25663006306 1.1871752739 0.96946400404 0.971934914589 1.10901975632 1.22583222389 1.36786079407 1.5220233202 1.52201187611 1.36774516106 1.17094624043 1.10896599293 0.971974670887 0.973737120628 1.04830908775 1.14984643459 1.29792833328 1.4306832552 1.43056249619 1.29784691334 1.09829711914 1.04825937748 0.973795950413 0.982351541519 1.0061892271 1.02991831303 1.07375943661 1.15324234962 1.15324127674 1.07370758057 1.02198886871 1.00616180897 0.982404053211 
0.982317626476 1.00622677803 1.02997875214 1.07385504246 1.15356421471 1.15353477001 1.07379984856 1.02201867104 1.00619876385 0.982368528843 0.973725914955 1.04840672016 1.15004372597 1.29797410965 1.43045783043 1.43042612076 1.29784178734 1.09842705727 1.04835772514 0.973783016205 0.971494972706 1.1408714056 1.26504099369 1.4188798666 1.57943022251 1.57939577103 1.41873729229 1.20815360546 1.14080560207 0.9715321064 0.969427406788 1.1872907877 1.31441223621 1.45640826225 1.59561014175 1.59557056427 1.4563062191 1.25666964054 1.18722963333 0.969458520412 0.967460155487 1.22430992126 1.35578334332 1.49356162548 1.616746068 1.61671221256 1.49346840382 1.29726457596 1.22424256802 0.96749162674 0.967460751534 1.22429764271 1.3557652235 1.49354410172 1.61707615852 1.61702644825 1.49343836308 1.29725944996 1.22423064709 0.9674924016 0.969433069229 1.18723702431 1.31436431408 1.45626986027 1.59595417976 1.59588885307 1.45616281033 1.25663173199 1.18717670441 0.969463825226 0.971934735775 1.10902094841 1.22583353519 1.36786258221 1.52202498913 1.52201342583 1.36774682999 1.1709471941 1.10896718502 0.971974372864 0.973737001419 1.04830980301 1.1498477459 1.297929883 1.43068516254 1.43056440353 1.29784834385 1.09829807281 1.04826009274 0.973795831203 0.98235142231 1.00618934631 1.02991867065 1.07376015186 1.15324389935 1.15324294567 1.07370817661 1.02198922634 1.00616204739 0.982403993607 
0.982317626476 1.00622713566 1.02997922897 1.07385575771 1.15356612206 1.15353679657 1.07380068302 1.02201914787 1.00619912148 0.982368528843 0.973725676537 1.04840755463 1.15004467964 1.29797577858 1.43045961857 1.43042802811 1.29784321785 1.09842801094 1.0483584404 0.973782896996 0.971494793892 1.14087259769 1.26504254341 1.4188824892 1.57943940163 1.57940554619 1.4187400341 1.20815527439 1.14080679417 0.971531867981 0.969427227974 1.18729245663 1.31441426277 1.45641076565 1.59561765194 1.59557831287 1.45630860329 1.25667142868 1.18723106384 0.969458281994 0.967459917068 1.22431159019 1.35578501225 1.49356460571 1.61675560474 1.61672127247 1.49347138405 1.29726660252 1.22424423695 0.96749162674 0.967460513115 1.22429955006 1.35576713085 1.49354708195 1.61708569527 1.6170361042 1.49344146252 1.29726135731 1.22423243523 0.967492043972 0.969432830811 1.18723845482 1.31436598301 1.45627248287 1.59596216679 1.5958969593 1.45616519451 1.25663352013 1.18717813492 0.969463646412 0.971934556961 1.10902190208 1.2258348465 1.36786437035 1.52202665806 1.52201545238 1.36774849892 1.1709485054 1.10896813869 0.971974372864 0.97373688221 1.04831027985 1.14984869957 1.29793143272 1.43068706989 1.43056631088 1.29785001278 1.09829902649 1.04826080799 0.97379553318 0.98235142231 1.00618970394 1.02991914749 1.07376110554 1.15324544907 1.15324449539 1.0737092495 1.02198958397 1.0061622858 0.982403993607 
