2.26394677162 4.15956354141 7.33197593689 10.1599559784 11.7552804947 11.7540597916 10.1537952423 7.32411003113 4.15193319321 2.26381993294 2.29013872147 5.37560987473 10.3482303619 14.8208417892 17.2474384308 17.2455978394 14.8114080429 10.3357572556 5.36363744736 2.28980016708 2.309653759 6.24106168747 12.3357019424 17.7662696838 20.7861385345 20.7838439941 17.7546749115 12.3206043243 6.22613430023 2.30915355682 2.32279491425 6.73321866989 13.388425827 19.2802200317 22.5779304504 22.5754451752 19.2676258087 13.3720388412 6.71676445007 2.32218265533 2.32931041718 6.97168445587 13.8833723068 19.9848957062 23.4059429169 23.4033756256 19.9718475342 13.8663988113 6.95454359055 2.32864046097 2.32930541039 6.97150087357 13.8829936981 19.9843330383 23.4053287506 23.402759552 19.971288681 13.866024971 6.95436096191 2.32863593102 2.32276844978 6.7322473526 13.3863840103 19.2772121429 22.5744247437 22.5719337463 19.2646369934 13.3700208664 6.71580886841 2.32215714455 2.30961441994 6.23932170868 12.3319034576 17.7608127594 20.7785682678 20.7763557434 17.749288559 12.3168563843 6.22441625595 2.30911493301 2.29007482529 5.37292718887 10.3417596817 14.811372757 17.2363014221 17.234457016 14.8020524979 10.3292818069 5.36095666885 2.28973793983 2.26388692856 4.15580415726 7.32243776321 10.1444940567 11.7352981567 11.7344112396 10.1381855011 7.31448793411 4.14815759659 2.26375937462 
2.26531457901 4.02051544189 7.06276369095 9.84328460693 11.4423074722 11.4410581589 9.83720111847 7.05509757996 4.01332998276 2.26519083977 2.29189419746 5.23664283752 10.0943632126 14.6127443314 17.1331386566 17.1312103271 14.6029939651 10.0820026398 5.22506999969 2.29156064987 2.31630373001 6.12251615524 12.1603307724 17.6995105743 20.8598957062 20.8574867249 17.687456131 12.1451740265 6.10789680481 2.31578040123 2.33215332031 6.63683366776 13.2988195419 19.3203887939 22.7608013153 22.7581825256 19.3073139191 13.2822599411 6.62052631378 2.33150720596 2.33986568451 6.89246702194 13.8406829834 20.0772781372 23.6401538849 23.6374549866 20.0637493134 13.8234987259 6.87536001205 2.33915781975 2.33985900879 6.89226341248 13.8402605057 20.076675415 23.6394786835 23.6367835999 20.0631465912 13.8230800629 6.87515878677 2.33915185928 2.33212304115 6.63579702377 13.2965717316 19.3171482086 22.7570533752 22.7544288635 19.3040943146 13.2800331116 6.61950445175 2.33147764206 2.31625056267 6.12070035934 12.1562595367 17.6936302185 20.8518390656 20.849521637 17.6816387177 12.1411619186 6.10610485077 2.31572818756 2.29182124138 5.23383808136 10.0875701904 14.6027708054 17.1210765839 17.1191673279 14.5931539536 10.075176239 5.22225189209 2.29148817062 2.26525688171 4.01678609848 7.05310916901 9.82740116119 11.4223403931 11.4214630127 9.82103157043 7.04528045654 4.0095615387 2.2651321888 
2.26576185226 3.92861032486 6.88378334045 9.63121700287 11.2210006714 11.219748497 9.62520217896 6.87624645233 3.92172193527 2.26564192772 2.29134893417 5.1345205307 9.9121723175 14.4319267273 17.0037994385 17.0018043518 14.4220695496 9.89991760254 5.12323379517 2.29102730751 2.31544923782 6.02767801285 11.9926261902 17.5927810669 20.8749294281 20.8723964691 17.5803604126 11.9775314331 6.01330661774 2.31494069099 2.33250951767 6.55035400391 13.1578502655 19.2892513275 22.8694705963 22.8667125702 19.2757320404 13.1412439346 6.53427886963 2.33187150955 2.34164738655 6.80991744995 13.726644516 20.0881729126 23.7937755585 23.7909374237 20.0741901398 13.7093467712 6.79303264618 2.34093880653 2.34163975716 6.80971002579 13.7261972427 20.0875434875 23.7930583954 23.7902202606 20.0735569 13.708902359 6.79282855988 2.34093213081 2.33247351646 6.54930019379 13.1555051804 19.2858543396 22.8655166626 22.8627586365 19.272359848 13.1389217377 6.53324222565 2.33183670044 2.31539535522 6.02582502365 11.9885091782 17.5865955353 20.8665657043 20.8641395569 17.5742263794 11.9734745026 6.01147699356 2.31488800049 2.29127597809 5.13165807724 9.90522766113 14.4217376709 16.9910125732 16.9890594482 14.412027359 9.89290714264 5.12034320831 2.29095578194 2.26570677757 3.92491340637 6.87404680252 9.61503505707 11.20109272 11.2001953125 9.60862541199 6.86628484726 3.91796469688 2.2655851841 
2.26594305038 3.87804985046 6.7841386795 9.5125579834 11.0939741135 11.0927238464 9.5065870285 6.77667713165 3.87132644653 2.26582479477 2.29098320007 5.07718324661 9.80906963348 14.3218259811 16.9074497223 16.9054203033 14.3119564056 9.79687404633 5.06605815887 2.29066848755 2.3147585392 5.97273397446 11.8958005905 17.5065975189 20.8648815155 20.8622646332 17.4940395355 11.8807640076 5.958507061 2.31425976753 2.33185720444 6.49957370758 13.0678100586 19.246181488 22.9314460754 22.9285774231 19.2323627472 13.0512371063 6.48362970352 2.33122825623 2.34096240997 6.76251506805 13.6418704987 20.0725727081 23.8916721344 23.8887081146 20.0582466125 13.6245718002 6.74575233459 2.3402633667 2.34095525742 6.76230573654 13.6414165497 20.0719242096 23.8909301758 23.887966156 20.0575942993 13.624121666 6.74554634094 2.3402569294 2.33182191849 6.49851083755 13.0654525757 19.2427101135 22.9273700714 22.9244995117 19.2289161682 13.0489053726 6.48258495331 2.33119392395 2.31470513344 5.97086572647 11.8916664124 17.5002746582 20.8563137054 20.8537921906 17.4877586365 11.8766918182 5.95666122437 2.31420683861 2.2909116745 5.07428741455 9.80204486847 14.3115816116 16.8943653107 16.8923835754 14.301858902 9.78976535797 5.0631275177 2.29059839249 2.26588892937 3.87436914444 6.77435588837 9.49623012543 11.0740709305 11.0731649399 9.48980331421 6.76663589478 3.86757588387 2.26576948166 
2.266020298 3.85335659981 6.73516130447 9.454205513 11.0304145813 11.0291652679 9.44825553894 6.72773694992 3.84671449661 2.2659034729 2.29078507423 5.04899787903 9.75806713104 14.2663402557 16.8529491425 16.8509140015 14.2564687729 9.74590301514 5.03795337677 2.29047346115 2.31440067291 5.94585180283 11.8478517532 17.4573898315 20.8453578949 20.8426799774 17.44480896 11.8328485489 5.93169784546 2.3139064312 2.33151721954 6.47495603561 13.0238189697 19.2161445618 22.9616317749 22.9586906433 19.202205658 13.007276535 6.45907688141 2.3308930397 2.34067821503 6.73971176147 13.6013536453 20.05717659 23.9480228424 23.944984436 20.0426712036 13.5840787888 6.72300767899 2.33998370171 2.34067130089 6.73950052261 13.6008968353 20.0565185547 23.947259903 23.9442214966 20.0420150757 13.5836296082 6.72279977798 2.33997654915 2.33148169518 6.47388887405 13.0214576721 19.2126274109 22.9574680328 22.9545269012 19.19871521 13.0049381256 6.45802736282 2.33085894585 2.31434774399 5.94397783279 11.8437099457 17.4510192871 20.8366622925 20.8340892792 17.4384765625 11.8287687302 5.92984342575 2.31385374069 2.2907140255 5.04608678818 9.75100135803 14.2560710907 16.8397598267 16.8377723694 14.2463464737 9.73874473572 5.03500270844 2.29040360451 2.2659676075 3.84968566895 6.72536325455 9.4378194809 11.0105352402 11.0096244812 9.43138408661 6.71766376495 3.84296894073 2.26584863663 
2.26605033875 3.8429145813 6.71437978745 9.42940235138 11.0031452179 11.0018968582 9.42346000671 6.70696973801 3.83630776405 2.26593399048 2.2906961441 5.03702259064 9.7362909317 14.2423820496 16.8286781311 16.8266410828 14.2325115204 9.72414112091 5.02601146698 2.29038596153 2.31425213814 5.93442296982 11.8274793625 17.4354000092 20.830947876 20.8282470703 17.4228134155 11.8124895096 5.9203004837 2.31375956535 2.33135533333 6.46453523636 13.005153656 19.2008285522 22.9731693268 22.9701900482 19.1868553162 12.9886226654 6.4486823082 2.33073306084 2.34055113792 6.7300786972 13.5841846466 20.0489521027 23.9754390717 23.9723510742 20.0343780518 13.5669183731 6.71339988708 2.33985853195 2.34054422379 6.72986698151 13.5837259293 20.0482902527 23.9746627808 23.971572876 20.0337162018 13.5664701462 6.71319103241 2.33985161781 2.33131980896 6.46346569061 13.0027866364 19.1972923279 22.968952179 22.965970993 19.1833496094 12.9862794876 6.44763278961 2.33069872856 2.31419944763 5.93254518509 11.8233337402 17.4290122986 20.8222103119 20.8196182251 17.4164676666 11.8084049225 5.9184422493 2.31370711327 2.29062509537 5.03410482407 9.72920703888 14.2321062088 16.8154506683 16.8134670258 14.2223806381 9.71695995331 5.02305364609 2.29031634331 2.26599788666 3.83924865723 6.70457363129 9.41299629211 10.9832782745 10.9823675156 9.40655899048 6.69688367844 3.83256411552 2.26587963104 
2.26606059074 3.8390686512 6.70671129227 9.42024421692 10.9930505753 10.9918012619 9.41430854797 6.69930934906 3.83247423172 2.26594424248 2.29066228867 5.03259801865 9.72821807861 14.2334384918 16.8195400238 16.8175067902 14.2235679626 9.71607112885 5.02159976959 2.29035305977 2.31419587135 5.9302072525 11.8199491501 17.4271697998 20.8244400024 20.8217353821 17.4145832062 11.8049592972 5.91609573364 2.31370425224 2.33129525185 6.46071434021 12.9983148575 19.1947116852 22.9765415192 22.9735412598 19.1807327271 12.9817867279 6.4448723793 2.33067369461 2.34049844742 6.7265625 13.5778989792 20.0452575684 23.986700058 23.9835910797 20.0306606293 13.5606393814 6.70989274979 2.33980631828 2.34049129486 6.72634983063 13.5774421692 20.0445919037 23.9859142303 23.9828090668 20.0299968719 13.5601873398 6.70968341827 2.33979916573 2.3312599659 6.45964479446 12.9959459305 19.1911735535 22.9722957611 22.9692955017 19.1772193909 12.9794435501 6.44381999969 2.33063912392 2.31414294243 5.92832756042 11.8157968521 17.4207763672 20.8156795502 20.8130779266 17.4082260132 11.8008728027 5.91423511505 2.31365156174 2.29059171677 5.02967739105 9.7211265564 14.2231559753 16.8063011169 16.804315567 14.213429451 9.7088842392 5.01863908768 2.29028344154 2.26600813866 3.83540439606 6.69690561295 9.40383338928 10.9731884003 10.972278595 9.3973941803 6.68921756744 3.82873177528 2.26588964462 
