2.26403665543 4.20068025589 7.43652296066 10.2724428177 11.807472229 11.806306839 10.2664375305 7.42851352692 4.19289684296 2.26390743256 2.28930306435 5.40866708755 10.4199008942 14.8191423416 17.1402454376 17.1384887695 14.8100738525 10.4074211121 5.39658260345 2.28896737099 2.3071038723 6.25439453125 12.3458051682 17.6695823669 20.5501194 20.5479278564 17.6584701538 12.330789566 6.23944282532 2.30661654472 2.31943702698 6.7281665802 13.3554201126 19.1201095581 22.270904541 22.2685260773 19.1080341339 13.3391714096 6.71176290512 2.31884145737 2.32551121712 6.95616388321 13.8278408051 19.7947463989 23.0651187897 23.0626602173 19.7822341919 13.8110332489 6.93910551071 2.32486081123 2.32550621033 6.95598888397 13.8274860382 19.7942142487 23.0645275116 23.0620689392 19.7817077637 13.8106794357 6.93893241882 2.3248565197 2.31941270828 6.72724294662 13.3534841537 19.1172542572 22.2675762177 22.2651977539 19.1051979065 13.3372554779 6.71085166931 2.31881737709 2.30706787109 6.25272274017 12.3421707153 17.6643733978 20.5430221558 20.5409030914 17.653345108 12.3272027969 6.23779582977 2.30658102036 2.28924560547 5.40607309341 10.4137134552 14.8101024628 17.1296596527 17.127910614 14.8011512756 10.4013023376 5.39402866364 2.28891134262 2.26397657394 4.19694852829 7.42708683014 10.2573308945 11.7882680893 11.7873916626 10.2513904572 7.41922092438 4.18921804428 2.26384806633 
2.26550912857 4.07527971268 7.18440008163 9.98970317841 11.5619134903 11.5606918335 9.98363304138 7.17660188675 4.0679063797 2.26538157463 2.29235124588 5.29202032089 10.2067670822 14.6702251434 17.0835208893 17.0816764832 14.6608314514 10.1943464279 5.28027677536 2.29201054573 2.31582403183 6.16083145142 12.2307443619 17.6554794312 20.6588878632 20.6565971375 17.6439552307 12.215628624 6.1460981369 2.31529998779 2.32947802544 6.65868234634 13.3187303543 19.1987762451 22.471321106 22.468837738 19.1862792969 13.3023023605 6.64231061935 2.32884478569 2.33638143539 6.90299749374 13.8312587738 19.9164657593 23.3077602386 23.3051986694 19.9035396576 13.814245224 6.88587617874 2.33569097519 2.3363764286 6.90280723572 13.830868721 19.9159011841 23.3071346283 23.3045730591 19.902973175 13.8138561249 6.88568735123 2.3356859684 2.32945108414 6.65769386292 13.3166227341 19.195734024 22.4678020477 22.4653186798 19.183265686 13.3002243042 6.64133787155 2.32881832123 2.31577706337 6.15908908844 12.226849556 17.6499271393 20.6513366699 20.6491203308 17.6384887695 12.2117977142 6.14438438416 2.31525349617 2.29228019714 5.28934860229 10.2002849579 14.6607456207 17.0722160339 17.0704021454 14.6515045166 10.187962532 5.27766275406 2.29194283485 2.26545095444 4.07163858414 7.17510843277 9.97443199158 11.5424633026 11.5415744781 9.96841621399 7.16753435135 4.06434488297 2.26532411575 
2.26592350006 3.97724032402 6.98839473724 9.76320266724 11.3371448517 11.3359146118 9.75716018677 6.98075151443 3.97018694878 2.26579999924 2.29192829132 5.18852186203 10.0196657181 14.5001478195 16.9833469391 16.9814281464 14.490562439 10.007349968 5.17707109451 2.29159975052 2.31585407257 6.07321310043 12.0758104324 17.583278656 20.7055568695 20.7031536102 17.5713634491 12.060710907 6.0587143898 2.3153398037 2.33260607719 6.58368015289 13.2131938934 19.2095489502 22.60912323 22.6065177917 19.1966323853 13.1966648102 6.5675163269 2.33196425438 2.34110999107 6.83507061005 13.7595748901 19.9692344666 23.4892539978 23.4865665436 19.9558734894 13.742401123 6.81811666489 2.34040307999 2.34110379219 6.83487319946 13.7591543198 19.9686431885 23.4885883331 23.485906601 19.9552879333 13.7419872284 6.81792163849 2.3403968811 2.33257055283 6.58266448975 13.2109518051 19.2063522339 22.6054286957 22.6028232574 19.1934680939 13.1944522858 6.56651735306 2.3319299221 2.31580090523 6.07142543793 12.0718173981 17.5774307251 20.6977214813 20.6954116821 17.5656089783 12.0567970276 6.0569601059 2.31528735161 2.29185819626 5.18583202362 10.0131072998 14.4904117584 16.9713840485 16.9695205688 14.4810180664 10.0009126663 5.17445373535 2.29153299332 2.26586866379 3.9737303257 6.97934246063 9.74786758423 11.3178672791 11.3169870377 9.74186706543 6.97199296951 3.96677923203 2.26574516296 
2.26611208916 3.91536045074 6.86471176147 9.61705493927 11.1874713898 11.1862401962 9.61104679108 6.85716581345 3.90850996971 2.26599168777 2.29144859314 5.11957740784 9.89454460144 14.3720521927 16.8873596191 16.8853912354 14.3624172211 9.88230705261 5.10832262039 2.29112839699 2.3151845932 6.00930547714 11.9637994766 17.503862381 20.7206077576 20.7181129456 17.4916934967 11.9487600327 5.99497509003 2.31468033791 2.33190989494 6.5271859169 13.1148862839 19.1880836487 22.7013320923 22.6986083984 19.1748104095 13.0983495712 6.51116609573 2.33127832413 2.34081983566 6.78337192535 13.6743249893 19.9810638428 23.6190910339 23.6162853241 19.9673290253 13.6571006775 6.76655292511 2.34012079239 2.34081315994 6.78317117691 13.6738929749 19.9804515839 23.6183986664 23.6155910492 19.9667186737 13.6566772461 6.76635456085 2.34011387825 2.33187413216 6.5261554718 13.1126070023 19.1847763062 22.6974887848 22.694770813 19.1715393066 13.0961027145 6.51015281677 2.33124399185 2.31513166428 6.00750160217 11.9597854614 17.4978199005 20.7125587463 20.7101573944 17.4857463837 11.9448299408 5.99320554733 2.3146276474 2.29138088226 5.11689376831 9.88796234131 14.362244606 16.874961853 16.8730659485 14.3528203964 9.87585735321 5.10572052002 2.29106426239 2.26605987549 3.91194486618 6.85582876205 9.60169029236 11.1682376862 11.1673488617 9.59571456909 6.84862470627 3.90521335602 2.26593923569 
2.26619362831 3.87954592705 6.79269266129 9.53072547913 11.096162796 11.0949335098 9.52474594116 6.78520393372 3.87281417847 2.2660741806 2.29115700722 5.07908725739 9.82035446167 14.2922477722 16.8166599274 16.814666748 14.2826023102 9.80816173553 5.06794881821 2.29084181786 2.31468200684 5.9716334343 11.8965606689 17.442281723 20.7146224976 20.7120552063 17.4300308228 11.881565094 5.95740318298 2.31418466568 2.33151531219 6.49406814575 13.0567617416 19.1622924805 22.7581481934 22.7553310394 19.1487979889 13.0402517319 6.4781332016 2.33088970184 2.34046459198 6.75381994247 13.6227350235 19.9784545898 23.707824707 23.7049236298 19.9644546509 13.6055164337 6.73707389832 2.33977079391 2.34045743942 6.75361728668 13.6223020554 19.9778289795 23.7071113586 23.704208374 19.9638328552 13.6050872803 6.73687553406 2.33976364136 2.33147978783 6.49302768707 13.0544662476 19.1589241028 22.7541904449 22.7513847351 19.1454677582 13.0379905701 6.47711133957 2.33085489273 2.31462931633 5.96982002258 11.8925333023 17.4361591339 20.7064113617 20.7039432526 17.423997879 11.877623558 5.95562601089 2.31413221359 2.29109048843 5.07640600204 9.81376171112 14.2824249268 16.8040943146 16.8021774292 14.2730007172 9.80171203613 5.06535482407 2.29077935219 2.26614236832 3.87618637085 6.7839140892 9.51535511017 11.07695961 11.0760726929 9.50940036774 6.77679443359 3.86958289146 2.26602363586 
2.26623392105 3.86101341248 6.75538253784 9.48556613922 11.0474433899 11.0462121964 9.47960281372 6.74792337418 3.85434317589 2.26611590385 2.29099321365 5.0579252243 9.7813205719 14.2494487762 16.7752742767 16.7732753754 14.2397975922 9.76915550232 5.04684782028 2.2906806469 2.31441569328 5.95190620422 11.8610172272 17.4061832428 20.7002906799 20.6976776123 17.3939170837 11.8460435867 5.93773031235 2.31392192841 2.33128738403 6.4769449234 13.0263824463 19.1436958313 22.7875022888 22.7846260071 19.130109787 13.0098905563 6.46105527878 2.33066487312 2.34030532837 6.73878717422 13.5967874527 19.9738502502 23.7614345551 23.7584590912 19.9597072601 13.579577446 6.72208023071 2.33961391449 2.34029841423 6.73858165741 13.5963487625 19.9732170105 23.7607002258 23.757730484 19.9590816498 13.5791501999 6.72187900543 2.33960723877 2.33125209808 6.47589921951 13.0240783691 19.1402854919 22.7834682465 22.7805995941 19.1267375946 13.0076198578 6.46002912521 2.33063006401 2.3143632412 5.95008802414 11.8569869995 17.4000301361 20.6919937134 20.6894798279 17.3878498077 11.8420972824 5.93594646454 2.3138692379 2.29092693329 5.05524635315 9.77472019196 14.239616394 16.7626399994 16.7607212067 14.2301969528 9.76270294189 5.04425954819 2.29061841965 2.26618361473 3.8576836586 6.74665641785 9.47019767761 11.028263092 11.0273742676 9.46425437927 6.73958206177 3.85114693642 2.26606607437 
2.26625037193 3.85239315033 6.73797655106 9.46443271637 11.0244626999 11.0232315063 9.45847702026 6.73053264618 3.84575128555 2.26613259315 2.29091310501 5.04802656174 9.7629776001 14.2290811539 16.7551231384 16.7531242371 14.2194299698 9.75082492828 5.03697824478 2.29060220718 2.31429290771 5.94266223907 11.844370842 17.3886051178 20.6893482208 20.6867198944 17.376329422 11.829407692 5.92850923538 2.31380081177 2.33117008209 6.46897697449 13.0122127533 19.1334838867 22.800075531 22.7971668243 19.1198616028 12.9957294464 6.45310878754 2.33054924011 2.34022974968 6.73185157776 13.5848350525 19.9711151123 23.7893238068 23.7863044739 19.9569091797 13.5676326752 6.71516227722 2.33953976631 2.34022259712 6.73164558411 13.584397316 19.9704742432 23.7885704041 23.7855567932 19.9562759399 13.5672016144 6.71495962143 2.33953285217 2.33113455772 6.46792888641 13.0099048615 19.1300544739 22.7959918976 22.7930870056 19.1164779663 12.9934539795 6.45207929611 2.330514431 2.31424045563 5.94084119797 11.8403320312 17.3824367523 20.6810131073 20.6784858704 17.3702507019 11.8254566193 5.92672491074 2.31374812126 2.2908475399 5.04534912109 9.75637531281 14.219247818 16.7424640656 16.7405452728 14.2098283768 9.74437332153 5.03439188004 2.29054021835 2.26620030403 3.84907627106 6.72927522659 9.44906425476 11.0052967072 11.0044088364 9.44312858582 6.72222137451 3.84257030487 2.26608276367 
