0.981376647949 1.01077950001 1.04410159588 1.10966324806 1.18793582916 1.18791341782 1.10958456993 1.03040885925 1.01073992252 0.981429815292 0.972431063652 1.05442225933 1.17520868778 1.29130613804 1.3851698637 1.38514375687 1.29123020172 1.10877108574 1.05435740948 0.972490727901 0.969979941845 1.14412856102 1.27835023403 1.39584350586 1.46818721294 1.46816265583 1.39576339722 1.20928573608 1.14405310154 0.97002017498 0.968402862549 1.18774867058 1.31998801231 1.42075896263 1.48251724243 1.48249745369 1.4206764698 1.25066411495 1.18767929077 0.968435227871 0.967058122158 1.22126793861 1.3523671627 1.43953967094 1.49048507214 1.49047040939 1.43946146965 1.28409361839 1.22119665146 0.96708792448 0.96706032753 1.22125852108 1.35235834122 1.43952608109 1.49052703381 1.49050951004 1.43944478035 1.28408908844 1.22118735313 0.967089951038 0.968406319618 1.18770182133 1.3199505806 1.4206829071 1.48254239559 1.48251843452 1.42059767246 1.25063169003 1.18763327599 0.968438446522 0.970468938351 1.11479496956 1.24336361885 1.36167514324 1.45440709591 1.45439755917 1.36158812046 1.17737913132 1.11472976208 0.970510900021 0.972437560558 1.05433630943 1.17509555817 1.29131293297 1.38524007797 1.385171175 1.29126906395 1.10867631435 1.05427384377 0.972496569157 0.981403052807 1.01073682308 1.04406559467 1.10947155952 1.18772888184 1.18780338764 1.10934233665 1.03039312363 1.01069831848 0.981454610825 
0.981234312057 1.00612092018 1.03732001781 1.10037899017 1.17740607262 1.17738318443 1.1003061533 1.02366483212 1.00608706474 0.981287002563 0.972216367722 1.04817259312 1.16779875755 1.28292167187 1.37966251373 1.37964248657 1.2828438282 1.10147619247 1.04811286926 0.972275972366 0.96954870224 1.13715279102 1.2707324028 1.39354324341 1.50643539429 1.50642085075 1.39346790314 1.20212292671 1.13707900047 0.969589352608 0.967709720135 1.18066263199 1.31342339516 1.42575669289 1.53198087215 1.53196716309 1.42569756508 1.24506747723 1.18059468269 0.96774315834 0.966169536114 1.2144395113 1.35000610352 1.45965981483 1.55563819408 1.55562841892 1.45961213112 1.28061842918 1.21436810493 0.966200828552 0.966171622276 1.21442997456 1.34999632835 1.45963859558 1.55577242374 1.55575478077 1.45958435535 1.28061532974 1.21435856819 0.96620285511 0.967713654041 1.18061614037 1.31338441372 1.4256696701 1.53212189674 1.532096982 1.42560482025 1.24503135681 1.18054926395 0.967747092247 0.970067799091 1.10779201984 1.2352411747 1.35096943378 1.46357738972 1.46357607841 1.35089385509 1.16973340511 1.10772883892 0.970110416412 0.972222983837 1.04808878899 1.16768193245 1.28294360638 1.37974405289 1.37967681885 1.28290104866 1.10137999058 1.04803168774 0.972281813622 0.981260120869 1.006082654 1.03729343414 1.10017609596 1.17721414566 1.17729175091 1.10004818439 1.02365672588 1.00604987144 0.981310963631 
0.981234192848 1.00611126423 1.03730499744 1.10035800934 1.17738080025 1.17735791206 1.10028481483 1.02365040779 1.00607740879 0.981287121773 0.972216427326 1.04815864563 1.16778111458 1.28290069103 1.37964105606 1.37962079048 1.28282320499 1.10145914555 1.04809892178 0.972275853157 0.969548344612 1.13713634014 1.27071464062 1.39351975918 1.5064021349 1.50638771057 1.39344406128 1.20210576057 1.13706254959 0.969589114189 0.967708706856 1.18064558506 1.31340575218 1.4257389307 1.53196763992 1.53195416927 1.42567980289 1.24505245686 1.18057751656 0.967742204666 0.966168105602 1.21442294121 1.34999370575 1.45966482162 1.55610597134 1.5560965538 1.45961666107 1.28060936928 1.21435165405 0.966199278831 0.966170072556 1.21441340446 1.34998345375 1.45964396 1.55625009537 1.55623233318 1.45958960056 1.28060626984 1.2143419981 0.966201424599 0.967712759972 1.18059897423 1.31336665154 1.4256516695 1.53210926056 1.53208446503 1.42558693886 1.24501657486 1.18053209782 0.967746257782 0.970067560673 1.10777533054 1.23522281647 1.35094630718 1.46355223656 1.46355128288 1.35087060928 1.16971600056 1.10771238804 0.97010999918 0.972223043442 1.0480748415 1.16766452789 1.28292286396 1.37972259521 1.37965524197 1.28288018703 1.10136282444 1.04801785946 0.972281992435 0.981260061264 1.00607299805 1.03727865219 1.1001547575 1.17718863487 1.17726647854 1.10002696514 1.02364218235 1.00604021549 0.981310963631 
0.981234192848 1.00611162186 1.03730583191 1.10035920143 1.1773827076 1.17735981941 1.10028612614 1.02365100384 1.00607788563 0.981287062168 0.972216248512 1.04815948009 1.16778230667 1.28290212154 1.37964260578 1.3796223402 1.28282463551 1.10146033764 1.04809963703 0.972275793552 0.969548165798 1.13713765144 1.27071630955 1.39352178574 1.50640392303 1.50638997555 1.39344620705 1.20210719109 1.1370639801 0.969588875771 0.967708706856 1.18064713478 1.31340777874 1.42574167252 1.53197002411 1.53195667267 1.42568218708 1.24505412579 1.18057906628 0.967742204666 0.966167986393 1.21442472935 1.34999549389 1.45966792107 1.55611562729 1.55610609055 1.45962023735 1.28061151505 1.21435320377 0.966199219227 0.966169953346 1.21441531181 1.34998548031 1.45964717865 1.5562595129 1.55624210835 1.4595927 1.2806084156 1.21434390545 0.96620118618 0.967712521553 1.18060076237 1.3133687973 1.4256541729 1.53211200237 1.53208708763 1.42558944225 1.24501848221 1.18053388596 0.967746019363 0.970067501068 1.10777664185 1.23522424698 1.35094857216 1.46355450153 1.46355307102 1.35087275505 1.16971743107 1.10771358013 0.970109939575 0.972222983837 1.04807603359 1.16766571999 1.28292429447 1.37972426414 1.3796569109 1.28288185596 1.10136365891 1.04801869392 0.972281813622 0.981260180473 1.00607311726 1.03727960587 1.10015630722 1.17719078064 1.17726838589 1.10002839565 1.02364313602 1.00604057312 0.981310844421 
0.98123395443 1.0061122179 1.03730666637 1.10036075115 1.17738437653 1.17736172676 1.10028779507 1.02365171909 1.00607824326 0.98128682375 0.972216188908 1.04816043377 1.16778361797 1.28290390968 1.3796441555 1.37962412834 1.28282618523 1.10146129131 1.04810070992 0.972275733948 0.969547986984 1.13713908195 1.27071809769 1.39352405071 1.50640594959 1.50639176369 1.3934482336 1.20210897923 1.1370652914 0.969588637352 0.967708528042 1.18064880371 1.3134098053 1.42574393749 1.53197240829 1.53195929527 1.42568469048 1.24505615234 1.18058085442 0.967741847038 0.966167747974 1.2144266367 1.34999811649 1.45967102051 1.55612504482 1.55611586571 1.45962333679 1.28061330318 1.21435523033 0.966199040413 0.966169953346 1.21441709995 1.34998762608 1.45965051651 1.55626940727 1.55625188351 1.45959591866 1.28061032295 1.2143458128 0.966201066971 0.967712402344 1.1806024313 1.31337070465 1.42565691471 1.53211474419 1.53208982944 1.42559206486 1.24502027035 1.18053555489 0.967746019363 0.970067441463 1.10777771473 1.23522591591 1.35095071793 1.46355676651 1.463555336 1.35087490082 1.16971886158 1.10771477222 0.970109760761 0.972222864628 1.04807662964 1.16766703129 1.28292584419 1.37972593307 1.37965857983 1.28288328648 1.10136508942 1.04801952839 0.972281694412 0.981259942055 1.00607359409 1.03728032112 1.10015785694 1.17719256878 1.17727017403 1.10002970695 1.02364373207 1.00604104996 0.981310904026 
0.981234133244 1.00611233711 1.03730738163 1.10036218166 1.17738616467 1.17736339569 1.10028922558 1.02365219593 1.00607860088 0.981286942959 0.972216129303 1.04816114902 1.16778481007 1.28290522099 1.37964606285 1.37962591648 1.28282749653 1.10146248341 1.04810142517 0.972275555134 0.969547986984 1.13714027405 1.27071964741 1.39352607727 1.50640809536 1.50639355183 1.39345037937 1.20211052895 1.1370664835 0.969588577747 0.967708349228 1.18065047264 1.31341171265 1.42574632168 1.53197526932 1.53196167946 1.42568707466 1.24505805969 1.18058228493 0.967741727829 0.96616756916 1.21442830563 1.34999978542 1.45967400074 1.55613422394 1.55612504482 1.45962619781 1.28061568737 1.21435689926 0.966198801994 0.966169595718 1.21441888809 1.34998989105 1.45965337753 1.55627858639 1.55626130104 1.45959877968 1.28061234951 1.21434760094 0.966200828552 0.96771222353 1.18060386181 1.313372612 1.42565906048 1.53211724758 1.53209233284 1.42559432983 1.24502205849 1.18053686619 0.967745780945 0.97006714344 1.10777902603 1.23522734642 1.35095274448 1.46355843544 1.46355724335 1.35087680817 1.16972053051 1.10771620274 0.970109701157 0.972222805023 1.04807770252 1.16766822338 1.28292751312 1.3797274828 1.37966036797 1.28288471699 1.10136592388 1.04802024364 0.972281634808 0.981259822845 1.00607395172 1.0372812748 1.10015904903 1.17719459534 1.17727220058 1.10003137589 1.02364456654 1.00604128838 0.981310784817 
0.981234073639 1.00611293316 1.03730797768 1.10036361217 1.17738807201 1.17736542225 1.10029053688 1.02365291119 1.0060788393 0.981286942959 0.972216010094 1.04816198349 1.16778588295 1.2829066515 1.37964761257 1.3796274662 1.28282916546 1.10146343708 1.04810225964 0.972275555134 0.969547748566 1.13714170456 1.27072131634 1.39352810383 1.50640976429 1.50639533997 1.39345252514 1.20211160183 1.13706767559 0.969588339329 0.9677079916 1.18065190315 1.31341385841 1.42574846745 1.53197777271 1.53196430206 1.42568922043 1.24505984783 1.18058383465 0.96774160862 0.966167330742 1.21443021297 1.35000193119 1.45967686176 1.55614352226 1.55613422394 1.45962917805 1.28061723709 1.21435880661 0.96619862318 0.966169476509 1.21442079544 1.34999203682 1.45965635777 1.55628824234 1.55627048016 1.4596016407 1.28061425686 1.21434915066 0.966200649738 0.967712104321 1.18060541153 1.31337463856 1.42566144466 1.53212022781 1.53209543228 1.42559659481 1.24502396584 1.18053841591 0.967745482922 0.970067083836 1.10778009892 1.23522877693 1.35095465183 1.46356058121 1.46355926991 1.35087871552 1.16972160339 1.10771715641 0.970109522343 0.972222626209 1.04807829857 1.16766941547 1.28292882442 1.37972915173 1.3796620369 1.28288638592 1.10136711597 1.04802107811 0.972281455994 0.981259763241 1.00607442856 1.03728175163 1.10016047955 1.17719638348 1.17727386951 1.1000328064 1.02364480495 1.00604176521 0.981310844421 
