2.26510715485 3.84219455719 6.71318769455 9.42536735535 10.9839859009 10.9827518463 9.41943836212 6.70578241348 3.83559203148 2.26499676704 2.29105210304 5.04213809967 9.72844219208 14.201748848 16.7348861694 16.732881546 14.1920642853 9.71632289886 5.03115415573 2.29073929787 2.31499171257 5.93274688721 11.8268785477 17.3795394897 20.6845989227 20.681968689 17.3672409058 11.8119001389 5.91865253448 2.31449460983 2.33165454865 6.46462488174 13.0088977814 19.1364250183 22.8082523346 22.8053321838 19.122795105 12.9923973083 6.44877386093 2.33103132248 2.34071111679 6.73144721985 13.5894079208 19.9808521271 23.8054656982 23.8024406433 19.9666366577 13.57218647 6.71475887299 2.34001898766 2.34070420265 6.73123788834 13.5889616013 19.9802055359 23.8047065735 23.8016891479 19.9659938812 13.5717477798 6.71455335617 2.34001207352 2.33161878586 6.46356153488 13.0065536499 19.1329650879 22.8041267395 22.8012161255 19.1193771362 12.9900875092 6.44772815704 2.33099603653 2.31493997574 5.93091678619 11.8227815628 17.3733234406 20.6762275696 20.6736927032 17.3611087799 11.807890892 5.91685771942 2.31444239616 2.29097962379 5.03946304321 9.72179603577 14.1918411255 16.722120285 16.7201957703 14.182384491 9.7098236084 5.02856874466 2.29067087173 2.2650604248 3.83888053894 6.70453357697 9.41003894806 10.9648523331 10.9639577866 9.40411186218 6.69752502441 3.83241534233 2.26495075226 
2.26510858536 3.83723545074 6.70284414291 9.41241645813 10.9696578979 10.9684257507 9.40649318695 6.69544792175 3.83064961433 2.26499891281 2.29099369049 5.03612995148 9.71686077118 14.1882038116 16.7209472656 16.7189388275 14.178519249 9.70475006104 5.02516412735 2.29068207741 2.31489491463 5.9267706871 11.8156261444 17.3664779663 20.6727752686 20.6701374054 17.354177475 11.8006601334 5.91269302368 2.31439900398 2.3315551281 6.45911216736 12.99858284 19.1259441376 22.806886673 22.8039531708 19.1123065948 12.98209095 6.44327640533 2.33093237877 2.34061670303 6.7263584137 13.5800094604 19.9735794067 23.815246582 23.8121910095 19.9593410492 13.562795639 6.70968389511 2.33992552757 2.34060955048 6.72614860535 13.5795612335 19.9729270935 23.8144741058 23.8114280701 19.958694458 13.5623550415 6.70947694778 2.33991861343 2.33151936531 6.45804595947 12.9962358475 19.1224765778 22.8027267456 22.7997951508 19.1088829041 12.9797773361 6.44222736359 2.33089756966 2.3148431778 5.92493963242 11.8115272522 17.3602523804 20.6643829346 20.6618423462 17.3480434418 11.7966499329 5.91089725494 2.31434750557 2.29092168808 5.03345584869 9.71021270752 14.1782951355 16.7081680298 16.706243515 14.1688404083 9.69825077057 5.02258062363 2.29061317444 2.26506233215 3.83392953873 6.69420528412 9.39709091187 10.9505386353 10.9496440887 9.39116954803 6.68720817566 3.82748198509 2.26495242119 
2.26510858536 3.83723688126 6.70285177231 9.41243076324 10.9696769714 10.9684429169 9.40650749207 6.69545507431 3.83065128326 2.26499891281 2.29099392891 5.03613519669 9.71687602997 14.1882266998 16.7209777832 16.7189712524 14.1785421371 9.70476436615 5.02517032623 2.29068207741 2.31489515305 5.92678117752 11.8156509399 17.3665142059 20.6728229523 20.6701869965 17.3542137146 11.8006849289 5.91270256042 2.31439971924 2.33155560493 6.45912742615 12.9986171722 19.126001358 22.8069725037 22.8040351868 19.112361908 12.9821252823 6.44329023361 2.33093309402 2.34061765671 6.72637701035 13.5800504684 19.9736499786 23.8153858185 23.8123340607 19.9594135284 13.562836647 6.70970201492 2.33992648125 2.34061026573 6.72616767883 13.5796031952 19.9729995728 23.8146152496 23.8115692139 19.9587688446 13.5623970032 6.70949554443 2.33991909027 2.33151984215 6.45806026459 12.9962720871 19.1225337982 22.8028106689 22.7998790741 19.1089363098 12.9798116684 6.44224357605 2.33089804649 2.31484389305 5.92495059967 11.8115558624 17.3602905273 20.6644268036 20.6618862152 17.348077774 11.7966747284 5.91090774536 2.31434798241 2.29092168808 5.03346204758 9.71022987366 14.1783189774 16.70819664 16.7062721252 14.1688652039 9.69826602936 5.02258682251 2.29061365128 2.26506209373 3.8339304924 6.69421243668 9.39710521698 10.9505548477 10.9496612549 9.3911819458 6.68721580505 3.82748413086 2.26495242119 
2.26510858536 3.83724832535 6.70287847519 9.41246986389 10.9697208405 10.9684877396 9.40654563904 6.69548082352 3.83066248894 2.26499891281 2.29099392891 5.03615283966 9.71691226959 14.1882781982 16.721031189 16.7190246582 14.1785945892 9.70480060577 5.02518749237 2.29068207741 2.31489562988 5.92680311203 11.815694809 17.3665771484 20.6728935242 20.670255661 17.3542785645 11.8007326126 5.91272497177 2.31439971924 2.33155632019 6.45915317535 12.998673439 19.1260757446 22.8070640564 22.8041210175 19.1124362946 12.982178688 6.44331645966 2.33093380928 2.34061813354 6.72640514374 13.5801105499 19.9737319946 23.8154888153 23.8124408722 19.9594936371 13.5628938675 6.70973014832 2.33992695808 2.34061098099 6.72619581223 13.579662323 19.9730815887 23.8147258759 23.811674118 19.9588489532 13.5624551773 6.70952415466 2.33992028236 2.3315205574 6.45808553696 12.9963226318 19.1226081848 22.802898407 22.7999668121 19.1090106964 12.9798641205 6.44226789474 2.33089900017 2.31484460831 5.92497158051 11.8116006851 17.3603515625 20.6644973755 20.6619567871 17.3481407166 11.7967195511 5.9109287262 2.31434822083 2.29092168808 5.03347921371 9.71026706696 14.1783695221 16.7082538605 16.7063274384 14.1689157486 9.69830608368 5.02260398865 2.29061412811 2.26506233215 3.83394193649 6.69423913956 9.39714336395 10.9506006241 10.9497051239 9.39122200012 6.6872420311 3.8274948597 2.26495242119 
2.26510882378 3.83725976944 6.70290613174 9.41250801086 10.9697666168 10.9685325623 9.40658378601 6.69550895691 3.83067297935 2.26499915123 2.29099416733 5.0361700058 9.71695041656 14.188325882 16.7210865021 16.7190818787 14.1786432266 9.70484161377 5.02520465851 2.29068255424 2.31489610672 5.9268245697 11.8157444 17.3666400909 20.6729602814 20.6703243256 17.3543395996 11.8007774353 5.91274595261 2.31440019608 2.33155679703 6.45917892456 12.9987249374 19.1261482239 22.8071460724 22.8042125702 19.1125144958 12.9822320938 6.44334173203 2.33093428612 2.34061908722 6.72643280029 13.580165863 19.9738140106 23.8155994415 23.8125495911 19.9595775604 13.5629520416 6.70975780487 2.33992767334 2.34061169624 6.72622394562 13.5797176361 19.9731636047 23.8148326874 23.8117828369 19.9589309692 13.5625123978 6.70955181122 2.3399207592 2.33152103424 6.458111763 12.9963760376 19.1226806641 22.8029880524 22.8000564575 19.1090869904 12.9799184799 6.44229412079 2.33089947701 2.31484484673 5.92499399185 11.8116474152 17.3604183197 20.6645641327 20.662027359 17.3482017517 11.7967681885 5.91095066071 2.31434893608 2.29092240334 5.03349590302 9.71030426025 14.1784191132 16.7083072662 16.7063827515 14.1689662933 9.69834327698 5.02262115479 2.29061436653 2.26506233215 3.83395338058 6.69426631927 9.39718151093 10.9506435394 10.9497499466 9.39126110077 6.68726873398 3.82750606537 2.26495242119 
2.26510882378 3.83727025986 6.7029337883 9.41254711151 10.9698095322 10.9685783386 9.40662384033 6.69553613663 3.83068466187 2.26499915123 2.29099464417 5.0361866951 9.71698856354 14.1883773804 16.7211418152 16.7191352844 14.1786956787 9.70487880707 5.02522039413 2.29068279266 2.31489706039 5.92684650421 11.815788269 17.3667030334 20.6730327606 20.6703929901 17.3544044495 11.800825119 5.91276836395 2.31440043449 2.33155751228 6.45920372009 12.9987802505 19.1262226105 22.8072376251 22.8043022156 19.1125850677 12.9822874069 6.44336605072 2.33093500137 2.34061956406 6.72645998001 13.5802230835 19.973897934 23.8157062531 23.8126544952 19.9596614838 13.5630092621 6.70978593826 2.33992791176 2.3406124115 6.72625112534 13.5797758102 19.9732456207 23.8149375916 23.8118896484 19.9590167999 13.5625696182 6.7095785141 2.33992123604 2.33152198792 6.45813703537 12.9964323044 19.122756958 22.8030796051 22.8001480103 19.109161377 12.9799728394 6.44231939316 2.33089971542 2.31484532356 5.92501497269 11.8116931915 17.3604793549 20.6646327972 20.6620979309 17.3482666016 11.7968130112 5.91097259521 2.3143491745 2.29092240334 5.03351306915 9.71034240723 14.1784706116 16.7083644867 16.7064380646 14.1690158844 9.6983795166 5.02263784409 2.29061484337 2.26506257057 3.83396434784 6.69429445267 9.39722061157 10.9506883621 10.9497947693 9.39129924774 6.68729639053 3.82751750946 2.26495265961 
2.26510906219 3.83728170395 6.70295953751 9.41258621216 10.9698543549 10.9686203003 9.4066619873 6.69556283951 3.83069586754 2.26499915123 2.290995121 5.03620386124 9.71702575684 14.1884298325 16.7211971283 16.7191905975 14.1787443161 9.70491504669 5.02523851395 2.29068279266 2.31489706039 5.92686700821 11.8158378601 17.3667640686 20.6731014252 20.6704597473 17.3544654846 11.8008699417 5.91279029846 2.31440067291 2.33155822754 6.45922851562 12.9988336563 19.1262969971 22.8073253632 22.8043861389 19.1126613617 12.9823389053 6.44339227676 2.33093547821 2.34062075615 6.72648859024 13.580283165 19.97397995 23.8158149719 23.8127613068 19.9597434998 13.5630655289 6.70981216431 2.33992910385 2.34061312675 6.72627735138 13.5798330307 19.9733295441 23.8150482178 23.8119983673 19.9590988159 13.5626277924 6.70960617065 2.33992218971 2.33152198792 6.45816230774 12.9964847565 19.122833252 22.8031673431 22.8002357483 19.1092338562 12.9800262451 6.44234418869 2.33090043068 2.31484603882 5.92503643036 11.8117361069 17.3605422974 20.6647052765 20.6621665955 17.3483295441 11.7968606949 5.91099452972 2.31434988976 2.29092264175 5.03353071213 9.71037864685 14.1785202026 16.7084178925 16.706495285 14.1690683365 9.6984167099 5.02265501022 2.29061532021 2.26506257057 3.83397555351 6.69432020187 9.39725971222 10.9507331848 10.949839592 9.39133739471 6.68732261658 3.82752799988 2.26495265961 
