14.0007410049 13.7809419632 13.0334300995 11.8761510849 11.1456413269 11.1462535858 11.8789081573 13.036028862 13.78221035 14.0007648468 21.989320755 21.6022319794 20.5348091125 19.0093536377 18.0313987732 18.0322093964 19.0129642487 20.5383300781 21.6041622162 21.9894180298 29.9812812805 29.5286426544 28.5688438416 27.297504425 26.4504470825 26.4511394501 27.3005504608 28.5718097687 29.5305747986 29.981426239 37.9840393066 37.6524085999 37.0237236023 36.2432556152 35.7301101685 35.7305259705 36.2451095581 37.0255851746 37.6537246704 37.9841766357 45.9992256165 45.8771743774 45.6593017578 45.4002037048 45.2315406799 45.2316703796 45.4008102417 45.6599311829 45.8776359558 45.9992828369 54.0208282471 54.1435279846 54.3625831604 54.6230697632 54.7928352356 54.7926864624 54.6224441528 54.3619422913 54.1430587769 54.0207710266 62.0359649658 62.3680458069 62.9977493286 63.7795677185 64.2936706543 64.2932434082 63.7777061462 62.9958839417 62.3667259216 62.0358428955 70.0387115479 70.4914321899 71.4518661499 72.7246398926 73.5718154907 73.5711669922 72.7216491699 71.4489135742 70.4895019531 70.0385513306 78.0306549072 78.4173049927 79.484664917 81.0107727051 81.9887008667 81.9878997803 81.0073013306 79.4811630249 78.4153747559 78.0305557251 86.0192489624 86.2385635376 86.9842529297 88.1382141113 88.8664627075 88.8662185669 88.1353149414 86.9816513062 86.2372970581 86.0192337036 
14.0005702972 13.7799968719 13.0325393677 11.8751878738 11.144651413 11.1452636719 11.8779430389 13.0351381302 13.7812681198 14.0005950928 21.9891338348 21.6008090973 20.5319766998 19.0032577515 18.0220012665 18.0228176117 19.0068759918 20.5355014801 21.6027450562 21.989233017 29.9811000824 29.5269317627 28.5643978119 27.2868614197 26.4303665161 26.4310798645 27.2899284363 28.5673751831 29.5288734436 29.9812431335 37.9839172363 37.6509857178 37.0194778442 36.2310218811 35.7066078186 35.7070465088 36.2329025269 37.0213470459 37.652305603 37.9840507507 45.9991722107 45.8765983582 45.6575241089 45.3944969177 45.2218589783 45.2219924927 45.3951187134 45.6581573486 45.8770675659 45.9992256165 54.0208778381 54.1441078186 54.3643722534 54.6288070679 54.8026161194 54.8024673462 54.6281661987 54.3637161255 54.1436271667 54.020816803 62.0361022949 62.3694763184 63.0020065308 63.7917976379 64.3171463013 64.3167114258 63.7899131775 63.0001335144 62.3681526184 62.0359649658 70.0388946533 70.4931335449 71.4562988281 72.7352828979 73.591835022 73.591178894 72.7322616577 71.4533462524 70.4912109375 70.038734436 78.0308380127 78.4187316895 79.4874954224 81.0168609619 81.9980773926 81.997253418 81.013381958 79.4839782715 78.4168014526 78.03074646 86.0194320679 86.2395095825 86.9851455688 88.1391677856 88.86743927 88.8671951294 88.1362533569 86.9825668335 86.238243103 86.0194015503 
14.0005693436 13.7799892426 13.0325250626 11.8751621246 11.144618988 11.1452312469 11.8779182434 13.0351247787 13.7812604904 14.0005931854 21.9891338348 21.6007995605 20.5319461823 19.0031967163 18.0219230652 18.0227355957 19.0068149567 20.5354747772 21.6027317047 21.9892349243 29.9811000824 29.5269184113 28.5643501282 27.2867679596 26.4302253723 26.4309368134 27.2898387909 28.5673351288 29.5288619995 29.9812450409 37.9839172363 37.6509666443 37.0194396973 36.2309112549 35.7063827515 35.706817627 36.2327957153 37.0213088989 37.6522941589 37.9840507507 45.9991722107 45.8765945435 45.6575164795 45.3944473267 45.2217559814 45.2218894958 45.3950614929 45.6581382751 45.8770561218 45.9992256165 54.0208778381 54.1441078186 54.3643875122 54.628868103 54.8027229309 54.8025588989 54.6282272339 54.3637428284 54.1436309814 54.0208129883 62.0361099243 62.3694915771 63.0020523071 63.7919120789 64.3173751831 64.3169403076 63.7900276184 63.0001716614 62.3681640625 62.0359687805 70.0388870239 70.4931564331 71.4563446045 72.7353744507 73.5919876099 73.5913162231 72.7323684692 71.45337677 70.4912185669 70.038734436 78.0308380127 78.4187393188 79.4875259399 81.0169143677 81.9981689453 81.9973449707 81.0134506226 79.4840164185 78.4168167114 78.03074646 86.0194244385 86.2395095825 86.9851608276 88.1391906738 88.867477417 88.8672332764 88.1362838745 86.9825820923 86.2382507324 86.0194015503 
14.0005702972 13.7799892426 13.0325155258 11.8751430511 11.1445932388 11.1452054977 11.8779020309 13.0351171494 13.7812604904 14.0005931854 21.9891338348 21.6007957458 20.5319328308 19.0031738281 18.0218925476 18.0227050781 19.0067958832 20.5354595184 21.6027317047 21.9892349243 29.9811000824 29.5269145966 28.5643386841 27.2867412567 26.4301872253 26.4309005737 27.289806366 28.56731987 29.5288543701 29.9812450409 37.9839172363 37.6509666443 37.0194244385 36.230884552 35.7063446045 35.7067756653 36.2327651978 37.0213050842 37.6522903442 37.9840507507 45.9991722107 45.8765945435 45.6575126648 45.3944320679 45.221736908 45.2218742371 45.3950462341 45.6581344604 45.8770561218 45.9992256165 54.0208778381 54.1441078186 54.364402771 54.6288795471 54.8027458191 54.8025894165 54.6282348633 54.3637504578 54.1436347961 54.0208129883 62.0361099243 62.3694839478 63.0020599365 63.791934967 64.3174133301 64.316986084 63.7900505066 63.0001792908 62.3681716919 62.0359687805 70.0388870239 70.4931640625 71.4563751221 72.7353973389 73.5920181274 73.5913543701 72.7323913574 71.4533996582 70.4912261963 70.038734436 78.0308380127 78.4187393188 79.4875411987 81.0169372559 81.9981918335 81.9973754883 81.0134658813 79.4840164185 78.4168167114 78.03074646 86.0194244385 86.2395095825 86.9851608276 88.139213562 88.8674926758 88.8672485352 88.1363143921 86.9825820923 86.2382507324 86.0194015503 
14.0005702972 13.7799854279 13.0325098038 11.875125885 11.1445674896 11.1451797485 11.8778820038 13.0351076126 13.781255722 14.0005931854 21.9891338348 21.6007957458 20.5319213867 19.0031528473 18.02186203 18.0226764679 19.0067710876 20.5354480743 21.60272789 21.9892349243 29.9811000824 29.5269107819 28.5643310547 27.2867183685 26.4301509857 26.4308662415 27.2897815704 28.5673046112 29.5288505554 29.9812450409 37.9839172363 37.6509628296 37.0194168091 36.2308578491 35.7063064575 35.706741333 36.2327423096 37.0212898254 37.6522865295 37.9840507507 45.9991722107 45.8765945435 45.6575050354 45.3944244385 45.2217292786 45.221862793 45.3950386047 45.6581382751 45.8770561218 45.9992256165 54.0208778381 54.1441078186 54.364402771 54.6288871765 54.8027572632 54.8025970459 54.6282463074 54.3637542725 54.1436309814 54.0208129883 62.0361099243 62.3694915771 63.0020675659 63.7919616699 64.3174514771 64.3170166016 63.7900810242 63.0001945496 62.3681678772 62.0359687805 70.0388870239 70.4931716919 71.4563751221 72.7354202271 73.5920562744 73.5913848877 72.7324066162 71.4533996582 70.4912338257 70.038734436 78.0308380127 78.4187393188 79.4875564575 81.0169677734 81.9982147217 81.9973907471 81.0134887695 79.4840316772 78.4168167114 78.03074646 86.0194244385 86.2395172119 86.9851760864 88.1392288208 88.867515564 88.8672866821 88.1363296509 86.9825820923 86.2382507324 86.0194015503 
14.0005702972 13.7799844742 13.0325021744 11.8751068115 11.1445446014 11.1451568604 11.8778648376 13.0351018906 13.7812566757 14.0005931854 21.9891338348 21.6007938385 20.5319080353 19.0031261444 18.0218296051 18.0226459503 19.0067462921 20.5354385376 21.6027240753 21.9892349243 29.9811000824 29.5269050598 28.5643157959 27.2866916656 26.4301128387 26.4308242798 27.2897605896 28.5672969818 29.5288467407 29.9812450409 37.9839172363 37.6509628296 37.0194091797 36.2308387756 35.7062759399 35.7067108154 36.2327232361 37.0212745667 37.6522865295 37.9840507507 45.9991722107 45.8765907288 45.657497406 45.3944206238 45.2217178345 45.2218513489 45.3950309753 45.6581344604 45.8770561218 45.9992256165 54.0208778381 54.1441116333 54.3643989563 54.6288948059 54.8027648926 54.8026046753 54.6282577515 54.3637504578 54.1436386108 54.0208129883 62.0361099243 62.3694953918 63.0020828247 63.7919807434 64.3174743652 64.3170471191 63.7900886536 63.0001983643 62.3681755066 62.0359687805 70.0388870239 70.4931716919 71.4564056396 72.735458374 73.5920944214 73.5914230347 72.7324447632 71.4534301758 70.4912414551 70.038734436 78.0308380127 78.4187316895 79.4875717163 81.016998291 81.9982376099 81.9974365234 81.0134963989 79.484046936 78.4168167114 78.03074646 86.0194244385 86.2395248413 86.9851760864 88.1392440796 88.8675460815 88.8673019409 88.1363449097 86.9825973511 86.2382507324 86.0194015503 
14.0005702972 13.7799844742 13.0324926376 11.8750896454 11.1445178986 11.1451301575 11.8778476715 13.0350942612 13.7812538147 14.0005931854 21.9891338348 21.6007900238 20.5318984985 19.0031032562 18.0217990875 18.0226135254 19.0067214966 20.5354232788 21.602722168 21.9892349243 29.9811000824 29.5269050598 28.5643024445 27.2866649628 26.4300708771 26.4307842255 27.2897338867 28.5672779083 29.528842926 29.9812469482 37.9839172363 37.6509628296 37.0193977356 36.2308158875 35.7062454224 35.7066726685 36.2327003479 37.0212669373 37.6522865295 37.984046936 45.9991722107 45.8765907288 45.657497406 45.3944015503 45.2217025757 45.2218437195 45.3950271606 45.6581306458 45.8770484924 45.9992256165 54.0208778381 54.144115448 54.364402771 54.6288986206 54.8027801514 54.8026199341 54.6282577515 54.3637580872 54.1436462402 54.0208129883 62.0361099243 62.3695030212 63.0020828247 63.7919998169 64.3175125122 64.3170776367 63.7901229858 63.0002098083 62.3681755066 62.0359687805 70.0388870239 70.4931793213 71.4564056396 72.7354812622 73.5921325684 73.591468811 72.7324676514 71.4534378052 70.4912414551 70.038734436 78.0308380127 78.4187469482 79.4875717163 81.0170059204 81.9982757568 81.9974594116 81.0135345459 79.4840545654 78.4168243408 78.03074646 86.0194244385 86.2395248413 86.9851989746 88.1392669678 88.8675765991 88.8673248291 88.1363601685 86.9826126099 86.2382507324 86.0194015503 
