2.26402544975 3.87585258484 6.75296735764 9.4449224472 11.0555915833 11.0542621613 9.43900680542 6.74561166763 3.86916279793 2.26391649246 2.28959822655 5.06960201263 9.74949073792 14.3749961853 17.1546440125 17.1525402069 14.3644294739 9.73736286163 5.05856227875 2.28928804398 2.31400799751 5.96745061874 11.8582258224 17.6658229828 21.300579071 21.2978076935 17.6522750854 11.8431415558 5.9533033371 2.31350803375 2.33172130585 6.50704574585 13.0670108795 19.4730224609 23.4520263672 23.4490203857 19.4581298828 13.05032444 6.49113702774 2.33108663559 2.34134316444 6.78060054779 13.6726417542 20.336435318 24.4509315491 24.4478397369 20.3210220337 13.6551942825 6.76383876801 2.34063529968 2.34133577347 6.78037881851 13.6721496582 20.3357543945 24.450176239 24.4470787048 20.3203411102 13.6547136307 6.76362371445 2.34062814713 2.33168292046 6.50590467453 13.0645112991 19.469329834 23.4477481842 23.4447460175 19.4544944763 13.0478687286 6.49001741409 2.33104920387 2.31394696236 5.96541452408 11.8536834717 17.659324646 21.2912006378 21.2886199951 17.6458969116 11.8386287689 5.95126342773 2.31344652176 2.28952026367 5.06657505035 9.74203109741 14.3639526367 17.1405601501 17.1385707855 14.3536472321 9.72975826263 5.0554857254 2.28921031952 2.26397323608 3.87216520309 6.74344205856 9.42928409576 11.0343017578 11.0336446762 9.42384243011 6.73604631424 3.86543369293 2.26386213303 
2.26455426216 3.81402349472 6.63881874084 9.31842803955 10.9110507965 10.9097385406 9.31254577637 6.63152265549 3.80753016472 2.2644469738 2.28938007355 4.99977588654 9.63478279114 14.2515239716 17.0179901123 17.0158863068 14.2410020828 9.62269115448 4.98892354965 2.28907728195 2.31322240829 5.89505624771 11.734038353 17.5277748108 21.2203826904 21.2175006866 17.5142021179 11.719037056 5.88109445572 2.3127348423 2.33060073853 6.42954397202 12.9270706177 19.3467330933 23.4445762634 23.4414215088 19.3316364288 12.9104833603 6.41383934021 2.32998037338 2.34001922607 6.699406147 13.5207166672 20.2197761536 24.4787464142 24.475484848 20.2040405273 13.5033740997 6.68286085129 2.33932733536 2.34001278877 6.6991891861 13.5202331543 20.2190856934 24.4779415131 24.4746894836 20.2033615112 13.5029010773 6.6826505661 2.33932065964 2.33056282997 6.42841386795 12.9246044159 19.3430271149 23.4401912689 23.4370422363 19.3279876709 12.9080610275 6.41272878647 2.32994389534 2.31316208839 5.89300823212 11.7295103073 17.5212192535 21.210723877 21.2080402374 17.5077667236 11.7145347595 5.87903881073 2.31267285347 2.28930306435 4.9967083931 9.62722682953 14.2405252457 17.0037460327 17.0017814636 14.2302742004 9.61497020721 4.98579883575 2.28900051117 2.264503479 3.81036114693 6.62926912308 9.30278873444 10.8900060654 10.8893661499 9.29738426208 6.62191867828 3.80381703377 2.26439404488 
2.26460719109 3.80746841431 6.62675857544 9.30526733398 10.8961076736 10.8947992325 9.2993888855 6.61947011948 3.8009955883 2.26449966431 2.28935241699 4.99236488342 9.62269878387 14.2388086319 17.0032920837 17.0011920929 14.2282924652 9.61061382294 4.9815325737 2.28905057907 2.31313753128 5.88735961914 11.7209339142 17.5123386383 21.2079353333 21.2050437927 17.4987735748 11.7059392929 5.8734164238 2.31265115738 2.3304643631 6.42121648788 12.9120607376 19.3303527832 23.4426212311 23.4394416809 19.315246582 12.895483017 6.40553379059 2.32984566689 2.33987021446 6.69059467316 13.5041208267 20.2034683228 24.4821376801 24.478849411 20.1877098083 13.4867916107 6.6740732193 2.33917951584 2.33986353874 6.69037723541 13.5036401749 20.2027816772 24.4813213348 24.4780406952 20.1870288849 13.4863243103 6.67386293411 2.33917355537 2.33042669296 6.42008686066 12.9096012115 19.3266487122 23.4382209778 23.4350452423 19.3115959167 12.8930702209 6.4044251442 2.32980895042 2.31307768822 5.88531160355 11.7164049149 17.5057907104 21.1982555389 21.1955623627 17.4923458099 11.7014398575 5.87136125565 2.31259036064 2.28927516937 4.98929595947 9.61513710022 14.2278156281 16.9890441895 16.9870815277 14.2175664902 9.60288333893 4.97840499878 2.28897333145 2.26455688477 3.80381059647 6.61721134186 9.28963565826 10.8751020432 10.8744668961 9.28423309326 6.60986566544 3.7972869873 2.26444721222 
2.26461648941 3.80628991127 6.62459754944 9.30292129517 10.8934555054 10.8921470642 9.29704284668 6.61731004715 3.79982042313 2.26450896263 2.28934764862 4.99103546143 9.62053966522 14.2365550995 17.000711441 16.9986076355 14.2260370255 9.60845565796 4.9802069664 2.28904557228 2.31312203407 5.88598299026 11.7185964584 17.5095901489 21.205537796 21.2026481628 17.4960250854 11.7036037445 5.87204408646 2.31263613701 2.33043980598 6.41972970963 12.9093885422 19.3273048401 23.4422302246 23.4390487671 19.3121986389 12.8928136826 6.40404987335 2.32982134819 2.33984136581 6.68901872635 13.5011444092 20.2002944946 24.4829025269 24.4796047211 20.1845340729 13.4838199615 6.67250061035 2.33915162086 2.33983469009 6.6888012886 13.5006656647 20.1996097565 24.4820861816 24.4787998199 20.1838531494 13.4833507538 6.672290802 2.33914494514 2.33040165901 6.41860103607 12.9069299698 19.3235988617 23.437828064 23.4346485138 19.3085517883 12.8904008865 6.40294265747 2.32978463173 2.31306242943 5.88393592834 11.7140712738 17.5030441284 21.1958580017 21.1931591034 17.4895973206 11.6991062164 5.86998987198 2.31257510185 2.289270401 4.98796653748 9.61297702789 14.2255620956 16.9864673615 16.9845046997 14.2153139114 9.60072517395 4.97707891464 2.28896856308 2.26456618309 3.80263352394 6.61505270004 9.28730392456 10.8724813461 10.8718261719 9.28189182281 6.60770606995 3.79611325264 2.26445674896 
2.2646188736 3.80598306656 6.62403917313 9.30232334137 10.8927841187 10.8914747238 9.29644393921 6.61675214767 3.79951548576 2.26451158524 2.28934621811 4.99069356918 9.61999511719 14.2359905243 17.0000648499 16.9979629517 14.2254724503 9.60790920258 4.97986650467 2.28904438019 2.31311845779 5.8856344223 11.7180099487 17.5089035034 21.20495224 21.2020606995 17.4953365326 11.7030172348 5.87169790268 2.31263303757 2.3304336071 6.41935634613 12.9087219238 19.3265380859 23.4421806335 23.4389915466 19.3114318848 12.8921489716 6.40367841721 2.32981562614 2.33983421326 6.68862342834 13.5004024506 20.1994667053 24.4832000732 24.4799041748 20.1837043762 13.4830799103 6.67210674286 2.33914422989 2.3398270607 6.68840694427 13.4999246597 20.1987800598 24.4823818207 24.479095459 20.1830215454 13.4826097488 6.67189741135 2.33913755417 2.33039593697 6.41822767258 12.9062643051 19.3228359222 23.4377746582 23.4345932007 19.3077831268 12.8897361755 6.40257024765 2.32977843285 2.31305909157 5.88358783722 11.7134866714 17.5023612976 21.1952705383 21.1925735474 17.4889144897 11.6985225677 5.86964178085 2.31257176399 2.28926920891 4.98762559891 9.61243152618 14.2249994278 16.9858207703 16.9838600159 14.2147493362 9.60017776489 4.97673845291 2.28896713257 2.26456856728 3.80232834816 6.61449766159 9.28672599792 10.8718442917 10.8711585999 9.28129482269 6.60714960098 3.7958085537 2.26445937157 
2.26462030411 3.80588579178 6.62386608124 9.30214214325 10.892583847 10.8912754059 9.29626274109 6.61657857895 3.79941797256 2.26451277733 2.28934574127 4.99058914185 9.61983203888 14.2358312607 16.9998817444 16.9977798462 14.225312233 9.60774803162 4.97976160049 2.28904461861 2.3131172657 5.8855304718 11.7178421021 17.5087127686 21.2048034668 21.2019119263 17.4951496124 11.7028493881 5.8715929985 2.31263184547 2.33043217659 6.41924667358 12.9085321426 19.3263282776 23.4422187805 23.4390296936 19.3112201691 12.891960144 6.40356874466 2.32981395721 2.33983206749 6.68850755692 13.5001888275 20.1992321014 24.4833755493 24.4800777435 20.183467865 13.4828662872 6.67199134827 2.33914256096 2.33982539177 6.68829059601 13.4997081757 20.1985454559 24.4825649261 24.4792709351 20.1827888489 13.4823970795 6.67178106308 2.33913564682 2.33039426804 6.4181189537 12.9060754776 19.3226222992 23.4378147125 23.4346313477 19.3075733185 12.889547348 6.40246105194 2.32977747917 2.31305789948 5.88348436356 11.7133188248 17.5021724701 21.1951236725 21.1924247742 17.4887256622 11.6983547211 5.86953830719 2.31257081032 2.28926873207 4.9875202179 9.6122713089 14.2248420715 16.9856395721 16.9836807251 14.21459198 9.60001659393 4.97663402557 2.28896737099 2.26456952095 3.80223107338 6.6143245697 9.2865486145 10.8716526031 10.8709602356 9.28111362457 6.60697603226 3.79571175575 2.26446032524 
2.26462030411 3.80585289001 6.62380981445 9.30209159851 10.892531395 10.8912239075 9.29621124268 6.61652374268 3.79938554764 2.26451301575 2.28934645653 4.99055671692 9.61979103088 14.2357988358 16.9998416901 16.9977397919 14.225279808 9.6077041626 4.9797296524 2.28904461861 2.31311750412 5.88550329208 11.7178039551 17.5086765289 21.2047920227 21.2019004822 17.4951095581 11.7028093338 5.87156629562 2.31263160706 2.33043193817 6.41921854019 12.908490181 19.3262901306 23.4422874451 23.4391021729 19.3111801147 12.8919143677 6.40354156494 2.3298137188 2.33983159065 6.68847799301 13.5001373291 20.1991863251 24.4835147858 24.4802150726 20.183423996 13.4828138351 6.67196130753 2.3391418457 2.33982467651 6.6882610321 13.4996566772 20.1984996796 24.4826984406 24.4794101715 20.1827430725 13.4823455811 6.67175102234 2.3391354084 2.33039402962 6.41808986664 12.9060325623 19.3225822449 23.4378852844 23.4347038269 19.3075351715 12.889503479 6.40243339539 2.32977700233 2.31305813789 5.883456707 11.7132806778 17.5021362305 21.195110321 21.192407608 17.4886894226 11.6983165741 5.86951065063 2.3125705719 2.28926897049 4.98748922348 9.61222934723 14.2248077393 16.9856014252 16.9836387634 14.2145576477 9.59997367859 4.97660112381 2.28896737099 2.26456999779 3.8021979332 6.61427021027 9.28649806976 10.8716020584 10.8709096909 9.28106307983 6.60691976547 3.79567861557 2.26446056366 
