13.9390621185 21.7272529602 29.3482456207 37.1997451782 45.6434173584 54.3784179688 62.820514679 70.6708526611 78.2919540405 86.080657959 13.9019069672 21.5040130615 28.6091804504 36.3362388611 45.2846374512 54.7389945984 63.684551239 71.4088439941 78.5140228271 86.1176681519 13.8811788559 21.3400745392 28.1714477539 35.8559112549 45.0723457336 54.9523468018 64.1650924683 71.8461074829 78.6771774292 86.1383056641 13.8649749756 21.2518119812 27.9726200104 35.6660232544 44.9919815063 55.0331192017 64.3551101685 72.0447921753 78.76512146 86.1544418335 13.8534545898 21.2136688232 27.892747879 35.5875663757 44.9592552185 55.0660095215 64.4336242676 72.1246185303 78.8031005859 86.1659164429 13.8534641266 21.2136917114 27.8928050995 35.5876235962 44.9592895508 55.0659790039 64.4335708618 72.1245574951 78.8030700684 86.1659011841 13.8650093079 21.2519569397 27.9729480743 35.6663894653 44.9921226501 55.0329933167 64.3547668457 72.0444793701 78.7649765015 86.1544113159 13.8812170029 21.3403568268 28.1721324921 35.8566551208 45.0729064941 54.9518280029 64.1643981934 71.8454666138 78.6769180298 86.1382751465 13.9019699097 21.5045146942 28.6107025146 36.3377151489 45.2854232788 54.7382011414 63.6832008362 71.4073028564 78.5135192871 86.1176071167 13.9392080307 21.7279777527 29.3503856659 37.2026824951 45.6448135376 54.3771095276 62.8175430298 70.6686553955 78.2912139893 86.0805053711 
13.9366588593 21.7198295593 29.3338565826 37.1813659668 45.6339302063 54.3879508972 62.8389015198 70.685218811 78.2993621826 86.0830688477 13.8984136581 21.4938335419 28.5762405396 36.2630844116 45.2342529297 54.7896347046 63.757610321 71.4416809082 78.5241928101 86.121131897 13.8762435913 21.3200778961 28.1042461395 35.6941719055 44.9654960632 55.0597419739 64.3266220093 71.9131011963 78.6971130371 86.1432266235 13.8584022522 21.2171573639 27.8579597473 35.424079895 44.852306366 55.173500061 64.5968551636 72.1591262817 78.7996444702 86.1609954834 13.8457345963 21.1669769287 27.7375011444 35.3047561646 44.806427002 55.2195968628 64.7162857056 72.2794799805 78.8495941162 86.1735992432 13.8457450867 21.1670131683 27.7375926971 35.3048286438 44.8064804077 55.2195510864 64.7162246704 72.2794036865 78.849571228 86.1735916138 13.8584394455 21.21733284 27.8583908081 35.4245605469 44.8524932861 55.1733207703 64.5963897705 72.1587295532 78.7994766235 86.1609573364 13.8762807846 21.3203773499 28.1050109863 35.6951599121 44.966178894 55.0591049194 64.3256759644 71.9124145508 78.6968383789 86.143196106 13.8984832764 21.4943618774 28.5778541565 36.2646598816 45.2351837158 54.7886962891 63.7561798096 71.440071106 78.5236587524 86.1210784912 13.9368076324 21.7205619812 29.3360519409 37.1844177246 45.6352920532 54.3866844177 62.8357849121 70.6829376221 78.2986068726 86.0828933716 
13.9365673065 21.7196025848 29.3334884644 37.1809158325 45.6337509155 54.388130188 62.8393592834 70.6856002808 78.2995910645 86.0831451416 13.8982772827 21.4935703278 28.5752868652 36.2607765198 45.2329406738 54.7909469604 63.7599182129 71.4426498413 78.5244369507 86.1212768555 13.8760347366 21.3193473816 28.1015892029 35.6881523132 44.9600219727 55.0652389526 64.3326187134 71.9157562256 78.6978378296 86.143447876 13.8581180573 21.2156963348 27.8527088165 35.4096374512 44.8392715454 55.1865997314 64.6112670898 72.1643753052 78.8010940552 86.1612625122 13.8454008102 21.1649475098 27.7301120758 35.2823486328 44.7886581421 55.2374649048 64.7386398315 72.2868499756 78.8516235352 86.1739273071 13.845407486 21.164981842 27.7302055359 35.2824211121 44.7887039185 55.237411499 64.7385864258 72.2867431641 78.8516082764 86.1739196777 13.8581562042 21.2158718109 27.8531494141 35.4101524353 44.8394775391 55.1864013672 64.6107788086 72.1639556885 78.8009262085 86.1612319946 13.876074791 21.3196525574 28.1023616791 35.689163208 44.9607582092 55.0645637512 64.3316574097 71.9150543213 78.6975631714 86.143409729 13.8983478546 21.494102478 28.5768985748 36.2623634338 45.2338676453 54.7900161743 63.7584762573 71.4410095215 78.5239105225 86.1212234497 13.9367141724 21.7203292847 29.3356723785 37.183971405 45.6351127625 54.3868713379 62.8362236023 70.6833114624 78.2988357544 86.0829849243 
13.9365653992 21.7195968628 29.3334751129 37.1809158325 45.6337509155 54.3881378174 62.8393554688 70.6856002808 78.2995910645 86.0831451416 13.8982753754 21.4935646057 28.5752677917 36.2607498169 45.232925415 54.7909698486 63.7599487305 71.4426574707 78.5244445801 86.1212844849 13.8760299683 21.3193302155 28.1015434265 35.688079834 44.9599723816 55.0652809143 64.3326950073 71.915802002 78.6978530884 86.143447876 13.8581142426 21.2156639099 27.8526153564 35.4094200134 44.8390808105 55.1867904663 64.6114807129 72.1644668579 78.8011245728 86.1612701416 13.8453941345 21.1649093628 27.7299747467 35.2819442749 44.7882232666 55.2378959656 64.7390594482 72.2869873047 78.8516769409 86.1739349365 13.8454036713 21.164937973 27.7300682068 35.2820205688 44.7882843018 55.2378387451 64.7389907837 72.2869033813 78.8516387939 86.1739196777 13.8581514359 21.2158432007 27.8530597687 35.4099349976 44.8392868042 55.1865959167 64.6109848022 72.1640472412 78.8009643555 86.1612319946 13.8760728836 21.3196334839 28.1023178101 35.6890907288 44.9607048035 55.0646018982 64.3317337036 71.9150924683 78.6975860596 86.143409729 13.8983459473 21.494096756 28.5768795013 36.2623291016 45.2338562012 54.7900276184 63.7585067749 71.4410247803 78.5239181519 86.1212158203 13.9367141724 21.7203292847 29.3356704712 37.1839637756 45.6351165771 54.3868789673 62.8362312317 70.683303833 78.2988433838 86.0829849243 
13.9365653992 21.7195968628 29.3334732056 37.1809005737 45.6337471008 54.3881454468 62.8393707275 70.6856079102 78.2995910645 86.0831451416 13.8982744217 21.493560791 28.5752544403 36.2607345581 45.232925415 54.7909736633 63.7599601746 71.4426727295 78.5244369507 86.1212844849 13.8760309219 21.3193264008 28.1015281677 35.6880569458 44.9599685669 55.0652961731 64.3327102661 71.9158325195 78.6978607178 86.143447876 13.8581132889 21.2156600952 27.8525943756 35.4093856812 44.8390617371 55.1868057251 64.6115112305 72.1644897461 78.8011322021 86.161277771 13.8453922272 21.1648960114 27.7299461365 35.2819023132 44.7882080078 55.2379188538 64.7390899658 72.2870254517 78.8516845703 86.1739349365 13.8454017639 21.1649265289 27.7300415039 35.2819786072 44.7882614136 55.2378540039 64.7390136719 72.2869338989 78.8516464233 86.1739196777 13.8581504822 21.2158355713 27.8530349731 35.40990448 44.8392715454 55.1866149902 64.6110153198 72.1640701294 78.8009643555 86.1612319946 13.8760728836 21.3196296692 28.1022987366 35.6890716553 44.9606971741 55.0646095276 64.3317489624 71.9151229858 78.6975860596 86.1434020996 13.8983459473 21.4940910339 28.5768718719 36.2623214722 45.2338523865 54.7900314331 63.7585296631 71.4410400391 78.5239257812 86.1212158203 13.9367132187 21.7203273773 29.3356685638 37.1839561462 45.6351165771 54.3868789673 62.8362388611 70.6833114624 78.2988433838 86.0829849243 
13.9365634918 21.7195911407 29.3334693909 37.180896759 45.6337432861 54.3881378174 62.8393707275 70.6856155396 78.2995910645 86.0831451416 13.898273468 21.4935569763 28.5752429962 36.2607269287 45.2329177856 54.7909698486 63.7599754333 71.4426727295 78.5244445801 86.1212844849 13.8760309219 21.3193225861 28.1015148163 35.6880378723 44.9599571228 55.0653076172 64.3327255249 71.9158325195 78.6978759766 86.143447876 13.8581132889 21.2156486511 27.8525676727 35.4093551636 44.839050293 55.1868247986 64.611541748 72.1645126343 78.8011474609 86.161277771 13.8453922272 21.1648845673 27.7299175262 35.2818641663 44.7881889343 55.2379341125 64.7391357422 72.2870407104 78.8516921997 86.1739349365 13.8454017639 21.1649208069 27.730009079 35.2819404602 44.7882461548 55.2378845215 64.7390670776 72.2869415283 78.8516616821 86.1739196777 13.8581495285 21.2158241272 27.8530082703 35.4098777771 44.8392562866 55.186630249 64.6110534668 72.1640853882 78.8009796143 86.1612319946 13.8760709763 21.3196258545 28.1022777557 35.6890487671 44.9606895447 55.0646209717 64.3317718506 71.9151382446 78.6975860596 86.1434020996 13.8983449936 21.4940872192 28.5768585205 36.2623138428 45.2338447571 54.7900352478 63.7585334778 71.4410552979 78.5239257812 86.1212158203 13.9367132187 21.7203235626 29.3356628418 37.1839561462 45.6351089478 54.3868789673 62.8362464905 70.6833267212 78.2988433838 86.0829849243 
13.9365634918 21.7195930481 29.3334674835 37.1808853149 45.6337432861 54.3881378174 62.8393783569 70.6856231689 78.2995910645 86.0831451416 13.898273468 21.493555069 28.5752315521 36.2607154846 45.2329139709 54.7909812927 63.7599830627 71.4426879883 78.5244598389 86.1212844849 13.8760309219 21.3193149567 28.1014900208 35.6880226135 44.9599494934 55.0653152466 64.3327560425 71.9158477783 78.6978683472 86.1434555054 13.8581132889 21.2156410217 27.8525485992 35.4093322754 44.8390312195 55.1868362427 64.6115646362 72.1645507812 78.8011474609 86.161277771 13.8453922272 21.1648750305 27.7298946381 35.2818183899 44.7881698608 55.237953186 64.7391738892 72.2870788574 78.8516998291 86.1739425659 13.8453998566 21.1649074554 27.7299842834 35.2818984985 44.788230896 55.2378997803 64.7391052246 72.2869720459 78.8516693115 86.1739273071 13.8581504822 21.2158164978 27.8529911041 35.4098434448 44.8392333984 55.1866493225 64.6110839844 72.1641082764 78.800994873 86.1612472534 13.8760700226 21.3196220398 28.102268219 35.6890335083 44.9606819153 55.0646209717 64.3317947388 71.9151535034 78.697593689 86.1434020996 13.8983449936 21.4940834045 28.5768489838 36.2623023987 45.2338447571 54.7900390625 63.7585449219 71.4410705566 78.5239257812 86.1212158203 13.936712265 21.7203216553 29.3356533051 37.1839485168 45.6351051331 54.386882782 62.8362464905 70.6833267212 78.2988433838 86.0829849243 
