13.9368591309 21.718132019 29.3339118958 37.177532196 45.6317062378 54.3901748657 62.8427276611 70.6851730347 78.3010635376 86.0828552246 13.8980197906 21.4903678894 28.5549030304 36.2640228271 45.2406997681 54.7831535339 63.7567749023 71.4629898071 78.5276260376 86.1215362549 13.8755340576 21.3136119843 28.0717563629 35.699054718 44.9750099182 55.0501747131 64.3218460083 71.9456176758 78.7034835815 86.1439361572 13.8571033478 21.2048130035 27.8263530731 35.425655365 44.8563766479 55.1693992615 64.5953674316 72.1907577515 78.8119277954 86.1622924805 13.8443078995 21.1524982452 27.7063865662 35.3008270264 44.8068847656 55.219127655 64.7202911377 72.3106079102 78.8640441895 86.1750259399 13.8443183899 21.1525306702 27.7064685822 35.300907135 44.8069343567 55.2190628052 64.7202148438 72.3105239868 78.8640060425 86.1750106812 13.8571462631 21.2050075531 27.8267974854 35.4261703491 44.8565711975 55.1691741943 64.5948562622 72.1903152466 78.8117294312 86.1622390747 13.875579834 21.3139629364 28.0725517273 35.7000732422 44.975692749 55.0494918823 64.3208389282 71.9448547363 78.7031402588 86.1438827515 13.8980884552 21.4908485413 28.5565605164 36.2656707764 45.2416343689 54.7821578979 63.7551956177 71.4613418579 78.5271759033 86.1214675903 13.9369916916 21.71875 29.3356723785 37.1805076599 45.6329994202 54.388999939 62.8397331238 70.6835784912 78.3004989624 86.0827255249 
13.9368534088 21.7181301117 29.3339519501 37.1775894165 45.631729126 54.3901596069 62.8426704407 70.6851272583 78.301071167 86.0828475952 13.8980064392 21.4904003143 28.5549621582 36.2639198303 45.2406082153 54.7832336426 63.7568778992 71.4629364014 78.52759552 86.1215515137 13.8755140305 21.3136062622 28.0716266632 35.6985435486 44.9745979309 55.050579071 64.3223495483 71.9457397461 78.7034988403 86.1439437866 13.8570690155 21.2046947479 27.8258323669 35.4238739014 44.8544502258 55.171333313 64.59715271 72.1912765503 78.8120346069 86.162322998 13.8442649841 21.1522846222 27.7054805756 35.2973709106 44.803565979 55.2224693298 64.723739624 72.3115005493 78.8642578125 86.1750640869 13.8442764282 21.1523189545 27.7055740356 35.2974472046 44.8036193848 55.22240448 64.7236633301 72.3114242554 78.8642120361 86.1750564575 13.8571109772 21.2048912048 27.8262767792 35.4243965149 44.8546524048 55.1711120605 64.5966262817 72.1908187866 78.8118438721 86.1622695923 13.8755588531 21.3139514923 28.0724334717 35.6995697021 44.9752883911 55.0498847961 64.3213500977 71.944984436 78.7031402588 86.1438980103 13.8980760574 21.4908809662 28.5566177368 36.2655677795 45.2415428162 54.7822494507 63.7552947998 71.4612808228 78.527130127 86.1214904785 13.9369821548 21.7187519073 29.3357124329 37.1805725098 45.6330299377 54.3889656067 62.8396682739 70.6835479736 78.3005065918 86.0827407837 
13.9368515015 21.7181282043 29.333946228 37.1775817871 45.631729126 54.3901672363 62.8426742554 70.6851348877 78.3010635376 86.0828475952 13.8980064392 21.4903945923 28.5549526215 36.2639083862 45.2406044006 54.7832450867 63.7568855286 71.4629592896 78.52759552 86.1215591431 13.8755130768 21.3135967255 28.0716114044 35.6985244751 44.9745903015 55.0505828857 64.3223800659 71.9457473755 78.7035140991 86.1439437866 13.8570690155 21.2046852112 27.8258152008 35.4238510132 44.8544387817 55.1713409424 64.5971679688 72.1913146973 78.8120422363 86.162322998 13.8442621231 21.1522769928 27.7054538727 35.2973251343 44.8035316467 55.2224884033 64.723777771 72.3115234375 78.8642578125 86.1750640869 13.8442754745 21.1523094177 27.7055454254 35.2974014282 44.8035888672 55.2224235535 64.7237014771 72.3114471436 78.8642272949 86.1750640869 13.8571100235 21.2048816681 27.8262500763 35.424369812 44.8546333313 55.1711235046 64.5966567993 72.1908493042 78.8118515015 86.1622695923 13.8755607605 21.3139400482 28.0724105835 35.6995506287 44.9752845764 55.0498886108 64.3213653564 71.944984436 78.7031555176 86.1438980103 13.8980751038 21.4908790588 28.5566101074 36.2655601501 45.2415351868 54.7822570801 63.7553100586 71.4612884521 78.5271530151 86.1214904785 13.9369812012 21.7187480927 29.3357048035 37.1805648804 45.6330223083 54.3889656067 62.839679718 70.683555603 78.3005065918 86.0827407837 
13.9368515015 21.7181282043 29.3339385986 37.1775741577 45.6317253113 54.3901672363 62.8426780701 70.6851425171 78.301071167 86.0828475952 13.8980064392 21.4903888702 28.5549468994 36.2638969421 45.2406005859 54.7832450867 63.7568969727 71.4629592896 78.5276031494 86.1215591431 13.8755130768 21.3135910034 28.0715923309 35.6985054016 44.9745826721 55.0506019592 64.3223953247 71.9457702637 78.7034988403 86.1439437866 13.8570671082 21.2046775818 27.8257904053 35.4238243103 44.8544235229 55.1713638306 64.5972061157 72.1913223267 78.8120498657 86.1623077393 13.8442621231 21.1522655487 27.7054290771 35.2972869873 44.8035240173 55.222492218 64.723815918 72.3115539551 78.8642730713 86.1750717163 13.8442745209 21.1523017883 27.7055168152 35.2973632812 44.8035812378 55.2224349976 64.7237472534 72.3114776611 78.8642272949 86.1750640869 13.8571090698 21.2048740387 27.8262310028 35.4243392944 44.8546180725 55.1711425781 64.5966796875 72.1908798218 78.8118591309 86.1622695923 13.8755588531 21.3139400482 28.0723896027 35.6995277405 44.9752731323 55.0498886108 64.3213729858 71.9450149536 78.7031707764 86.1438980103 13.8980741501 21.4908733368 28.556602478 36.2655448914 45.2415313721 54.7822494507 63.7553253174 71.4613037109 78.5271453857 86.1214904785 13.9369812012 21.7187519073 29.3357048035 37.180557251 45.633026123 54.3889694214 62.839679718 70.6835479736 78.3005065918 86.0827407837 
13.9368534088 21.7181301117 29.3339347839 37.1775665283 45.6317253113 54.3901596069 62.8426895142 70.6851501465 78.3010787964 86.0828475952 13.8980045319 21.4903850555 28.5549316406 36.263885498 45.2405967712 54.7832527161 63.7569084167 71.4629669189 78.5276107788 86.1215591431 13.8755111694 21.313583374 28.0715751648 35.6984901428 44.9745826721 55.0506019592 64.3224029541 71.9457855225 78.7035293579 86.1439437866 13.8570671082 21.2046718597 27.8257637024 35.423789978 44.8544044495 55.1713790894 64.5972290039 72.1913375854 78.8120727539 86.1623153687 13.8442630768 21.152256012 27.7054004669 35.2972488403 44.8035087585 55.2225265503 64.7238616943 72.3115921021 78.8642807007 86.1750717163 13.8442726135 21.1522903442 27.7054901123 35.297328949 44.8035583496 55.2224502563 64.7237854004 72.3115005493 78.8642425537 86.1750640869 13.8571109772 21.204864502 27.8262081146 35.4243087769 44.8546066284 55.1711616516 64.5967102051 72.1908874512 78.8118667603 86.1622695923 13.8755578995 21.3139324188 28.0723800659 35.699508667 44.9752693176 55.0499038696 64.3214035034 71.9450302124 78.7031707764 86.1438980103 13.8980741501 21.4908657074 28.5565891266 36.265537262 45.2415275574 54.7822570801 63.7553291321 71.4613113403 78.5271530151 86.1214828491 13.9369812012 21.7187461853 29.3357009888 37.1805496216 45.6330184937 54.3889770508 62.8396873474 70.6835632324 78.3005065918 86.0827407837 
13.9368515015 21.718126297 29.3339347839 37.1775665283 45.6317214966 54.390171051 62.8426971436 70.6851501465 78.3010787964 86.0828475952 13.8980064392 21.4903831482 28.5549221039 36.263874054 45.2405891418 54.7832565308 63.7569236755 71.4629821777 78.5276184082 86.1215591431 13.8755111694 21.3135795593 28.0715618134 35.6984672546 44.9745674133 55.0506057739 64.3224258423 71.9458084106 78.7035217285 86.1439437866 13.8570652008 21.2046604156 27.8257408142 35.4237594604 44.8543815613 55.1714019775 64.5972595215 72.1913757324 78.8120727539 86.1623153687 13.8442621231 21.1522445679 27.705373764 35.297203064 44.8034858704 55.2225418091 64.7239074707 72.3116226196 78.8642883301 86.1750717163 13.8442726135 21.1522750854 27.7054634094 35.2972869873 44.8035430908 55.2224731445 64.7238235474 72.3115234375 78.8642578125 86.1750564575 13.8571100235 21.2048568726 27.8261833191 35.4242782593 44.8545875549 55.1711769104 64.5967407227 72.1909103394 78.8118743896 86.1622695923 13.8755588531 21.3139247894 28.0723590851 35.6994972229 44.9752578735 55.0499191284 64.3214111328 71.9450454712 78.7031707764 86.143913269 13.8980741501 21.4908657074 28.5565795898 36.2655220032 45.2415237427 54.7822570801 63.7553367615 71.4613342285 78.5271530151 86.1214828491 13.9369812012 21.718744278 29.3356971741 37.1805458069 45.633014679 54.3889770508 62.8396949768 70.6835632324 78.3005142212 86.0827331543 
13.9368515015 21.718126297 29.3339271545 37.1775550842 45.6317214966 54.390171051 62.8426971436 70.6851501465 78.3010787964 86.0828475952 13.8980054855 21.4903774261 28.5549125671 36.2638664246 45.2405853271 54.7832565308 63.7569236755 71.4629898071 78.5276184082 86.1215591431 13.8755111694 21.313577652 28.0715484619 35.6984558105 44.9745597839 55.0506134033 64.3224334717 71.94581604 78.7035369873 86.1439437866 13.8570652008 21.2046527863 27.8257236481 35.4237327576 44.8543663025 55.1714172363 64.5972900391 72.1913986206 78.8120803833 86.162322998 13.8442611694 21.1522369385 27.7053413391 35.2971611023 44.8034744263 55.2225532532 64.7239456177 72.3116455078 78.8642959595 86.1750717163 13.8442697525 21.1522712708 27.7054386139 35.2972412109 44.803527832 55.2224960327 64.7238616943 72.3115615845 78.8642654419 86.1750640869 13.8571071625 21.2048492432 27.8261604309 35.4242515564 44.8545608521 55.1711959839 64.5967636108 72.1909408569 78.8118896484 86.1622772217 13.8755569458 21.3139152527 28.072347641 35.6994743347 44.9752502441 55.0499153137 64.321434021 71.9450454712 78.7031860352 86.143913269 13.8980741501 21.4908638 28.5565681458 36.2655105591 45.241519928 54.7822723389 63.755355835 71.4613342285 78.5271606445 86.1214828491 13.9369802475 21.718744278 29.3356876373 37.1805381775 45.6330184937 54.3889770508 62.8396987915 70.6835708618 78.3005218506 86.0827331543 
