2.26502370834 3.84765815735 6.72735118866 9.43809986115 10.9863700867 10.9851465225 9.43220043182 6.71992731094 3.84103393555 2.26491379738 2.29079914093 5.04696083069 9.73549461365 14.1937141418 16.7111415863 16.7091464996 14.184088707 9.72338676453 5.03596496582 2.29048776627 2.31490778923 5.93562984467 11.8257303238 17.3633804321 20.6477222443 20.6450996399 17.3511486053 11.8107738495 5.92154073715 2.31441068649 2.33166217804 6.46582317352 13.0057592392 19.1182556152 22.7641582489 22.7612609863 19.1047000885 12.9892711639 6.44998455048 2.33103775978 2.34074139595 6.73192358017 13.5857582092 19.9615268707 23.757390976 23.7543869019 19.9473896027 13.5685482025 6.71525192261 2.34004807472 2.34073400497 6.73171615601 13.5853099823 19.9608840942 23.7566337585 23.7536392212 19.9467525482 13.5681095123 6.71504497528 2.34004116058 2.33162593842 6.46476316452 13.0034217834 19.1148052216 22.7600593567 22.7571659088 19.1012897491 12.9869632721 6.44894313812 2.33100271225 2.31485581398 5.93380832672 11.8216533661 17.3571796417 20.6394138336 20.6368904114 17.3450317383 11.8067779541 5.91975402832 2.31435894966 2.2907269001 5.04429244995 9.72889232635 14.1838712692 16.6984672546 16.6965484619 14.1744670868 9.71691989899 5.0333814621 2.29041981697 2.26497745514 3.84433889389 6.71868276596 9.42284679413 10.9674129486 10.9665145874 9.41694927216 6.71163463593 3.83784508705 2.26486778259 
2.26502537727 3.8401556015 6.71166753769 9.41848373413 10.9648046494 10.9635782242 9.41259479523 6.70425796509 3.83355760574 2.26491594315 2.29071140289 5.03792285919 9.71805858612 14.1733932495 16.6903953552 16.6883964539 14.163769722 9.70596313477 5.02695226669 2.29040122032 2.31476688385 5.92671632767 11.8089885712 17.3441486359 20.630897522 20.6282730103 17.3319149017 11.7940454483 5.91265201569 2.31427121162 2.33151626587 6.4577050209 12.9906339645 19.1035251617 22.7641372681 22.7612133026 19.0899543762 12.9741592407 6.4418888092 2.33089351654 2.34061169624 6.72452163696 13.5722179413 19.9522514343 23.7733364105 23.7702980042 19.9380779266 13.5550136566 6.7078666687 2.33991956711 2.34060430527 6.72431182861 13.5717687607 19.9515972137 23.772567749 23.7695331573 19.9374313354 13.5545740128 6.70766067505 2.33991289139 2.33148050308 6.45664262772 12.9882907867 19.100063324 22.7599830627 22.7570648193 19.0865325928 12.9718475342 6.44084405899 2.33085846901 2.31471443176 5.92489385605 11.8049077988 17.3379383087 20.6225585938 20.6200294495 17.3257865906 11.7900495529 5.91086435318 2.31421875954 2.29063940048 5.03525543213 9.71145248413 14.1635456085 16.6777019501 16.6757793427 14.1541442871 9.69950008392 5.02437210083 2.29033327103 2.26497936249 3.83684849739 6.70302248001 9.40323734283 10.9458646774 10.9449672699 9.39735031128 6.6959939003 3.83038282394 2.26486992836 
2.26502537727 3.8401594162 6.71167898178 9.41850280762 10.9648256302 10.9636011124 9.41261291504 6.70426893234 3.83356118202 2.26491594315 2.29071187973 5.03793048859 9.71807765961 14.1734189987 16.6904258728 16.6884307861 14.1637954712 9.70598316193 5.02695989609 2.29040122032 2.31476688385 5.9267282486 11.8090171814 17.3441867828 20.6309452057 20.6283187866 17.3319549561 11.7940721512 5.91266441345 2.31427145004 2.33151674271 6.45772123337 12.9906692505 19.1035823822 22.7642154694 22.7612895966 19.0900115967 12.974196434 6.44190597534 2.33089399338 2.3406124115 6.72454023361 13.5722589493 19.9523200989 23.7734584808 23.7704238892 19.9381504059 13.5550556183 6.70788621902 2.33992052078 2.3406047821 6.72433042526 13.571811676 19.9516658783 23.7726974487 23.7696590424 19.9375038147 13.5546169281 6.70767974854 2.33991360664 2.33148097992 6.45665884018 12.98832798 19.1001186371 22.7600574493 22.7571392059 19.0865879059 12.9718837738 6.44086074829 2.33085918427 2.31471514702 5.92490625381 11.8049383163 17.337978363 20.6226024628 20.6200752258 17.3258266449 11.7900743484 5.91087627411 2.31421923637 2.29063987732 5.03526306152 9.71147155762 14.1635742188 16.6777324677 16.6758136749 14.1541728973 9.69951820374 5.02437925339 2.29033350945 2.26497936249 3.83685278893 6.70303344727 9.40325546265 10.9458856583 10.9449882507 9.39736747742 6.69600534439 3.8303861618 2.26487016678 
2.26502561569 3.84017086029 6.7117061615 9.41854286194 10.9648694992 10.9636468887 9.41265106201 6.70429563522 3.83357191086 2.26491594315 2.29071211815 5.03794765472 9.71811676025 14.1734714508 16.6904850006 16.6884880066 14.1638479233 9.70602321625 5.0269780159 2.29040145874 2.31476712227 5.92675018311 11.8090639114 17.3442516327 20.6310119629 20.6283912659 17.3320178986 11.7941179276 5.91268634796 2.31427145004 2.3315179348 6.45774698257 12.9907264709 19.1036586761 22.7643013 22.7613773346 19.0900859833 12.9742488861 6.44193172455 2.33089494705 2.34061312675 6.72456884384 13.5723199844 19.9524021149 23.7735729218 23.770532608 19.9382324219 13.5551147461 6.70791435242 2.33992147446 2.34060573578 6.72435951233 13.5718698502 19.951751709 23.7728023529 23.7697677612 19.9375858307 13.5546770096 6.70770788193 2.3399143219 2.33148169518 6.45668458939 12.9883813858 19.100194931 22.7601451874 22.7572288513 19.0866622925 12.9719381332 6.4408864975 2.33085989952 2.31471562386 5.92492818832 11.8049850464 17.3380413055 20.6226768494 20.6201477051 17.3258934021 11.7901220322 5.91089820862 2.31421971321 2.29064011574 5.03528022766 9.71150970459 14.1636238098 16.6777858734 16.6758670807 14.1542234421 9.69955730438 5.0243973732 2.29033350945 2.26497936249 3.8368639946 6.70306062698 9.40329551697 10.9459314346 10.9450340271 9.39740657806 6.69603204727 3.83039736748 2.26487016678 
2.26502585411 3.84018182755 6.71173238754 9.41858196259 10.9649162292 10.9636907578 9.41269111633 6.70432424545 3.83358359337 2.26491594315 2.29071235657 5.0379652977 9.71815490723 14.1735219955 16.6905422211 16.6885433197 14.1639003754 9.70605945587 5.0269947052 2.29040193558 2.31476783752 5.92677259445 11.8091106415 17.3443126678 20.6310844421 20.6284580231 17.3320846558 11.7941646576 5.91270828247 2.31427192688 2.33151865005 6.45777320862 12.9907798767 19.1037311554 22.7643909454 22.76146698 19.0901603699 12.9743022919 6.44195604324 2.33089566231 2.34061384201 6.7245965004 13.5723752975 19.9524841309 23.7736778259 23.7706356049 19.9383144379 13.5551719666 6.70794200897 2.33992218971 2.34060621262 6.72438716888 13.5719270706 19.9518318176 23.7729091644 23.7698726654 19.9376678467 13.5547332764 6.70773601532 2.33991503716 2.33148264885 6.45670986176 12.9884376526 19.100271225 22.7602367401 22.7573184967 19.0867366791 12.9719905853 6.44091129303 2.33086061478 2.31471586227 5.92495012283 11.8050298691 17.338104248 20.6227397919 20.6202163696 17.3259544373 11.7901706696 5.91092014313 2.31422042847 2.29064011574 5.03529834747 9.71154785156 14.1636753082 16.6778450012 16.6759243011 14.1542739868 9.69959449768 5.02441358566 2.2903342247 2.26497936249 3.83687520027 6.70308828354 9.40333461761 10.9459762573 10.9450798035 9.39744567871 6.69605970383 3.83040857315 2.26487016678 
2.26502609253 3.84019327164 6.71175956726 9.41862106323 10.9649600983 10.9637355804 9.41272926331 6.70435094833 3.83359479904 2.26491618156 2.29071235657 5.037981987 9.71819114685 14.1735696793 16.6905937195 16.6885986328 14.1639490128 9.70609760284 5.02701234818 2.290402174 2.31476831436 5.92679405212 11.8091564178 17.344379425 20.631155014 20.628528595 17.3321437836 11.7942123413 5.91272974014 2.31427240372 2.33151912689 6.45779800415 12.9908304214 19.1038093567 22.7644786835 22.7615566254 19.0902366638 12.974354744 6.44198131561 2.33089637756 2.34061455727 6.72462415695 13.5724334717 19.9525699615 23.7737827301 23.7707443237 19.9383964539 13.555232048 6.70796966553 2.33992266655 2.34060716629 6.72441387177 13.5719871521 19.9519176483 23.7730197906 23.7699813843 19.93775177 13.5547904968 6.70776367188 2.33991575241 2.33148312569 6.45673561096 12.9884901047 19.1003437042 22.7603263855 22.7574081421 19.0868110657 12.9720468521 6.44093751907 2.33086109161 2.31471681595 5.92497158051 11.8050737381 17.3381671906 20.6228103638 20.6202850342 17.3260173798 11.7902135849 5.9109416008 2.3142209053 2.29064059258 5.0353140831 9.71158599854 14.1637239456 16.677898407 16.6759796143 14.1543254852 9.69963359833 5.02443170547 2.29033398628 2.26498007774 3.83688616753 6.70311498642 9.40337276459 10.94602108 10.9451236725 9.39748382568 6.69608688354 3.83042001724 2.26487016678 
2.26502609253 3.84020471573 6.71178627014 9.41865921021 10.9650039673 10.9637813568 9.41276931763 6.70437717438 3.8336057663 2.26491641998 2.2907128334 5.03799915314 9.71822929382 14.173620224 16.6906509399 16.6886520386 14.1639995575 9.70613479614 5.02702951431 2.29040265083 2.3147687912 5.92681598663 11.8092021942 17.3444404602 20.6312198639 20.6285972595 17.3322067261 11.7942590714 5.91275072098 2.31427311897 2.33151960373 6.45782375336 12.9908857346 19.1038818359 22.7645683289 22.7616462708 19.0903110504 12.9744091034 6.44200706482 2.33089733124 2.34061479568 6.72465229034 13.5724935532 19.9526519775 23.7738933563 23.7708530426 19.9384803772 13.5552892685 6.70799732208 2.33992385864 2.34060788155 6.72444200516 13.5720434189 19.9519996643 23.7731189728 23.7700862885 19.937833786 13.554848671 6.70779180527 2.33991670609 2.33148384094 6.45676136017 12.9885435104 19.1004180908 22.7604122162 22.7574958801 19.0868854523 12.9720973969 6.44096231461 2.33086156845 2.31471705437 5.92499399185 11.8051223755 17.3382320404 20.6228809357 20.6203517914 17.3260765076 11.7902593613 5.91096305847 2.31422114372 2.29064106941 5.03533220291 9.71162319183 14.163775444 16.6779537201 16.67603302 14.1543750763 9.69966888428 5.02444791794 2.29033446312 2.26498007774 3.8368973732 6.70314264297 9.40340995789 10.946064949 10.9451675415 9.39752197266 6.69611263275 3.83043074608 2.26487016678 
