0.981555521488 1.00647246838 1.03364813328 1.09135246277 1.17295253277 1.17292404175 1.09127449989 1.02377605438 1.00644016266 0.981608390808 0.972481071949 1.04667437077 1.1657449007 1.28913938999 1.39226806164 1.39224457741 1.28905379772 1.09832513332 1.04661667347 0.972540616989 0.969824194908 1.13822770119 1.27195310593 1.40201473236 1.52290344238 1.52288377285 1.40193009377 1.20469212532 1.13815546036 0.969864964485 0.968152523041 1.18323004246 1.31581294537 1.43376719952 1.54444038868 1.54441952705 1.43369758129 1.24917340279 1.18316268921 0.968184530735 0.96654945612 1.21801888943 1.35357618332 1.46872544289 1.56444096565 1.56442523003 1.46866762638 1.28599715233 1.21794748306 0.966579318047 0.966551244259 1.21800732613 1.35356521606 1.468703866 1.56456983089 1.56454610825 1.4686384201 1.28599488735 1.21793603897 0.966581046581 0.968155920506 1.18317842484 1.31577062607 1.43367123604 1.54457759857 1.54454469681 1.43359601498 1.2491351366 1.18311154842 0.968187570572 0.970380187035 1.10653460026 1.23489177227 1.35601937771 1.47785043716 1.47784996033 1.35593533516 1.16984605789 1.1064722538 0.970422208309 0.972488641739 1.04658031464 1.16562175751 1.28920185566 1.39239406586 1.39231562614 1.28917276859 1.09821724892 1.04652225971 0.97254806757 0.981586515903 1.00642991066 1.03357613087 1.09109592438 1.17270302773 1.17279243469 1.090934515 1.02373051643 1.0063983202 0.981639027596 
0.981545329094 1.00610220432 1.03312301636 1.09064364433 1.17209196091 1.17206346989 1.09056603909 1.02324593067 1.00607037544 0.981598198414 0.972468614578 1.04617094994 1.16514098644 1.28845047951 1.39155733585 1.39153409004 1.28836512566 1.09773087502 1.04611372948 0.972528278828 0.969797432423 1.13764953613 1.27136564255 1.40127384663 1.52490711212 1.52488780022 1.40118908882 1.20411324501 1.13757753372 0.969838202 0.968112826347 1.18263554573 1.3151845932 1.43311572075 1.5485022068 1.54848361015 1.43304622173 1.24860858917 1.1825684309 0.968144893646 0.966500759125 1.21744000912 1.35296189785 1.4689617157 1.57274210453 1.57272803783 1.46890509129 1.2855104208 1.21736836433 0.96653097868 0.966502785683 1.21742868423 1.35295057297 1.46894180775 1.57292032242 1.57289600372 1.46887683868 1.28550815582 1.21735715866 0.96653264761 0.968116283417 1.18258416653 1.31514239311 1.43302166462 1.54868960381 1.54865682125 1.43294632435 1.24857079983 1.18251740932 0.968147993088 0.970354557037 1.10595524311 1.23426198959 1.35526311398 1.47715687752 1.47715735435 1.3551787138 1.16924130917 1.10589361191 0.970396697521 0.972476303577 1.04607713223 1.16501748562 1.28851461411 1.39168167114 1.39160311222 1.28848469257 1.09762263298 1.04601967335 0.972535848618 0.981576263905 1.00606000423 1.03305089474 1.09038603306 1.17184364796 1.17193388939 1.09022605419 1.0232013464 1.00602900982 0.981628596783 
0.981545209885 1.00610041618 1.03312087059 1.09064102173 1.17208909988 1.17206048965 1.09056353569 1.02324390411 1.00606870651 0.9815980196 0.972468495369 1.04616880417 1.16513872147 1.28844833374 1.39155519009 1.39153170586 1.28836286068 1.09772849083 1.04611170292 0.972528100014 0.969797372818 1.13764762878 1.27136397362 1.40127182007 1.52490353584 1.52488422394 1.40118718147 1.20411133766 1.13757574558 0.96983808279 0.968112230301 1.18263435364 1.31518340111 1.4331138134 1.54851293564 1.54849410057 1.43304431438 1.24860751629 1.18256688118 0.968144476414 0.966500461102 1.21743857861 1.35296034813 1.46896409988 1.57281708717 1.57280266285 1.46890747547 1.28550994396 1.21736705303 0.966530323029 0.966502189636 1.21742749214 1.35294878483 1.46894431114 1.5729970932 1.57297289371 1.46887922287 1.28550744057 1.21735584736 0.966532170773 0.968115746975 1.18258261681 1.31514155865 1.43301975727 1.54870188236 1.54866909981 1.43294453621 1.24856984615 1.18251562119 0.968147516251 0.970354318619 1.10595321655 1.23425972462 1.35526037216 1.47715401649 1.47715473175 1.35517609119 1.1692391634 1.10589146614 0.970396399498 0.972476303577 1.04607498646 1.16501557827 1.28851258755 1.39167964458 1.39160108566 1.28848230839 1.09762048721 1.04601764679 0.972535610199 0.981576085091 1.0060583353 1.03304839134 1.09038352966 1.17184066772 1.17193114758 1.09022343159 1.02319920063 1.00602722168 0.981628537178 
0.981545090675 1.00610077381 1.03312110901 1.09064209461 1.1720906496 1.17206215858 1.09056448936 1.02324414253 1.00606882572 0.981597900391 0.97246837616 1.04616951942 1.16513991356 1.28844964504 1.39155673981 1.39153325558 1.28836405277 1.09772932529 1.04611241817 0.972527980804 0.96979701519 1.13764894009 1.27136540413 1.40127384663 1.52490627766 1.52488708496 1.40118908882 1.20411276817 1.13757693768 0.969837963581 0.968112051487 1.18263554573 1.31518530846 1.43311607838 1.54852056503 1.54850184917 1.43304646015 1.24860930443 1.18256831169 0.968144178391 0.966500103474 1.21744036674 1.35296237469 1.46896708012 1.57282829285 1.57281398773 1.4689104557 1.2855117321 1.21736884117 0.966530203819 0.966501951218 1.21742916107 1.35295069218 1.46894729137 1.57300829887 1.5729842186 1.46888208389 1.28550934792 1.2173576355 0.966531991959 0.968115568161 1.18258404732 1.31514370441 1.43302178383 1.54870963097 1.5486767292 1.43294668198 1.24857163429 1.18251717091 0.968147397041 0.970354259014 1.10595428944 1.23426115513 1.3552621603 1.47715580463 1.4771566391 1.35517787933 1.16924023628 1.10589253902 0.970396518707 0.972476124763 1.04607570171 1.16501665115 1.28851401806 1.3916810751 1.39160227776 1.2884837389 1.09762167931 1.04601848125 0.97253549099 0.981575965881 1.00605857372 1.03304922581 1.09038460255 1.17184233665 1.1719326973 1.09022462368 1.02319979668 1.00602757931 0.981628477573 
0.981545090675 1.00610101223 1.03312170506 1.09064340591 1.17209243774 1.17206394672 1.09056580067 1.02324450016 1.00606930256 0.981597840786 0.972468316555 1.04617023468 1.16514098644 1.28845119476 1.39155828953 1.39153468609 1.28836560249 1.09773027897 1.04611313343 0.972527861595 0.969796895981 1.13765001297 1.27136719227 1.40127587318 1.52491080761 1.52489113808 1.40119147301 1.20411419868 1.13757812977 0.969837844372 0.968111753464 1.18263697624 1.31518745422 1.43311834335 1.54852890968 1.54851019382 1.43304896355 1.24861085415 1.1825697422 0.968143880367 0.96649992466 1.21744227409 1.35296440125 1.46897053719 1.57283806801 1.5728238821 1.46891367435 1.28551363945 1.21737074852 0.966530025005 0.966501832008 1.21743106842 1.35295271873 1.46895062923 1.57301819324 1.57299423218 1.46888542175 1.28551125526 1.21735930443 0.966531693935 0.968115329742 1.18258547783 1.31514573097 1.43302440643 1.54871797562 1.54868507385 1.43294906616 1.24857330322 1.18251860142 0.968147039413 0.970353960991 1.10595548153 1.23426258564 1.35526406765 1.47715818882 1.47715902328 1.35517978668 1.16924154758 1.10589361191 0.970396161079 0.972476005554 1.04607641697 1.16501772404 1.28851532936 1.39168298244 1.39160394669 1.28848528862 1.09762251377 1.0460190773 0.972535431385 0.981576085091 1.00605881214 1.03304982185 1.09038591385 1.17184412479 1.17193424702 1.09022593498 1.02320027351 1.00602793694 0.981628358364 
0.981544971466 1.00610136986 1.0331223011 1.0906444788 1.17209410667 1.17206573486 1.09056699276 1.023244977 1.00606954098 0.981597721577 0.972468018532 1.04617094994 1.16514194012 1.28845250607 1.39155983925 1.39153623581 1.2883669138 1.09773135185 1.04611372948 0.972527623177 0.969796657562 1.13765120506 1.27136850357 1.40127789974 1.52491700649 1.52489769459 1.40119326115 1.20411586761 1.13757932186 0.969837486744 0.96811157465 1.18263852596 1.31518936157 1.43312108517 1.54853689671 1.54851830006 1.43305170536 1.2486127615 1.18257117271 0.968143701553 0.966499686241 1.21744394302 1.35296630859 1.46897399426 1.57284772396 1.57283365726 1.46891748905 1.28551542759 1.21737229824 0.966529667377 0.966501712799 1.21743285656 1.35295498371 1.46895420551 1.57302820683 1.57300388813 1.46888935566 1.2855130434 1.21736109257 0.966531515121 0.968115270138 1.18258714676 1.31514728069 1.43302690983 1.54872608185 1.54869318008 1.43295180798 1.24857497215 1.18252003193 0.968146920204 0.970353782177 1.10595667362 1.23426413536 1.355265975 1.47716081142 1.47716164589 1.35518157482 1.1692429781 1.105894804 0.970395982265 0.972475886345 1.04607701302 1.16501891613 1.28851675987 1.39168405533 1.3916053772 1.28848671913 1.09762358665 1.04601991177 0.972535252571 0.981575846672 1.00605928898 1.03305006027 1.09038710594 1.17184579372 1.17193603516 1.09022712708 1.02320075035 1.00602817535 0.98162817955 
0.981544792652 1.00610172749 1.03312277794 1.09064567089 1.17209601402 1.17206716537 1.09056806564 1.02324557304 1.00606989861 0.981597602367 0.972468018532 1.0461717844 1.16514313221 1.28845393658 1.39156138897 1.39153778553 1.28836834431 1.09773230553 1.04611444473 0.972527623177 0.969796538353 1.13765239716 1.2713701725 1.40128004551 1.52492463589 1.52490520477 1.40119540691 1.20411705971 1.13758051395 0.969837486744 0.968111395836 1.18264007568 1.31519126892 1.43312358856 1.54854512215 1.5485265255 1.43305397034 1.24861454964 1.18257272243 0.968143522739 0.966499507427 1.21744573116 1.35296869278 1.46897792816 1.5728572607 1.5728430748 1.46892106533 1.28551733494 1.21737396717 0.966529488564 0.966501355171 1.21743428707 1.35295701027 1.468957901 1.57303750515 1.57301342487 1.46889305115 1.28551483154 1.2173627615 0.966531276703 0.968115031719 1.18258833885 1.31514942646 1.43302953243 1.54873430729 1.54870140553 1.43295419216 1.2485768795 1.18252170086 0.96814674139 0.970353782177 1.1059576273 1.23426544666 1.35526788235 1.4771630764 1.47716367245 1.35518360138 1.16924417019 1.10589575768 0.970395803452 0.972475707531 1.04607772827 1.16501998901 1.28851819038 1.39168584347 1.39160704613 1.28848803043 1.09762442112 1.0460203886 0.972535192966 0.981575965881 1.0060595274 1.03305065632 1.09038829803 1.17184746265 1.1719379425 1.09022831917 1.02320122719 1.00602841377 0.981628239155 
