2.26301383972 3.87316417694 6.79924964905 9.50306129456 11.0437688828 11.0425367355 9.49724006653 6.79175758362 3.86643314362 2.26291441917 2.28878188133 5.09563350677 9.79730129242 14.2887420654 16.8433895111 16.8413543701 14.2789926529 9.78517055511 5.08453607559 2.28848004341 2.31759238243 5.98999452591 11.9154157639 17.5397701263 20.8515872955 20.8489875793 17.52734375 11.9002733231 5.97590303421 2.31706929207 2.33367681503 6.52579593658 13.1458263397 19.3403663635 22.9640102386 22.9611797333 19.3267364502 13.129076004 6.50984334946 2.33303380013 2.34294342995 6.79896783829 13.7523431778 20.1966056824 23.947303772 23.9443855286 20.1824932098 13.7348470688 6.78211593628 2.34223198891 2.34293627739 6.79875183105 13.7518749237 20.1959495544 23.9465618134 23.9436511993 20.181842804 13.7343826294 6.78190326691 2.34222483635 2.33364009857 6.52470541 13.1433753967 19.3368396759 22.9599380493 22.9571075439 19.3232460022 13.1266536713 6.50877332687 2.33299803734 2.3175342083 5.98817205429 11.9111824036 17.5333843231 20.8432197571 20.8407154083 17.5210437775 11.8961248398 5.97411108017 2.31701040268 2.28869915009 5.09289646149 9.79072380066 14.2786836624 16.8304576874 16.8285083771 14.2691431046 9.77872371674 5.08188056946 2.28840088844 2.26297307014 3.86979651451 6.79044008255 9.48792266846 11.0250864029 11.0241794586 9.4821023941 6.78328895569 3.86318731308 2.26287388802 
2.26283550262 3.80290794373 6.64442920685 9.29993724823 10.8172473907 10.8160247803 9.29420852661 6.63710069656 3.79642295837 2.26274013519 2.28765845299 5.00325679779 9.60958957672 14.0584726334 16.6020107269 16.5999794006 14.0487651825 9.59763431549 4.99244689941 2.28736877441 2.31565070152 5.88894701004 11.7156524658 17.291967392 20.6178092957 20.6151561737 17.2795810699 11.7007074356 5.87514305115 2.31514644623 2.33134007454 6.42195367813 12.9405412674 19.0999603271 22.7874679565 22.7845249176 19.0862636566 12.923992157 6.40629339218 2.33071875572 2.34050822258 6.69478940964 13.5471172333 19.9710025787 23.8111171722 23.8080711365 19.9567394257 13.5298223495 6.67822742462 2.33981895447 2.34050130844 6.69457387924 13.5466489792 19.9703369141 23.8103485107 23.8073005676 19.9560813904 13.5293617249 6.67801475525 2.33981227875 2.33130407333 6.42087268829 12.9381046295 19.0964107513 22.7832527161 22.7803230286 19.0827598572 12.9215946198 6.40523195267 2.33068323135 2.3155939579 5.8871383667 11.7114515305 17.2856006622 20.6093730927 20.6068191528 17.2733020782 11.6965961456 5.87336921692 2.31508946419 2.28757882118 5.00056409836 9.60305213928 14.0484695435 16.5889759064 16.5870418549 14.0389947891 9.59125041962 4.98984766006 2.28729367256 2.26279735565 3.79967093468 6.63588142395 9.28490066528 10.798833847 10.7979488373 9.27916145325 6.62895059586 3.79332780838 2.26270198822 
2.26283288002 3.80243015289 6.64331531525 9.29840087891 10.8154993057 10.8142776489 9.29267311096 6.63598632812 3.79594612122 2.26273798943 2.28764867783 5.00256443024 9.60811328888 14.0565738678 16.5999603271 16.5979270935 14.0468664169 9.59616088867 4.99175643921 2.28735899925 2.31563353539 5.88811922073 11.7139511108 17.2897205353 20.6154022217 20.6127529144 17.2773399353 11.699007988 5.87431764603 2.31512928009 2.33131742477 6.42103528976 12.9386539459 19.0974502563 22.7847938538 22.7818546295 19.0837535858 12.9221086502 6.40537691116 2.33069610596 2.34048247337 6.69381856918 13.545124054 19.9683456421 23.8082904816 23.8052368164 19.954082489 13.5278301239 6.67725849152 2.3397936821 2.34047555923 6.69360256195 13.5446577072 19.9676780701 23.8075180054 23.8044681549 19.9534225464 13.5273742676 6.67704677582 2.33978652954 2.33128142357 6.41995334625 12.9362201691 19.0938987732 22.7805843353 22.7776489258 19.080247879 12.919711113 6.40431642532 2.33066129684 2.31557655334 5.88631105423 11.7097511292 17.2833538055 20.6069698334 20.6044139862 17.2710552216 11.6948986053 5.87254524231 2.31507205963 2.28756904602 4.99987268448 9.60157775879 14.0465707779 16.5869255066 16.5849933624 14.0370960236 9.58977794647 4.9891576767 2.2872838974 2.26279449463 3.79919362068 6.63476896286 9.28336524963 10.7970867157 10.7962026596 9.2776260376 6.62783956528 3.79285240173 2.26269984245 
2.26283288002 3.80245065689 6.64336204529 9.29846668243 10.8155765533 10.8143501282 9.29273891449 6.636033535 3.7959663868 2.26273775101 2.28764915466 5.0025935173 9.60817718506 14.0566558838 16.6000480652 16.5980148315 14.0469465256 9.59622383118 4.99178647995 2.28735947609 2.31563448906 5.88815546036 11.7140245438 17.2898197174 20.6155071259 20.6128578186 17.277431488 11.6990785599 5.87435388565 2.31512975693 2.33131814003 6.42107439041 12.9387350082 19.0975570679 22.784910202 22.7819671631 19.0838623047 12.9221897125 6.40541744232 2.33069729805 2.34048342705 6.69385910034 13.545208931 19.9684581757 23.8084087372 23.805355072 19.9541969299 13.5279159546 6.67729902267 2.33979487419 2.34047651291 6.69364500046 13.5447435379 19.967792511 23.807636261 23.8045845032 19.9535369873 13.5274591446 6.67708826065 2.33978772163 2.33128237724 6.4199924469 12.936299324 19.0940074921 22.7806930542 22.7777633667 19.0803565979 12.9197921753 6.4043545723 2.33066177368 2.31557750702 5.88634824753 11.7098236084 17.283449173 20.6070747375 20.6045188904 17.271150589 11.6949720383 5.87258052826 2.31507277489 2.28756904602 4.99990224838 9.60164070129 14.0466518402 16.587015152 16.5850791931 14.0371780396 9.58984088898 4.9891872406 2.28728413582 2.26279449463 3.79921388626 6.63481712341 9.28343105316 10.7971611023 10.7962770462 9.2776927948 6.62788772583 3.79287290573 2.26269960403 
2.26283288002 3.80247306824 6.6434135437 9.29853820801 10.8156557083 10.8144340515 9.29281139374 6.63608551025 3.79598903656 2.26273775101 2.2876496315 5.00262594223 9.60824489594 14.0567455292 16.6001472473 16.5981121063 14.0470380783 9.59629249573 4.99181842804 2.28736019135 2.3156349659 5.88819503784 11.7141036987 17.2899246216 20.6156196594 20.6129684448 17.2775363922 11.6991605759 5.87439250946 2.3151307106 2.33131933212 6.42111778259 12.9388217926 19.0976715088 22.7850341797 22.7820930481 19.083978653 12.9222784042 6.40545940399 2.33069777489 2.34048485756 6.69390583038 13.5453023911 19.968585968 23.8085479736 23.8054924011 19.9543209076 13.528011322 6.6773443222 2.33979558945 2.34047794342 6.69368982315 13.5448379517 19.967918396 23.8077659607 23.804725647 19.9536590576 13.5275526047 6.67713356018 2.33978867531 2.33128333092 6.42003679276 12.9363889694 19.0941257477 22.7808246613 22.7778930664 19.0804748535 12.919880867 6.40439939499 2.33066320419 2.31557798386 5.88638591766 11.7099065781 17.2835559845 20.6071872711 20.604631424 17.2712574005 11.6950521469 5.87262010574 2.31507372856 2.28756976128 4.99993467331 9.60170936584 14.0467414856 16.5871124268 16.5851745605 14.0372676849 9.5899105072 4.98922014236 2.28728437424 2.26279497147 3.79923629761 6.63486814499 9.28350448608 10.7972450256 10.7963581085 9.27776432037 6.62794017792 3.79289531708 2.26270008087 
2.26283311844 3.802495718 6.64346599579 9.29861068726 10.8157405853 10.8145160675 9.29288387299 6.63613796234 3.79601144791 2.26273775101 2.28765034676 5.00265884399 9.60831642151 14.0568342209 16.6002388 16.5982074738 14.0471248627 9.59636211395 4.9918513298 2.28736066818 2.31563591957 5.88823413849 11.7141857147 17.2900276184 20.6157341003 20.6130828857 17.2776432037 11.6992387772 5.87443065643 2.31513166428 2.33132052422 6.42116165161 12.9389123917 19.0977916718 22.7851581573 22.7822189331 19.0840988159 12.9223670959 6.40550279617 2.33069968224 2.34048581123 6.69395112991 13.5453996658 19.9687080383 23.808675766 23.8056259155 19.9544448853 13.5281047821 6.67739009857 2.33979701996 2.34047889709 6.69373607635 13.5449333191 19.9680404663 23.8079032898 23.804851532 19.95378685 13.5276451111 6.67717838287 2.3397898674 2.33128452301 6.42007923126 12.9364776611 19.0942420959 22.7809486389 22.7780151367 19.0805931091 12.919968605 6.40444135666 2.33066368103 2.31557893753 5.88642549515 11.709985733 17.2836589813 20.6073036194 20.6047439575 17.2713623047 11.6951322556 5.87265729904 2.31507468224 2.28756999969 4.99996757507 9.60177898407 14.046831131 16.5872077942 16.5852737427 14.0373573303 9.58997821808 4.98925256729 2.28728508949 2.26279497147 3.79925894737 6.63492107391 9.28357601166 10.797326088 10.7964420319 9.27783679962 6.62799215317 3.79291749001 2.26270055771 
2.26283335686 3.80251789093 6.64351892471 9.29868412018 10.815820694 10.8145999908 9.29295444489 6.6361913681 3.79603409767 2.26273822784 2.28765058517 5.00269126892 9.60838508606 14.0569248199 16.6003360748 16.5983047485 14.0472164154 9.59643268585 4.99188375473 2.2873609066 2.31563639641 5.88827228546 11.7142648697 17.2901363373 20.6158466339 20.6131973267 17.2777481079 11.6993188858 5.87446975708 2.31513285637 2.33132147789 6.42120456696 12.9390001297 19.0979118347 22.7852897644 22.7823429108 19.0842170715 12.9224557877 6.40554475784 2.33070063591 2.34048724174 6.69399642944 13.5454912186 19.9688339233 23.8088150024 23.8057613373 19.9545707703 13.5281982422 6.67743635178 2.33979797363 2.34048032761 6.69378185272 13.5450248718 19.9681682587 23.8080348969 23.8049869537 19.953912735 13.5277414322 6.67722511292 2.33979105949 2.33128547668 6.42012262344 12.9365673065 19.0943622589 22.7810745239 22.7781410217 19.0807113647 12.9200592041 6.40448379517 2.33066534996 2.3155798912 5.88646411896 11.7100658417 17.2837657928 20.6074123383 20.6048622131 17.2714691162 11.6952123642 5.87269639969 2.31507539749 2.28757071495 4.99999952316 9.60184860229 14.0469207764 16.5873031616 16.5853691101 14.037446022 9.59005069733 4.98928499222 2.28728532791 2.26279497147 3.7992811203 6.63497161865 9.28364944458 10.7974100113 10.7965240479 9.27790927887 6.62804460526 3.79294037819 2.26270008087 
