0.241 1.020 0.923 0.029
0.289 1.106 0.742 0.051
0.075 0.881 0.258 0.040
0.214 0.961 0.622 0.023
0.669 1.009 0.657 0.025
0.729 0.970 0.322 0.041
0.143 1.043 0.577 0.024
0.109 0.930 0.964 0.046
0.321 0.899 0.632 0.036
0.226 0.819 0.419 0.035
0.492 1.097 0.627 0.032
0.733 1.094 0.595 0.051
0.763 1.083 0.375 0.049
0.932 0.871 0.399 0.030
0.870 0.998 0.843 0.043
0.267 1.193 0.347 0.044
0.787 0.960 0.202 0.047
0.088 0.843 0.170 0.032
0.205 1.100 0.764 0.053
0.177 1.123 0.550 0.047
0.781 0.948 0.938 0.044
0.536 1.027 0.539 0.045
0.064 1.164 0.883 0.049
0.418 0.892 0.292 0.042
0.049 0.835 0.311 0.041
0.454 0.940 0.109 0.037
0.572 1.075 0.126 0.041
0.374 1.138 0.220 0.028
0.274 1.186 0.241 0.026
0.761 0.850 0.462 0.037
0.151 1.054 0.821 0.022
0.844 1.147 0.289 0.039
0.316 1.141 0.485 0.047
0.555 0.875 0.264 0.056
0.953 1.199 0.327 0.046
0.515 1.132 0.995 0.052
0.965 0.917 0.918 0.040
0.836 0.932 0.457 0.055
0.929 0.923 0.672 0.036
0.905 1.080 0.512 0.038
0.815 0.828 0.813 0.025
0.362 0.823 0.838 0.025
0.394 0.913 0.491 0.052
0.131 0.976 0.131 0.057
0.484 0.980 0.931 0.049
0.997 1.034 0.342 0.038
0.530 0.893 0.213 0.053
0.630 1.180 0.793 0.054
0.830 0.803 0.848 0.022
0.808 0.927 0.232 0.023
0.383 0.828 0.723 0.050
0.883 1.159 0.139 0.055
0.971 1.045 0.409 0.032
0.646 0.951 0.805 0.057
0.054 0.880 0.473 0.056
0.194 1.057 0.708 0.060
0.402 1.174 0.524 0.054
0.708 0.846 0.689 0.043
0.635 1.152 0.696 0.046
0.598 1.164 0.352 0.037
0.020 1.117 0.872 0.035
0.330 0.910 0.147 0.050
0.183 0.886 0.193 0.021
0.256 1.064 0.519 0.024
0.913 0.987 0.184 0.028
0.299 1.067 0.274 0.031
0.463 1.008 0.104 0.033
0.593 0.941 0.955 0.045
0.349 1.169 0.501 0.042
0.675 1.022 0.565 0.059
0.036 1.126 0.985 0.058
0.893 0.864 0.645 0.034
0.099 1.176 0.979 0.024
0.575 1.132 0.788 0.040
0.609 0.838 0.440 0.028
0.697 1.036 0.432 0.034
0.410 0.806 0.249 0.059
0.854 1.156 0.778 0.042
0.874 0.976 0.682 0.030
0.091 0.867 0.891 0.054
0.982 0.988 0.576 0.021
0.124 0.858 0.737 0.033
0.616 1.048 0.600 0.058
0.346 0.901 0.447 0.048
0.026 1.189 0.543 0.059
0.503 0.954 0.900 0.048
0.429 1.088 0.713 0.026
0.442 1.014 0.907 0.027
0.466 1.030 0.775 0.030
0.515 0.816 0.612 0.020
0.283 1.108 0.301 0.022
0.654 1.084 0.865 0.027
0.238 0.965 0.757 0.051
0.168 1.002 0.174 0.038
0.743 1.115 0.392 0.034
0.719 1.071 0.364 0.052
0.688 0.996 0.158 0.058
0.950 0.905 0.969 0.031
0.794 0.853 0.659 0.031
0.549 0.811 0.383 0.029
0.285 0.918 0.222 0.021
0.163 0.893 0.994 0.046
0.645 1.094 0.285 0.041
0.872 1.043 0.709 0.048
0.360 0.904 0.754 0.057
0.222 0.801 0.468 0.021
0.312 1.032 0.674 0.022
0.727 1.111 0.514 0.035
0.544 0.848 0.378 0.057
0.667 0.989 0.591 0.028
0.779 0.973 0.896 0.032
0.699 1.175 0.201 0.041
0.814 1.153 0.968 0.058
0.392 0.997 0.448 0.055
0.464 0.862 0.914 0.039
0.420 0.922 0.229 0.030
0.848 0.952 0.936 0.053
0.951 1.124 0.890 0.059
0.203 0.817 0.625 0.027
0.182 0.881 0.838 0.054
0.639 1.087 0.572 0.024
0.752 0.938 0.652 0.055
0.568 1.198 0.430 0.025
0.259 1.133 0.100 0.052
0.482 0.983 0.279 0.032
0.904 1.032 0.690 0.043
0.839 0.813 0.175 0.059
0.378 1.072 0.609 0.042
0.718 1.004 0.396 0.027
0.138 0.934 0.314 0.023
0.019 0.875 0.866 0.044
0.081 1.024 0.733 0.038
0.886 1.101 0.482 0.033
0.346 1.187 0.518 0.036
0.442 0.948 0.362 0.052
0.594 1.116 0.416 0.037
0.993 0.906 0.800 0.036
0.112 1.073 0.347 0.029
0.558 0.828 0.154 0.024
0.969 1.136 0.722 0.045
0.232 0.854 0.559 0.049
0.506 0.867 0.134 0.026
0.618 0.839 0.544 0.031
0.047 1.183 0.780 0.045
0.494 1.168 0.838 0.051
0.096 1.013 0.325 0.049
0.056 1.059 0.812 0.046
0.934 1.152 0.156 0.034
0.790 1.051 0.261 0.040
0.294 0.965 0.949 0.050
0.427 1.162 0.924 0.035
0.130 0.925 0.133 0.043
0.236 0.905 0.717 0.023
0.033 1.132 0.779 0.054
0.693 1.059 0.371 0.059
0.319 1.028 0.358 0.030
0.764 0.875 0.583 0.047
0.969 1.093 0.202 0.025
0.520 0.964 0.859 0.040
0.861 0.824 0.514 0.051