0.427 1.162 0.924 0.035
0.130 0.925 0.133 0.043
0.236 0.905 0.717 0.023
0.033 1.132 0.779 0.054
0.693 1.059 0.371 0.059
0.319 1.028 0.358 0.030
0.764 0.875 0.583 0.047
0.969 1.093 0.202 0.025
0.520 0.964 0.859 0.040
0.861 0.824 0.514 0.051