13.9704971313 21.7385673523 29.3481502533 37.1718063354 45.6478309631 54.3739051819 62.848815918 70.6707839966 78.2806854248 86.0492248535 13.962053299 21.5132770538 28.633398056 36.3084411621 45.2865905762 54.7368850708 63.7129364014 71.3843994141 78.5049133301 86.0575790405 13.9598751068 21.3278026581 28.1869258881 35.7855110168 45.0590324402 54.9655303955 64.2362289429 71.8303451538 78.6896133423 86.0597076416 13.9508771896 21.2060108185 27.9390239716 35.5211677551 44.9527282715 55.0723381042 64.5008392334 72.0779876709 78.8110427856 86.0685882568 13.9452648163 21.1456127167 27.8234519958 35.4156837463 44.9124794006 55.1127738953 64.6064529419 72.1934738159 78.8712844849 86.0741577148 13.9452724457 21.1456871033 27.823589325 35.415802002 44.912525177 55.1127319336 64.606338501 72.1933288574 78.8712158203 86.0741577148 13.9508962631 21.2062244415 27.9394359589 35.5215644836 44.9528770447 55.0721893311 64.5004577637 72.0775680542 78.8108291626 86.0685806274 13.9598922729 21.3281898499 28.1877574921 35.7864570618 45.0594291687 54.9651374817 64.2352905273 71.8295059204 78.6892318726 86.0596923828 13.962053299 21.5137939453 28.634935379 36.3102378845 45.2873725891 54.7360992432 63.7111434937 71.382850647 78.5044021606 86.0575790405 13.9705553055 21.7391738892 29.3499927521 37.1742324829 45.648815155 54.37292099 62.8463897705 70.6689453125 78.2800750732 86.0491638184 
13.9701385498 21.7389736176 29.3488368988 37.1717414856 45.6475639343 54.374168396 62.8488845825 70.6700973511 78.2802886963 86.0495910645 13.9615392685 21.5140190125 28.6334247589 36.3052330017 45.2838897705 54.7395935059 63.7161331177 71.3843612671 78.50415802 86.0580825806 13.9592103958 21.3274326324 28.1829566956 35.7723693848 45.0460777283 54.9785461426 64.2493591309 71.8342895508 78.689994812 86.0603561401 13.9500427246 21.2035770416 27.9273872375 35.4862365723 44.9224624634 55.1027374268 64.535697937 72.0895843506 78.8134613037 86.0694351196 13.9443626404 21.1422233582 27.8080463409 35.3622322083 44.872428894 55.153011322 64.6598052979 72.2088165283 78.8746414185 86.0750656128 13.9443693161 21.1422958374 27.8081798553 35.3623733521 44.8724861145 55.1529579163 64.6596679688 72.2086639404 78.8745651245 86.0750656128 13.9500617981 21.203792572 27.9278144836 35.4866867065 44.9226570129 55.1025543213 64.5352478027 72.0891647339 78.8132476807 86.0694122314 13.9592313766 21.3278255463 28.1838035583 35.7733535767 45.0465049744 54.9781036377 64.2483673096 71.8334503174 78.6895904541 86.0603408813 13.9615383148 21.5145378113 28.634967804 36.3070487976 45.2846870422 54.7388000488 63.7143173218 71.3828201294 78.50365448 86.0580978394 13.9701976776 21.7395744324 29.3506774902 37.1741676331 45.6485404968 54.3731803894 62.8464508057 70.6682662964 78.2796783447 86.0495300293 
13.9701366425 21.7389698029 29.3488330841 37.1717376709 45.6475524902 54.3741722107 62.8488845825 70.6700973511 78.2802810669 86.0495910645 13.9615392685 21.5140151978 28.6334190369 36.3052177429 45.2838859558 54.7396011353 63.7161521912 71.3843688965 78.5041656494 86.05809021 13.9592084885 21.3274288177 28.1829452515 35.7723350525 45.0460510254 54.9785728455 64.2493896484 71.8342971802 78.6899871826 86.0603561401 13.9500398636 21.2035636902 27.9273414612 35.4861450195 44.9223976135 55.1027984619 64.5357818604 72.0896148682 78.8134841919 86.0694503784 13.9443588257 21.14220047 27.8079776764 35.3620567322 44.8722724915 55.1531677246 64.6599807739 72.2088928223 78.874671936 86.0750656128 13.9443645477 21.1422729492 27.8081092834 35.3621902466 44.8723297119 55.1531105042 64.6598434448 72.2087478638 78.8745956421 86.0750656128 13.9500598907 21.2037792206 27.9277706146 35.4865989685 44.9225845337 55.1026153564 64.5353317261 72.0891952515 78.8132629395 86.0694198608 13.9592294693 21.3278217316 28.1837902069 35.7733268738 45.0464897156 54.9781303406 64.2484054565 71.8334503174 78.6895751953 86.0603485107 13.9615364075 21.5145378113 28.6349563599 36.3070335388 45.2846794128 54.7388000488 63.7143325806 71.3828353882 78.5036468506 86.0580978394 13.9701957703 21.739572525 29.3506736755 37.1741676331 45.6485404968 54.3731842041 62.8464546204 70.6682662964 78.2796707153 86.0495300293 
13.9701366425 21.7389698029 29.3488330841 37.1717376709 45.6475601196 54.3741760254 62.8488845825 70.6701126099 78.2802810669 86.0495910645 13.9615402222 21.5140132904 28.6334095001 36.3052139282 45.2838821411 54.7396011353 63.7161560059 71.3843917847 78.5041809082 86.05809021 13.9592075348 21.3274211884 28.1829223633 35.7723197937 45.0460472107 54.9785728455 64.2494049072 71.8343200684 78.689994812 86.0603561401 13.9500398636 21.2035522461 27.9273223877 35.4861221313 44.92237854 55.1028251648 64.5358123779 72.0896606445 78.8134994507 86.0694503784 13.9443588257 21.1421890259 27.8079395294 35.3620185852 44.872253418 55.1531867981 64.6600265503 72.2089233398 78.8746948242 86.0750656128 13.9443683624 21.1422615051 27.8080768585 35.3621559143 44.8723068237 55.1531333923 64.6598815918 72.208770752 78.8745956421 86.0750656128 13.9500598907 21.2037696838 27.9277477264 35.486579895 44.9225692749 55.1026382446 64.5353622437 72.0892410278 78.8132781982 86.0694198608 13.9592294693 21.3278141022 28.1837730408 35.7733078003 45.0464820862 54.9781265259 64.2484130859 71.833480835 78.6895904541 86.0603485107 13.9615364075 21.5145301819 28.6349487305 36.3070220947 45.2846755981 54.7388076782 63.7143440247 71.3828582764 78.50365448 86.0580978394 13.9701957703 21.7395706177 29.3506736755 37.1741600037 45.6485404968 54.3731918335 62.8464546204 70.6682739258 78.2796707153 86.0495300293 
13.9701385498 21.7389678955 29.3488235474 37.1717262268 45.6475524902 54.3741836548 62.8488998413 70.6701126099 78.2802810669 86.0495910645 13.9615402222 21.5140075684 28.6334037781 36.3052062988 45.2838745117 54.7396087646 63.71616745 71.3843917847 78.5041885376 86.05809021 13.9592075348 21.327413559 28.1829090118 35.7723007202 45.0460395813 54.9785728455 64.249420166 71.8343429565 78.689994812 86.0603561401 13.9500379562 21.203546524 27.9273052216 35.4860916138 44.9223670959 55.1028327942 64.5358428955 72.0896759033 78.8134994507 86.0694503784 13.9443569183 21.1421756744 27.8079090118 35.3619842529 44.8722343445 55.153213501 64.6600570679 72.2089538574 78.874710083 86.0750656128 13.9443655014 21.1422462463 27.8080463409 35.3621177673 44.8722877502 55.1531486511 64.6599197388 72.2088088989 78.8746185303 86.0750656128 13.9500579834 21.2037620544 27.9277324677 35.4865493774 44.9225578308 55.1026420593 64.5353851318 72.0892486572 78.8132858276 86.0694198608 13.9592294693 21.3278102875 28.183757782 35.7732925415 45.0464744568 54.9781341553 64.2484207153 71.8334960938 78.6896057129 86.0603485107 13.9615364075 21.5145225525 28.6349430084 36.30701828 45.2846755981 54.7388076782 63.7143554688 71.3828582764 78.5036697388 86.0580978394 13.9701957703 21.7395687103 29.3506641388 37.1741600037 45.6485366821 54.3731918335 62.8464622498 70.6682739258 78.2796783447 86.0495300293 
13.9701366425 21.7389640808 29.34882164 37.1717262268 45.6475448608 54.3741798401 62.8488998413 70.6701278687 78.2802810669 86.0495910645 13.9615383148 21.5140075684 28.6333885193 36.30519104 45.2838668823 54.739616394 63.7161750793 71.3843994141 78.5041885376 86.05809021 13.9592084885 21.3274078369 28.1828937531 35.7722854614 45.0460281372 54.9785804749 64.2494354248 71.8343505859 78.6900177002 86.0603561401 13.9500408173 21.2035331726 27.9272823334 35.4860610962 44.9223442078 55.1028518677 64.5358657837 72.0896911621 78.8135070801 86.0694503784 13.944357872 21.142162323 27.8078804016 35.361946106 44.8722190857 55.1532249451 64.6601028442 72.2089920044 78.8746948242 86.0750732422 13.9443645477 21.1422348022 27.8080158234 35.3620872498 44.8722724915 55.1531600952 64.6599578857 72.2088394165 78.8746261597 86.0750579834 13.9500579834 21.203748703 27.9277095795 35.4865150452 44.9225311279 55.1026687622 64.5354156494 72.0892791748 78.813293457 86.0694198608 13.9592294693 21.3278026581 28.1837501526 35.773273468 45.0464706421 54.9781417847 64.2484588623 71.8335037231 78.6896133423 86.0603485107 13.9615373611 21.5145263672 28.6349277496 36.3070068359 45.2846679688 54.7388153076 63.7143669128 71.3828582764 78.5036697388 86.0580978394 13.9701976776 21.739566803 29.3506622314 37.1741523743 45.6485290527 54.3731918335 62.8464698792 70.6682891846 78.2796783447 86.0495300293 
13.9701366425 21.7389621735 29.3488140106 37.1717147827 45.6475410461 54.3741912842 62.8489074707 70.670135498 78.2802886963 86.0495910645 13.9615402222 21.5140037537 28.6333827972 36.3051834106 45.2838630676 54.7396202087 63.7161865234 71.3843917847 78.5041885376 86.05809021 13.9592075348 21.3274021149 28.1828804016 35.7722663879 45.0460243225 54.9785919189 64.2494506836 71.8343505859 78.6900100708 86.0603561401 13.9500408173 21.2035255432 27.9272575378 35.4860343933 44.9223251343 55.1028709412 64.5358886719 72.0897140503 78.8135147095 86.0694503784 13.9443569183 21.1421508789 27.8078517914 35.361907959 44.8721961975 55.1532402039 64.6601333618 72.209022522 78.8747177124 86.0750732422 13.9443626404 21.1422233582 27.8079853058 35.3620452881 44.8722572327 55.1531867981 64.6599884033 72.2088623047 78.8746490479 86.0750579834 13.9500598907 21.203742981 27.9276866913 35.4864959717 44.9225234985 55.1026763916 64.5354385376 72.0893096924 78.8133010864 86.0694198608 13.959227562 21.3277950287 28.1837272644 35.7732543945 45.0464668274 54.9781570435 64.2484741211 71.8335189819 78.6896133423 86.0603485107 13.9615392685 21.5145225525 28.6349220276 36.3070030212 45.2846603394 54.7388153076 63.7143745422 71.3828659058 78.5036697388 86.0580978394 13.9701976776 21.739566803 29.3506526947 37.1741485596 45.648525238 54.3731994629 62.8464813232 70.6682891846 78.2796859741 86.0495300293 
