0.983966290951 1.0096603632 1.04039347172 1.1348067522 1.19618344307 1.19615507126 1.13473951817 1.0364536047 1.00965774059 0.984083294868 0.979023337364 1.04364860058 1.12840270996 1.27313518524 1.35003709793 1.35000407696 1.27305173874 1.09883844852 1.04364085197 0.979149401188 0.977596640587 1.11726486683 1.2278958559 1.37816143036 1.46309149265 1.46305072308 1.37807261944 1.19769513607 1.11727559566 0.977708995342 0.976082503796 1.17013835907 1.2819327116 1.42614209652 1.49917554855 1.49912893772 1.42605257034 1.25046205521 1.17013287544 0.976168274879 0.975100755692 1.19634842873 1.30918908119 1.44640386105 1.51155638695 1.51150894165 1.44631421566 1.27694141865 1.19633078575 0.975172936916 0.975102126598 1.19633758068 1.30917799473 1.44639587402 1.51155042648 1.51150298119 1.44630587101 1.27693128586 1.19632005692 0.975174307823 0.976086378098 1.17010593414 1.28190386295 1.42611920834 1.49915480614 1.4991081953 1.42602956295 1.25043427944 1.17010045052 0.976172208786 0.977414548397 1.10174453259 1.21187067032 1.36168575287 1.44871914387 1.44867753983 1.36159670353 1.18179774284 1.10175907612 0.977529346943 0.979027748108 1.04356884956 1.12831997871 1.27304208279 1.3499404192 1.34990775585 1.27295875549 1.09875679016 1.04356122017 0.979153692722 0.983985900879 1.0096013546 1.04030394554 1.13465690613 1.19600629807 1.19597816467 1.13458967209 1.03636538982 1.0095988512 0.984102666378 
0.983938276768 1.00864541531 1.03893017769 1.1328420639 1.19393229485 1.19390439987 1.13277578354 1.03498160839 1.00864350796 0.984054267406 0.978979706764 1.04228854179 1.12680602074 1.27117848396 1.34796571732 1.34793376923 1.27109622955 1.0972481966 1.04228103161 0.979104816914 0.977510392666 1.11572790146 1.22623825073 1.37628984451 1.46557450294 1.46553909779 1.37620306015 1.19607198238 1.11573827267 0.977621972561 0.975947916508 1.16862845421 1.28051149845 1.42617440224 1.51269614697 1.51265847683 1.42609083652 1.24910545349 1.1686218977 0.976033270359 0.974945127964 1.19490218163 1.30739855766 1.44963765144 1.53112494946 1.53108644485 1.4495562315 1.27546989918 1.19488275051 0.97501707077 0.974946558475 1.19489133358 1.30738937855 1.44963097572 1.5311191082 1.53108072281 1.44954943657 1.27546060085 1.19487202168 0.975018501282 0.975951850414 1.16859602928 1.28048324585 1.42615270615 1.51267671585 1.5126388073 1.42606902122 1.24907755852 1.16858959198 0.976037144661 0.977332055569 1.10020601749 1.21016705036 1.35971224308 1.44778966904 1.44775426388 1.35962498188 1.18013048172 1.10022032261 0.977446138859 0.978984057903 1.04220962524 1.12672364712 1.27108538151 1.34786903858 1.34783685207 1.27100324631 1.09716689587 1.04220223427 0.979109048843 0.983957946301 1.00858736038 1.03884136677 1.13269293308 1.19375646114 1.19372844696 1.13262689114 1.03489422798 1.00858557224 0.984073758125 
0.983938217163 1.00864362717 1.03892791271 1.13283896446 1.19392895699 1.19390118122 1.13277280331 1.03497922421 1.00864183903 0.984054207802 0.97897952795 1.04228639603 1.12680375576 1.27117550373 1.34796285629 1.3479309082 1.27109336853 1.09724569321 1.04227900505 0.979104459286 0.977510035038 1.1157258749 1.22623598576 1.3762871027 1.4655714035 1.46553587914 1.37620055676 1.19606995583 1.11573624611 0.977621793747 0.975947439671 1.16862678528 1.28051018715 1.42617380619 1.51271736622 1.51267957687 1.42609012127 1.24910414219 1.16862022877 0.976032733917 0.974944591522 1.19490075111 1.30739736557 1.44964241982 1.53122913837 1.53119087219 1.44956088066 1.27546918392 1.19488167763 0.975016474724 0.974945902824 1.19489002228 1.30738842487 1.4496358633 1.53122329712 1.53118515015 1.44955420494 1.27546000481 1.19487094879 0.975017845631 0.975951433182 1.16859436035 1.28048193455 1.42615187168 1.51269769669 1.51266002655 1.42606830597 1.24907624722 1.16858780384 0.976036787033 0.97733181715 1.10020399094 1.21016478539 1.35970926285 1.44778716564 1.44775140285 1.35962212086 1.18012809753 1.10021817684 0.97744601965 0.978983879089 1.04220736027 1.12672150135 1.27108252048 1.34786605835 1.34783399105 1.27100038528 1.09716427326 1.04219996929 0.979108929634 0.983957886696 1.00858569145 1.03883898258 1.13268995285 1.1937533617 1.19372534752 1.1326239109 1.0348918438 1.0085837841 0.984073638916 
0.983938097954 1.00864398479 1.03892850876 1.13284015656 1.19393062592 1.19390273094 1.1327739954 1.03497970104 1.00864219666 0.984053969383 0.978979289532 1.04228723049 1.12680470943 1.27117717266 1.34796452522 1.34793233871 1.27109479904 1.09724676609 1.04227972031 0.979104399681 0.977509915829 1.11572682858 1.22623741627 1.37628889084 1.46557331085 1.46553766727 1.37620222569 1.19607126713 1.11573708057 0.977621674538 0.975947320461 1.16862821579 1.28051221371 1.42617583275 1.51272618771 1.51268851757 1.42609238625 1.24910569191 1.16862165928 0.976032614708 0.974944353104 1.19490242004 1.30739974976 1.44964659214 1.53123939037 1.53120136261 1.44956505299 1.27547132969 1.19488334656 0.975016236305 0.974945664406 1.194891572 1.30739045143 1.44964003563 1.53123378754 1.53119540215 1.44955849648 1.27546238899 1.19487249851 0.975017547607 0.975951194763 1.16859579086 1.2804838419 1.42615425587 1.51270675659 1.51266884804 1.42607057095 1.24907803535 1.16858923435 0.976036608219 0.977331638336 1.10020506382 1.21016597748 1.35971128941 1.44778907299 1.4477533102 1.35962402821 1.18012952805 1.10021936893 0.977445781231 0.97898375988 1.04220807552 1.12672221661 1.27108407021 1.34786772728 1.34783554077 1.27100169659 1.09716534615 1.04220080376 0.979108810425 0.983957827091 1.00858604908 1.03883969784 1.13269126415 1.19375491142 1.19372701645 1.13262498379 1.03489208221 1.00858426094 0.984073519707 
0.983938038349 1.00864422321 1.0389291048 1.13284158707 1.19393217564 1.19390428066 1.1327753067 1.03498029709 1.00864243507 0.984053969383 0.978979170322 1.04228770733 1.12680566311 1.27117836475 1.34796607494 1.34793400764 1.27109599113 1.09724748135 1.04228031635 0.979104340076 0.977509796619 1.11572802067 1.22623884678 1.37629079819 1.46557509899 1.46553957462 1.37620401382 1.19607245922 1.11573839188 0.977621614933 0.975947022438 1.1686296463 1.28051388264 1.42617833614 1.51273477077 1.51269698143 1.42609453201 1.24910748005 1.16862308979 0.976032316685 0.974944114685 1.19490420818 1.30740189552 1.44965052605 1.53124952316 1.53121125698 1.44956922531 1.27547371387 1.19488501549 0.975016057491 0.974945425987 1.19489347935 1.3073925972 1.44964396954 1.53124368191 1.53120553493 1.44956243038 1.27546453476 1.19487428665 0.975017309189 0.975951075554 1.16859722137 1.28048551083 1.42615652084 1.51271510124 1.51267755032 1.42607295513 1.24907970428 1.16859066486 0.976036250591 0.977331459522 1.10020601749 1.21016740799 1.35971271992 1.44779098034 1.44775521755 1.35962545872 1.18013072014 1.10022032261 0.977445602417 0.978983819485 1.04220879078 1.12672328949 1.27108538151 1.347869277 1.34783697128 1.27100324631 1.09716594219 1.04220151901 0.97910875082 0.983957707882 1.0085862875 1.03884029388 1.13269233704 1.19375634193 1.19372856617 1.13262629509 1.03489279747 1.00858449936 0.984073460102 
0.983937978745 1.00864458084 1.03892970085 1.13284242153 1.19393360615 1.19390571117 1.13277649879 1.03498077393 1.0086427927 0.984053909779 0.978979110718 1.04228830338 1.12680649757 1.27117967606 1.34796762466 1.34793543816 1.27109742165 1.09724843502 1.04228103161 0.979104161263 0.977509796619 1.11572897434 1.22624015808 1.37629246712 1.46557688713 1.46554136276 1.37620580196 1.19607388973 1.11573946476 0.977621495724 0.975946903229 1.1686309576 1.28051567078 1.42618048191 1.51274287701 1.51270484924 1.42609679699 1.24910902977 1.16862440109 0.976032197475 0.974943757057 1.19490563869 1.30740404129 1.44965469837 1.53125917912 1.53122103214 1.44957327843 1.27547562122 1.19488656521 0.975015640259 0.974945187569 1.19489479065 1.30739474297 1.44964802265 1.53125345707 1.53121519089 1.44956660271 1.27546679974 1.19487547874 0.975017130375 0.975950837135 1.16859865189 1.28048717976 1.42615866661 1.51272308826 1.51268565655 1.42607522011 1.24908125401 1.16859209538 0.976036250591 0.977331340313 1.10020709038 1.21016871929 1.35971426964 1.44779276848 1.44775700569 1.35962712765 1.18013167381 1.10022115707 0.977445483208 0.978983581066 1.04220950603 1.12672400475 1.27108669281 1.34787070751 1.34783864021 1.2710044384 1.09716713428 1.04220223427 0.979108631611 0.983957588673 1.00858664513 1.03884088993 1.13269352913 1.19375777245 1.19372987747 1.13262748718 1.03489351273 1.00858485699 0.984073460102 
0.983937978745 1.00864481926 1.0389302969 1.13284373283 1.19393527508 1.1939073801 1.13277769089 1.03498136997 1.00864303112 0.984053790569 0.978979110718 1.04228925705 1.12680745125 1.27118110657 1.34796917439 1.34793710709 1.27109897137 1.09724915028 1.04228174686 0.979104161263 0.977509438992 1.11573016644 1.22624158859 1.37629425526 1.46557867527 1.46554303169 1.3762075901 1.19607508183 1.11574041843 0.977621197701 0.97594666481 1.16863238811 1.28051745892 1.4261828661 1.51275098324 1.51271319389 1.42609930038 1.2491106987 1.16862571239 0.976032078266 0.974943399429 1.19490742683 1.30740630627 1.4496588707 1.53126883507 1.53123092651 1.44957733154 1.2754778862 1.19488823414 0.97501540184 0.974944889545 1.19489645958 1.30739712715 1.44965219498 1.53126335144 1.53122532368 1.44957065582 1.27546906471 1.19487738609 0.975016772747 0.975950598717 1.16859984398 1.2804890871 1.42616128922 1.51273107529 1.51269364357 1.42607760429 1.24908292294 1.16859340668 0.976036071777 0.977331161499 1.10020816326 1.21017003059 1.35971581936 1.44779455662 1.44775903225 1.359629035 1.18013310432 1.10022246838 0.977445304394 0.978983461857 1.04221022129 1.12672519684 1.27108824253 1.34787237644 1.34784018993 1.27100586891 1.09716773033 1.04220294952 0.979108631611 0.983957529068 1.00858688354 1.03884148598 1.13269472122 1.19375944138 1.19373166561 1.13262879848 1.03489387035 1.00858509541 0.984073340893 
