2.25780773163 4.17675447464 7.33237600327 10.1771230698 11.6252193451 11.6235408783 10.171954155 7.32442617416 4.1694893837 2.25747060776 2.27435326576 5.39428853989 10.2448215485 14.6778841019 16.9055805206 16.9029808044 14.6699371338 10.2324619293 5.38294410706 2.27359962463 2.28918504715 6.24059343338 12.1358442307 17.4228057861 20.1576976776 20.1544418335 17.4131278992 12.1210136414 6.22650051117 2.28806829453 2.3002820015 6.77212429047 13.2278881073 18.9282073975 21.9287815094 21.9251670837 18.9176235199 13.2117853165 6.75647735596 2.29890584946 2.30614852905 7.02255010605 13.7212533951 19.5949211121 22.7068901062 22.7031269073 19.5839576721 13.7046060562 7.00621366501 2.30463981628 2.3061413765 7.02226352692 13.7206916809 19.5941696167 22.7060222626 22.7022590637 19.5832099915 13.7040500641 7.00592899323 2.30463290215 2.30026125908 6.77122211456 13.2261009216 18.92578125 21.9259414673 21.922328949 18.9151992798 13.2099962234 6.75557661057 2.2988858223 2.28915190697 6.23888206482 12.1322011948 17.4176845551 20.1516494751 20.1483860016 17.4080123901 12.1173725128 6.22479486465 2.28803563118 2.27431297302 5.3916554451 10.2386484146 14.668636322 16.8946285248 16.8920326233 14.6606960297 10.2262954712 5.38032007217 2.27356052399 2.25776720047 4.17327022552 7.32389116287 10.1635217667 11.6093149185 11.6076383591 10.1583614349 7.31595373154 4.16601705551 2.25743079185 
2.2586786747 4.00351047516 7.01953268051 9.83365535736 11.3032169342 11.3014945984 9.82844734192 7.01178216934 3.99678111076 2.25837922096 2.27414679527 5.21337413788 9.93069458008 14.407242775 16.7617664337 16.7589836121 14.3989448547 9.91852474213 5.20253133774 2.27346014977 2.2909488678 6.08485507965 11.8694696426 17.3213939667 20.2532711029 20.2497386932 17.3111228943 11.8547182083 6.07117509842 2.28988623619 2.30499744415 6.64287424088 13.0292081833 18.9622001648 22.1827888489 22.1788711548 18.9509449005 13.0130195618 6.62755441666 2.30365276337 2.31244468689 6.91155719757 13.5758552551 19.6986064911 23.0352630615 23.0311889648 19.6869411469 13.5590419769 6.89547157288 2.31095695496 2.31243610382 6.91124534607 13.5752286911 19.6977729797 23.0343055725 23.0302333832 19.6861095428 13.5584173203 6.89516210556 2.31094789505 2.30497121811 6.64191532135 13.0272445679 18.9595279694 22.179681778 22.1757659912 18.9482727051 13.0110588074 6.62659597397 2.30362677574 2.29090809822 6.08306980133 11.8656806946 17.3158569336 20.2467021942 20.2431735992 17.3055934906 11.8509340286 6.06939792633 2.28984618187 2.27410674095 5.21070814133 9.92443943024 14.3976459503 16.7501945496 16.7474136353 14.3893547058 9.91227722168 5.19987535477 2.27342176437 2.2586414814 4.00013399124 7.0111913681 9.8202009201 11.2873563766 11.2856378555 9.81500244141 7.00345420837 3.99341583252 2.25834321976 
2.25891041756 3.94090652466 6.90441703796 9.7041759491 11.174454689 11.1727294922 9.69897270203 6.8967423439 3.93437433243 2.25862431526 2.27381324768 5.14573287964 9.81544303894 14.2829847336 16.6618156433 16.6589775085 14.2746391296 9.80334758759 5.13507652283 2.2731525898 2.29016590118 6.02288532257 11.7681913376 17.240650177 20.2604579926 20.256778717 17.2301635742 11.75349617 6.00936126709 2.28913664818 2.30424666405 6.58798885345 12.9365024567 18.9464130402 22.2898597717 22.2857437134 18.9348258972 12.9203615189 6.5728020668 2.30293488503 2.31208848953 6.8623046875 13.4926862717 19.7209281921 23.1937255859 23.1894416809 19.7088832855 13.4758815765 6.84633731842 2.31062841415 2.31207895279 6.86198377609 13.4920387268 19.7200469971 23.1927032471 23.1884231567 19.7080059052 13.4752388 6.84601974487 2.31061911583 2.30421996117 6.58701276779 12.9345169067 18.9436073303 22.28657341 22.282459259 18.9320259094 12.9183778763 6.57182741165 2.30290818214 2.29012608528 6.02108430862 11.7643756866 17.2349586487 20.2536010742 20.2499217987 17.2244815826 11.7496843338 6.00756597519 2.28909778595 2.27377486229 5.14306211472 9.8091545105 14.2733392715 16.6500835419 16.6472511292 14.2650022507 9.79707145691 5.13241481781 2.2731153965 2.25887489319 3.93757367134 6.8961315155 9.69078445435 11.1586494446 11.1569242477 9.68558883667 6.88846969604 3.93105387688 2.25858926773 
2.25897526741 3.92126655579 6.86805963516 9.6628818512 11.1326589584 11.1309337616 9.65768051147 6.86041069031 3.91479706764 2.25869297981 2.27370262146 5.12434768677 9.7786397934 14.2420539856 16.6244888306 16.6216468811 14.2337017059 9.76657009125 5.1137509346 2.27305054665 2.28992414474 6.00362443924 11.7365474701 17.209356308 20.2521648407 20.2484340668 17.1988315582 11.7218742371 5.9901471138 2.28890538216 2.3039689064 6.57135486603 12.9097681046 18.9367160797 22.3248920441 22.3206977844 18.9250278473 12.8936376572 6.55620622635 2.30266714096 2.31181025505 6.84718418121 13.4678430557 19.7281799316 23.2553329468 23.2509536743 19.7160015106 13.45104599 6.83125352859 2.31035995483 2.31180047989 6.84686231613 13.4671926498 19.7272777557 23.2542800903 23.2499008179 19.7151012421 13.4503974915 6.8309340477 2.31035089493 2.30394148827 6.57037353516 12.9077787399 18.9338569641 22.3215141296 22.3173217773 18.9221687317 12.8916501999 6.55522680283 2.30264043808 2.28988409042 6.00181484222 11.7327136993 17.203622818 20.2452030182 20.241476059 17.1931018829 11.7180433273 5.98834466934 2.28886580467 2.27366495132 5.12167596817 9.77234363556 14.2323980331 16.6127338409 16.6098899841 14.2240524292 9.76028442383 5.11108875275 2.27301359177 2.25893974304 3.91794872284 6.85979175568 9.64950942993 11.1168718338 11.1151485443 9.64431667328 6.85215711594 3.91149091721 2.25865840912 
2.25899553299 3.91476392746 6.85599994659 9.64912796021 11.1186561584 11.1169319153 9.64392852783 6.84835767746 3.90831518173 2.2587146759 2.27366447449 5.11722660065 9.76634502411 14.2282409668 16.6115627289 16.6087169647 14.2198858261 9.75428676605 5.1066493988 2.27301478386 2.28984308243 5.99723291397 11.7259597778 17.1984539032 20.2470283508 20.2432842255 17.1879196167 11.7112951279 5.98377132416 2.28882741928 2.30388069153 6.56600236893 12.9013566971 18.9327201843 22.3364315033 22.3322048187 18.9209976196 12.8852310181 6.55086803436 2.30258250237 2.31172513962 6.84243869781 13.4601602554 19.7313270569 23.2787017822 23.2742862701 19.7191047668 13.443365097 6.82651901245 2.31027817726 2.31171560287 6.84211683273 13.4595088959 19.7304153442 23.277633667 23.2732200623 19.7181911469 13.4427146912 6.82619810104 2.31026887894 2.30385351181 6.56501865387 12.8993644714 18.9298362732 22.3330116272 22.3287887573 18.9181175232 12.8832406998 6.54988574982 2.30255579948 2.28980350494 5.99542093277 11.7221183777 17.1927108765 20.240026474 20.236284256 17.1821842194 11.7074594498 5.98196697235 2.28878879547 2.27362680435 5.11455392838 9.76004695892 14.218580246 16.5997982025 16.5969562531 14.2102336884 9.74799728394 5.10398578644 2.2729780674 2.25896024704 3.91145038605 6.84773921967 9.63576412201 11.1028757095 11.1011543274 9.63057231903 6.84011030197 3.90501379967 2.25868010521 
2.25900316238 3.91231203079 6.85145282745 9.64393615723 11.1133594513 11.1116333008 9.63873577118 6.84381580353 3.90587115288 2.25872278214 2.27364969254 5.11453485489 9.76169872284 14.2229967117 16.6066017151 16.6037540436 14.2146396637 9.74963855743 5.10396528244 2.273001194 2.28981184959 5.99481868744 11.7219486237 17.1942577362 20.2445468903 20.2407970428 17.1837177277 11.7072868347 5.98136377335 2.28879785538 2.30384874344 6.56402778625 12.8982858658 18.9311065674 22.3407402039 22.3365039825 18.9193668365 12.8821601868 6.54889726639 2.30255126953 2.31169581413 6.84073162079 13.4574422836 19.7328567505 23.2884063721 23.2839756012 19.720615387 13.4406480789 6.82481575012 2.31025004387 2.31168627739 6.84040880203 13.4567918777 19.7319431305 23.2873325348 23.2829055786 19.719701767 13.439997673 6.82449531555 2.31024050713 2.30382156372 6.56304311752 12.8962907791 18.9282131195 22.337305069 22.3330688477 18.9164772034 12.8801708221 6.54791545868 2.30252504349 2.28977251053 5.99300670624 11.7181081772 17.1885089874 20.2375335693 20.2337856293 17.1779766083 11.7034492493 5.97955846786 2.28875875473 2.27361226082 5.11186218262 9.75539779663 14.2133369446 16.5948352814 16.5919895172 14.2049865723 9.74335002899 5.10130167007 2.27296447754 2.25896787643 3.90900087357 6.84319591522 9.63057136536 11.0975799561 11.0958585739 9.62538146973 6.83556985855 3.902572155 2.25868844986 
2.25900626183 3.91127204895 6.84952735901 9.64173698425 11.1111116409 11.1093883514 9.63653945923 6.84189176559 3.90483427048 2.25872635841 2.27364349365 5.11339235306 9.75972652435 14.2207717896 16.6044864655 16.6016407013 14.2124166489 9.74767303467 5.10282516479 2.27299547195 2.28979897499 5.99380016327 11.7202529907 17.1924724579 20.2433776855 20.2396316528 17.181930542 11.7055950165 5.9803481102 2.28878545761 2.30383586884 6.56321716309 12.8970451355 18.9304199219 22.3425827026 22.3383407593 18.9186763763 12.8809213638 6.54808855057 2.3025393486 2.31168460846 6.84004688263 13.4563732147 19.7336826324 23.2928848267 23.2884483337 19.7214336395 13.4395809174 6.82413291931 2.31023955345 2.31167507172 6.83972406387 13.4557189941 19.7327613831 23.291809082 23.2873725891 19.7205162048 13.4389314651 6.8238120079 2.31023001671 2.3038084507 6.56223201752 12.8950519562 18.927520752 22.3391399384 22.3348999023 18.9157829285 12.8789310455 6.54710435867 2.30251264572 2.28975963593 5.99198770523 11.7164106369 17.1867179871 20.2363586426 20.2326126099 17.1761837006 11.70175457 5.97854185104 2.28874635696 2.27360582352 5.11071920395 9.75342845917 14.2111110687 16.5927200317 16.5898761749 14.2027635574 9.74138355255 5.10016202927 2.27295899391 2.25897121429 3.90796136856 6.8412694931 9.62837314606 11.0953359604 11.0936126709 9.62318515778 6.83364725113 3.90153551102 2.25869202614 
