2.25887680054 3.89337253571 6.79082918167 9.57014465332 11.0830430984 11.0812644958 9.56480503082 6.78332424164 3.88700962067 2.25859999657 2.27414226532 5.10784339905 9.72705173492 14.2653217316 16.75207901 16.7491130829 14.2565975189 9.71501350403 5.09731245041 2.2734913826 2.2902674675 5.99928569794 11.7442932129 17.3218383789 20.5066814423 20.5027675629 17.3108139038 11.7295618057 5.98579263687 2.28925228119 2.30428314209 6.58415317535 12.9513063431 19.094865799 22.6508731842 22.6464443207 19.0826091766 12.9350919724 6.56894731522 2.30298542976 2.31212091446 6.86676979065 13.5181779861 19.9085521698 23.613445282 23.6088218689 19.895778656 13.5012998581 6.85076570511 2.31067419052 2.31211090088 6.86644172668 13.5175294876 19.9076213837 23.6123600006 23.6077327728 19.8948554993 13.5006475449 6.85044002533 2.3106648922 2.30425596237 6.58314418793 12.9492731094 19.0919303894 22.6473770142 22.6429481506 19.0796737671 12.9330606461 6.56794023514 2.3029589653 2.29022789001 5.99742555618 11.7403373718 17.3159446716 20.4994792938 20.4955654144 17.3049259186 11.7256145477 5.98393917084 2.28921365738 2.27410507202 5.10512876511 9.72059059143 14.2553787231 16.7399024963 16.7369403839 14.2466640472 9.70856380463 5.09460735321 2.27345514297 2.25884032249 3.89005684853 6.78259181976 9.55672359467 11.0670747757 11.0652980804 9.55139160156 6.77509832382 3.88370585442 2.25856423378 
2.25888085365 3.89166641235 6.78756761551 9.56620502472 11.0788269043 11.0770492554 9.56086444855 6.7800655365 3.88530874252 2.2586042881 2.27412843704 5.10580301285 9.72337245941 14.26085186 16.7474441528 16.7444801331 14.2521295547 9.71133995056 5.09527778625 2.27347779274 2.2902367115 5.99721336365 11.7405719757 17.3172836304 20.5023574829 20.4984397888 17.30626297 11.7258472443 5.98372507095 2.28922247887 2.30424761772 6.58225822449 12.9479122162 19.0909557343 22.6490459442 22.6446094513 19.0786972046 12.9317016602 6.56705665588 2.30295157433 2.31208729744 6.86509132385 13.5152540207 19.9055461884 23.6157894135 23.6111469269 19.8927669525 13.4983758926 6.84909057617 2.31064176559 2.3120777607 6.86476325989 13.5145998001 19.9046115875 23.6146965027 23.6100521088 19.8918361664 13.4977245331 6.84876489639 2.31063246727 2.30422067642 6.58124876022 12.9458770752 19.0880184174 22.6455421448 22.6411037445 19.0757598877 12.9296665192 6.56604957581 2.30292439461 2.29019713402 5.99535369873 11.736618042 17.3113880157 20.4951457977 20.4912338257 17.30037117 11.7218971252 5.98187255859 2.28918409348 2.27409124374 5.10308885574 9.7169084549 14.2509117126 16.7352695465 16.7323074341 14.2421960831 9.70488739014 5.09257364273 2.27344179153 2.25884437561 3.8883523941 6.77933168411 9.55278491974 11.0628623962 11.061085701 9.54745483398 6.77184057236 3.88200640678 2.25856852531 
2.25888085365 3.89167952538 6.78759670258 9.56624507904 11.0788707733 11.0770931244 9.56090545654 6.78009319305 3.88532137871 2.25860452652 2.27412843704 5.10582113266 9.72341156006 14.2609043121 16.7475032806 16.7445373535 14.2521810532 9.71137809753 5.09529590607 2.27347803116 2.29023694992 5.99723672867 11.7406206131 17.3173465729 20.5024242401 20.4985084534 17.3063240051 11.7258939743 5.98374843597 2.28922271729 2.30424809456 6.58228588104 12.9479646683 19.0910339355 22.6491336823 22.644695282 19.0787715912 12.9317541122 6.56708478928 2.30295133591 2.3120880127 6.86512136459 13.5153112411 19.905626297 23.6158943176 23.6112480164 19.8928508759 13.4984340668 6.84912061691 2.31064271927 2.31207847595 6.86479377747 13.5146579742 19.9046955109 23.6147994995 23.6101551056 19.8919181824 13.4977817535 6.84879493713 2.31063342094 2.30422091484 6.58127641678 12.945930481 19.088092804 22.6456260681 22.6411857605 19.0758342743 12.9297199249 6.56607580185 2.30292510986 2.29019761086 5.99537658691 11.7366685867 17.3114547729 20.4952144623 20.4913043976 17.3004341125 11.721944809 5.98189592361 2.28918457031 2.27409172058 5.10310649872 9.71694850922 14.2509632111 16.7353286743 16.7323665619 14.2422475815 9.70492649078 5.09259176254 2.27344179153 2.25884437561 3.88836503029 6.7793598175 9.55282592773 11.0629072189 11.0611305237 9.54749393463 6.77186870575 3.88201904297 2.25856852531 
2.25888085365 3.89169168472 6.78762388229 9.56628227234 11.0789165497 11.0771350861 9.56094264984 6.78012037277 3.88533425331 2.25860452652 2.27412843704 5.10583972931 9.72344970703 14.2609558105 16.7475585938 16.7445926666 14.2522315979 9.71141529083 5.09531450272 2.273478508 2.29023742676 5.99725866318 11.7406692505 17.3174114227 20.5024929047 20.4985771179 17.306388855 11.7259407043 5.98377084732 2.28922343254 2.30424880981 6.58231210709 12.948018074 19.0911064148 22.6492195129 22.6447792053 19.0788440704 12.931807518 6.56711101532 2.30295228958 2.31208872795 6.86514997482 13.5153694153 19.9057064056 23.6159992218 23.6113510132 19.8929309845 13.4984931946 6.84914922714 2.31064319611 2.31207919121 6.86482143402 13.5147151947 19.9047775269 23.6149044037 23.6102600098 19.8920001984 13.4978408813 6.84882211685 2.31063389778 2.3042216301 6.58130264282 12.9459838867 19.0881671906 22.6457118988 22.6412715912 19.0759067535 12.929772377 6.56610393524 2.30292582512 2.29019808769 5.9953994751 11.7367143631 17.3115158081 20.4952850342 20.4913711548 17.3004970551 11.7219905853 5.98191833496 2.28918480873 2.27409148216 5.10312604904 9.71698665619 14.2510147095 16.7353820801 16.732421875 14.2423000336 9.70496368408 5.09261083603 2.27344202995 2.25884437561 3.88837766647 6.77938699722 9.55286312103 11.0629491806 11.0611743927 9.54753303528 6.77189588547 3.88203191757 2.2585682869 
2.25888109207 3.89170360565 6.78765153885 9.56632137299 11.0789585114 11.0771808624 9.56098175049 6.78014850616 3.88534712791 2.25860476494 2.27412867546 5.10585832596 9.72348880768 14.261007309 16.7476158142 16.7446517944 14.2522830963 9.71145439148 5.09533262253 2.273478508 2.29023790359 5.99728250504 11.7407112122 17.3174743652 20.5025615692 20.4986457825 17.3064517975 11.7259883881 5.98379421234 2.28922390938 2.30424928665 6.58233976364 12.9480743408 19.0911808014 22.6493034363 22.6448631287 19.0789222717 12.9318609238 6.5671377182 2.30295276642 2.31208944321 6.86517906189 13.5154285431 19.9057922363 23.616104126 23.6114578247 19.8930149078 13.4985485077 6.84917736053 2.31064414978 2.31208014488 6.86485099792 13.5147762299 19.9048614502 23.6150074005 23.6103649139 19.8920860291 13.4978990555 6.84885168076 2.31063437462 2.30422234535 6.5813293457 12.9460382462 19.0882434845 22.6457977295 22.6413593292 19.0759849548 12.9298257828 6.56613016129 2.30292630196 2.29019832611 5.99542236328 11.7367591858 17.311580658 20.4953556061 20.4914455414 17.3005638123 11.722038269 5.98194122314 2.28918480873 2.27409148216 5.10314369202 9.71702480316 14.2510662079 16.7354431152 16.7324790955 14.2423496246 9.70500278473 5.09262895584 2.27344250679 2.25884461403 3.88838934898 6.77941465378 9.55290222168 11.062994957 11.061217308 9.54757213593 6.7719244957 3.88204360008 2.25856876373 
2.25888085365 3.89171600342 6.78767824173 9.56635761261 11.0790023804 11.0772228241 9.56101799011 6.78017616272 3.88535785675 2.25860452652 2.27412867546 5.1058754921 9.72352409363 14.2610588074 16.7476730347 16.7447052002 14.2523345947 9.7114906311 5.0953502655 2.27347874641 2.29023838043 5.99730539322 11.7407608032 17.3175373077 20.5026283264 20.4987163544 17.3065128326 11.7260322571 5.98381710052 2.28922390938 2.30425000191 6.58236598969 12.9481258392 19.0912532806 22.649389267 22.6449508667 19.0789928436 12.9319133759 6.56716346741 2.30295348167 2.31209015846 6.86520719528 13.5154857635 19.9058704376 23.6162071228 23.6115646362 19.8930950165 13.4986066818 6.8492064476 2.3106443882 2.31208062172 6.86487913132 13.5148324966 19.9049396515 23.6151123047 23.6104679108 19.8921642303 13.4979562759 6.84888076782 2.31063508987 2.30422282219 6.58135509491 12.9460916519 19.0883159637 22.6458835602 22.6414451599 19.0760574341 12.9298801422 6.56615638733 2.30292701721 2.29019856453 5.99544525146 11.7368059158 17.3116436005 20.4954242706 20.4915122986 17.3006229401 11.7220849991 5.98196363449 2.28918528557 2.27409148216 5.10316133499 9.71706295013 14.2511167526 16.7354946136 16.7325344086 14.2424020767 9.70503902435 5.09264612198 2.27344250679 2.25884461403 3.88840150833 6.7794418335 9.55293941498 11.0630369186 11.0612602234 9.54760932922 6.77195119858 3.88205552101 2.25856852531 
2.25888109207 3.89172792435 6.78770542145 9.56639671326 11.0790424347 11.0772647858 9.56105804443 6.7802028656 3.88537049294 2.25860452652 2.2741291523 5.10589456558 9.72356128693 14.2611093521 16.7477264404 16.7447624207 14.2523851395 9.7115278244 5.09536838531 2.27347874641 2.29023861885 5.99732732773 11.7408027649 17.3176040649 20.5026988983 20.4987850189 17.3065776825 11.7260799408 5.9838385582 2.28922462463 2.30425071716 6.58239173889 12.9481782913 19.0913295746 22.6494750977 22.6450328827 19.0790672302 12.9319667816 6.56719017029 2.30295419693 2.31209087372 6.86523628235 13.515542984 19.905954361 23.616312027 23.6116695404 19.8931770325 13.4986667633 6.84923458099 2.31064534187 2.31208157539 6.86490821838 13.5148897171 19.9050254822 23.6152172089 23.6105747223 19.8922481537 13.4980144501 6.84890890121 2.31063604355 2.30422353745 6.58138179779 12.9461431503 19.088388443 22.6459693909 22.6415309906 19.0761299133 12.9299354553 6.56618213654 2.30292749405 2.29019927979 5.99546861649 11.7368516922 17.3117046356 20.4954929352 20.4915809631 17.3006877899 11.7221307755 5.98198652267 2.28918576241 2.27409172058 5.10317993164 9.71710109711 14.2511672974 16.7355518341 16.7325897217 14.2424526215 9.70507526398 5.09266471863 2.27344274521 2.25884461403 3.88841366768 6.77946901321 9.55297660828 11.0630779266 11.0613012314 9.5476474762 6.77197885513 3.88206744194 2.25856852531 
