0.984466433525 1.0117470026 1.04524052143 1.11136221886 1.17385923862 1.17383468151 1.11130595207 1.0405882597 1.01174438 0.984590113163 0.97842168808 1.04688632488 1.10513854027 1.26427900791 1.35560762882 1.35557317734 1.26419758797 1.08704662323 1.04686534405 0.978557407856 0.977577507496 1.09283661842 1.22546243668 1.39540851116 1.48404288292 1.48400259018 1.39532005787 1.18751060963 1.09280765057 0.977694094181 0.976145446301 1.15890598297 1.29594707489 1.44958841801 1.52656364441 1.52651894093 1.44949865341 1.2568962574 1.15891504288 0.976238250732 0.974688410759 1.19059705734 1.33054244518 1.47269523144 1.54197359085 1.54192900658 1.47260713577 1.29022228718 1.19059431553 0.974763393402 0.974690556526 1.19058728218 1.33053231239 1.47268688679 1.54196679592 1.54192233086 1.4725985527 1.29021310806 1.19058454037 0.974765598774 0.976150870323 1.15887844563 1.29591619968 1.44956314564 1.52654111385 1.52649652958 1.44947314262 1.25686812401 1.15888774395 0.976243674755 0.977427661419 1.08484876156 1.20165395737 1.37463700771 1.46723914146 1.46719765663 1.3745456934 1.16406977177 1.08483910561 0.977545440197 0.978425502777 1.04680335522 1.10504615307 1.26419496536 1.35550796986 1.35547351837 1.26411366463 1.08698368073 1.04678237438 0.978561103344 0.984489738941 1.0116866827 1.04514563084 1.11120843887 1.17372906208 1.17370486259 1.11115217209 1.04049897194 1.0116840601 0.984613239765 
0.984657645226 1.00950920582 1.0412800312 1.10534131527 1.16673457623 1.16671156883 1.10528850555 1.03677225113 1.00950789452 0.984777867794 0.978692114353 1.04325628281 1.0997928381 1.25810742378 1.34869885445 1.34866511822 1.25802922249 1.08195769787 1.04323625565 0.978823900223 0.97794264555 1.08793497086 1.21889638901 1.38843464851 1.48038733006 1.48035037518 1.38835036755 1.18135821819 1.08790588379 0.978055715561 0.976599037647 1.15322637558 1.28816127777 1.44490158558 1.52969133854 1.5296523571 1.4448184967 1.2498087883 1.15323352814 0.976688325405 0.975170016289 1.1845934391 1.32232129574 1.47022819519 1.54930150509 1.54926240444 1.47014713287 1.28286170959 1.18458771706 0.975241780281 0.975172162056 1.18458366394 1.32231163979 1.47022044659 1.54929530621 1.54925632477 1.47013938427 1.2828527689 1.1845780611 0.975243866444 0.976604163647 1.15319991112 1.28813254833 1.44487833977 1.52967083454 1.5296318531 1.44479548931 1.24978208542 1.15320694447 0.976693630219 0.977794408798 1.08003509045 1.19517219067 1.36762559414 1.46123754978 1.46120023727 1.3675391674 1.15800309181 1.08002495766 0.977908730507 0.978695750237 1.04317617416 1.09970343113 1.25802457333 1.34860026836 1.34856665134 1.25794649124 1.08189725876 1.04315626621 0.978827536106 0.984680831432 1.00945210457 1.04118931293 1.10519397259 1.16661119461 1.16658830643 1.10514104366 1.03668689728 1.00945079327 0.984800755978 
0.984661459923 1.00948119164 1.04122662544 1.10525655746 1.16663277149 1.1666097641 1.10520386696 1.03672158718 1.00947999954 0.984781503677 0.978697359562 1.04320633411 1.09971606731 1.25801813602 1.34859740734 1.34856367111 1.25793993473 1.08188557625 1.04318630695 0.978829145432 0.977949678898 1.0878636837 1.21880507469 1.38832628727 1.48027050495 1.48023366928 1.38824212551 1.18127143383 1.08783435822 0.978062808514 0.976608514786 1.15314006805 1.28803753853 1.44478142262 1.52956199646 1.52952325344 1.44469833374 1.24969649315 1.15314733982 0.976697802544 0.975181281567 1.18449938297 1.32218766212 1.47009825706 1.5491642952 1.54912507534 1.47001743317 1.28273999691 1.18449354172 0.975253045559 0.975183486938 1.18448984623 1.32217788696 1.47009062767 1.5491579771 1.54911887646 1.47000980377 1.282730937 1.18448400497 0.975255191326 0.976613759995 1.15311360359 1.28800880909 1.44475853443 1.52954161167 1.52950263023 1.44467532635 1.24966990948 1.15312063694 0.976703047752 0.977801501751 1.0799652338 1.19507980347 1.36751973629 1.46112263203 1.4610850811 1.36743330956 1.15791606903 1.07995486259 0.97791570425 0.978700935841 1.04312622547 1.09962666035 1.25793540478 1.34849894047 1.34846532345 1.25785732269 1.08182525635 1.04310643673 0.978832781315 0.98468452692 1.00942397118 1.04113602638 1.10510921478 1.1665096283 1.16648650169 1.10505640507 1.03663635254 1.00942277908 0.984804451466 
0.984661459923 1.00948178768 1.0412273407 1.10525798798 1.16663467884 1.16661143303 1.10520517826 1.03672230244 1.00948047638 0.984781444073 0.978697419167 1.04320716858 1.09971737862 1.25801980495 1.34859907627 1.34856534004 1.25794160366 1.08188676834 1.04318714142 0.978829145432 0.977949559689 1.087864995 1.2188065052 1.38832819462 1.48027229309 1.48023557663 1.38824403286 1.18127298355 1.08783578873 0.9780626297 0.976608335972 1.15314161777 1.28803956509 1.44478344917 1.52956426144 1.52952539921 1.44470047951 1.24969851971 1.15314853191 0.976697683334 0.975180983543 1.18450093269 1.32219004631 1.47010052204 1.54916656017 1.54912757874 1.47001957893 1.28274190426 1.18449509144 0.97525280714 0.97518324852 1.18449127674 1.32218003273 1.47009289265 1.5491604805 1.54912137985 1.47001183033 1.28273296356 1.1844856739 0.975255012512 0.976613581181 1.1531150341 1.28801083565 1.44476032257 1.52954375744 1.52950489521 1.44467735291 1.24967181683 1.15312230587 0.976702928543 0.977801442146 1.0799664259 1.19508111477 1.36752152443 1.46112442017 1.46108698845 1.36743533611 1.15791773796 1.0799561739 0.97791570425 0.978700995445 1.04312705994 1.09962797165 1.2579369545 1.34850072861 1.34846699238 1.25785887241 1.08182644844 1.04310715199 0.97883272171 0.98468452692 1.00942456722 1.04113686085 1.1051107645 1.16651141644 1.16648840904 1.10505795479 1.03663706779 1.00942325592 0.984804332256 
0.984661281109 1.00948238373 1.04122900963 1.10526025295 1.16663730145 1.16661441326 1.10520756245 1.03672385216 1.00948119164 0.984781384468 0.978697061539 1.0432087183 1.09971952438 1.25802230835 1.34860181808 1.34856843948 1.25794398785 1.0818887949 1.04318857193 0.978828907013 0.977949380875 1.08786702156 1.21880912781 1.38833129406 1.48027575016 1.48023891449 1.3882471323 1.18127548695 1.08783757687 0.978062450886 0.976608037949 1.15314400196 1.28804337978 1.44478678703 1.5295675993 1.52952873707 1.44470381737 1.24970185757 1.15315127373 0.976697385311 0.975180745125 1.1845035553 1.3221937418 1.47010433674 1.54917037487 1.54913139343 1.47002327442 1.28274536133 1.18449771404 0.975252509117 0.975182890892 1.18449401855 1.32218396664 1.47009646893 1.54916405678 1.54912519455 1.47001564503 1.28273642063 1.18448829651 0.975254714489 0.976613283157 1.15311765671 1.28801453114 1.44476377964 1.52954721451 1.52950823307 1.44468080997 1.24967515469 1.15312457085 0.976702690125 0.977801084518 1.07996833324 1.19508397579 1.36752450466 1.46112775803 1.46109032631 1.36743819714 1.15792024136 1.07995831966 0.977915346622 0.978700757027 1.04312849045 1.09963011742 1.25793945789 1.34850358963 1.34846997261 1.2578612566 1.08182859421 1.0431085825 0.978832602501 0.984684467316 1.00942540169 1.04113864899 1.10511314869 1.16651403904 1.16649115086 1.10506021976 1.03663873672 1.00942397118 0.984804213047 
0.984661102295 1.0094833374 1.04123055935 1.10526311398 1.1666405201 1.16661763191 1.10521030426 1.03672540188 1.00948214531 0.984781384468 0.978696942329 1.04321014881 1.09972190857 1.25802516937 1.34860503674 1.34857141972 1.25794696808 1.08189129829 1.04319024086 0.978828668594 0.977949202061 1.08786904812 1.21881198883 1.38833463192 1.48027944565 1.48024272919 1.38825047016 1.18127822876 1.08783984184 0.978062272072 0.97660779953 1.15314674377 1.28804695606 1.44479072094 1.52957189083 1.5295330286 1.44470763206 1.24970507622 1.15315377712 0.976697087288 0.975180506706 1.18450653553 1.32219803333 1.47010838985 1.54917478561 1.54913580418 1.47002744675 1.28274905682 1.18450081348 0.975252211094 0.975182592869 1.18449687958 1.32218813896 1.47010076046 1.54916846752 1.54912948608 1.47001981735 1.28274011612 1.18449139595 0.975254297256 0.976612985134 1.1531201601 1.28801834583 1.44476759434 1.52955150604 1.5295125246 1.44468474388 1.24967849255 1.15312731266 0.976702213287 0.977800905704 1.07997059822 1.19508683681 1.36752784252 1.46113109589 1.46109390259 1.367441535 1.15792262554 1.07996034622 0.977915167809 0.978700578213 1.04313015938 1.0996325016 1.25794231892 1.34850692749 1.34847307205 1.25786411762 1.08183062077 1.04311025143 0.978832423687 0.984684288502 1.00942623615 1.04114019871 1.10511577129 1.16651725769 1.16649436951 1.10506296158 1.03664028645 1.00942492485 0.984804153442 
0.984661102295 1.00948405266 1.04123234749 1.10526561737 1.16664397717 1.16662073135 1.10521304607 1.03672707081 1.00948286057 0.984781205654 0.97869682312 1.04321169853 1.09972441196 1.25802767277 1.3486084938 1.34857451916 1.25794959068 1.08189344406 1.04319167137 0.978828668594 0.977948904037 1.08787167072 1.21881496906 1.38833808899 1.48028302193 1.48024630547 1.38825380802 1.18128073215 1.08784222603 0.978062033653 0.976607620716 1.15314948559 1.28805077076 1.44479417801 1.52957594395 1.52953708172 1.44471144676 1.2497086525 1.15315675735 0.976696848869 0.975179970264 1.18450939655 1.32220184803 1.47011244297 1.54917907715 1.54913985729 1.47003138065 1.28275287151 1.18450367451 0.975251734257 0.975182175636 1.18449997902 1.3221924305 1.47010457516 1.54917263985 1.54913365841 1.47002375126 1.28274405003 1.18449413776 0.975253939629 0.976612687111 1.15312290192 1.28802192211 1.44477128983 1.52955543995 1.52951657772 1.44468843937 1.24968206882 1.15312993526 0.976702094078 0.9778008461 1.07997274399 1.19508957863 1.36753106117 1.46113491058 1.46109759808 1.36744487286 1.15792548656 1.07996237278 0.977915048599 0.978700399399 1.04313147068 1.099635005 1.25794494152 1.34851002693 1.3484762907 1.25786685944 1.08183312416 1.04311180115 0.978832244873 0.984684228897 1.00942707062 1.04114186764 1.10511851311 1.16652059555 1.16649758816 1.10506546497 1.03664195538 1.00942575932 0.984804153442 
