14.0147457123 13.8431053162 13.0873432159 11.9829626083 11.4008493423 11.4015169144 11.9850502014 13.0899600983 13.8441314697 14.0146923065 22.0064373016 21.7201080322 20.7834720612 19.5538253784 18.879360199 18.8801727295 19.5561943054 20.7865066528 21.7215137482 22.0064888 29.9955692291 29.6750526428 28.9256401062 27.9997787476 27.454668045 27.4553470612 28.001657486 28.9279518127 29.6763725281 29.9957180023 37.9958877563 37.7693061829 37.3029594421 36.7470245361 36.4109611511 36.4113883972 36.74817276 37.304359436 37.7701568604 37.9960250854 46.0046615601 45.9251327515 45.7675704956 45.5834159851 45.471321106 45.4714622498 45.5837974548 45.7680435181 45.9254226685 46.0047187805 54.0153579712 54.095287323 54.2536315918 54.4387168884 54.5513725281 54.5512275696 54.438331604 54.2531661987 54.0949935913 54.0153121948 62.0241241455 62.2510375977 62.7181434631 63.2750091553 63.6116333008 63.6112060547 63.2738571167 62.7167396545 62.2501869202 62.0239944458 70.0244293213 70.3450241089 71.095085144 72.0218505859 72.5674209595 72.5667266846 72.0199661255 71.0927810669 70.343711853 70.024269104 78.0135345459 78.2995986938 79.2362976074 80.4663619995 81.1408920288 81.1400909424 80.4639968872 79.2332763672 78.2981948853 78.0134887695 86.0052337646 86.1765899658 86.9312667847 88.0339126587 88.6153259277 88.614654541 88.0318222046 86.9286499023 86.1755523682 86.0052871704 
14.007314682 13.8028888702 13.0308294296 11.8709115982 11.2118473053 11.2126321793 11.873213768 13.0335168839 13.8039665222 14.0073242188 21.9967460632 21.6514873505 20.6409454346 19.2436771393 18.4391498566 18.440120697 19.2464752197 20.6442565918 21.6530437469 21.9968795776 29.9837608337 29.5858535767 28.730009079 27.6508331299 27.0135364532 27.014333725 27.6530227661 28.7326488495 29.5873756409 29.9840106964 37.9855041504 37.686252594 37.1373634338 36.497543335 36.1109619141 36.11145401 36.4988632202 37.1389694214 37.6873054504 37.9857292175 46.0004653931 45.8911170959 45.7045822144 45.4945755005 45.3667030334 45.3668708801 45.495010376 45.7051200867 45.8914871216 46.0005493164 54.0195808411 54.1294593811 54.3169288635 54.5279884338 54.65650177 54.656337738 54.5275497437 54.31640625 54.1290931702 54.019493103 62.0345115662 62.3341789246 62.8839454651 63.5248603821 63.9120788574 63.9115943909 63.5235328674 62.8823318481 62.3331222534 62.034286499 70.0362319946 70.4342041016 71.2906799316 72.3708953857 73.0087738037 73.0079650879 72.3687133789 71.2880401611 70.4326782227 70.0359725952 78.023223877 78.3681488037 79.378616333 80.7761459351 81.5807418823 81.5797729492 80.7733383179 79.375289917 78.3665924072 78.0230865479 86.0126647949 86.2167358398 86.9875869751 88.1454925537 88.8035583496 88.802772522 88.1431884766 86.984916687 86.2156600952 86.0126724243 
14.0051860809 13.792596817 13.0186882019 11.8455562592 11.1691131592 11.1699266434 11.847910881 13.0213890076 13.7936811447 14.0052108765 21.994430542 21.6343784332 20.6010112762 19.1541595459 18.2841777802 18.2852516174 19.1571331024 20.6044025421 21.6359710693 21.9945869446 29.9815711975 29.5652999878 28.6733322144 27.5146942139 26.8093605042 26.8102493286 27.5170993805 28.676109314 29.5668849945 29.981836319 37.9836616516 37.6686515808 37.0873603821 36.3858261108 35.9586181641 35.9591636658 36.3872795105 37.0890884399 37.6697616577 37.9839019775 45.9996948242 45.8839607239 45.6838264465 45.4529647827 45.3120307922 45.3122138977 45.4534378052 45.6844139099 45.8843536377 45.9997825623 54.0203552246 54.1366500854 54.3377838135 54.56980896 54.7114448547 54.7112617493 54.5693283081 54.3372001648 54.1362457275 54.0202636719 62.0363578796 62.3517990112 62.9339942932 63.6367111206 64.0646438599 64.0641021729 63.6352577209 62.932258606 62.350692749 62.0361213684 70.0384063721 70.4547576904 71.3473358154 72.5070037842 73.2129516602 73.2120742798 72.5045928955 71.3445663452 70.4531707764 70.0381393433 78.0255355835 78.3852386475 79.4184799194 80.8654937744 81.7354202271 81.7343521118 80.8625183105 79.4150924683 78.383644104 78.0253753662 86.014793396 86.2270050049 86.999671936 88.1707305908 88.8460845947 88.8452758789 88.1683731079 86.996963501 86.2259216309 86.0147781372 
14.0045452118 13.7895765305 13.0154180527 11.8390130997 11.1584472656 11.1592655182 11.8413791656 13.0181217194 13.7906608582 14.004576683 21.993724823 21.6292457581 20.5892620087 19.1287250519 18.2419528961 18.243057251 19.1317481995 20.5926799774 21.6308498383 21.9938850403 29.9809055328 29.5589504242 28.6554164886 27.471818924 26.7365112305 26.7374458313 27.4743041992 28.6582374573 29.5605564117 29.981180191 37.983165741 37.6632652283 37.0708503723 36.3437347412 35.8964118958 35.896987915 36.3452453613 37.0726242065 37.6643867493 37.9834060669 45.9995002747 45.8818244934 45.6769294739 45.4362373352 45.2885055542 45.2886924744 45.4367332458 45.6775283813 45.882232666 45.9995956421 54.0205459595 54.1388015747 54.3447151184 54.5866203308 54.7350997925 54.7349052429 54.5861129761 54.3441200256 54.1383934021 54.0204544067 62.0368652344 62.3571929932 62.9505195618 63.678855896 64.1269302368 64.1263580322 63.6773376465 62.9487304688 62.3560714722 62.0366172791 70.0390853882 70.4611053467 71.3652648926 72.5498504639 73.2858047485 73.2848510742 72.5473556519 71.3624267578 70.4595108032 70.0387954712 78.0262451172 78.3903656006 79.4302062988 80.89087677 81.7775726318 81.7764663696 80.8878479004 79.4268035889 78.3887786865 78.0260848999 86.0154418945 86.2300262451 87.0029144287 88.1772232056 88.8567047119 88.8558807373 88.1748657227 87.0002365112 86.2289428711 86.0154037476 
14.0043382645 13.7885780334 13.0143585205 11.8369884491 11.1552362442 11.1560554504 11.8393573761 13.0170640945 13.7896652222 14.0043678284 21.9934902191 21.6275367737 20.5853939056 19.1205806732 18.2290039062 18.2301158905 19.1236152649 20.5888156891 21.629152298 21.9936504364 29.9806785583 29.5567913055 28.6493434906 27.4575996399 26.7112159729 26.7121715546 27.4601211548 28.652179718 29.5584030151 29.9809513092 37.9829864502 37.6613883972 37.0649528503 36.3280143738 35.8721580505 35.8727493286 36.3295593262 37.0667457581 37.6625213623 37.9832305908 45.9994354248 45.881072998 45.6743965149 45.4295959473 45.2788658142 45.2790603638 45.4301071167 45.6749992371 45.881477356 45.9995269775 54.020614624 54.1395645142 54.3472633362 54.5932884216 54.7447814941 54.7445831299 54.5927772522 54.3466491699 54.1391525269 54.0205230713 62.0370368958 62.3590621948 62.9564285278 63.6945762634 64.1511993408 64.150604248 63.6930427551 62.9546356201 62.357925415 62.0367965698 70.03931427 70.4632644653 71.3713302612 72.5640487671 73.3110656738 73.3101043701 72.5615310669 71.3684844971 70.4616546631 70.0390319824 78.0264816284 78.392074585 79.4340744019 80.8990097046 81.7904815674 81.7893753052 80.8959655762 79.4306411743 78.3904571533 78.0263214111 86.0156402588 86.2310180664 87.0039749146 88.1792297363 88.8598861694 88.8590774536 88.1768798828 87.0012817383 86.2299423218 86.0156097412 
14.0042581558 13.7881965637 13.0139513016 11.8362321854 11.1540660858 11.1548852921 11.838602066 13.0166549683 13.7892837524 14.0042905807 21.9933986664 21.6268825531 20.5839176178 19.1175365448 18.224281311 18.22539711 19.1205749512 20.5873394012 21.6284923553 21.9935646057 29.9805927277 29.5559539795 28.6469993591 27.4521846771 26.7015666962 26.7025279999 27.4547157288 28.6498317719 29.5575656891 29.9808673859 37.9829216003 37.6606483459 37.0625762939 36.3215866089 35.8619804382 35.862575531 36.3231391907 37.0643768311 37.6617774963 37.9831619263 45.9994049072 45.8807754517 45.6733779907 45.4267349243 45.2746505737 45.274848938 45.4272499084 45.6739807129 45.8811759949 45.9995002747 54.0206451416 54.1398544312 54.3482894897 54.596157074 54.7490081787 54.7488136292 54.5956420898 54.3476829529 54.1394424438 54.0205497742 62.0371055603 62.3598098755 62.9588050842 63.7010154724 64.1613922119 64.1607971191 63.6994590759 62.956993103 62.3586807251 62.0368652344 70.039390564 70.4640960693 71.3736572266 72.5694580078 73.3207015991 73.319732666 72.5669403076 71.3708343506 70.4624938965 70.0391082764 78.0265731812 78.3927383423 79.435546875 80.902053833 81.7951965332 81.7940826416 80.8990020752 79.4321136475 78.3911132812 78.0264053345 86.0157318115 86.2313995361 87.0043869019 88.1799850464 88.8610458374 88.8602371216 88.1776275635 87.0016937256 86.2303161621 86.0156936646 
14.0042247772 13.7880325317 13.0137691498 11.835899353 11.1535634995 11.154384613 11.8382720947 13.0164718628 13.7891197205 14.0042572021 21.9933624268 21.6265945435 20.583272934 19.1162319183 18.2222995758 18.2234153748 19.1192779541 20.5867004395 21.6282081604 21.9935245514 29.980550766 29.5555839539 28.6459598541 27.449842453 26.697473526 26.6984367371 27.4523773193 28.6487998962 29.5571956635 29.9808292389 37.9828910828 37.6603164673 37.0615081787 36.3186836243 35.8572921753 35.8578872681 36.3202400208 37.0633049011 37.6614494324 37.9831314087 45.9993934631 45.8806419373 45.6729202271 45.4253768921 45.272644043 45.2728462219 45.4258918762 45.6735267639 45.8810424805 45.9994850159 54.0206489563 54.1399841309 54.3487358093 54.597530365 54.7510185242 54.7508277893 54.5970115662 54.3481330872 54.1395759583 54.0205574036 62.0371322632 62.3601379395 62.9598693848 63.7039260864 64.1660766602 64.1654891968 63.7023658752 62.9580612183 62.3590049744 62.0368881226 70.0394363403 70.4644775391 71.3747024536 72.5718078613 73.3247909546 73.3238220215 72.5692672729 71.3718414307 70.4628601074 70.0391540527 78.0266036987 78.3930206299 79.4361953735 80.9033432007 81.7971801758 81.7960586548 80.9002914429 79.4327545166 78.3914108276 78.0264358521 86.0157623291 86.2315597534 87.0045547485 88.1803207397 88.8615570068 88.8607330322 88.177947998 87.0018692017 86.2304840088 86.0157318115 
