2.25822591782 4.1109995842 7.15833282471 9.9758605957 11.544511795 11.5426645279 9.97033119202 7.15067577362 4.1039686203 2.25789833069 2.27449297905 5.33386850357 10.1236076355 14.7333602905 17.2191123962 17.2162017822 14.7245101929 10.1113567352 5.32267856598 2.27376079559 2.29069757462 6.22545003891 12.1271400452 17.7139720917 20.7659873962 20.7623348236 17.7031822205 12.1121606827 6.211353302 2.2895886898 2.30172348022 6.78282165527 13.2878780365 19.3649139404 22.6991710663 22.6951293945 19.3531665802 13.2715015411 6.76709651947 2.30035662651 2.30757522583 7.04796409607 13.8159351349 20.0985107422 23.5485839844 23.5443820953 20.0863723755 13.7989635468 7.03148174286 2.30607509613 2.30756855011 7.04765701294 13.8153352737 20.0976848602 23.5476303101 23.543428421 20.0855464935 13.7983646393 7.03117752075 2.30606770515 2.30170345306 6.78187513351 13.2859678268 19.3622436523 22.6960735321 22.6920280457 19.3504981995 13.2695932388 6.76615333557 2.30033659935 2.29066300392 6.22364139557 12.1232700348 17.7083740234 20.7593841553 20.7557277679 17.6975879669 12.1082935333 6.20955038071 2.28955459595 2.27445077896 5.33117246628 10.1171360016 14.7234172821 17.2072143555 17.2043037415 14.7145748138 10.1048965454 5.3199930191 2.27372002602 2.25818490982 4.10755729675 7.14996004105 9.96231746674 11.5282592773 11.5264158249 9.95680046082 7.14231443405 4.10053825378 2.25785827637 
2.25940036774 3.93127655983 6.84592914581 9.63145446777 11.1865272522 11.1846942902 9.62597465515 6.83843564987 3.92479801178 2.25910973549 2.27397108078 5.1436252594 9.81278038025 14.4045305252 16.9727096558 16.9696502686 14.3954944611 9.80070495605 5.13294363022 2.27331447601 2.29054307938 6.05638027191 11.8464994431 17.5014972687 20.768163681 20.7641983032 17.4900836945 11.831697464 6.04270792007 2.28951191902 2.30485296249 6.6413435936 13.0522422791 19.2775115967 22.8733177185 22.8689098358 19.264957428 13.0359373093 6.62598133087 2.30353236198 2.3126707077 6.92038631439 13.6138019562 20.0801811218 23.8022460938 23.797668457 20.0671863556 13.596824646 6.90423870087 2.31120014191 2.31266117096 6.92006397247 13.6131563187 20.0792694092 23.8012046814 23.7966251373 20.0662746429 13.5961837769 6.9039182663 2.31119036674 2.30482578278 6.64034557343 13.0502214432 19.2746047974 22.869934082 22.865524292 19.262052536 13.0339193344 6.62498521805 2.30350589752 2.29050278664 6.054500103 11.8425312042 17.4955482483 20.7610015869 20.7570381165 17.4841461182 11.8277359009 6.04083538055 2.28947234154 2.27393269539 5.14090919495 9.80625915527 14.3944282532 16.9602966309 16.957233429 14.3854026794 9.7941942215 5.13023710251 2.27327728271 2.25936365128 3.92794418335 6.83765745163 9.61801719666 11.1704053879 11.1685743332 9.61254787445 6.83017635345 3.92147707939 2.25907373428 
2.25960540771 3.89073181152 6.77478599548 9.55300045013 11.1034269333 11.1015996933 9.54753780365 6.767329216 3.88438081741 2.25932264328 2.27377653122 5.09905815125 9.74011325836 14.3231220245 16.8903236389 16.887260437 14.3140945435 9.72807979584 5.08849620819 2.27313709259 2.29002904892 6.01437902451 11.7780389786 17.4263076782 20.7291812897 20.725112915 17.4148616791 11.7632837296 6.00081157684 2.28902053833 2.30426287651 6.60449981689 12.991522789 19.2210292816 22.9106349945 22.9060306549 19.2082843781 12.975268364 6.58922290802 2.3029654026 2.31212353706 6.88788223267 13.5604057312 20.0418949127 23.8843212128 23.8795166016 20.0286178589 13.5434789658 6.87180709839 2.3106751442 2.31211400032 6.8875541687 13.5597515106 20.0409603119 23.88322258 23.8784198761 20.0276813507 13.5428266525 6.87148141861 2.31066560745 2.30423545837 6.60348701477 12.9894790649 19.2180633545 22.9070968628 22.9024887085 19.2053203583 12.9732265472 6.58821344376 2.30293869972 2.28998851776 6.01248979568 11.7740573883 17.420331955 20.7218284607 20.7177658081 17.4088916779 11.7593069077 5.99892902374 2.28898072243 2.2737390995 5.09634208679 9.73358631134 14.3130216599 16.8778858185 16.8748226166 14.3040008545 9.72156333923 5.08579015732 2.27310109138 2.25956916809 3.88742780685 6.76653909683 9.53958892822 11.0873384476 11.0855140686 9.53413391113 6.75909519196 3.88108801842 2.25928759575 
2.25961613655 3.88835144043 6.77057981491 9.54830360413 11.0984191895 11.0965938568 9.54284095764 6.76312541962 3.88200736046 2.25933384895 2.2737634182 5.09639263153 9.73572826385 14.3181257248 16.8851490021 16.8820858002 14.3090991974 9.72369766235 5.08583641052 2.27312469482 2.28999590874 6.01182079315 11.7738113403 17.4214859009 20.7249679565 20.7208995819 17.4100379944 11.7590589523 5.99825906754 2.28898835182 2.30422592163 6.60226964951 12.9878101349 19.2171287537 22.9110355377 22.9064121246 19.2043781281 12.9715614319 6.58699893951 2.30293035507 2.31209135056 6.88598012924 13.5573139191 20.0390110016 23.8905353546 23.8857021332 20.0257225037 13.5403871536 6.8699092865 2.3106443882 2.31208181381 6.8856511116 13.5566596985 20.0380725861 23.8894309998 23.884595871 20.0247859955 13.5397348404 6.86958265305 2.31063485146 2.30419874191 6.60125637054 12.9857673645 19.2141571045 22.9074802399 22.9028568268 19.2014122009 12.9695196152 6.5859875679 2.30290341377 2.28995585442 6.00993013382 11.7698297501 17.4155101776 20.7176132202 20.7135448456 17.4040660858 11.7550792694 5.99637460709 2.28894901276 2.2737262249 5.09367656708 9.72920227051 14.3080224991 16.8727092743 16.8696479797 14.2990045547 9.7171831131 5.083132267 2.2730884552 2.25958013535 3.88504934311 6.76233530045 9.53489208221 11.0823335648 11.0805101395 9.52943992615 6.75489234924 3.87871670723 2.25929880142 
2.25961637497 3.88832807541 6.77054405212 9.54827213287 11.0983877182 11.0965614319 9.54280853271 6.76309013367 3.88198399544 2.25933408737 2.27376317978 5.09637022018 9.73570156097 14.3181009293 16.8851242065 16.8820648193 14.3090734482 9.72366905212 5.08581590652 2.27312445641 2.28999567032 6.01180458069 11.7737922668 17.4214706421 20.7249698639 20.7208995819 17.4100246429 11.7590408325 5.9982419014 2.28898835182 2.30422616005 6.60226106644 12.9878053665 19.2171344757 22.9111042023 22.9064788818 19.2043876648 12.9715528488 6.58699083328 2.30293035507 2.31209158897 6.8859796524 13.5573215485 20.0390472412 23.890745163 23.8859081268 20.0257587433 13.5403995514 6.86991024017 2.31064486504 2.31208205223 6.88565158844 13.5566682816 20.038110733 23.8896389008 23.8847999573 20.0248222351 13.5397462845 6.86958265305 2.31063508987 2.30419874191 6.60124874115 12.9857635498 19.2141704559 22.9075450897 22.9029197693 19.201423645 12.9695129395 6.58597946167 2.30290341377 2.289955616 6.00991392136 11.7698106766 17.4154949188 20.7176132202 20.7135467529 17.4040527344 11.7550621033 5.99635744095 2.28894877434 2.2737262249 5.09365463257 9.72917366028 14.3079977036 16.8726863861 16.8696289062 14.2989797592 9.71715354919 5.08310985565 2.27308869362 2.25958037376 3.88502597809 6.76229858398 9.53486061096 11.0823011398 11.0804777145 9.52940654755 6.75485706329 3.87869358063 2.25929903984 
2.25961637497 3.8883395195 6.77056932449 9.54830741882 11.0984306335 11.0966033936 9.54284572601 6.76311445236 3.88199543953 2.25933408737 2.2737634182 5.09638834 9.73573684692 14.318151474 16.8851833344 16.8821182251 14.3091239929 9.72370624542 5.08583259583 2.27312469482 2.28999590874 6.01182556152 11.7738399506 17.4215373993 20.7250442505 20.7209739685 17.4100914001 11.7590875626 5.99826574326 2.28898882866 2.30422663689 6.60228824615 12.9878616333 19.2172164917 22.9111938477 22.9065685272 19.2044658661 12.9716072083 6.58701753616 2.30293083191 2.31209206581 6.88600826263 13.5573835373 20.0391292572 23.8908519745 23.8860149384 20.0258369446 13.5404548645 6.86993789673 2.31064510345 2.31208252907 6.88567972183 13.5567293167 20.038192749 23.8897457123 23.8849105835 20.0249023438 13.5398015976 6.86961078644 2.31063580513 2.30419921875 6.60127544403 12.9858160019 19.2142467499 22.9076366425 22.903011322 19.2015018463 12.9695663452 6.58600664139 2.30290389061 2.28995609283 6.00993776321 11.7698545456 17.415561676 20.7176837921 20.7136154175 17.4041175842 11.7551088333 5.99638175964 2.28894948959 2.27372646332 5.09367275238 9.72921085358 14.3080511093 16.8727455139 16.8696861267 14.2990293503 9.71719074249 5.08312749863 2.27308869362 2.25958037376 3.88503742218 6.7623257637 9.53489589691 11.0823421478 11.0805206299 9.52944374084 6.75488328934 3.87870502472 2.25929903984 
2.25961637497 3.88835144043 6.7705950737 9.54834651947 11.0984735489 11.0966453552 9.54288291931 6.76314115524 3.88200712204 2.25933432579 2.2737634182 5.09640598297 9.7357749939 14.3182029724 16.8852386475 16.8821773529 14.3091754913 9.72374153137 5.08585119247 2.27312469482 2.28999638557 6.01184940338 11.7738857269 17.4216003418 20.725112915 20.7210426331 17.410150528 11.7591342926 5.9982881546 2.28898906708 2.30422687531 6.6023144722 12.9879131317 19.2172889709 22.9112873077 22.90666008 19.2045402527 12.9716625214 6.58704328537 2.30293130875 2.31209301949 6.8860373497 13.5574417114 20.0392131805 23.890958786 23.8861198425 20.0259246826 13.540514946 6.86996650696 2.31064629555 2.31208348274 6.88570833206 13.5567846298 20.0382766724 23.8898506165 23.8850154877 20.0249881744 13.5398616791 6.86964035034 2.31063699722 2.30419969559 6.60130214691 12.9858694077 19.2143211365 22.9077301025 22.9031028748 19.2015743256 12.969619751 6.58603286743 2.30290436745 2.28995633125 6.00995922089 11.7699012756 17.4156265259 20.7177562714 20.7136878967 17.4041824341 11.7551546097 5.99640417099 2.28894996643 2.2737262249 5.09369039536 9.72924804688 14.3080997467 16.8728027344 16.8697414398 14.299079895 9.71722602844 5.0831451416 2.27308869362 2.25958037376 3.88504886627 6.7623500824 9.53493404388 11.0823850632 11.0805616379 9.52947998047 6.75490760803 3.87871623039 2.25929903984 
