0.984744906425 1.00861978531 1.03498828411 1.10691130161 1.17370223999 1.1736754179 1.10684561729 1.03243994713 1.00862014294 0.984857439995 0.979768633842 1.0418241024 1.11726486683 1.28764951229 1.37558352947 1.37555348873 1.28757381439 1.09450817108 1.04182350636 0.979891657829 0.978204131126 1.12096369267 1.2277122736 1.41422176361 1.52023768425 1.52020120621 1.41413593292 1.20103681087 1.12097287178 0.978310465813 0.976737856865 1.1769990921 1.28794372082 1.4717810154 1.56730151176 1.56725931168 1.47169852257 1.26057207584 1.1769824028 0.976815462112 0.975837111473 1.20557034016 1.31784677505 1.49657428265 1.5833978653 1.58335387707 1.49649333954 1.29040455818 1.20553958416 0.975899815559 0.975838303566 1.20555889606 1.31783699989 1.49656701088 1.58339226246 1.58334827423 1.49648594856 1.2903945446 1.20552825928 0.975901126862 0.976741611958 1.17696464062 1.28791296482 1.47175693512 1.56728124619 1.56723916531 1.4716745615 1.26054167747 1.1769477129 0.976819097996 0.978053331375 1.10496270657 1.20959353447 1.39364886284 1.49867546558 1.49863910675 1.39356207848 1.18323385715 1.10497415066 0.978162169456 0.9797732234 1.04174542427 1.11717605591 1.28755712509 1.37547552586 1.37544560432 1.28748142719 1.09442520142 1.0417444706 0.979896187782 0.984763860703 1.00856304169 1.03490114212 1.1067584753 1.1735367775 1.17351007462 1.10669267178 1.03235077858 1.00856339931 0.984876334667 
0.984733581543 1.00845277309 1.03476929665 1.10668206215 1.17341887951 1.17339229584 1.10661625862 1.03221440315 1.00845336914 0.984845995903 0.979754686356 1.04161131382 1.11704182625 1.28738474846 1.37528955936 1.37525963783 1.28730893135 1.09427762032 1.04161047935 0.979877710342 0.97818505764 1.1207228899 1.22747242451 1.41394901276 1.52014219761 1.52010655403 1.41386330128 1.20079600811 1.12073194981 0.978291332722 0.976711153984 1.17675149441 1.28770899773 1.47157907486 1.5700776577 1.57003843784 1.47149658203 1.26034784317 1.17673456669 0.976788580418 0.975803852081 1.2053258419 1.31762862206 1.49664855003 1.58799934387 1.58795845509 1.49656879902 1.29020905495 1.20529472828 0.975866496563 0.975805163383 1.20531439781 1.31761884689 1.49664151669 1.58799386024 1.58795309067 1.49656176567 1.29019927979 1.2052834034 0.975867927074 0.976714849472 1.17671716213 1.28767812252 1.471555233 1.57005786896 1.57001829147 1.47147274017 1.26031732559 1.1767001152 0.976792395115 0.978034853935 1.10472118855 1.2093462944 1.39336240292 1.49837958813 1.49834394455 1.39327573776 1.182985425 1.10473251343 0.978143334389 0.979759156704 1.04153263569 1.11695325375 1.28729212284 1.37518155575 1.37515163422 1.28721642494 1.09419500828 1.04153192043 0.979882061481 0.984752655029 1.00839614868 1.03468191624 1.106528759 1.17325365543 1.17322695255 1.1064633131 1.03212547302 1.00839686394 0.984864890575 
0.984733581543 1.00845313072 1.0347700119 1.10668325424 1.17342066765 1.17339408398 1.10661756992 1.0322149992 1.00845372677 0.984846115112 0.979754626751 1.04161226749 1.11704313755 1.28738617897 1.37529158592 1.37526166439 1.28731060028 1.09427881241 1.04161143303 0.979877591133 0.978184819221 1.12072408199 1.22747409344 1.41395139694 1.520144701 1.52010881901 1.41386556625 1.20079743862 1.1207331419 0.978291153908 0.976711034775 1.17675316334 1.28771102428 1.47158193588 1.57008767128 1.57004821301 1.47149932384 1.26034975052 1.1767359972 0.976788401604 0.975803613663 1.20532763004 1.31763076782 1.49665176868 1.58801043034 1.58796989918 1.4965723753 1.29021131992 1.20529663563 0.975866317749 0.975805044174 1.20531630516 1.31762099266 1.49664473534 1.58800518513 1.58796453476 1.49656510353 1.29020154476 1.20528519154 0.975867629051 0.976714670658 1.17671871185 1.2876803875 1.47155821323 1.57006752491 1.57002830505 1.47147572041 1.26031935215 1.17670166492 0.976792156696 0.978034734726 1.10472249985 1.20934772491 1.39336431026 1.49838232994 1.49834656715 1.39327788353 1.18298709393 1.10473382473 0.978143393993 0.979759097099 1.04153347015 1.11695444584 1.28729367256 1.3751834631 1.37515366077 1.28721821308 1.09419608116 1.04153263569 0.979882001877 0.984752714634 1.00839650631 1.03468251228 1.10653030872 1.17325532436 1.17322874069 1.1064645052 1.03212618828 1.00839710236 0.984864890575 
0.984733462334 1.00845372677 1.03477084637 1.10668444633 1.17342245579 1.17339575291 1.10661876202 1.03221595287 1.00845420361 0.984845876694 0.979754507542 1.04161298275 1.11704421043 1.28738760948 1.37529325485 1.37526345253 1.28731226921 1.0942800045 1.04161214828 0.979877531528 0.978184819221 1.1207253933 1.22747576237 1.41395354271 1.52014684677 1.52011120319 1.41386771202 1.20079910755 1.1207344532 0.978291034698 0.976710915565 1.17675459385 1.28771293163 1.4715846777 1.57009744644 1.57005786896 1.47150218487 1.26035141945 1.17673754692 0.976788461208 0.975803554058 1.20532953739 1.31763315201 1.49665498734 1.58802127838 1.58798062801 1.49657547474 1.2902135849 1.20529842377 0.97586619854 0.975804805756 1.2053180933 1.31762337685 1.49664795399 1.58801555634 1.5879752636 1.49656820297 1.29020369053 1.20528686047 0.975867569447 0.976714670658 1.17672014236 1.28768217564 1.47156071663 1.57007741928 1.5700378418 1.47147846222 1.26032090187 1.17670297623 0.976792156696 0.978034496307 1.10472381115 1.20934939384 1.39336645603 1.49838459492 1.49834907055 1.3932800293 1.18298840523 1.10473513603 0.978143036366 0.979759037495 1.04153430462 1.11695563793 1.2872954607 1.37518537045 1.37515544891 1.2872197628 1.09419715405 1.04153335094 0.979881942272 0.98475253582 1.00839698315 1.03468334675 1.10653150082 1.1732571125 1.17323040962 1.1064658165 1.03212690353 1.00839757919 0.984864830971 
0.984733521938 1.0084540844 1.03477144241 1.10668575764 1.17342400551 1.17339742184 1.10662007332 1.0322163105 1.00845456123 0.984845936298 0.979754447937 1.04161381721 1.11704540253 1.28738927841 1.37529528141 1.37526535988 1.28731369972 1.09428095818 1.04161298275 0.97987729311 0.978184700012 1.12072646618 1.22747719288 1.4139559269 1.52014899254 1.52011334896 1.413869977 1.20080053806 1.1207357645 0.978290975094 0.976710617542 1.17675626278 1.28771483898 1.47158741951 1.57010698318 1.5700674057 1.47150492668 1.26035356522 1.17673921585 0.976788163185 0.975803315639 1.20533132553 1.31763541698 1.49665808678 1.58803153038 1.58799088001 1.49657845497 1.29021561146 1.20530021191 0.975865900517 0.975804567337 1.20531988144 1.31762564182 1.49665105343 1.58802604675 1.58798539639 1.49657130241 1.2902058363 1.20528876781 0.975867331028 0.976714372635 1.17672181129 1.28768420219 1.47156357765 1.57008683681 1.57004737854 1.47148108482 1.26032292843 1.17670488358 0.976791858673 0.978034496307 1.10472488403 1.20935058594 1.39336836338 1.4983869791 1.49835121632 1.39328217506 1.18298995495 1.10473620892 0.978143036366 0.979758858681 1.04153501987 1.11695659161 1.28729689121 1.37518715858 1.37515747547 1.28722143173 1.09419810772 1.04153430462 0.979881882668 0.984752476215 1.00839734077 1.034684062 1.1065325737 1.17325854301 1.17323184013 1.1064671278 1.03212749958 1.00839793682 0.984864890575 
0.984733462334 1.00845456123 1.03477203846 1.10668683052 1.17342555523 1.17339897156 1.10662126541 1.03221714497 1.00845503807 0.984845757484 0.979754328728 1.04161453247 1.11704611778 1.28739106655 1.37529730797 1.37526726723 1.28731536865 1.09428203106 1.04161369801 0.979877233505 0.978184521198 1.12072789669 1.2274787426 1.41395807266 1.52015161514 1.52011573315 1.41387224197 1.20080196857 1.1207369566 0.97829079628 0.976710617542 1.1767578125 1.28771650791 1.47159016132 1.57011640072 1.57007682323 1.4715076685 1.26035535336 1.17674088478 0.976788043976 0.975803017616 1.20533299446 1.31763744354 1.49666130543 1.5880420208 1.58800148964 1.49658155441 1.29021787643 1.20530200005 0.975865721703 0.975804328918 1.20532155037 1.31762766838 1.49665415287 1.58803653717 1.58799600601 1.49657440186 1.29020810127 1.20529043674 0.975867092609 0.97671431303 1.17672336102 1.28768634796 1.47156643867 1.57009613514 1.57005691528 1.47148406506 1.26032483578 1.1767064333 0.976791858673 0.978034317493 1.10472607613 1.20935225487 1.39337086678 1.49838912487 1.4983536005 1.39328420162 1.18299138546 1.10473752022 0.978142917156 0.979758739471 1.04153585434 1.11695754528 1.28729856014 1.37518918514 1.37515926361 1.28722310066 1.09419906139 1.04153513908 0.979881703854 0.984752476215 1.00839781761 1.03468477726 1.10653376579 1.17326021194 1.17323362827 1.10646820068 1.03212821484 1.00839829445 0.984864890575 
0.98473328352 1.00845479965 1.03477263451 1.10668814182 1.17342734337 1.17340064049 1.1066224575 1.03221786022 1.00845527649 0.984845638275 0.979754328728 1.04161524773 1.11704742908 1.28739249706 1.3752989769 1.37526905537 1.28731679916 1.09428298473 1.04161453247 0.979877114296 0.978184461594 1.12072896957 1.22748029232 1.41395974159 1.5201536417 1.52011811733 1.41387403011 1.2008036375 1.12073802948 0.978290677071 0.976710319519 1.17675936222 1.28771853447 1.47159290314 1.57012534142 1.57008588314 1.4715102911 1.2603572607 1.17674231529 0.976787805557 0.975802838802 1.20533490181 1.31763958931 1.49666440487 1.58805251122 1.58801198006 1.49658453465 1.29021990299 1.20530366898 0.975865602493 0.975804209709 1.20532345772 1.31762981415 1.4966571331 1.5880471468 1.58800637722 1.4965775013 1.29021024704 1.20529222488 0.975866913795 0.976714074612 1.17672491074 1.28768825531 1.47156906128 1.57010531425 1.57006597519 1.47148668766 1.26032674313 1.1767077446 0.97679156065 0.97803413868 1.10472726822 1.2093539238 1.39337289333 1.49839174747 1.49835598469 1.3932864666 1.18299281597 1.1047385931 0.978142738342 0.979758620262 1.04153645039 1.11695861816 1.28729999065 1.37519097328 1.37516105175 1.28722441196 1.09420013428 1.04153561592 0.979881644249 0.984752297401 1.00839817524 1.03468537331 1.1065351963 1.17326188087 1.17323517799 1.10646939278 1.03212869167 1.00839865208 0.984864592552 
