0.989860236645 1.04589629173 1.08586847782 1.17039215565 1.22174227238 1.2217001915 1.1702747345 1.08153092861 1.04587519169 0.989987075329 0.985428214073 1.08830285072 1.16475570202 1.28052139282 1.32458090782 1.3245319128 1.28039979935 1.15005624294 1.08830070496 0.985587954521 0.984449446201 1.1595531702 1.22514653206 1.32592713833 1.36443459988 1.36437547207 1.32580459118 1.2157356739 1.15957033634 0.984619855881 0.98445892334 1.19849956036 1.25572168827 1.34725344181 1.38028621674 1.38022649288 1.34713506699 1.24833500385 1.19850504398 0.984626412392 0.984648108482 1.21712553501 1.27134954929 1.35601341724 1.38591611385 1.38585746288 1.35589683056 1.26436007023 1.21712827682 0.984814226627 0.984648227692 1.21711134911 1.27133584023 1.35600471497 1.38590955734 1.38585090637 1.35588788986 1.26434659958 1.21711409092 0.984814286232 0.984459161758 1.19845688343 1.25568294525 1.34722411633 1.38026213646 1.38020241261 1.3471057415 1.24829614162 1.19846224785 0.984626829624 0.984346210957 1.15154898167 1.22089290619 1.32452690601 1.36396455765 1.36390507221 1.32440292835 1.21051728725 1.15156471729 0.984517276287 0.985432684422 1.08820939064 1.16464662552 1.28039753437 1.32444906235 1.32439994812 1.28027629852 1.14995074272 1.08820724487 0.985592484474 0.989876508713 1.0458136797 1.08575892448 1.17017424107 1.22147405148 1.22143220901 1.17005705833 1.08142745495 1.04579269886 0.990003287792 
0.987240850925 1.03227066994 1.06832754612 1.15237021446 1.21696031094 1.2169226408 1.15227496624 1.06401693821 1.03225684166 0.987365484238 0.982911765575 1.07183516026 1.15294826031 1.29182267189 1.34598946571 1.34594118595 1.29169952869 1.13179695606 1.07183253765 0.983049988747 0.981841683388 1.15086996555 1.23797273636 1.35103297234 1.39583683014 1.39577782154 1.35090768337 1.22112500668 1.15089344978 0.981978058815 0.981036543846 1.20019519329 1.2746963501 1.37548005581 1.41320252419 1.41314208508 1.37535881996 1.26184785366 1.20020508766 0.981161892414 0.980680406094 1.22285485268 1.29114615917 1.38504016399 1.41900837421 1.41894817352 1.3849221468 1.27992916107 1.22285461426 0.980800926685 0.980680942535 1.22284173965 1.29113471508 1.38503170013 1.41900229454 1.41894221306 1.38491356373 1.27991783619 1.22284138203 0.980801343918 0.981038331985 1.20015609264 1.27466189861 1.37545180321 1.41318058968 1.41312003136 1.37533056736 1.26181232929 1.2001657486 0.981163740158 0.981709241867 1.13724553585 1.22909104824 1.34772801399 1.39410853386 1.39404904842 1.34760081768 1.21051049232 1.13727068901 0.981846868992 0.982915461063 1.07174742222 1.15284848213 1.29170250893 1.34585547447 1.34580719471 1.29157948494 1.13170814514 1.0717446804 0.983053684235 0.987258374691 1.03219628334 1.06822752953 1.15220177174 1.21675145626 1.21671390533 1.15210676193 1.06392192841 1.03218245506 0.987382829189 
0.986031293869 1.02335321903 1.05686247349 1.13846874237 1.2029209137 1.20288860798 1.13838839531 1.05247700214 1.02334451675 0.98615193367 0.981248855591 1.06089138985 1.14027202129 1.29556965828 1.36196315289 1.36191678047 1.29545676708 1.1195217371 1.06088936329 0.981382846832 0.98027920723 1.13905024529 1.24059283733 1.37292206287 1.42645800114 1.42639935017 1.37279760838 1.21625006199 1.13906562328 0.980396747589 0.979377150536 1.19249916077 1.28661262989 1.40202999115 1.44675040245 1.44668889046 1.40190768242 1.2670134306 1.19250547886 0.979476511478 0.978811502457 1.21954631805 1.30668830872 1.41361856461 1.45353353024 1.45347285271 1.41349947453 1.28941178322 1.21954512596 0.978902459145 0.978812336922 1.21953415871 1.30667793751 1.41361033916 1.45352768898 1.45346689224 1.41349124908 1.28940093517 1.21953308582 0.978903353214 0.979379653931 1.19246315956 1.28658032417 1.40200030804 1.44672834873 1.44666683674 1.40187823772 1.26697945595 1.19246935844 0.979479134083 0.980116724968 1.12528252602 1.22617554665 1.36669075489 1.42285680771 1.42279791832 1.36656403542 1.20058345795 1.1253002882 0.980235755444 0.981252729893 1.06080770493 1.14017438889 1.2954595089 1.36183238029 1.3617862463 1.29534673691 1.11943280697 1.06080555916 0.981386840343 0.986049592495 1.02328491211 1.05676662922 1.13830304146 1.20274996758 1.20271778107 1.13822257519 1.05238568783 1.02327620983 0.986169934273 
0.985437750816 1.01772022247 1.04955255985 1.13014364243 1.19312536716 1.19309711456 1.13006699085 1.04504466057 1.01771485806 0.985554873943 0.9804007411 1.0539457798 1.13260316849 1.29226195812 1.37040710449 1.37036454678 1.29216575623 1.11182451248 1.05394434929 0.980532646179 0.979236423969 1.13151550293 1.23546016216 1.38909947872 1.45257437229 1.45251822472 1.3889837265 1.20896780491 1.1315267086 0.979348778725 0.978334128857 1.18496358395 1.29039645195 1.42369520664 1.47699820995 1.47693753242 1.42357754707 1.26524913311 1.18496024609 0.978420734406 0.977745771408 1.21254611015 1.31453680992 1.43784928322 1.48514735699 1.48508739471 1.43773388863 1.29173374176 1.21253454685 0.977820396423 0.977746784687 1.21253466606 1.31452703476 1.43784093857 1.48514151573 1.48508167267 1.43772554398 1.29172348976 1.21252310276 0.977821350098 0.97833698988 1.18492889404 1.29036545753 1.42366623878 1.47697544098 1.47691476345 1.42354857922 1.26521682739 1.18492555618 0.978423476219 0.979064822197 1.11768901348 1.21873033047 1.37901580334 1.44642996788 1.44637346268 1.37889695168 1.19276607037 1.11770260334 0.979179263115 0.980405330658 1.05386459827 1.13250815868 1.29216432571 1.37028408051 1.37024140358 1.29206836224 1.11173760891 1.05386304855 0.980537116528 0.985456287861 1.01765608788 1.04945874214 1.12997758389 1.19295704365 1.19292891026 1.12990105152 1.04495549202 1.01765072346 0.985573112965 
0.985121130943 1.01421165466 1.04496407509 1.12505185604 1.18728888035 1.18726193905 1.12497937679 1.04036140442 1.01420843601 0.985235750675 0.979961037636 1.04958760738 1.12791597843 1.28701806068 1.3723167181 1.37227785587 1.2869348526 1.10707998276 1.0495865345 0.980090856552 0.978598296642 1.12678182125 1.2305791378 1.39869475365 1.47278928757 1.47273874283 1.39858973026 1.20420396328 1.12679123878 0.978709638119 0.977602720261 1.18022274971 1.28925025463 1.43928980827 1.50175249577 1.50169539452 1.43918144703 1.26139450073 1.18021464348 0.977686285973 0.976983308792 1.20789468288 1.31667125225 1.45592987537 1.51143038273 1.51137280464 1.45582211018 1.29017972946 1.20787620544 0.977052211761 0.976984500885 1.207883358 1.3166615963 1.45592188835 1.51142454147 1.51136696339 1.45581388474 1.29016983509 1.20786499977 0.97705322504 0.977605700493 1.18018841743 1.28921914101 1.43926334381 1.50173020363 1.50167286396 1.43915510178 1.26136434078 1.18018043041 0.977689325809 0.978442788124 1.11292672157 1.21368205547 1.38469851017 1.46352040768 1.46346890926 1.38459074497 1.18787193298 1.11293852329 0.978556275368 0.979965865612 1.04950797558 1.12782168388 1.28692400455 1.37220275402 1.37216389179 1.28684067726 1.10699391365 1.04950678349 0.980095624924 0.985139727592 1.01415026188 1.04487168789 1.12488496304 1.18711853027 1.18709146976 1.12481248379 1.0402739048 1.01414716244 0.98525428772 
0.984946370125 1.01206374168 1.04213941097 1.12195885181 1.1836771965 1.18365120888 1.12188887596 1.03747451305 1.01206183434 0.985059261322 0.979719221592 1.04690623283 1.12504720688 1.28369998932 1.37062895298 1.37059354782 1.28362059593 1.10415279865 1.04690539837 0.97984790802 0.978249967098 1.12386226654 1.22766399384 1.40335190296 1.48685348034 1.48680782318 1.40325737 1.2013657093 1.12387013435 0.978360593319 0.977135539055 1.17729449272 1.28674435616 1.44925165176 1.52038514614 1.52033257484 1.44915258884 1.25889384747 1.17728388309 0.97721850872 0.976452767849 1.2050344944 1.31622731686 1.46807301044 1.5316618681 1.53160762787 1.46797323227 1.28799462318 1.20501255989 0.976520776749 0.976453840733 1.20502328873 1.31621778011 1.46806490421 1.53165578842 1.53160202503 1.46796536446 1.28798496723 1.20500135422 0.976521849632 0.977138578892 1.17726027966 1.28671264648 1.44922733307 1.52036356926 1.52031087875 1.44912815094 1.25886380672 1.17724978924 0.977221727371 0.978102505207 1.10999119282 1.21067750454 1.38617372513 1.47439551353 1.47434914112 1.38607609272 1.18490695953 1.11000192165 0.97821521759 0.979724109173 1.0468275547 1.12495350838 1.28360641003 1.37052249908 1.37048697472 1.28352725506 1.10406708717 1.04682672024 0.979852735996 0.984965026379 1.01200389862 1.04204761982 1.12179124355 1.18350660801 1.18348062038 1.12172138691 1.0373878479 1.01200222969 0.985077798367 
0.984847724438 1.0107666254 1.0404266119 1.12009191513 1.18150413036 1.18147921562 1.12002372742 1.03572237492 1.01076567173 0.984959602356 0.979582846165 1.04528295994 1.12331664562 1.28174853325 1.36841964722 1.36838650703 1.28167057037 1.1023850441 1.04528236389 0.979710698128 0.978051960468 1.12209320068 1.22594106197 1.40492069721 1.49577796459 1.49573588371 1.40483188629 1.19966316223 1.12210035324 0.978161931038 0.976865410805 1.17552542686 1.28509414196 1.45509397984 1.53345429897 1.53340578079 1.45500087738 1.25733339787 1.17551350594 0.976948142052 0.976126909256 1.20330882072 1.31501209736 1.47572743893 1.54626393318 1.54621350765 1.47563445568 1.28672659397 1.20328521729 0.976194620132 0.976128160954 1.20329761505 1.31500208378 1.47571969032 1.54625785351 1.54620778561 1.47562682629 1.28671693802 1.2032738924 0.97619587183 0.976868748665 1.17549157143 1.28506338596 1.45507013798 1.53343355656 1.53338503838 1.45497727394 1.2573029995 1.17547941208 0.976951599121 0.977909147739 1.10821115971 1.20888471603 1.38570070267 1.48059523106 1.48055231571 1.38560962677 1.18313801289 1.10822117329 0.978021264076 0.979587972164 1.04520487785 1.12322318554 1.28165519238 1.3683154583 1.36828231812 1.28157711029 1.10229969025 1.04520428181 0.979715645313 0.984866380692 1.01070809364 1.04033517838 1.11992394924 1.18133318424 1.18130815029 1.11985564232 1.0356361866 1.01070702076 0.984978079796 
