1.00000011921 1.0 1.00059247017 1.04140496254 1.05707657337 1.05706560612 1.04135656357 1.0000333786 1.0 1.0 1.0 1.0008649826 1.03790605068 1.06892895699 1.07433342934 1.07432818413 1.06891083717 1.032507658 1.00086116791 1.0 1.00000011921 1.03500127792 1.05699956417 1.07417392731 1.07782173157 1.07781708241 1.07416057587 1.05495381355 1.0350060463 1.0 1.0 1.04981446266 1.06385576725 1.07611656189 1.07893621922 1.0789321661 1.07610487938 1.06262290478 1.04981684685 1.0 1.0 1.05531167984 1.06661224365 1.07683956623 1.0792863369 1.07928228378 1.07682871819 1.06560254097 1.05531394482 1.0 1.0 1.05530762672 1.06660974026 1.07683885098 1.07928586006 1.07928180695 1.07682800293 1.0656003952 1.0553098917 1.0 1.00000011921 1.04979968071 1.06384766102 1.07611405849 1.07893455029 1.07893037796 1.07610225677 1.06261456013 1.04980194569 1.0 1.0 1.03209960461 1.0561811924 1.07410562038 1.07783830166 1.07783353329 1.07409191132 1.05387330055 1.03210425377 1.0 1.00000011921 1.00085330009 1.03785157204 1.06890892982 1.07431817055 1.07431280613 1.06889081001 1.03244972229 1.00084972382 0.999999940395 0.999999940395 1.0 1.00057137012 1.04129874706 1.05699801445 1.0569870472 1.04125010967 1.00003254414 1.00000011921 1.0 
1.00000011921 1.0 1.00059247017 1.0515884161 1.09252512455 1.09250020981 1.05150818825 1.0000333786 1.0 1.0 1.0 1.0008649826 1.04927527905 1.12654364109 1.14248251915 1.14246928692 1.12649583817 1.03665912151 1.00086116791 1.0 1.00000011921 1.04629743099 1.09958052635 1.14300680161 1.15250098705 1.15248942375 1.14297413826 1.09195232391 1.04631483555 1.0 1.0 1.07932603359 1.11692404747 1.14842224121 1.15547978878 1.15546929836 1.14839494228 1.11233758926 1.07933115959 1.0 1.0 1.09279882908 1.12376797199 1.15035545826 1.1564155817 1.15640544891 1.15033042431 1.12015116215 1.09279978275 1.0 1.0 1.09279024601 1.12376284599 1.15035355091 1.15641450882 1.15640449524 1.15032851696 1.12014567852 1.09279119968 1.0 1.00000011921 1.07929778099 1.11690688133 1.14841556549 1.15547573566 1.15546512604 1.14838862419 1.11231887341 1.0793030262 1.0 1.0 1.03838407993 1.0959328413 1.14249742031 1.15236365795 1.15235185623 1.14246344566 1.08703958988 1.03839838505 1.0 1.00000011921 1.00085330009 1.04919445515 1.12649285793 1.14244425297 1.14243078232 1.12644505501 1.03658521175 1.00084972382 0.999999940395 0.999999940395 1.0 1.00057137012 1.05144119263 1.09237134457 1.09234654903 1.05136108398 1.00003254414 1.00000011921 1.0 
1.00000011921 1.0 1.00059247017 1.0515884161 1.09785032272 1.09782123566 1.05150818825 1.0000333786 1.0 1.0 1.0 1.0008649826 1.04927527905 1.16039931774 1.19467413425 1.19465017319 1.16032004356 1.03665912151 1.00086116791 1.0 1.00000011921 1.04629671574 1.11977696419 1.19777286053 1.21728336811 1.21726202965 1.19771373272 1.10365653038 1.04631400108 1.0 1.0 1.08522152901 1.15025627613 1.20905864239 1.22330224514 1.22328281403 1.20900940895 1.13917791843 1.08522927761 1.0 1.0 1.10565567017 1.16248738766 1.21303582191 1.22517061234 1.2251522541 1.2129907608 1.15351510048 1.10565567017 1.0 1.0 1.10564506054 1.16247987747 1.21303260326 1.22516846657 1.22515034676 1.21298742294 1.15350675583 1.10564529896 1.0 1.00000011921 1.08518910408 1.15023219585 1.20904684067 1.22329509258 1.22327578068 1.20899748802 1.1391518116 1.08519721031 1.0 1.0 1.03838407993 1.11084544659 1.19586205482 1.21658861637 1.21656692028 1.19580030441 1.09326732159 1.03839838505 1.0 1.00000011921 1.00085330009 1.04919445515 1.16031825542 1.19460475445 1.19458079338 1.16023898125 1.03658521175 1.00084972382 0.999999940395 0.999999940395 1.0 1.00057137012 1.05144119263 1.0976858139 1.09765672684 1.05136108398 1.00003254414 1.00000011921 1.0 
1.00000011921 1.0 1.00059247017 1.0515884161 1.09785032272 1.09782123566 1.05150818825 1.0000333786 1.0 1.0 1.0 1.0008649826 1.04927527905 1.17168211937 1.22666430473 1.22663140297 1.17159307003 1.03665912151 1.00086116791 1.0 1.00000011921 1.04629671574 1.12372589111 1.23564469814 1.26951146126 1.26947963238 1.2355619669 1.10390269756 1.04631400108 1.0 1.0 1.08522152901 1.16593003273 1.25511670113 1.28020894527 1.28017890453 1.25504362583 1.14778089523 1.08522927761 1.0 1.0 1.1062502861 1.18369007111 1.26223087311 1.28352606297 1.28349757195 1.26216328144 1.16803872585 1.10624969006 1.0 1.0 1.10623955727 1.18368172646 1.26222598553 1.28352320194 1.28349459171 1.26215851307 1.16802966595 1.10623884201 1.0 1.00000011921 1.08518910408 1.16590297222 1.25509893894 1.2801977396 1.28016781807 1.25502574444 1.14775240421 1.08519721031 1.0 1.0 1.03838407993 1.11172962189 1.23072838783 1.26742255688 1.26738989353 1.23064160347 1.09326732159 1.03839838505 1.0 1.00000011921 1.00085330009 1.04919445515 1.17159354687 1.22657012939 1.22653734684 1.17150461674 1.03658521175 1.00084972382 0.999999940395 0.999999940395 1.0 1.00057137012 1.05144119263 1.0976858139 1.09765672684 1.05136108398 1.00003254414 1.00000011921 1.0 
1.00000011921 1.0 1.00059247017 1.0515884161 1.09785032272 1.09782123566 1.05150818825 1.0000333786 1.0 1.0 1.0 1.0008649826 1.04927527905 1.17243909836 1.24088561535 1.24085068703 1.17235183716 1.03665912151 1.00086116791 1.0 1.00000011921 1.04629671574 1.12372589111 1.25786280632 1.30774235725 1.3077031374 1.25777053833 1.10390269756 1.04631400108 1.0 1.0 1.08522152901 1.17064011097 1.28612422943 1.3245575428 1.32451832294 1.28603637218 1.14838600159 1.08522927761 1.0 1.0 1.1062502861 1.19270730019 1.29695093632 1.32983207703 1.32979404926 1.2968672514 1.17188429832 1.10624969006 1.0 1.0 1.10623955727 1.19269871712 1.29694461823 1.32982826233 1.32979011536 1.29686105251 1.171875 1.10623884201 1.0 1.00000011921 1.08518910408 1.17061245441 1.28610277176 1.32454288006 1.3245036602 1.28601467609 1.14835739136 1.08519721031 1.0 1.0 1.03838407993 1.11172962189 1.24885392189 1.30313181877 1.30309152603 1.24875807762 1.09326732159 1.03839838505 1.0 1.00000011921 1.00085330009 1.04919445515 1.17235076427 1.24078345299 1.24074816704 1.17226362228 1.03658521175 1.00084972382 0.999999940395 0.999999940395 1.0 1.00057137012 1.05144119263 1.0976858139 1.09765672684 1.05136108398 1.00003254414 1.00000011921 1.0 
1.00000011921 1.0 1.00059247017 1.0515884161 1.09785032272 1.09782123566 1.05150818825 1.0000333786 1.0 1.0 1.0 1.0008649826 1.04927527905 1.17243909836 1.24483525753 1.24480128288 1.17235183716 1.03665912151 1.00086116791 1.0 1.00000011921 1.04629671574 1.12372589111 1.26915597916 1.333142519 1.33310127258 1.26906609535 1.10390269756 1.04631400108 1.0 1.0 1.08522152901 1.17093145847 1.30493474007 1.35641491413 1.3563709259 1.30484414101 1.14838600159 1.08522927761 1.0 1.0 1.1062502861 1.19549381733 1.31910598278 1.36388218403 1.36383831501 1.31901693344 1.17205429077 1.10624969006 1.0 1.0 1.10623955727 1.19548511505 1.31909883022 1.36387753487 1.36383378506 1.31901025772 1.17204511166 1.10623884201 1.0 1.00000011921 1.08518910408 1.17090332508 1.30491256714 1.35639774799 1.35635352135 1.30482196808 1.14835739136 1.08519721031 1.0 1.0 1.03838407993 1.11172962189 1.25634860992 1.32525634766 1.3252145052 1.25625538826 1.09326732159 1.03839838505 1.0 1.00000011921 1.00085330009 1.04919445515 1.17235076427 1.24473536015 1.2447013855 1.17226362228 1.03658521175 1.00084972382 0.999999940395 0.999999940395 1.0 1.00057137012 1.05144119263 1.0976858139 1.09765672684 1.05136108398 1.00003254414 1.00000011921 1.0 
1.00000011921 1.0 1.00059247017 1.0515884161 1.09785032272 1.09782123566 1.05150818825 1.0000333786 1.0 1.0 1.0 1.0008649826 1.04927527905 1.17243909836 1.24506986141 1.24503660202 1.17235183716 1.03665912151 1.00086116791 1.0 1.00000011921 1.04629671574 1.12372589111 1.27426207066 1.34880614281 1.3487662077 1.27417743206 1.10390269756 1.04631400108 1.0 1.0 1.08522152901 1.17093145847 1.31566035748 1.3778090477 1.37776446342 1.31557273865 1.14838600159 1.08522927761 1.0 1.0 1.1062502861 1.19580173492 1.33240091801 1.38735032082 1.38730490208 1.33231377602 1.17205429077 1.10624969006 1.0 1.0 1.10623955727 1.19579279423 1.33239388466 1.38734531403 1.38730013371 1.33230686188 1.17204511166 1.10623884201 1.0 1.00000011921 1.08518910408 1.17090332508 1.31563842297 1.37779068947 1.3777462244 1.31555092335 1.14835739136 1.08519721031 1.0 1.0 1.03838407993 1.11172962189 1.25870978832 1.33772671223 1.33768618107 1.2586222887 1.09326732159 1.03839838505 1.0 1.00000011921 1.00085330009 1.04919445515 1.17235076427 1.24497151375 1.24493825436 1.17226362228 1.03658521175 1.00084972382 0.999999940395 0.999999940395 1.0 1.00057137012 1.05144119263 1.0976858139 1.09765672684 1.05136108398 1.00003254414 1.00000011921 1.0 
