1.00000011921 1.0 0.999906003475 1.05524921417 1.10242533684 1.10239672661 1.05517506599 1.0 1.0 1.0 1.0 1.0 1.04841244221 1.17215752602 1.24169147015 1.24165701866 1.17206943035 1.03231418133 1.0 1.0 1.00000011921 1.04344522953 1.12528371811 1.26709711552 1.33305311203 1.33301281929 1.26701056957 1.10423278809 1.04346466064 1.0 1.0 1.08418929577 1.1711807251 1.30390715599 1.35687172413 1.35682821274 1.30381846428 1.14803111553 1.08419954777 1.0 1.0 1.10524272919 1.1947606802 1.31832838058 1.36441957951 1.36437666416 1.31824123859 1.17077362537 1.1052441597 1.0 1.0 1.10523223877 1.19475221634 1.31832170486 1.36441493034 1.36437213421 1.31823456287 1.17076480389 1.10523355007 1.0 1.00000011921 1.08415770531 1.1711537838 1.30388498306 1.35685420036 1.35681080818 1.30379641056 1.14800310135 1.08416807652 1.0 1.0 1.03395652771 1.11321628094 1.25334584713 1.32463896275 1.32459759712 1.25325620174 1.09317874908 1.03397452831 1.0 1.00000011921 0.999999940395 1.04833316803 1.17206561565 1.24159502983 1.24156081676 1.1719776392 1.03223824501 1.0 0.999999940395 0.999999940395 1.0 0.999908030033 1.05509638786 1.10225665569 1.10222804546 1.05502235889 1.00000011921 1.00000011921 1.0 
1.00000011921 1.0 0.999906003475 1.05524921417 1.10242533684 1.10239672661 1.05517506599 1.0 1.0 1.0 1.0 1.0 1.04841244221 1.17215752602 1.24169147015 1.24165701866 1.17206943035 1.03231418133 1.0 1.0 1.00000011921 1.04344522953 1.12528371811 1.2697404623 1.3592249155 1.35919260979 1.26966035366 1.10423278809 1.04346466064 1.0 1.0 1.08418929577 1.1711807251 1.31950485706 1.40287137032 1.40283560753 1.3194309473 1.14803111553 1.08419954777 1.0 1.0 1.10524272919 1.1947606802 1.34186434746 1.41887903214 1.41884207726 1.34179103374 1.17077362537 1.1052441597 1.0 1.0 1.10523223877 1.19475221634 1.34185779095 1.41887366772 1.41883683205 1.34178447723 1.17076480389 1.10523355007 1.0 1.00000011921 1.08415770531 1.1711537838 1.31948387623 1.40285313129 1.40281748772 1.31941008568 1.14800310135 1.08416807652 1.0 1.0 1.03395652771 1.11321628094 1.25359976292 1.34063279629 1.34059894085 1.25351214409 1.09317874908 1.03397452831 1.0 1.00000011921 0.999999940395 1.04833316803 1.17206561565 1.24159502983 1.24156081676 1.1719776392 1.03223824501 1.0 0.999999940395 0.999999940395 1.0 0.999908030033 1.05509638786 1.10225665569 1.10222804546 1.05502235889 1.00000011921 1.00000011921 1.0 
1.00000011921 1.0 0.999906003475 1.05524921417 1.10242533684 1.10239672661 1.05517506599 1.0 1.0 1.0 1.0 1.0 1.04841244221 1.17215752602 1.24169147015 1.24165701866 1.17206943035 1.03231418133 1.0 1.0 1.00000011921 1.04344522953 1.12528371811 1.2697404623 1.35934114456 1.35930895805 1.26966035366 1.10423278809 1.04346466064 1.0 1.0 1.08418929577 1.1711807251 1.3195284605 1.40447306633 1.40443813801 1.31945466995 1.14803111553 1.08419954777 1.0 1.0 1.10524272919 1.1947606802 1.34251046181 1.42139256001 1.42135667801 1.34243869781 1.17077362537 1.1052441597 1.0 1.0 1.10523223877 1.19475221634 1.3425039053 1.42138743401 1.42135119438 1.34243202209 1.17076480389 1.10523355007 1.0 1.00000011921 1.08415770531 1.1711537838 1.31950747967 1.40445482731 1.4044200182 1.31943392754 1.14800310135 1.08416807652 1.0 1.0 1.03395652771 1.11321628094 1.25359976292 1.34063279629 1.34059894085 1.25351214409 1.09317874908 1.03397452831 1.0 1.00000011921 0.999999940395 1.04833316803 1.17206561565 1.24159502983 1.24156081676 1.1719776392 1.03223824501 1.0 0.999999940395 0.999999940395 1.0 0.999908030033 1.05509638786 1.10225665569 1.10222804546 1.05502235889 1.00000011921 1.00000011921 1.0 
1.00000011921 1.0 0.999906003475 1.05524921417 1.10242533684 1.10239672661 1.05517506599 1.0 1.0 1.0 1.0 1.0 1.04841244221 1.17215752602 1.24169147015 1.24165701866 1.17206943035 1.03231418133 1.0 1.0 1.00000011921 1.04344522953 1.12528371811 1.2697404623 1.35934114456 1.35930895805 1.26966035366 1.10423278809 1.04346466064 1.0 1.0 1.08418929577 1.1711807251 1.3195284605 1.40457642078 1.40454149246 1.31945466995 1.14803111553 1.08419954777 1.0 1.0 1.10524272919 1.1947606802 1.3425590992 1.42159640789 1.42156040668 1.34248745441 1.17077362537 1.1052441597 1.0 1.0 1.10523223877 1.19475221634 1.3425526619 1.42159104347 1.42155504227 1.3424808979 1.17076480389 1.10523355007 1.0 1.00000011921 1.08415770531 1.1711537838 1.31950747967 1.40455806255 1.40452337265 1.31943392754 1.14800310135 1.08416807652 1.0 1.0 1.03395652771 1.11321628094 1.25359976292 1.34063279629 1.34059894085 1.25351214409 1.09317874908 1.03397452831 1.0 1.00000011921 0.999999940395 1.04833316803 1.17206561565 1.24159502983 1.24156081676 1.1719776392 1.03223824501 1.0 0.999999940395 0.999999940395 1.0 0.999908030033 1.05509638786 1.10225665569 1.10222804546 1.05502235889 1.00000011921 1.00000011921 1.0 
1.00000011921 1.0 0.999906003475 1.05524921417 1.10242533684 1.10239672661 1.05517506599 1.0 1.0 1.0 1.0 1.0 1.04841244221 1.17215752602 1.24169147015 1.24165701866 1.17206943035 1.03231418133 1.0 1.0 1.00000011921 1.04344522953 1.12528371811 1.2697404623 1.35934114456 1.35930895805 1.26966035366 1.10423278809 1.04346466064 1.0 1.0 1.08418929577 1.1711807251 1.3195284605 1.40459299088 1.40455818176 1.31945466995 1.14803111553 1.08419954777 1.0 1.0 1.10524272919 1.1947606802 1.34257161617 1.4216285944 1.4215927124 1.34249961376 1.17077362537 1.1052441597 1.0 1.0 1.10523223877 1.19475221634 1.34256505966 1.4216234684 1.42158746719 1.34249305725 1.17076480389 1.10523355007 1.0 1.00000011921 1.08415770531 1.1711537838 1.31950747967 1.40457475185 1.40453982353 1.31943392754 1.14800310135 1.08416807652 1.0 1.0 1.03395652771 1.11321628094 1.25359976292 1.34063279629 1.34059894085 1.25351214409 1.09317874908 1.03397452831 1.0 1.00000011921 0.999999940395 1.04833316803 1.17206561565 1.24159502983 1.24156081676 1.1719776392 1.03223824501 1.0 0.999999940395 0.999999940395 1.0 0.999908030033 1.05509638786 1.10225665569 1.10222804546 1.05502235889 1.00000011921 1.00000011921 1.0 
1.00000011921 1.0 0.999906003475 1.05524921417 1.10242533684 1.10239672661 1.05517506599 1.0 1.0 1.0 1.0 1.0 1.04841244221 1.17215752602 1.24169147015 1.24165701866 1.17206943035 1.03231418133 1.0 1.0 1.00000011921 1.04344522953 1.12528371811 1.2697404623 1.35934114456 1.35930895805 1.26966035366 1.10423278809 1.04346466064 1.0 1.0 1.08418929577 1.1711807251 1.3195284605 1.40460157394 1.40456664562 1.31945466995 1.14803111553 1.08419954777 1.0 1.0 1.10524272919 1.1947606802 1.34258019924 1.42164123058 1.42160534859 1.34250843525 1.17077362537 1.1052441597 1.0 1.0 1.10523223877 1.19475221634 1.34257376194 1.42163610458 1.42160010338 1.34250187874 1.17076480389 1.10523355007 1.0 1.00000011921 1.08415770531 1.1711537838 1.31950747967 1.40458333492 1.4045484066 1.31943392754 1.14800310135 1.08416807652 1.0 1.0 1.03395652771 1.11321628094 1.25359976292 1.34063279629 1.34059894085 1.25351214409 1.09317874908 1.03397452831 1.0 1.00000011921 0.999999940395 1.04833316803 1.17206561565 1.24159502983 1.24156081676 1.1719776392 1.03223824501 1.0 0.999999940395 0.999999940395 1.0 0.999908030033 1.05509638786 1.10225665569 1.10222804546 1.05502235889 1.00000011921 1.00000011921 1.0 
1.00000011921 1.0 0.999906003475 1.05524921417 1.10242533684 1.10239672661 1.05517506599 1.0 1.0 1.0 1.0 1.0 1.04841244221 1.17215752602 1.24169147015 1.24165701866 1.17206943035 1.03231418133 1.0 1.0 1.00000011921 1.04344522953 1.12528371811 1.2697404623 1.35934114456 1.35930895805 1.26966035366 1.10423278809 1.04346466064 1.0 1.0 1.08418929577 1.1711807251 1.3195284605 1.40460908413 1.40457427502 1.31945466995 1.14803111553 1.08419954777 1.0 1.0 1.10524272919 1.1947606802 1.34258854389 1.42165100574 1.42161488533 1.34251666069 1.17077362537 1.1052441597 1.0 1.0 1.10523223877 1.19475221634 1.34258210659 1.42164564133 1.42160964012 1.34251022339 1.17076480389 1.10523355007 1.0 1.00000011921 1.08415770531 1.1711537838 1.31950747967 1.40459060669 1.404556036 1.31943392754 1.14800310135 1.08416807652 1.0 1.0 1.03395652771 1.11321628094 1.25359976292 1.34063279629 1.34059894085 1.25351214409 1.09317874908 1.03397452831 1.0 1.00000011921 0.999999940395 1.04833316803 1.17206561565 1.24159502983 1.24156081676 1.1719776392 1.03223824501 1.0 0.999999940395 0.999999940395 1.0 0.999908030033 1.05509638786 1.10225665569 1.10222804546 1.05502235889 1.00000011921 1.00000011921 1.0 
