2.25764870644 4.07775020599 7.18074321747 9.9757642746 11.425819397 11.4241123199 9.97064304352 7.17286968231 4.07076406479 2.25734400749 2.27651190758 5.328789711 10.0974502563 14.5369310379 16.8441104889 16.8413848877 14.5287818909 10.0852050781 5.31768417358 2.2757601738 2.29497647285 6.1924533844 12.0627584457 17.4555950165 20.3123397827 20.3089046478 17.4455604553 12.0478200912 6.17861700058 2.29382634163 2.30942201614 6.7544760704 13.2545528412 19.1051292419 22.2380561829 22.2342529297 19.0941429138 13.2381830215 6.7388548851 2.30798649788 2.31708621979 7.03118753433 13.8101711273 19.8469867706 23.0920066833 23.0880565643 19.8356132507 13.7931900024 7.01477575302 2.3155066967 2.31707692146 7.03086805344 13.8095340729 19.8461494446 23.091047287 23.0870952606 19.8347740173 13.79255867 7.01445674896 2.31549739838 2.30939531326 6.75348901749 13.2525501251 19.1024398804 22.2349491119 22.2311439514 19.0914554596 13.2361822128 6.73786973953 2.30796027184 2.29493284225 6.19071435928 12.0588674545 17.4500427246 20.3058052063 20.3023719788 17.4400138855 12.0439357758 6.17688369751 2.29378342628 2.27646255493 5.32601881027 10.0912027359 14.5273323059 16.8326339722 16.8299121857 14.5191917419 10.0789680481 5.31492233276 2.27571201324 2.25761175156 4.07426929474 7.17223644257 9.96228313446 11.409948349 11.4082460403 9.95717144012 7.16437530518 4.0672955513 2.25730800629 
2.25780057907 3.90100932121 6.83606338501 9.57062244415 11.0150814056 11.0133724213 9.56553649902 6.82847595215 3.89459204674 2.25753545761 2.27481460571 5.11970233917 9.71294784546 14.124341011 16.4842910767 16.4814682007 14.1160793304 9.70100021362 5.10919857025 2.27414464951 2.29156827927 5.98150634766 11.6857738495 17.1234493256 20.1196842194 20.11602211 17.1130638123 11.6711072922 5.96822547913 2.29053068161 2.30562758446 6.55306100845 12.9048719406 18.8786678314 22.209028244 22.204908371 18.8671588898 12.8886785507 6.53795194626 2.30431270599 2.31355142593 6.83989238739 13.4903173447 19.6866359711 23.1548442841 23.1505432129 19.6746482849 13.4734449387 6.82395410538 2.31209087372 2.31354165077 6.83955621719 13.4896383286 19.6857128143 23.1537723541 23.1494655609 19.6737251282 13.4727678299 6.82361984253 2.31208109856 2.30560040474 6.55204486847 12.9027824402 18.8757553101 22.2055988312 22.2014808655 18.8642482758 12.8865909576 6.53693771362 2.30428624153 2.29152774811 5.97975254059 11.681845665 17.1176319122 20.1126880646 20.1090297699 17.1072483063 11.667181015 5.96647834778 2.29049110413 2.27477049828 5.11696529388 9.70671844482 14.1146554947 16.4725227356 16.4697036743 14.1064014435 9.69477844238 5.10647058487 2.27410149574 2.25776743889 3.89768886566 6.8278055191 9.55737400055 10.9994020462 10.9976959229 9.55229854584 6.82023096085 3.89128351212 2.25750279427 
2.25778126717 3.89462924004 6.82218170166 9.55277824402 10.9957885742 10.9940814972 9.54769897461 6.81461000443 3.88823366165 2.2575173378 2.27471756935 5.11068534851 9.69466686249 14.1018810272 16.4605503082 16.4577293396 14.093624115 9.68273639679 5.10021018982 2.27405118942 2.29136705399 5.97073125839 11.6645059586 17.097536087 20.0924968719 20.0888385773 17.0871524811 11.6498584747 5.95748090744 2.29033493996 2.30534553528 6.54106998444 12.8812131882 18.8501396179 22.1789970398 22.1748771667 18.838634491 12.8650445938 6.52599334717 2.30403757095 2.31322789192 6.82728242874 13.4654169083 19.6567287445 23.1235332489 23.1192321777 19.6447505951 13.4485702515 6.811378479 2.31177473068 2.31321835518 6.82694816589 13.4647397995 19.6558074951 23.1224651337 23.1181602478 19.6438293457 13.4478931427 6.81104516983 2.31176519394 2.3053188324 6.5400557518 12.8791275024 18.8472290039 22.175573349 22.171453476 18.8357276917 12.8629627228 6.52498102188 2.30401086807 2.29132723808 5.96898031235 11.6605825424 17.0917224884 20.0855102539 20.0818519592 17.0813465118 11.6459417343 5.95573711395 2.29029583931 2.27467393875 5.10795307159 9.68844604492 14.0922060013 16.4487915039 16.4459724426 14.0839576721 9.67652606964 5.09748744965 2.27400875092 2.25774788857 3.89131760597 6.81394100189 9.53955078125 10.9801292419 10.9784250259 9.53447914124 6.80638122559 3.88493347168 2.25748467445 
2.25778102875 3.89452123642 6.82194757462 9.55247783661 10.9954633713 10.9937562943 9.54739761353 6.81437492371 3.88812589645 2.25751709938 2.27471613884 5.11053371429 9.69435691833 14.1015014648 16.460149765 16.4573287964 14.09324646 9.68243026733 5.10005760193 2.27404952049 2.29136419296 5.97054767609 11.664147377 17.0970973969 20.0920372009 20.0883769989 17.0867156982 11.6494998932 5.95729827881 2.29033184052 2.30534124374 6.54086637497 12.8808107376 18.849653244 22.1784858704 22.1743659973 18.8381519318 12.8646440506 6.52579069138 2.304033041 2.31322216988 6.82706832886 13.4649915695 19.6562252045 23.1229991913 23.1186943054 19.644241333 13.4481468201 6.81116533279 2.31176948547 2.31321263313 6.82673311234 13.4643154144 19.6553001404 23.121925354 23.1176242828 19.6433200836 13.4474716187 6.81083202362 2.31175971031 2.30531382561 6.53985214233 12.8787260056 18.8467445374 22.1750621796 22.1709442139 18.8352432251 12.8625602722 6.52477884293 2.30400633812 2.29132390022 5.96879911423 11.6602230072 17.0912857056 20.0850505829 20.0813922882 17.0809078217 11.6455802917 5.955555439 2.29029273987 2.27467250824 5.10780143738 9.68813705444 14.0918264389 16.4483890533 16.4455718994 14.0835771561 9.67621707916 5.09733533859 2.27400684357 2.25774765015 3.89121007919 6.81370735168 9.53924942017 10.979804039 10.978099823 9.53417778015 6.8061466217 3.88482618332 2.25748467445 
2.25778079033 3.89454174042 6.82199144363 9.55253410339 10.9955263138 10.9938182831 9.54745578766 6.81441926956 3.88814663887 2.25751709938 2.27471637726 5.11056232452 9.69441699982 14.1015758514 16.460226059 16.457403183 14.0933189392 9.68248748779 5.100086689 2.27404952049 2.2913646698 5.9705824852 11.6642160416 17.0971832275 20.0921268463 20.0884685516 17.0867996216 11.6495695114 5.95733213425 2.29033255577 2.30534172058 6.54090452194 12.8808889389 18.8497467041 22.1785793304 22.1744632721 18.8382434845 12.8647203445 6.52582979202 2.30403399467 2.31322312355 6.82710933685 13.4650754929 19.6563186646 23.1230983734 23.1187973022 19.6443386078 13.4482278824 6.81120681763 2.31177020073 2.31321358681 6.82677412033 13.4643964767 19.6553974152 23.1220245361 23.1177272797 19.6434173584 13.447552681 6.81087350845 2.3117609024 2.3053150177 6.53989124298 12.8788042068 18.8468341827 22.1751594543 22.171043396 18.8353366852 12.8626365662 6.52481746674 2.30400776863 2.29132437706 5.96883249283 11.6602926254 17.0913696289 20.0851402283 20.0814819336 17.0809936523 11.64564991 5.95558977127 2.29029321671 2.27467250824 5.10783052444 9.68819522858 14.0918979645 16.4484653473 16.4456481934 14.083650589 9.67627429962 5.09736442566 2.27400708199 2.25774765015 3.89123034477 6.81375074387 9.53930473328 10.9798660278 10.9781618118 9.53423500061 6.80619096756 3.88484716415 2.25748443604 
2.25778102875 3.89456701279 6.82204723358 9.55260467529 10.9955997467 10.993891716 9.54752349854 6.81447315216 3.8881714344 2.25751709938 2.2747168541 5.11059761047 9.69448566437 14.1016616821 16.4603176117 16.4574966431 14.0934066772 9.68255901337 5.10012245178 2.27405023575 2.29136538506 5.97062540054 11.6642961502 17.0972824097 20.0922298431 20.0885696411 17.0869007111 11.6496515274 5.95737457275 2.29033327103 2.30534291267 6.54095125198 12.8809814453 18.849855423 22.1786994934 22.1745815277 18.8383541107 12.8648118973 6.52587556839 2.30403518677 2.31322431564 6.82715845108 13.4651727676 19.6564369202 23.1232223511 23.1189193726 19.6444530487 13.4483261108 6.81125497818 2.31177163124 2.3132147789 6.82682228088 13.4644908905 19.6555137634 23.1221523285 23.11784935 19.6435337067 13.4476518631 6.81092166901 2.3117620945 2.30531573296 6.53993749619 12.8788957596 18.8469486237 22.1752796173 22.1711616516 18.8354492188 12.8627290726 6.52486467361 2.30400896072 2.29132533073 5.9688744545 11.6603736877 17.091468811 20.0852432251 20.0815849304 17.0810928345 11.645731926 5.95563077927 2.29029393196 2.27467298508 5.10786581039 9.68826580048 14.0919876099 16.4485607147 16.4457416534 14.083738327 9.67634677887 5.09739971161 2.27400779724 2.25774765015 3.89125537872 6.81380653381 9.5393743515 10.9799404144 10.9782361984 9.53430461884 6.806245327 3.88487148285 2.25748467445 
2.25778126717 3.89459133148 6.82210063934 9.55267429352 10.9956741333 10.9939670563 9.54759407043 6.81452703476 3.88819527626 2.2575173378 2.27471709251 5.11063241959 9.69455623627 14.1017475128 16.4604072571 16.4575901031 14.0934925079 9.68262958527 5.10015630722 2.27405071259 2.29136633873 5.97066545486 11.6643810272 17.0973815918 20.0923366547 20.0886764526 17.0869998932 11.6497354507 5.95741510391 2.29033398628 2.30534386635 6.54099702835 12.881072998 18.8499660492 22.1788139343 22.174697876 18.8384647369 12.8649024963 6.52592182159 2.30403614044 2.31322574615 6.8272061348 13.4652690887 19.6565513611 23.1233463287 23.1190433502 19.6445713043 13.4484214783 6.8113026619 2.31177282333 2.31321644783 6.82687139511 13.4645910263 19.6556282043 23.1222763062 23.1179733276 19.6436500549 13.4477453232 6.8109703064 2.31176352501 2.30531668663 6.53998422623 12.8789873123 18.8470573425 22.1753959656 22.1712760925 18.835559845 12.8628196716 6.52491044998 2.30400967598 2.29132604599 5.96891641617 11.6604557037 17.0915660858 20.0853500366 20.0816898346 17.0811920166 11.6458129883 5.95567178726 2.29029464722 2.27467346191 5.10790061951 9.68833351135 14.0920724869 16.4486503601 16.4458332062 14.0838241577 9.67641639709 5.09743356705 2.27400779724 2.25774812698 3.89127969742 6.81385993958 9.53944396973 10.980014801 10.978310585 9.53437328339 6.80629873276 3.88489580154 2.25748467445 
