13.9734983444 21.7522506714 29.3916606903 37.197227478 45.6518096924 54.3698959351 62.8233299255 70.6273727417 78.2670516968 86.0462341309 13.9652757645 21.5297451019 28.6898498535 36.2903594971 45.2664604187 54.7571105957 63.7309188843 71.3279876709 78.488494873 86.0543823242 13.9630470276 21.3486366272 28.2464237213 35.7663383484 45.0416793823 54.982963562 64.2553405762 71.7708740234 78.6688690186 86.0565414429 13.9550619125 21.2331085205 28.0132312775 35.5251541138 44.9423065186 55.0827941895 64.4967346191 72.0038223267 78.7840499878 86.0644378662 13.9501438141 21.1781749725 27.9145069122 35.4327583313 44.9056129456 55.1196632385 64.5892333984 72.1024932861 78.8388290405 86.0692977905 13.9501495361 21.178237915 27.9146118164 35.4328575134 44.9056510925 55.1196212769 64.5891342163 72.1023864746 78.8387756348 86.0693054199 13.9550771713 21.2333068848 28.0135993958 35.5255012512 44.9424514771 55.0826568604 64.4963912964 72.0034561157 78.7838592529 86.0644073486 13.9630622864 21.3490066528 28.2472305298 35.7672348022 45.0420532227 54.9825782776 64.2544403076 71.7700653076 78.6685028076 86.0565185547 13.9652757645 21.5302658081 28.6913928986 36.2922325134 45.2672729492 54.7562866211 63.7290496826 71.3264312744 78.4879837036 86.0543670654 13.9735565186 21.7528419495 29.3934249878 37.1996917725 45.6528282166 54.3688735962 62.8208618164 70.625617981 78.2664489746 86.0461883545 
13.9720087051 21.7510433197 29.3867607117 37.1889305115 45.6476173401 54.3741073608 62.8316345215 70.6322555542 78.2682495117 86.0477218628 13.9632406235 21.5279426575 28.6779823303 36.2647590637 45.2490730286 54.7745628357 63.7565040588 71.3397979736 78.4903030396 86.0564041138 13.9604759216 21.3420448303 28.2187080383 35.7005348206 44.9911346436 55.0337295532 64.3210601807 71.7985153198 78.6754379272 86.05909729 13.9517412186 21.21833992 27.9617824554 35.4056968689 44.8651351929 55.1603240967 64.6161193848 72.0551528931 78.7987594604 86.067741394 13.9462013245 21.1564025879 27.8431510925 35.284576416 44.8165359497 55.2091522217 64.7373580933 72.1736907959 78.8605194092 86.0732269287 13.9462080002 21.1564750671 27.8432807922 35.284702301 44.8165893555 55.2090988159 64.7372131348 72.173538208 78.8604354858 86.0732345581 13.9517602921 21.2185592651 27.9622097015 35.4061431885 44.8653144836 55.1601448059 64.6156616211 72.0547332764 78.7985458374 86.0677185059 13.9604930878 21.3424339294 28.2195606232 35.7015647888 44.9916038513 55.0332641602 64.320022583 71.7976608276 78.6750488281 86.05909729 13.9632415771 21.528465271 28.6795539856 36.2666816711 45.2499427795 54.7736930847 63.7545776367 71.3382415771 78.4897766113 86.0563964844 13.9720668793 21.7516307831 29.3885345459 37.1914176941 45.648651123 54.3730621338 62.8291397095 70.6304931641 78.2676620483 86.0476608276 
13.9719362259 21.7510032654 29.3865623474 37.1885871887 45.6474571228 54.3742752075 62.8319702148 70.6324768066 78.2682876587 86.0477905273 13.963142395 21.5278949738 28.677488327 36.2637176514 45.2484703064 54.775177002 63.7575340271 71.3403015137 78.4903411865 86.0565032959 13.960351944 21.341758728 28.2174110413 35.6977233887 44.9887695312 55.0361022949 64.3238677979 71.7998123169 78.6757354736 86.0592346191 13.9515733719 21.2175827026 27.9590625763 35.3990440369 44.8599090576 55.1655731201 64.6227493286 72.0578689575 78.7995223999 86.0679168701 13.9459943771 21.1551990509 27.8390808105 35.2745780945 44.8097877502 55.2159347534 64.7473297119 72.177734375 78.8617095947 86.0734329224 13.9460010529 21.1552734375 27.8392181396 35.2747116089 44.809841156 55.2158813477 64.7471923828 72.1775970459 78.8616256714 86.073425293 13.9515924454 21.2178058624 27.9594974518 35.3995094299 44.8600997925 55.1653862 64.6222991943 72.0574264526 78.7993011475 86.0678939819 13.9603691101 21.3421516418 28.2182750702 35.698764801 44.9892425537 55.0356292725 64.3228225708 71.7989578247 78.6753387451 86.059211731 13.9631443024 21.5284194946 28.6790561676 36.2656517029 45.2493400574 54.7742996216 63.7556152344 71.3387298584 78.4898147583 86.0565032959 13.9719944 21.7515869141 29.3883323669 37.191078186 45.6484870911 54.3732299805 62.8294715881 70.6306991577 78.2677078247 86.047744751 
13.9719257355 21.750995636 29.3865318298 37.1885452271 45.6474342346 54.374294281 62.8320198059 70.6324996948 78.2682952881 86.0477981567 13.9631299973 21.5278892517 28.6774139404 36.2635803223 45.2483978271 54.7752456665 63.7576713562 71.3403701782 78.4903564453 86.0565185547 13.9603357315 21.3417186737 28.2172317505 35.6973648071 44.9885025024 55.036365509 64.3242263794 71.7999725342 78.6757659912 86.0592346191 13.95154953 21.2174682617 27.9586830139 35.3981513977 44.8591880798 55.1662979126 64.6236495972 72.058265686 78.7996368408 86.0679397583 13.9459657669 21.1550235748 27.8384895325 35.2731018066 44.808807373 55.2169189453 64.7488174438 72.1783294678 78.8619003296 86.0734634399 13.9459724426 21.1550998688 27.8386268616 35.2732391357 44.8088531494 55.2168655396 64.7486801147 72.1781921387 78.8618087769 86.0734634399 13.9515686035 21.2176876068 27.95911026 35.3986206055 44.859375 55.1661109924 64.6231842041 72.0578079224 78.799407959 86.0679168701 13.960351944 21.3421077728 28.2180957794 35.6984062195 44.9889717102 55.0359039307 64.3231811523 71.7991409302 78.6753692627 86.0592269897 13.9631309509 21.5284099579 28.678981781 36.2655181885 45.2492675781 54.7743682861 63.7557487488 71.3387985229 78.4898452759 86.0565109253 13.9719848633 21.7515830994 29.3883056641 37.1910324097 45.6484680176 54.3732528687 62.8295249939 70.6307296753 78.2677154541 86.047744751 
13.9719247818 21.7509937286 29.3865203857 37.1885299683 45.6474227905 54.3742980957 62.83203125 70.6325073242 78.2683029175 86.0478057861 13.9631261826 21.5278835297 28.6773967743 36.2635498047 45.2483787537 54.7752685547 63.7577171326 71.3404006958 78.4903564453 86.0565185547 13.9603300095 21.3416996002 28.2171859741 35.6972846985 44.9884414673 55.0364341736 64.3243103027 71.8000259399 78.6757888794 86.0592346191 13.9515447617 21.2174377441 27.9585800171 35.3979377747 44.8590126038 55.1664733887 64.6238632202 72.0583572388 78.7996520996 86.0679397583 13.9459590912 21.1549797058 27.8383369446 35.2727279663 44.8085670471 55.2171592712 64.7491836548 72.1784820557 78.861946106 86.0734710693 13.9459648132 21.1550502777 27.838470459 35.2728614807 44.8086166382 55.2171020508 64.7490463257 72.1783370972 78.8618621826 86.0734634399 13.9515638351 21.2176589966 27.9590091705 35.398399353 44.8591957092 55.1662826538 64.6233978271 72.0579071045 78.7994384766 86.0679244995 13.9603481293 21.3420963287 28.218044281 35.6983184814 44.9889068604 55.0359649658 64.3232727051 71.7991867065 78.6753845215 86.0592346191 13.9631271362 21.5284061432 28.6789646149 36.2654800415 45.2492446899 54.7743873596 63.7557907104 71.3388366699 78.4898452759 86.0565109253 13.9719810486 21.751581192 29.38829422 37.1910209656 45.6484565735 54.373260498 62.8295402527 70.6307373047 78.2677230835 86.0477523804 
13.9719228745 21.7509918213 29.3865203857 37.1885223389 45.6474227905 54.3743095398 62.8320388794 70.6325073242 78.2683029175 86.0478057861 13.9631233215 21.5278759003 28.6773815155 36.2635269165 45.2483673096 54.7752799988 63.7577285767 71.3404006958 78.4903640747 86.0565185547 13.9603300095 21.3416957855 28.2171611786 35.6972351074 44.9884262085 55.0364532471 64.3243560791 71.8000564575 78.6757888794 86.0592346191 13.951543808 21.2174243927 27.9585323334 35.3978500366 44.8589439392 55.1665344238 64.6239471436 72.0584106445 78.7996673584 86.0679397583 13.9459562302 21.1549530029 27.8382644653 35.2725830078 44.8084793091 55.2172431946 64.7493362427 72.1785507202 78.8619689941 86.0734710693 13.9459629059 21.1550254822 27.8383979797 35.2727203369 44.8085327148 55.2171859741 64.7491912842 72.1784133911 78.8618927002 86.0734634399 13.9515628815 21.2176418304 27.9589595795 35.3983192444 44.8591384888 55.166343689 64.6234893799 72.0579605103 78.7994537354 86.0679168701 13.9603462219 21.342086792 28.2180156708 35.6982727051 44.9888839722 55.0359802246 64.3233184814 71.7992095947 78.6753997803 86.0592346191 13.9631261826 21.5284023285 28.6789493561 36.2654571533 45.2492408752 54.7743988037 63.7557983398 71.3388366699 78.4898452759 86.0565109253 13.9719810486 21.7515773773 29.38829422 37.1910095215 45.6484565735 54.3732643127 62.8295440674 70.6307373047 78.2677154541 86.0477523804 
13.9719219208 21.7509918213 29.386510849 37.1885108948 45.6474189758 54.3743057251 62.8320465088 70.6325149536 78.2683105469 86.0478057861 13.9631233215 21.5278759003 28.6773700714 36.263507843 45.2483596802 54.7752838135 63.7577438354 71.340423584 78.4903717041 86.0565185547 13.9603281021 21.3416862488 28.2171363831 35.6972122192 44.9884109497 55.0364685059 64.3243865967 71.8000946045 78.6757965088 86.0592346191 13.9515419006 21.2174110413 27.9584980011 35.3978004456 44.858921051 55.1665725708 64.6240081787 72.0584487915 78.7996826172 86.0679397583 13.9459571838 21.1549358368 27.8382205963 35.2725028992 44.8084373474 55.2172851562 64.7494125366 72.1785888672 78.8619689941 86.0734710693 13.9459619522 21.1550102234 27.8383579254 35.2726402283 44.8084907532 55.2172317505 64.7492828369 72.1784515381 78.8619003296 86.0734634399 13.9515609741 21.2176303864 27.9589271545 35.3982620239 44.8591117859 55.1663780212 64.6235427856 72.0579986572 78.7994689941 86.0679168701 13.9603452682 21.3420772552 28.2179965973 35.6982498169 44.9888725281 55.0360031128 64.3233413696 71.7992248535 78.6753997803 86.0592346191 13.9631242752 21.5284004211 28.6789398193 36.2654418945 45.2492332458 54.7744026184 63.7558135986 71.3388595581 78.4898529053 86.0565109253 13.9719800949 21.7515773773 29.3882846832 37.1909980774 45.6484527588 54.3732643127 62.8295516968 70.6307449341 78.2677154541 86.0477523804 
