1.00000011921 1.0 0.999474108219 1.06715035439 1.11308979988 1.11306250095 1.06708598137 1.0 1.0 1.0 1.0 1.0 1.05801355839 1.1643538475 1.22257244587 1.22254109383 1.16427063942 1.03080654144 1.0 1.0 1.00000011921 1.03480327129 1.13401186466 1.2438685894 1.3135124445 1.31348192692 1.24379098415 1.10463392735 1.03482425213 1.0 1.0 1.07710587978 1.1767950058 1.28463768959 1.35033452511 1.35030126572 1.28456580639 1.14528679848 1.07712435722 1.0 1.0 1.0974624157 1.19794476032 1.30474746227 1.36366820335 1.36363565922 1.3046797514 1.16505551338 1.09747266769 1.0 1.0 1.09745264053 1.19793653488 1.30474054813 1.36366295815 1.36363041401 1.30467283726 1.1650468111 1.09746289253 1.0 1.00000011921 1.07707703114 1.17676854134 1.28461611271 1.35031592846 1.35028278828 1.28454434872 1.14525949955 1.07709550858 1.0 1.0 1.02317368984 1.12248039246 1.23176538944 1.299685359 1.29965269566 1.23168110847 1.09387230873 1.02319502831 1.0 1.00000011921 0.999999940395 1.05794668198 1.16427147388 1.22249019146 1.22245883942 1.16418838501 1.0307353735 1.0 0.999999940395 0.999999940395 1.0 0.999484837055 1.06701767445 1.11293685436 1.11290967464 1.06695342064 1.00000011921 1.00000011921 1.0 
1.00000011921 1.0 0.999474108219 1.06715035439 1.11308979988 1.11306250095 1.06708598137 1.0 1.0 1.0 1.0 1.0 1.05801355839 1.1643538475 1.22257244587 1.22254109383 1.16427063942 1.03080654144 1.0 1.0 1.00000011921 1.03480327129 1.13401186466 1.2438685894 1.3135124445 1.31348192692 1.24379098415 1.10463392735 1.03482425213 1.0 1.0 1.07710587978 1.1767950058 1.28463768959 1.35365736485 1.35362708569 1.28456580639 1.14528679848 1.07712435722 1.0 1.0 1.0974624157 1.19794476032 1.30499005318 1.37040555477 1.37037658691 1.30492413044 1.16505551338 1.09747266769 1.0 1.0 1.09745264053 1.19793653488 1.30498337746 1.37040019035 1.37037134171 1.30491733551 1.1650468111 1.09746289253 1.0 1.00000011921 1.07707703114 1.17676854134 1.28461611271 1.35363948345 1.3536093235 1.28454434872 1.14525949955 1.07709550858 1.0 1.0 1.02317368984 1.12248039246 1.23176538944 1.299685359 1.29965269566 1.23168110847 1.09387230873 1.02319502831 1.0 1.00000011921 0.999999940395 1.05794668198 1.16427147388 1.22249019146 1.22245883942 1.16418838501 1.0307353735 1.0 0.999999940395 0.999999940395 1.0 0.999484837055 1.06701767445 1.11293685436 1.11290967464 1.06695342064 1.00000011921 1.00000011921 1.0 
1.00000011921 1.0 0.999474108219 1.06715035439 1.11308979988 1.11306250095 1.06708598137 1.0 1.0 1.0 1.0 1.0 1.05801355839 1.1643538475 1.22257244587 1.22254109383 1.16427063942 1.03080654144 1.0 1.0 1.00000011921 1.03480327129 1.13401186466 1.2438685894 1.3135124445 1.31348192692 1.24379098415 1.10463392735 1.03482425213 1.0 1.0 1.07710587978 1.1767950058 1.28463768959 1.35365736485 1.35362708569 1.28456580639 1.14528679848 1.07712435722 1.0 1.0 1.0974624157 1.19794476032 1.30499005318 1.37041449547 1.37038564682 1.30492413044 1.16505551338 1.09747266769 1.0 1.0 1.09745264053 1.19793653488 1.30498337746 1.37040948868 1.37038040161 1.30491733551 1.1650468111 1.09746289253 1.0 1.00000011921 1.07707703114 1.17676854134 1.28461611271 1.35363948345 1.3536093235 1.28454434872 1.14525949955 1.07709550858 1.0 1.0 1.02317368984 1.12248039246 1.23176538944 1.299685359 1.29965269566 1.23168110847 1.09387230873 1.02319502831 1.0 1.00000011921 0.999999940395 1.05794668198 1.16427147388 1.22249019146 1.22245883942 1.16418838501 1.0307353735 1.0 0.999999940395 0.999999940395 1.0 0.999484837055 1.06701767445 1.11293685436 1.11290967464 1.06695342064 1.00000011921 1.00000011921 1.0 
1.00000011921 1.0 0.999474108219 1.06715035439 1.11308979988 1.11306250095 1.06708598137 1.0 1.0 1.0 1.0 1.0 1.05801355839 1.1643538475 1.22257244587 1.22254109383 1.16427063942 1.03080654144 1.0 1.0 1.00000011921 1.03480327129 1.13401186466 1.2438685894 1.3135124445 1.31348192692 1.24379098415 1.10463392735 1.03482425213 1.0 1.0 1.07710587978 1.1767950058 1.28463768959 1.35365736485 1.35362708569 1.28456580639 1.14528679848 1.07712435722 1.0 1.0 1.0974624157 1.19794476032 1.30499005318 1.37042415142 1.37039506435 1.30492413044 1.16505551338 1.09747266769 1.0 1.0 1.09745264053 1.19793653488 1.30498337746 1.370418787 1.37038981915 1.30491733551 1.1650468111 1.09746289253 1.0 1.00000011921 1.07707703114 1.17676854134 1.28461611271 1.35363948345 1.3536093235 1.28454434872 1.14525949955 1.07709550858 1.0 1.0 1.02317368984 1.12248039246 1.23176538944 1.299685359 1.29965269566 1.23168110847 1.09387230873 1.02319502831 1.0 1.00000011921 0.999999940395 1.05794668198 1.16427147388 1.22249019146 1.22245883942 1.16418838501 1.0307353735 1.0 0.999999940395 0.999999940395 1.0 0.999484837055 1.06701767445 1.11293685436 1.11290967464 1.06695342064 1.00000011921 1.00000011921 1.0 
1.00000011921 1.0 0.999474108219 1.06715035439 1.11308979988 1.11306250095 1.06708598137 1.0 1.0 1.0 1.0 1.0 1.05801355839 1.1643538475 1.22257244587 1.22254109383 1.16427063942 1.03080654144 1.0 1.0 1.00000011921 1.03480327129 1.13401186466 1.2438685894 1.3135124445 1.31348192692 1.24379098415 1.10463392735 1.03482425213 1.0 1.0 1.07710587978 1.1767950058 1.28463768959 1.35365736485 1.3536272049 1.28456580639 1.14528679848 1.07712435722 1.0 1.0 1.0974624157 1.19794476032 1.30499005318 1.37043333054 1.37040448189 1.30492413044 1.16505551338 1.09747266769 1.0 1.0 1.09745264053 1.19793653488 1.30498337746 1.37042820454 1.37039911747 1.30491733551 1.1650468111 1.09746289253 1.0 1.00000011921 1.07707703114 1.17676854134 1.28461611271 1.35363948345 1.3536093235 1.28454434872 1.14525949955 1.07709550858 1.0 1.0 1.02317368984 1.12248039246 1.23176538944 1.299685359 1.29965269566 1.23168110847 1.09387230873 1.02319502831 1.0 1.00000011921 0.999999940395 1.05794668198 1.16427147388 1.22249019146 1.22245883942 1.16418838501 1.0307353735 1.0 0.999999940395 0.999999940395 1.0 0.999484837055 1.06701767445 1.11293685436 1.11290967464 1.06695342064 1.00000011921 1.00000011921 1.0 
1.00000011921 1.0 0.999474108219 1.06715035439 1.11308979988 1.11306250095 1.06708598137 1.0 1.0 1.0 1.0 1.0 1.05801355839 1.1643538475 1.22257244587 1.22254109383 1.16427063942 1.03080654144 1.0 1.0 1.00000011921 1.03480327129 1.13401186466 1.2438685894 1.3135124445 1.31348192692 1.24379098415 1.10463392735 1.03482425213 1.0 1.0 1.07710587978 1.1767950058 1.28463768959 1.35365903378 1.35362875462 1.28456580639 1.14528679848 1.07712435722 1.0 1.0 1.0974624157 1.19794476032 1.30499005318 1.37044239044 1.37041330338 1.30492413044 1.16505551338 1.09747266769 1.0 1.0 1.09745264053 1.19793653488 1.30498337746 1.37043714523 1.37040805817 1.30491733551 1.1650468111 1.09746289253 1.0 1.00000011921 1.07707703114 1.17676854134 1.28461611271 1.35364115238 1.35361087322 1.28454434872 1.14525949955 1.07709550858 1.0 1.0 1.02317368984 1.12248039246 1.23176538944 1.299685359 1.29965269566 1.23168110847 1.09387230873 1.02319502831 1.0 1.00000011921 0.999999940395 1.05794668198 1.16427147388 1.22249019146 1.22245883942 1.16418838501 1.0307353735 1.0 0.999999940395 0.999999940395 1.0 0.999484837055 1.06701767445 1.11293685436 1.11290967464 1.06695342064 1.00000011921 1.00000011921 1.0 
1.00000011921 1.0 0.999474108219 1.06715035439 1.11308979988 1.11306250095 1.06708598137 1.0 1.0 1.0 1.0 1.0 1.05801355839 1.1643538475 1.22257244587 1.22254109383 1.16427063942 1.03080654144 1.0 1.0 1.00000011921 1.03480327129 1.13401186466 1.2438685894 1.3135124445 1.31348192692 1.24379098415 1.10463392735 1.03482425213 1.0 1.0 1.07710587978 1.1767950058 1.28463768959 1.35366487503 1.35363447666 1.28456580639 1.14528679848 1.07712435722 1.0 1.0 1.0974624157 1.19794476032 1.30499005318 1.37045097351 1.37042200565 1.30492413044 1.16505551338 1.09747266769 1.0 1.0 1.09745264053 1.19793653488 1.30498337746 1.3704457283 1.37041676044 1.30491733551 1.1650468111 1.09746289253 1.0 1.00000011921 1.07707703114 1.17676854134 1.28461611271 1.35364699364 1.35361659527 1.28454434872 1.14525949955 1.07709550858 1.0 1.0 1.02317368984 1.12248039246 1.23176538944 1.299685359 1.29965269566 1.23168110847 1.09387230873 1.02319502831 1.0 1.00000011921 0.999999940395 1.05794668198 1.16427147388 1.22249019146 1.22245883942 1.16418838501 1.0307353735 1.0 0.999999940395 0.999999940395 1.0 0.999484837055 1.06701767445 1.11293685436 1.11290967464 1.06695342064 1.00000011921 1.00000011921 1.0 
