13.9830417633 21.7567710876 29.3930301666 37.2607574463 45.7022819519 54.3192024231 62.7599182129 70.6260299683 78.2624969482 86.0367126465 13.9792947769 21.5437049866 28.7710666656 36.5684890747 45.4276275635 54.5951919556 63.452911377 71.2471084595 78.4745559692 86.0403900146 13.9801397324 21.3897590637 28.4420604706 36.2032089233 45.2701721191 54.7533988953 63.8184776306 71.5757751465 78.6279907227 86.0394973755 13.9771347046 21.3041000366 28.2666187286 36.0249824524 45.1925773621 54.8313522339 63.9968261719 71.7510375977 78.7134933472 86.0424423218 13.9766368866 21.2669830322 28.1893539429 35.9499320984 45.1602287292 54.8638572693 64.071937561 71.8282318115 78.7505264282 86.0429153442 13.9766349792 21.2670230865 28.1894435883 35.9500083923 45.1602668762 54.8638191223 64.0718536377 71.828125 78.7504653931 86.0429000854 13.977139473 21.3042354584 28.2668991089 36.02526474 45.1926994324 54.8312301636 63.9965515137 71.7507476807 78.7133483887 86.0424423218 13.9801483154 21.3900585175 28.4426517487 36.2038383484 45.270450592 54.753112793 63.8178405762 71.5751800537 78.6277008057 86.0394897461 13.9792871475 21.5441818237 28.7723083496 36.5698318481 45.4281921387 54.5946273804 63.4515762329 71.2458572388 78.4740829468 86.0404052734 13.983086586 21.7573757172 29.3948020935 37.2628860474 45.7030906677 54.3183898926 62.7577896118 70.6242599487 78.2618942261 86.0366668701 
13.9735431671 21.7403678894 29.3561439514 37.1932144165 45.6609420776 54.3607215881 62.8274230957 70.6628265381 78.2788772583 86.0461959839 13.9666442871 21.5176734924 28.6823425293 36.385433197 45.3380813599 54.6851730347 63.6359939575 71.3355865479 78.5005111694 86.0530090332 13.9647035599 21.3512477875 28.2897472382 35.9678649902 45.1648750305 54.8591880798 64.0539627075 71.7277297974 78.6663131714 86.0548706055 13.9584550858 21.2509098053 28.0988807678 35.7876968384 45.0876655579 54.9367752075 64.2342758179 71.9185028076 78.7663497925 86.0610427856 13.9547348022 21.2016792297 28.0168304443 35.7190818787 45.0582427979 54.9663352966 64.3029403687 72.0005340576 78.8154602051 86.0647354126 13.9547386169 21.2017364502 28.0169200897 35.7191581726 45.058265686 54.9663009644 64.3028717041 72.0004425049 78.8153991699 86.0647277832 13.9584646225 21.251083374 28.0991821289 35.7879562378 45.0877761841 54.9366569519 64.2340240479 71.918182373 78.7661819458 86.0610351562 13.9647159576 21.3515796661 28.290435791 35.9685440063 45.1651687622 54.8589019775 64.0532836914 71.7270431519 78.6659851074 86.0548629761 13.9666433334 21.5181808472 28.6837482452 36.3870391846 45.3387260437 54.6845245361 63.6343841553 71.3341751099 78.5 86.0530090332 13.9735984802 21.7409763336 29.3579788208 37.1955413818 45.6618881226 54.3597793579 62.8250999451 70.6610031128 78.2782745361 86.0461273193 
13.9704418182 21.7374153137 29.3463935852 37.1740570068 45.6494522095 54.3722686768 62.8465690613 70.6725692749 78.2818222046 86.0492782593 13.9622802734 21.5115127563 28.6540679932 36.3179092407 45.2880325317 54.7354354858 63.7034416199 71.3638000488 78.506652832 86.0573501587 13.9591598511 21.3341064453 28.2243881226 35.8113670349 45.0771598816 54.9473228455 64.2103881836 71.792930603 78.6833953857 86.0604019165 13.9518060684 21.2221927643 27.9921302795 35.5774536133 44.985168457 55.0397491455 64.4445648193 72.0249404907 78.7949447632 86.0676803589 13.9474287033 21.16822052 27.8915309906 35.4896774292 44.9509468079 55.074131012 64.5324478149 72.1254806519 78.8487625122 86.072013855 13.9474315643 21.1682796478 27.8916378021 35.4897689819 44.9509887695 55.074092865 64.5323486328 72.1253662109 78.8487014771 86.0720062256 13.9518213272 21.2223854065 27.9925041199 35.5777893066 44.9852981567 55.0396194458 64.4442367554 72.0245819092 78.7947463989 86.0676651001 13.9591741562 21.3344612122 28.2251796722 35.8122520447 45.077507019 54.9469795227 64.2095031738 71.7921218872 78.6830291748 86.0604019165 13.9622840881 21.5120429993 28.655544281 36.3196907043 45.28881073 54.734664917 63.7016601562 71.3623199463 78.5061340332 86.0573501587 13.9704990387 21.7380180359 29.3482456207 37.1764411926 45.650428772 54.3712844849 62.8441810608 70.6707305908 78.2812194824 86.0492172241 
13.9695806503 21.7371826172 29.3447551727 37.1700897217 45.6471977234 54.3745422363 62.8505401611 70.6742019653 78.2820510864 86.0501403809 13.9610729218 21.5109634399 28.648273468 36.3032302856 45.2778778076 54.7456321716 63.7181015015 71.3695602417 78.5072021484 86.0585632324 13.9575634003 21.3301181793 28.2075920105 35.7697792053 45.0397834778 54.9848670959 64.2518997192 71.8096618652 78.6873626709 86.0620040894 13.9496660233 21.2120933533 27.957660675 35.4913444519 44.9254684448 55.0997161865 64.5305557251 72.0593338013 78.8050003052 86.06980896 13.9448375702 21.1529502869 27.8423538208 35.3769378662 44.8824768066 55.1429100037 64.6450958252 72.1745300293 78.8639831543 86.0745773315 13.9448432922 21.1530189514 27.8424797058 35.3770675659 44.8825263977 55.1428642273 64.6449737549 72.1744003296 78.8639144897 86.0745773315 13.9496841431 21.2123031616 27.9580764771 35.4917678833 44.9256324768 55.0995597839 64.5301361084 72.0589065552 78.8047943115 86.0697937012 13.9575796127 21.3304901123 28.2084197998 35.7707557678 45.0401992798 54.9844436646 64.2509231567 71.8088378906 78.6869812012 86.0619812012 13.9610748291 21.5114955902 28.649766922 36.3050498962 45.2786865234 54.7448272705 63.7162857056 71.3680725098 78.5066757202 86.058555603 13.9696369171 21.737783432 29.3466053009 37.1724853516 45.6481781006 54.3735427856 62.8481445312 70.6723632812 78.2814559937 86.0500869751 
13.9694547653 21.7372169495 29.3446674347 37.1697273254 45.6469802856 54.3747558594 62.8509063721 70.6743011475 78.2820358276 86.0502624512 13.960896492 21.5110321045 28.6477565765 36.3016624451 45.2768554688 54.7466583252 63.7196655273 71.3700714111 78.5071334839 86.0587310791 13.9573326111 21.329706192 28.2055301666 35.7648200989 45.035736084 54.9889297485 64.2568588257 71.8117294312 78.687789917 86.0622329712 13.9493398666 21.2106189728 27.952495575 35.4783744812 44.9118614197 55.1133804321 64.5435028076 72.0644836426 78.8064880371 86.0701217651 13.9444169998 21.1504535675 27.8341445923 35.3552436829 44.8626670837 55.162815094 64.6667404175 72.182723999 78.8664703369 86.0750045776 13.9444246292 21.1505222321 27.8342819214 35.355381012 44.8627166748 55.1627578735 64.6666107178 72.1825866699 78.866394043 86.0749969482 13.9493560791 21.2108306885 27.9529190063 35.4788284302 44.9120559692 55.113193512 64.5430603027 72.0640640259 78.8062744141 86.0701141357 13.9573488235 21.3300800323 28.2063674927 35.7658119202 45.0361824036 54.9884757996 64.2558746338 71.8109130859 78.6874008179 86.0622253418 13.9609003067 21.5115642548 28.6492538452 36.3034896851 45.2776679993 54.7458496094 63.7178382874 71.368598938 78.5066070557 86.0587310791 13.9695129395 21.7378158569 29.3465194702 37.1721229553 45.6479644775 54.3737602234 62.8485107422 70.672454834 78.2814331055 86.050201416 
13.9694490433 21.7372169495 29.3446655273 37.169708252 45.6469726562 54.3747634888 62.8509216309 70.6742935181 78.2820129395 86.0502548218 13.9608917236 21.5110397339 28.6477413177 36.301612854 45.2768211365 54.7466926575 63.7197189331 71.3700942993 78.5071258545 86.0587310791 13.9573230743 21.3296928406 28.2054481506 35.7646331787 45.0356140137 54.9890518188 64.2570419312 71.8118057251 78.6877975464 86.0622329712 13.9493246078 21.2105484009 27.9522514343 35.4778175354 44.9112930298 55.1139564514 64.544052124 72.0647201538 78.8065567017 86.0701370239 13.94439888 21.1503219604 27.8337268829 35.3541107178 44.8612251282 55.1642570496 64.6678771973 72.1831436157 78.8665847778 86.0750274658 13.9444046021 21.1503944397 27.8338661194 35.3542518616 44.8612785339 55.1641960144 64.6677398682 72.1830062866 78.8665084839 86.0750198364 13.949341774 21.2107620239 27.9526786804 35.4782752991 44.9114761353 55.1137695312 64.5436096191 72.0643005371 78.8063430786 86.0701293945 13.9573402405 21.3300666809 28.2062835693 35.765625 45.0360565186 54.9886016846 64.2560501099 71.8109741211 78.6874008179 86.0622253418 13.960893631 21.5115699768 28.6492366791 36.3034362793 45.277633667 54.7458763123 63.7178955078 71.3686065674 78.5065841675 86.0587387085 13.9695062637 21.7378158569 29.3465232849 37.1721115112 45.6479568481 54.3737678528 62.8485183716 70.672454834 78.2814254761 86.050201416 
13.9694490433 21.7372131348 29.3446598053 37.1697120667 45.6469650269 54.3747673035 62.8509216309 70.6743011475 78.2820129395 86.0502548218 13.96089077 21.5110340118 28.647731781 36.3016014099 45.2768173218 54.7466964722 63.7197265625 71.3701019287 78.5071258545 86.0587310791 13.957321167 21.3296871185 28.2054290771 35.7646217346 45.0356063843 54.9890556335 64.2570724487 71.8118286133 78.6878051758 86.0622406006 13.9493246078 21.2105369568 27.9522323608 35.4777908325 44.9112815857 55.1139678955 64.544090271 72.0647354126 78.8065567017 86.0701370239 13.94439888 21.1503143311 27.8336963654 35.3540763855 44.8612098694 55.164276123 64.6679153442 72.1831665039 78.8666000366 86.0750274658 13.9444046021 21.1503829956 27.8338336945 35.3542098999 44.8612594604 55.1642227173 64.6677703857 72.1830368042 78.8665466309 86.0750198364 13.9493408203 21.2107486725 27.9526596069 35.4782447815 44.9114723206 55.1137771606 64.5436401367 72.0643310547 78.806350708 86.0701293945 13.9573411942 21.3300628662 28.2062664032 35.7656097412 45.0360450745 54.9886131287 64.2560653687 71.8109893799 78.6874160767 86.0622253418 13.9608926773 21.5115642548 28.649230957 36.3034286499 45.2776222229 54.7458877563 63.7178955078 71.3686218262 78.5065994263 86.0587387085 13.9695062637 21.7378158569 29.3465156555 37.1721076965 45.6479530334 54.3737754822 62.848526001 70.6724624634 78.2814331055 86.050201416 
