0.984718561172 1.01230359077 1.0416135788 1.12610304356 1.18835532665 1.18832933903 1.12603735924 1.03842949867 1.01230061054 0.984834909439 0.979662120342 1.04666864872 1.12537229061 1.28300499916 1.36766374111 1.36762750149 1.28292226791 1.10151183605 1.0466645956 0.979790151119 0.978259563446 1.1227042675 1.22918307781 1.39819169044 1.47776961327 1.4777225256 1.39809608459 1.20201230049 1.12271416187 0.978371322155 0.977006971836 1.17681491375 1.28665459156 1.44184589386 1.50899708271 1.50894284248 1.44174540043 1.25857293606 1.17680668831 0.977090895176 0.976249217987 1.20427787304 1.31505000591 1.45957577229 1.51937735081 1.51932191849 1.45947444439 1.28675723076 1.20425772667 0.976318180561 0.976250290871 1.20426690578 1.31504058838 1.45956778526 1.51937127113 1.51931595802 1.45946657658 1.28674793243 1.204246521 0.976319432259 0.977010309696 1.17678129673 1.28662383556 1.44182097912 1.50897526741 1.50892090797 1.44172024727 1.25854301453 1.17677295208 0.977094173431 0.978085875511 1.1076695919 1.2123478651 1.38188040257 1.46661126614 1.46656322479 1.38178169727 1.18540072441 1.10768246651 0.978199779987 0.979666531086 1.04658830166 1.1252810955 1.28290724754 1.36755955219 1.36752319336 1.28282415867 1.10142767429 1.04658424854 0.979794561863 0.984737932682 1.01224315166 1.04152131081 1.12594223022 1.18818414211 1.18815815449 1.12587666512 1.03833830357 1.01224017143 0.98485404253 
0.984514176846 1.00903820992 1.03719556332 1.12086820602 1.18238008022 1.18235576153 1.12080574036 1.03392410278 1.00903725624 0.984627664089 0.979379892349 1.04249954224 1.12078464031 1.27768325806 1.36180210114 1.36177122593 1.27760457993 1.09685993195 1.04249608517 0.97950553894 0.97782677412 1.11809813976 1.22455859184 1.39734268188 1.49829590321 1.49826014042 1.39725756645 1.19743907452 1.11810624599 0.977936863899 0.97637873888 1.17222046852 1.28235733509 1.45420241356 1.54595601559 1.54591608047 1.45412123203 1.25451791286 1.17220830917 0.976461708546 0.975464701653 1.19983422756 1.31137657166 1.47855710983 1.56332790852 1.56328678131 1.47847604752 1.2834174633 1.19980919361 0.975533187389 0.975465893745 1.1998231411 1.31136703491 1.47854983807 1.56332194805 1.56328082085 1.47846877575 1.28340804577 1.19979810715 0.975534498692 0.976382553577 1.1721868515 1.28232729435 1.45417964458 1.54593575001 1.54589605331 1.45409846306 1.25448834896 1.17217469215 0.976465523243 0.977665781975 1.10304534435 1.20754861832 1.37761998177 1.47775483131 1.47771811485 1.37753486633 1.18066322803 1.10305678844 0.977778315544 0.979384481907 1.04242086411 1.12069439888 1.27758598328 1.36169803143 1.36166715622 1.27750718594 1.09677660465 1.04241752625 0.979510247707 0.98453348875 1.00898039341 1.03710448742 1.12070786953 1.18220937252 1.18218493462 1.12064540386 1.03383469582 1.00897955894 0.98464679718 
0.984504282475 1.00886869431 1.03696584702 1.12059509754 1.18206894398 1.18204450607 1.12053287029 1.03368973732 1.00886785984 0.984617710114 0.979366958141 1.04228270054 1.12054634094 1.27740335464 1.36149573326 1.36146497726 1.27732467651 1.09661734104 1.04227948189 0.979492545128 0.97780662775 1.11785852909 1.22431600094 1.3970707655 1.49883747101 1.49880218506 1.3969861269 1.19719660282 1.11786651611 0.977916657925 0.976347327232 1.1719840765 1.28213977814 1.45450794697 1.54845309258 1.54841458797 1.4544274807 1.25431025028 1.17197167873 0.976430118084 0.975423455238 1.19960975647 1.31119763851 1.47973906994 1.56689333916 1.56685352325 1.47965955734 1.2832621336 1.19958412647 0.975491940975 0.97542488575 1.1995985508 1.31118810177 1.47973191738 1.56688761711 1.56684780121 1.47965240479 1.28325247765 1.1995729208 0.975493371487 0.97635102272 1.17195045948 1.28210985661 1.45448482037 1.54843306541 1.5483944416 1.45440459251 1.25428056717 1.17193818092 0.976434051991 0.977646052837 1.10280454159 1.2072968483 1.37733161449 1.47752654552 1.47749090195 1.37724661827 1.18041086197 1.10281586647 0.977758407593 0.979371726513 1.04220438004 1.12045633793 1.27730584145 1.36139154434 1.36136054993 1.27722716331 1.09653389454 1.04220104218 0.97949719429 0.984523713589 1.00881111622 1.03687512875 1.12043488026 1.18189799786 1.18187355995 1.1203725338 1.03360033035 1.00881040096 0.984636902809 
0.984503030777 1.00884652138 1.0369361639 1.12056016922 1.18202912807 1.18200480938 1.12049770355 1.03365921974 1.00884580612 0.984616339207 0.979365110397 1.04225492477 1.12051570415 1.27736747265 1.36145663261 1.36142575741 1.27728903294 1.09658622742 1.04225158691 0.979490816593 0.977803766727 1.1178278923 1.22428500652 1.39703547955 1.49884092808 1.49880588055 1.39695060253 1.19716560841 1.11783587933 0.977913856506 0.976342976093 1.17195415497 1.28211259842 1.45451712608 1.54880166054 1.54876315594 1.45443665981 1.25428462029 1.17194187641 0.97642582655 0.975417792797 1.19958174229 1.3111770153 1.47993385792 1.56744897366 1.56740927696 1.47985470295 1.28324508667 1.1995562315 0.975486397743 0.975419163704 1.19957065582 1.31116807461 1.47992682457 1.5674431324 1.56740343571 1.47984755039 1.28323543072 1.19954526424 0.97548776865 0.976346731186 1.17192065716 1.28208291531 1.45449399948 1.54878151417 1.54874300957 1.45441377163 1.25425481796 1.1719083786 0.976429700851 0.977643311024 1.10277378559 1.20726490021 1.37729430199 1.47748970985 1.4774543047 1.37720954418 1.18037855625 1.10278499126 0.977755725384 0.979369878769 1.04217648506 1.12042546272 1.27727007866 1.36135232449 1.36132144928 1.27719140053 1.09650278091 1.04217326641 0.979495346546 0.984522342682 1.00878894329 1.03684532642 1.1203994751 1.18185842037 1.18183398247 1.12033748627 1.03356981277 1.00878822803 0.984635531902 
0.984502673149 1.00884187222 1.03692996502 1.12055301666 1.18202137947 1.18199706078 1.12049078941 1.03365278244 1.00884115696 0.984615981579 0.979364752769 1.04224920273 1.12050974369 1.2773604393 1.36144888401 1.36141824722 1.27728199959 1.09657979012 1.04224586487 0.979490160942 0.977803170681 1.11782205105 1.22427928448 1.3970284462 1.4988335371 1.49879860878 1.39694404602 1.19715952873 1.11782991886 0.977913200855 0.976341843605 1.17194879055 1.28210818768 1.45451676846 1.54888522625 1.54884660244 1.45443665981 1.25428032875 1.17193639278 0.976424753666 0.97541642189 1.19957685471 1.31117451191 1.47998905182 1.56759047508 1.5675508976 1.47991001606 1.2832429409 1.19955122471 0.975484907627 0.975417733192 1.19956576824 1.31116509438 1.47998189926 1.56758463383 1.56754517555 1.47990274429 1.28323340416 1.19954013824 0.975486218929 0.976345658302 1.17191529274 1.28207838535 1.45449352264 1.54886496067 1.54882669449 1.45441365242 1.25425064564 1.17190289497 0.976428627968 0.977642714977 1.10276782513 1.20725882053 1.37728774548 1.47748327255 1.4774479866 1.37720286846 1.18037259579 1.1027790308 0.977755129337 0.979369342327 1.04217088223 1.12041962147 1.27726316452 1.3613448143 1.3613140583 1.2771846056 1.09649646282 1.04216742516 0.979494869709 0.984521985054 1.00878429413 1.03683924675 1.12039279938 1.18185067177 1.18182611465 1.12033057213 1.03356337547 1.00878357887 0.984635293484 
0.984502434731 1.00884079933 1.03692829609 1.12055206299 1.18202030659 1.18199586868 1.12048971653 1.03365123272 1.00884008408 0.98461574316 0.979364514351 1.04224789143 1.12050867081 1.27735960484 1.36144793034 1.36141717434 1.27728104591 1.09657847881 1.04224455357 0.979490041733 0.977802693844 1.11782097816 1.22427856922 1.39702785015 1.49883282185 1.49879765511 1.39694321156 1.19715857506 1.11782896519 0.977912783623 0.976341366768 1.17194807529 1.28210818768 1.45451843739 1.5489153862 1.54887712002 1.45443820953 1.25428032875 1.17193555832 0.976424336433 0.975415825844 1.1995767355 1.31117522717 1.48001301289 1.56764173508 1.56760203838 1.47993397713 1.28324377537 1.1995511055 0.975484371185 0.975417137146 1.19956564903 1.31116592884 1.48000597954 1.56763589382 1.56759619713 1.47992682457 1.28323411942 1.19954001904 0.975485682487 0.976345181465 1.17191433907 1.28207826614 1.45449566841 1.54889535904 1.54885697365 1.45441532135 1.25425052643 1.1719019413 0.976428091526 0.977642297745 1.10276675224 1.20725786686 1.3772867918 1.4774825573 1.47744727135 1.37720215321 1.18037140369 1.10277783871 0.977754712105 0.979369223118 1.04216957092 1.12041854858 1.27726233006 1.361343503 1.36131298542 1.27718353271 1.09649515152 1.04216623306 0.9794947505 0.98452180624 1.00878322124 1.03683769703 1.12039160728 1.18184947968 1.18182504177 1.12032938004 1.03356194496 1.00878250599 0.984634995461 
0.984502375126 1.0088404417 1.03692817688 1.12055230141 1.18202078342 1.18199634552 1.12049007416 1.03365087509 1.00883960724 0.984615802765 0.979364275932 1.04224801064 1.12050879002 1.27735996246 1.36144852638 1.36141777039 1.27728152275 1.09657847881 1.04224443436 0.979489922523 0.977802574635 1.11782121658 1.22427904606 1.39702880383 1.49883377552 1.49879860878 1.39694416523 1.19715940952 1.11782896519 0.977912664413 0.976341187954 1.17194879055 1.28210926056 1.45452225208 1.54893159866 1.54889309406 1.45444178581 1.25428128242 1.17193639278 0.97642403841 0.975415349007 1.19957745075 1.31117653847 1.480027318 1.56766676903 1.56762719154 1.47994828224 1.28324556351 1.19955205917 0.975483953953 0.975416779518 1.19956636429 1.31116735935 1.48002028465 1.56766116619 1.56762158871 1.47994112968 1.28323590755 1.19954073429 0.97548520565 0.976344823837 1.17191529274 1.28207945824 1.45449912548 1.54891133308 1.54887318611 1.45441901684 1.25425171852 1.17190289497 0.976427853107 0.977642118931 1.10276687145 1.2072583437 1.37728786469 1.4774838686 1.47744834423 1.37720286846 1.1803715229 1.10277819633 0.977754592896 0.979368984699 1.04216945171 1.12041866779 1.27726268768 1.36134433746 1.36131346226 1.27718400955 1.09649515152 1.04216611385 0.97949463129 0.984521746635 1.00878274441 1.03683757782 1.1203918457 1.18184995651 1.1818253994 1.12032961845 1.03356158733 1.00878226757 0.984634995461 
