0.984480023384 1.0149115324 1.04768741131 1.14083480835 1.20186591148 1.20183742046 1.14076423645 1.04330456257 1.01490557194 0.984599888325 0.979542970657 1.05016386509 1.13344061375 1.27996230125 1.35667383671 1.35663306713 1.27987444401 1.10729110241 1.050157547 0.979674100876 0.978339016438 1.12381482124 1.23158681393 1.37615692616 1.43824720383 1.43819630146 1.37605309486 1.20262825489 1.12382674217 0.978454053402 0.97716653347 1.1758531332 1.28601872921 1.41061043739 1.46248614788 1.46243143082 1.41050577164 1.25547552109 1.17585217953 0.977254450321 0.976334035397 1.20206534863 1.31296205521 1.42455148697 1.47064673901 1.47059381008 1.42444765568 1.2823022604 1.202054739 0.97640889883 0.976335287094 1.202054739 1.31295192242 1.42454361916 1.47064089775 1.47058796883 1.42443990707 1.28229236603 1.20204412937 0.976410150528 0.97716987133 1.17582058907 1.28598797321 1.41058409214 1.462464571 1.46240973473 1.41047942638 1.2554475069 1.17581951618 0.977257847786 0.978145718575 1.1094481945 1.21576333046 1.36533749104 1.4316599369 1.43160831928 1.36523103714 1.18713593483 1.10946333408 0.97826308012 0.979547023773 1.05008196831 1.13335132599 1.27986705303 1.35656619072 1.35652542114 1.2797794342 1.1072062254 1.05007576942 0.979678153992 0.984499454498 1.01484775543 1.04759252071 1.14067316055 1.20168685913 1.20165848732 1.14060258865 1.0432138443 1.01484167576 0.984619140625 
0.984180390835 1.00941455364 1.04002511501 1.13103365898 1.19092404842 1.19089710712 1.13096761703 1.03556311131 1.00941205025 0.984295248985 0.97908359766 1.04308652878 1.12537097931 1.27030515671 1.34941983223 1.34938812256 1.27022409439 1.09920811653 1.04308128357 0.979210615158 0.97759437561 1.11610400677 1.22355914116 1.38049566746 1.47264075279 1.47260427475 1.38040947914 1.19482123852 1.11611282825 0.977706611156 0.976145267487 1.16831958294 1.27911472321 1.43306922913 1.51655316353 1.51651227474 1.43298530579 1.24904191494 1.16831231117 0.976231515408 0.975213050842 1.19482541084 1.30725681782 1.45571196079 1.53264510632 1.53260314465 1.45562720299 1.2763324976 1.19480621815 0.97528553009 0.975214421749 1.19481468201 1.30724787712 1.45570456982 1.53263902664 1.53259706497 1.45561993122 1.2763235569 1.19479525089 0.975286841393 0.976148962975 1.16828691959 1.27908563614 1.43304765224 1.51653289795 1.51649212837 1.4329637289 1.24901413918 1.16827964783 0.976235330105 0.977423191071 1.10169577599 1.20743227005 1.36256587505 1.45475304127 1.45471537113 1.36247992516 1.17898237705 1.10170817375 0.977537930012 0.979088127613 1.04300773144 1.12528300285 1.27021145821 1.34932208061 1.34929025173 1.27013027668 1.09912467003 1.04300248623 0.979215025902 0.984199881554 1.00935554504 1.03993320465 1.13087558746 1.19074904919 1.19072210789 1.1308093071 1.03547525406 1.00935316086 0.984314680099 
0.98416519165 1.00904381275 1.03950238228 1.13036394119 1.19016313553 1.19013619423 1.13029825687 1.03503453732 1.00904178619 0.984279751778 0.979060828686 1.04260456562 1.12481701374 1.26964211464 1.34872066975 1.34868896008 1.26956140995 1.09865093231 1.04259943962 0.979187607765 0.977551996708 1.11557269096 1.22300004959 1.37987422943 1.47374486923 1.47370958328 1.37978899479 1.19426858425 1.11558139324 0.977664232254 0.976072728634 1.16780817509 1.27865183353 1.4336578846 1.52189314365 1.52185511589 1.43357634544 1.24859976768 1.16780042648 0.976158857346 0.975113987923 1.19435417652 1.30689537525 1.45804059505 1.54034042358 1.54030108452 1.45795845985 1.27602279186 1.19433438778 0.975186347961 0.975115299225 1.19434344769 1.30688595772 1.45803356171 1.54033434391 1.54029524326 1.45795154572 1.27601397038 1.19432365894 0.975187659264 0.976076543331 1.16777551174 1.2786232233 1.43363618851 1.52187335491 1.52183508873 1.43355464935 1.2485717535 1.16776788235 0.976162731647 0.977382600307 1.101162076 1.20685386658 1.3619107008 1.45435488224 1.45431947708 1.36182522774 1.17841029167 1.10117435455 0.977497220039 0.979065299034 1.0425260067 1.12472915649 1.26954853535 1.3486225605 1.34859085083 1.26946771145 1.09856760502 1.04252076149 0.979192018509 0.984184682369 1.00898516178 1.03941071033 1.13020610809 1.18998861313 1.18996167183 1.13014030457 1.03494679928 1.00898313522 0.984299004078 
0.98416352272 1.00900280476 1.03944480419 1.1302908659 1.19007968903 1.19005298615 1.13022494316 1.03497636318 1.0090007782 0.984277904034 0.979058384895 1.0425516367 1.124756217 1.26956892014 1.34864282608 1.34861111641 1.26948833466 1.09858965874 1.0425465107 0.97918510437 0.97754740715 1.11551475525 1.22293865681 1.37980139256 1.47367823124 1.47364294529 1.37971627712 1.19420742989 1.11552321911 0.977659523487 0.976064562798 1.16775286198 1.27860164642 1.4336348772 1.52251470089 1.52247691154 1.43355381489 1.24855208397 1.16774523258 0.976150631905 0.975102245808 1.19430470467 1.30686080456 1.4583427906 1.54143083096 1.54139208794 1.45826101303 1.2759950161 1.19428467751 0.975174605846 0.975103616714 1.19429397583 1.30685162544 1.45833587646 1.5414249897 1.54138624668 1.4582542181 1.27598583698 1.19427382946 0.975175976753 0.976068377495 1.16772031784 1.27857279778 1.43361330032 1.52249479294 1.52245688438 1.43353188038 1.24852383137 1.16771245003 0.976154565811 0.977378368378 1.10110354424 1.20679032803 1.36183702946 1.45428156853 1.45424604416 1.36175179482 1.17834711075 1.10111570358 0.977492809296 0.979062974453 1.04247307777 1.12466847897 1.26947534084 1.34854471684 1.34851300716 1.26939463615 1.09850621223 1.04246807098 0.979189693928 0.98418289423 1.0089443922 1.03935337067 1.13013279438 1.18990516663 1.18987834454 1.13006687164 1.03488886356 1.00894236565 0.984297275543 
0.984163105488 1.00899600983 1.03943538666 1.13027894497 1.19006645679 1.19003975391 1.13021314144 1.03496682644 1.00899398327 0.984277665615 0.979057908058 1.04254281521 1.12474644184 1.26955759525 1.34863054752 1.34859895706 1.26947665215 1.09857976437 1.04253780842 0.979184567928 0.977546393871 1.11550533772 1.22292912006 1.37979006767 1.47366404533 1.47362875938 1.37970495224 1.19419777393 1.11551392078 0.977658629417 0.976062953472 1.16774439812 1.27859449387 1.43363130093 1.52262687683 1.52258896828 1.43354964256 1.24854493141 1.16773629189 0.976149082184 0.975099802017 1.19429731369 1.30685687065 1.45840620995 1.54165589809 1.54161727428 1.45832467079 1.27599203587 1.19427752495 0.975172102451 0.975101232529 1.19428658485 1.30684781075 1.4583991766 1.54165005684 1.54161143303 1.45831787586 1.27598321438 1.1942666769 0.975173592567 0.976066768169 1.16771173477 1.2785654068 1.433609128 1.52260696888 1.52256917953 1.43352794647 1.24851703644 1.16770398617 0.97615301609 0.977377533913 1.1010941267 1.20677995682 1.36182546616 1.4542696476 1.45423412323 1.3617401123 1.17833697796 1.10110628605 0.977492034435 0.979062438011 1.04246413708 1.12465846539 1.26946389675 1.34853231907 1.34850072861 1.26938307285 1.09849643707 1.04245913029 0.979189097881 0.984182536602 1.00893747807 1.03934383392 1.13012075424 1.18989169598 1.1898651123 1.13005495071 1.03487932682 1.00893545151 0.98429697752 
0.984163045883 1.00899446011 1.03943324089 1.13027703762 1.19006443024 1.19003772736 1.13021111488 1.03496479988 1.00899243355 0.984277486801 0.97905766964 1.0425413847 1.12474477291 1.2695556879 1.34862864017 1.34859704971 1.26947498322 1.09857797623 1.0425362587 0.979184448719 0.977546215057 1.1155039072 1.22292768955 1.37978863716 1.47366201878 1.47362673283 1.37970352173 1.19419634342 1.11551249027 0.977658390999 0.976062357426 1.16774332523 1.27859401703 1.43363201618 1.52265810966 1.52262020111 1.43355059624 1.24854469299 1.16773581505 0.976148545742 0.975099205971 1.19429695606 1.3068574667 1.45842659473 1.54172062874 1.54168200493 1.458345294 1.27599287033 1.19427704811 0.97517156601 0.975100576878 1.19428598881 1.30684816837 1.45841991901 1.54171478748 1.54167616367 1.45833826065 1.27598392963 1.19426608086 0.975172936916 0.976066231728 1.1677107811 1.27856504917 1.43361020088 1.52263832092 1.52260029316 1.43352878094 1.2485165596 1.16770291328 0.976152300835 0.97737711668 1.1010928154 1.2067784071 1.36182355881 1.45426821709 1.45423281193 1.36173844337 1.17833554745 1.10110485554 0.977491617203 0.979062199593 1.04246270657 1.12465679646 1.26946210861 1.34853053093 1.34849894047 1.26938140392 1.09849464893 1.04245781898 0.979188859463 0.984182357788 1.00893592834 1.03934192657 1.13011884689 1.18988978863 1.18986308575 1.13005316257 1.03487741947 1.00893390179 0.984296798706 
0.984162867069 1.0089943409 1.03943324089 1.13027715683 1.19006478786 1.19003820419 1.1302113533 1.03496468067 1.00899219513 0.984277427197 0.979057610035 1.0425413847 1.12474501133 1.26955628395 1.34862935543 1.34859764576 1.26947546005 1.09857797623 1.0425362587 0.979184389114 0.977546036243 1.11550450325 1.22292840481 1.37978923321 1.47366261482 1.47362732887 1.37970399857 1.19419682026 1.11551296711 0.977658092976 0.976061940193 1.1677441597 1.27859532833 1.43363404274 1.52267205715 1.52263426781 1.4335526228 1.24854552746 1.16773617268 0.976148068905 0.975098848343 1.19429790974 1.30685913563 1.4584376812 1.54174721241 1.54170846939 1.45835638046 1.27599477768 1.19427800179 0.975171208382 0.975100159645 1.19428706169 1.3068498373 1.45843100548 1.54174125195 1.54170274734 1.45834946632 1.27598583698 1.19426715374 0.975172579288 0.976065814495 1.16771149635 1.27856624126 1.43361234665 1.52265202999 1.52261435986 1.4335308075 1.24851763248 1.16770362854 0.976152062416 0.977376997471 1.10109305382 1.20677924156 1.36182463169 1.45426928997 1.4542337656 1.36173927784 1.17833614349 1.10110509396 0.977491497993 0.979062199593 1.04246270657 1.12465715408 1.26946234703 1.34853124619 1.34849953651 1.26938176155 1.09849464893 1.04245781898 0.979188859463 0.984182298183 1.00893580914 1.03934168816 1.13011920452 1.18989038467 1.18986356258 1.13005340099 1.03487730026 1.00893366337 0.984296739101 
