14.0035257339 13.7874526978 13.0514068604 11.864030838 11.0820827484 11.0830173492 11.8667650223 13.0539283752 13.788520813 14.0035657883 21.9913825989 21.6085071564 20.5554084778 18.9177722931 17.8181610107 17.8195266724 18.9215736389 20.5589008331 21.6101608276 21.9915618896 29.9777984619 29.5278835297 28.5863323212 27.2434234619 26.3237457275 26.324924469 27.2465648651 28.5892944336 29.5295505524 29.9780979156 37.9813232422 37.6405410767 37.0161170959 36.1899108887 35.6343040466 35.6350250244 36.1918067932 37.0179977417 37.6417274475 37.9815826416 45.998916626 45.8737602234 45.6574134827 45.3829574585 45.2004699707 45.2007064819 45.3835868835 45.6580543518 45.8741874695 45.9990119934 54.0211334229 54.1469039917 54.3643264771 54.6401596069 54.8235740662 54.8233337402 54.6395339966 54.3636894226 54.1464767456 54.0210342407 62.0387115479 62.3799438477 63.0053291321 63.8329124451 64.389465332 64.3887329102 63.8310050964 63.0034408569 62.3787536621 62.038444519 70.0421829224 70.4921875 71.4343261719 72.7783660889 73.6988372803 73.6976547241 72.7752151489 71.4313583374 70.4905166626 70.041885376 78.0285797119 78.4110565186 79.4638824463 81.1015472412 82.200958252 82.1995925903 81.0977401733 79.4603805542 78.4094009399 78.0283966064 86.016456604 86.2321166992 86.9669036865 88.1516418457 88.9320678711 88.931137085 88.1489105225 86.9643783569 86.231048584 86.016418457 
14.002948761 13.7840557098 13.0453271866 11.8533687592 11.068821907 11.0697593689 11.8561124802 13.0478601456 13.7851285934 14.0029935837 21.9907016754 21.6032047272 20.5431060791 18.8945503235 17.7850894928 17.7864685059 18.8983802795 20.5466213226 21.6048698425 21.9908866882 29.977104187 29.5217380524 28.5710754395 27.2113742828 26.2656211853 26.2668476105 27.2145671844 28.5740756989 29.5234222412 29.9774131775 37.9807777405 37.6354866028 37.0031051636 36.1593742371 35.5814933777 35.5822525024 36.1613349915 37.0050201416 37.6366920471 37.9810447693 45.9987030029 45.8717918396 45.652217865 45.3707122803 45.1802787781 45.1805267334 45.3713531494 45.6528663635 45.872215271 45.9988098145 54.0213432312 54.1488800049 54.3695411682 54.6524772644 54.8438606262 54.8436050415 54.6518249512 54.3688964844 54.1484451294 54.0212440491 62.0392379761 62.3850021362 63.0183601379 63.8634910583 64.4423294067 64.4415740967 63.8615188599 63.0164413452 62.3838043213 62.0389862061 70.0428848267 70.4983139038 71.4495849609 72.8103866577 73.7569274902 73.7556991577 72.807182312 71.4465789795 70.4966430664 70.0425796509 78.029258728 78.4163360596 79.4761581421 81.1247406006 82.2339706421 82.2325897217 81.1209182739 79.4726486206 78.4146728516 78.029083252 86.017036438 86.2355194092 86.9729690552 88.1622619629 88.9452819824 88.9443511963 88.1595306396 86.9704284668 86.2344512939 86.0169830322 
14.002948761 13.7840356827 13.0452871323 11.8532981873 11.068731308 11.0696678162 11.8560390472 13.0478210449 13.7851085663 14.00299263 21.9906997681 21.6031703949 20.5430278778 18.894405365 17.7848892212 17.7862663269 18.8982315063 20.5465450287 21.604839325 21.9908847809 29.977098465 29.5216960907 28.5709762573 27.2111721039 26.2652816772 26.2665061951 27.2143669128 28.573972702 29.5233802795 29.9774074554 37.9807739258 37.6354560852 37.0030174255 36.1591567993 35.5810432434 35.5817985535 36.1611175537 37.0049285889 37.6366539001 37.9810409546 45.9986991882 45.8717842102 45.652179718 45.3706092834 45.1800765991 45.1803283691 45.371257782 45.6528282166 45.872215271 45.9988059998 54.0213470459 54.1488952637 54.3695869446 54.6525726318 54.8440628052 54.8438110352 54.6519203186 54.3689308167 54.1484603882 54.0212440491 62.0392532349 62.3850326538 63.0184440613 63.863697052 64.442779541 64.442024231 63.8617362976 63.0165290833 62.3838348389 62.0390014648 70.0428848267 70.4983596802 71.4496765137 72.8106002808 73.757270813 73.7560424805 72.8073959351 71.446685791 70.496673584 70.0425720215 78.029258728 78.4163894653 79.4762573242 81.1248855591 82.234161377 82.2327804565 81.121055603 79.4727249146 78.4147186279 78.0290756226 86.017036438 86.2355270386 86.9730148315 88.1623458862 88.9453811646 88.944442749 88.1596069336 86.9704589844 86.2344512939 86.0169830322 
14.002948761 13.784034729 13.0452785492 11.8532791138 11.0687065125 11.0696439743 11.8560218811 13.0478124619 13.7851066589 14.00299263 21.9906997681 21.6031684875 20.543012619 18.8943748474 17.7848529816 17.7862319946 18.8982048035 20.5465335846 21.6048374176 21.9908847809 29.977098465 29.5216960907 28.5709590912 27.2111377716 26.2652359009 26.266462326 27.21434021 28.5739593506 29.5233821869 29.9774074554 37.9807739258 37.6354522705 37.0030059814 36.1591339111 35.5810050964 35.5817604065 36.1610946655 37.0049247742 37.6366539001 37.9810409546 45.9986991882 45.8717765808 45.6521720886 45.3705940247 45.1800613403 45.180305481 45.3712463379 45.6528205872 45.8722038269 45.9988059998 54.0213470459 54.1488952637 54.3695869446 54.6525764465 54.8440704346 54.8438224792 54.651927948 54.368938446 54.1484603882 54.0212440491 62.0392532349 62.3850402832 63.0184516907 63.8637161255 64.4428253174 64.4420623779 63.8617553711 63.0165252686 62.3838386536 62.0390014648 70.0428848267 70.4983596802 71.4496994019 72.8106384277 73.75730896 73.756072998 72.8074264526 71.446685791 70.496673584 70.0425720215 78.029258728 78.4163818359 79.4762573242 81.1249160767 82.2341995239 82.2328186035 81.1210861206 79.4727478027 78.4147109985 78.0290756226 86.017036438 86.2355270386 86.9730148315 88.162361145 88.9453964233 88.9444656372 88.1596221924 86.9704742432 86.2344665527 86.0169830322 
14.0029468536 13.784031868 13.0452728271 11.8532629013 11.0686826706 11.0696210861 11.856004715 13.0478038788 13.7851047516 14.00299263 21.9906997681 21.6031646729 20.543006897 18.8943538666 17.7848186493 17.7861995697 18.8981800079 20.5465221405 21.6048316956 21.9908847809 29.9771003723 29.521692276 28.5709533691 27.2111091614 26.2651939392 26.266418457 27.214307785 28.5739421844 29.5233764648 29.9774055481 37.9807739258 37.6354522705 37.0029983521 36.1591110229 35.5809707642 35.5817298889 36.1610717773 37.0049095154 37.6366462708 37.9810409546 45.9986991882 45.8717727661 45.6521720886 45.3705825806 45.1800498962 45.1803016663 45.3712387085 45.6528244019 45.8722038269 45.9988021851 54.0213470459 54.1488952637 54.3695983887 54.6525917053 54.8440933228 54.8438415527 54.6519317627 54.3689422607 54.1484642029 54.0212440491 62.0392532349 62.3850440979 63.0184593201 63.8637390137 64.4428482056 64.4420928955 63.8617782593 63.0165405273 62.3838424683 62.0390014648 70.0428848267 70.4983673096 71.4496994019 72.8106536865 73.7573471069 73.7561187744 72.8074417114 71.4467010498 70.496673584 70.0425720215 78.029258728 78.4163894653 79.4762802124 81.1249313354 82.2342376709 82.2328567505 81.1211090088 79.4727554321 78.4147262573 78.0290756226 86.017036438 86.2355270386 86.9730224609 88.1623687744 88.9454116821 88.9444885254 88.1596374512 86.9704742432 86.2344665527 86.0169830322 
14.0029468536 13.7840309143 13.0452642441 11.8532447815 11.0686597824 11.0695972443 11.8559885025 13.0477991104 13.7851028442 14.00299263 21.9906997681 21.6031646729 20.5429935455 18.894329071 17.7847824097 17.7861633301 18.8981552124 20.5465068817 21.6048316956 21.9908847809 29.9771003723 29.5216884613 28.570941925 27.2110824585 26.2651576996 26.2663764954 27.2142810822 28.5739326477 29.5233745575 29.9774036407 37.9807739258 37.6354446411 37.002986908 36.1590805054 35.5809288025 35.5816879272 36.1610450745 37.004901886 37.6366462708 37.9810409546 45.9986991882 45.8717727661 45.6521644592 45.3705825806 45.1800384521 45.1802902222 45.3712234497 45.6528129578 45.8722038269 45.9988021851 54.0213470459 54.1489028931 54.3695983887 54.6525993347 54.8441009521 54.8438568115 54.6519508362 54.3689460754 54.1484680176 54.0212440491 62.0392532349 62.3850479126 63.0184707642 63.8637657166 64.4428863525 64.4421386719 63.8618087769 63.0165481567 62.383846283 62.0390014648 70.0428848267 70.4983673096 71.44972229 72.8106689453 73.7573928833 73.7561569214 72.8074798584 71.4467163086 70.496673584 70.0425720215 78.029258728 78.4163894653 79.4762954712 81.1249694824 82.2342681885 82.2328872681 81.1211242676 79.4727706909 78.4147262573 78.0290756226 86.017036438 86.235534668 86.9730300903 88.1623916626 88.9454574585 88.944519043 88.15965271 86.9704742432 86.2344665527 86.0169830322 
14.0029468536 13.7840309143 13.0452537537 11.853228569 11.0686359406 11.0695743561 11.8559713364 13.04778862 13.7851009369 14.00299263 21.9906997681 21.6031589508 20.5429840088 18.8943023682 17.7847480774 17.7861289978 18.8981304169 20.5464992523 21.6048259735 21.9908847809 29.9771003723 29.5216846466 28.5709228516 27.2110538483 26.2651138306 26.2663345337 27.2142505646 28.5739212036 29.5233688354 29.9774093628 37.9807739258 37.6354446411 37.0029754639 36.1590538025 35.5808982849 35.581653595 36.1610183716 37.0048942566 37.6366424561 37.9810409546 45.9986991882 45.8717727661 45.6521644592 45.3705673218 45.1800231934 45.1802711487 45.3712158203 45.6528129578 45.8722038269 45.9988021851 54.0213470459 54.1489028931 54.3695907593 54.6526069641 54.8441162109 54.8438682556 54.651966095 54.3689422607 54.1484680176 54.0212440491 62.0392532349 62.3850402832 63.0184822083 63.8637809753 64.4429244995 64.4421691895 63.8618164062 63.0165557861 62.3838424683 62.0390014648 70.0428848267 70.498374939 71.4497299194 72.8107147217 73.7574310303 73.7562103271 72.807510376 71.446723938 70.4966888428 70.0425720215 78.029258728 78.4163894653 79.4763031006 81.1249923706 82.2343063354 82.232925415 81.1211624146 79.4727783203 78.4147262573 78.0290756226 86.017036438 86.235534668 86.9730453491 88.1624145508 88.9454650879 88.9445343018 88.1596755981 86.9704971313 86.2344665527 86.0169830322 
