14.0077829361 13.8113632202 13.0924873352 11.9567203522 11.2184886932 11.2193756104 11.9593114853 13.0949325562 13.8123989105 14.0077867508 21.9965953827 21.6472167969 20.6559581757 19.1404953003 18.1720695496 18.1732311249 19.1439208984 20.6592311859 21.6487789154 21.9967346191 29.9838085175 29.5816669464 28.7173213959 27.5248584747 26.749710083 26.7506904602 27.5275363922 28.7200298309 29.5831928253 29.9840564728 37.9865913391 37.6864967346 37.1269035339 36.4080047607 35.9375228882 35.938129425 36.409614563 37.1285705566 37.6875610352 37.9868049622 46.0010299683 45.8917732239 45.7010955811 45.4628372192 45.3072814941 45.3074836731 45.4633674622 45.7016525269 45.8921470642 46.0011100769 54.0190086365 54.1288070679 54.3204345703 54.5598945618 54.716217041 54.7160186768 54.5593605042 54.3198814392 54.1284255981 54.0189285278 62.0334396362 62.333946228 62.8944206238 63.6145324707 64.0858001709 64.0851898193 63.6129188538 62.8927536011 62.3328819275 62.0332145691 70.0361862183 70.4383926392 71.3033370972 72.496925354 73.2727584839 73.271774292 72.4942245483 71.3006439209 70.4368743896 70.0359268188 78.0233688354 78.3723678589 79.3634872437 80.8790817261 81.8475646973 81.8464050293 80.8756561279 79.3601913452 78.3708114624 78.0232315063 86.0122146606 86.2082595825 86.9259490967 88.0593109131 88.7961578369 88.7952804565 88.0567169189 86.9234924316 86.2072296143 86.0121994019 
14.002822876 13.7827577591 13.0415859222 11.861989975 11.0934524536 11.0943717957 11.8646745682 13.0441236496 13.7838344574 14.0028686523 21.9909343719 21.6034564972 20.5534896851 18.9351081848 17.8526954651 17.8540401459 18.9388408661 20.5569648743 21.6051235199 21.9911174774 29.9781513214 29.5317325592 28.5936031342 27.2608013153 26.3486671448 26.3498325348 27.2638969421 28.5965595245 29.5333881378 29.9784488678 37.9819488525 37.6454620361 37.0232391357 36.19972229 35.6468963623 35.647605896 36.2016105652 37.0251159668 37.6466331482 37.9822044373 45.999168396 45.8756904602 45.6600761414 45.3859786987 45.2043151855 45.2045516968 45.3866004944 45.6607093811 45.8761024475 45.9992637634 54.0208816528 54.1449699402 54.3616523743 54.6371231079 54.8197021484 54.8194656372 54.6364974976 54.3610153198 54.1445503235 54.0207824707 62.0380859375 62.3750152588 62.998210907 63.8230895996 64.3768539429 64.3761367798 63.8211975098 62.9963150024 62.3738441467 62.0378227234 70.0418319702 70.4883346558 71.4270629883 72.7609634399 73.6738815308 73.6727142334 72.757850647 71.424118042 70.4866790771 70.0415344238 78.0290298462 78.4160919189 79.4658432007 81.0842285156 82.1664276123 82.1650924683 81.0804977417 79.462348938 78.4144363403 78.0288543701 86.0171661377 86.2368087769 86.9766845703 88.153717041 88.9207763672 88.9198608398 88.1510391235 86.9741516113 86.2357254028 86.0171051025 
14.0025005341 13.7808761597 13.0382947922 11.8561944962 11.0861301422 11.0870513916 11.8588829041 13.0408382416 13.7819576263 14.0025491714 21.9905529022 21.6004981995 20.5466365814 18.9221038818 17.8341636658 17.835521698 18.9258499146 20.5501251221 21.6021690369 21.990737915 29.9777584076 29.5282669067 28.5849113464 27.2423648834 26.3147583008 26.3159580231 27.2455024719 28.5878772736 29.5299339294 29.978061676 37.9816436768 37.6425819397 37.0156707764 36.1815032959 35.6141586304 35.6148986816 36.1834220886 37.0175704956 37.6437683105 37.9819030762 45.9990463257 45.8745574951 45.6570129395 45.3785133362 45.1915130615 45.1917533875 45.3791465759 45.6576652527 45.8749771118 45.9991493225 54.0210037231 54.1461029053 54.3647270203 54.6446304321 54.8325653076 54.8323249817 54.6439933777 54.364074707 54.1456794739 54.0209083557 62.0383834839 62.3779067993 63.005771637 63.8413200378 64.409614563 64.4088745117 63.8393936157 63.0038642883 62.3767204285 62.0381317139 70.0422286987 70.4918060303 71.4357452393 72.7793960571 73.7077407837 73.7065505981 72.7762527466 71.432762146 70.4901351929 70.0419311523 78.0294113159 78.419052124 79.4726867676 81.0972137451 82.184928894 82.1835708618 81.0934753418 79.4691848755 78.417388916 78.0292282104 86.0174713135 86.2386932373 86.9799728394 88.1594924927 88.9280700684 88.9271621704 88.1568069458 86.9774475098 86.2376098633 86.0174331665 
14.0024814606 13.7807636261 13.0380945206 11.8558492661 11.0856971741 11.0866203308 11.8585395813 13.04063797 13.7818431854 14.0025310516 21.990530014 21.6003227234 20.5462207794 18.9213352203 17.8331050873 17.8344593048 18.9250831604 20.549703598 21.6019973755 21.9907188416 29.9777355194 29.5280475616 28.5843734741 27.2412605286 26.312828064 26.3140296936 27.2443943024 28.5873470306 29.5297222137 29.9780368805 37.9816246033 37.6424026489 37.0151901245 36.1803359985 35.6118125916 35.6125526428 36.1822624207 37.0170974731 37.6435890198 37.9818840027 45.9990386963 45.8744812012 45.6568031311 45.3779754639 45.1905136108 45.1907539368 45.3786087036 45.657459259 45.8749084473 45.9991378784 54.0210037231 54.1461791992 54.3649253845 54.6451683044 54.8335762024 54.8333206177 54.64453125 54.3642845154 54.1457519531 54.020904541 62.0384025574 62.3780822754 63.0062522888 63.8424835205 64.4119644165 64.4112167358 63.8405456543 63.0043296814 62.3768920898 62.038143158 70.0422439575 70.4920272827 71.4362945557 72.7804946899 73.7096710205 73.708480835 72.7773513794 71.433303833 70.4903488159 70.0419464111 78.0294342041 78.4192276001 79.4731063843 81.0979766846 82.1859970093 82.1846313477 81.0942459106 79.4696044922 78.4175567627 78.0292510986 86.0175094604 86.2388000488 86.980178833 88.1598434448 88.9285125732 88.9275817871 88.1571578979 86.9776306152 86.2377166748 86.0174560547 
14.0024795532 13.7807540894 13.038069725 11.855799675 11.0856380463 11.086561203 11.8584909439 13.0406093597 13.781835556 14.0025291443 21.9905281067 21.6003017426 20.546169281 18.9212398529 17.8329772949 17.8343334198 18.924987793 20.5496578217 21.601978302 21.9907188416 29.9777355194 29.5280265808 28.584312439 27.2411289215 26.3126182556 26.3138179779 27.2442626953 28.5872879028 29.5296955109 29.9780349731 37.9816207886 37.6423835754 37.0151367188 36.1802062988 35.611541748 35.612285614 36.1821289062 37.0170402527 37.6435623169 37.9818763733 45.9990386963 45.8744697571 45.6567955017 45.377910614 45.1903877258 45.1906318665 45.3785476685 45.6574401855 45.8748970032 45.9991416931 54.0210037231 54.1461830139 54.3649482727 54.6452293396 54.8336906433 54.8334541321 54.6445884705 54.3642997742 54.1457595825 54.020904541 62.0383987427 62.3780975342 63.0063056946 63.8426246643 64.4122390747 64.411491394 63.8406906128 63.0043983459 62.3769073486 62.0381469727 70.0422592163 70.4920349121 71.436340332 72.7806243896 73.7098999023 73.7086868286 72.7774734497 71.4333724976 70.4903564453 70.0419616699 78.0294342041 78.4192581177 79.4731445312 81.0980682373 82.1861114502 82.1847610474 81.0943450928 79.4696426392 78.4175796509 78.0292510986 86.0175018311 86.2388153076 86.9801940918 88.1598739624 88.928565979 88.9276428223 88.1572036743 86.9776611328 86.2377319336 86.0174560547 
14.0024795532 13.7807512283 13.0380563736 11.8557806015 11.085609436 11.0865325928 11.8584699631 13.0406017303 13.781829834 14.0025291443 21.990524292 21.6002979279 20.5461521149 18.9212036133 17.8329277039 17.8342857361 18.9249534607 20.5496425629 21.6019706726 21.9907150269 29.9777355194 29.5280246735 28.5842933655 27.2410850525 26.3125610352 26.3137664795 27.244222641 28.587266922 29.5296916962 29.9780330658 37.9816207886 37.6423797607 37.0151176453 36.1801681519 35.6114768982 35.6122131348 36.182094574 37.0170326233 37.6435623169 37.9818763733 45.9990386963 45.8744735718 45.6567840576 45.3778877258 45.1903648376 45.1906089783 45.3785324097 45.6574363708 45.8748970032 45.9991416931 54.0210037231 54.1461830139 54.3649597168 54.6452598572 54.8337249756 54.8334770203 54.6446151733 54.364315033 54.1457519531 54.020904541 62.0383987427 62.3781051636 63.0063285828 63.8426589966 64.4123001099 64.4115600586 63.8407287598 63.0044136047 62.3769187927 62.0381469727 70.0422592163 70.4920501709 71.4363632202 72.780670166 73.7099380493 73.7087478638 72.7775268555 71.4333877563 70.4903793335 70.0419616699 78.0294342041 78.4192581177 79.4731750488 81.0981140137 82.186164856 82.1848068237 81.0943603516 79.4696655273 78.4175796509 78.0292510986 86.0175018311 86.2388153076 86.9802093506 88.1599121094 88.9285964966 88.9276657104 88.1572265625 86.9776763916 86.2377319336 86.0174560547 
14.0024795532 13.7807483673 13.0380506516 11.8557634354 11.0855855942 11.0865087509 11.8584527969 13.0405921936 13.7818288803 14.0025291443 21.990524292 21.6002941132 20.5461425781 18.9211788177 17.8328933716 17.8342514038 18.9249267578 20.5496292114 21.6019706726 21.9907150269 29.9777336121 29.5280208588 28.5842781067 27.2410583496 26.3125114441 26.3137130737 27.2441921234 28.5872554779 29.5296897888 29.9780330658 37.9816207886 37.6423797607 37.0151138306 36.180141449 35.6114311218 35.6121749878 36.1820602417 37.0170173645 37.6435623169 37.9818763733 45.9990386963 45.8744697571 45.6567840576 45.3778762817 45.1903457642 45.1905937195 45.3785209656 45.6574325562 45.8748931885 45.9991416931 54.0210037231 54.146194458 54.3649482727 54.6452636719 54.8337440491 54.8334960938 54.6446228027 54.364315033 54.1457672119 54.020904541 62.0383987427 62.3781051636 63.0063362122 63.8426742554 64.4123382568 64.4115982056 63.8407516479 63.0044364929 62.3769264221 62.0381469727 70.0422592163 70.4920501709 71.4363708496 72.7806930542 73.7099914551 73.7087936401 72.7775497437 71.4334030151 70.4903869629 70.0419616699 78.0294342041 78.4192581177 79.4731826782 81.0981445312 82.1861953735 82.1848373413 81.0943908691 79.4696884155 78.4175872803 78.0292510986 86.0175018311 86.2388153076 86.98021698 88.1599197388 88.9286193848 88.927696228 88.1572341919 86.9776763916 86.2377471924 86.0174560547 
