13.9750347137 21.7689914703 29.4386425018 37.2262077332 45.6513977051 54.370300293 62.7941970825 70.5804748535 78.2503509521 86.044708252 13.966999054 21.5558815002 28.7623195648 36.2289772034 45.2116203308 54.8121910095 63.7921295166 71.2555541992 78.4624481201 86.0526657104 13.9641017914 21.3772563934 28.3101978302 35.6533050537 44.9441223145 55.080947876 64.368057251 71.7070999146 78.6403656006 86.0554962158 13.9557056427 21.2596931458 28.0669727325 35.3796653748 44.8265838623 55.1990356445 64.6419067383 71.9500808716 78.75756073 86.0637893677 13.9504308701 21.2011833191 27.9582958221 35.2751693726 44.784488678 55.2413253784 64.7464981079 72.0586624146 78.8158950806 86.0690231323 13.9504384995 21.2012500763 27.9584178925 35.2752838135 44.784526825 55.2412796021 64.746383667 72.0585403442 78.8158187866 86.0690078735 13.9557237625 21.2598991394 28.0673656464 35.3800621033 44.8267402649 55.1988754272 64.6415176392 71.9496765137 78.7573471069 86.0637741089 13.9641227722 21.3776321411 28.3110313416 35.6543159485 44.9445762634 55.080493927 64.3670501709 71.7062683105 78.6399993896 86.0554733276 13.967001915 21.556388855 28.7638645172 36.2310028076 45.2125663757 54.8112373352 63.7901077271 71.2540054321 78.4619445801 86.0526580811 13.9750900269 21.7695465088 29.4402866364 37.2287368774 45.6524925232 54.3692016602 62.7916717529 70.5788497925 78.2497940063 86.0446624756 
13.9742832184 21.7675476074 29.4340934753 37.2202606201 45.6487998962 54.3729133606 62.8001556396 70.5850143433 78.2517852783 86.045463562 13.9660310745 21.5537414551 28.7531433105 36.2151145935 45.2042388916 54.8196029663 63.8059921265 71.2647094727 78.46459198 86.0536270142 13.9629678726 21.3734931946 28.2954025269 35.625 44.9217758179 55.10338974 64.3963546753 71.7218551636 78.6441116333 86.0566177368 13.9543638229 21.2536621094 28.0452365875 35.3301734924 44.7914123535 55.2343711853 64.691368103 71.9717636108 78.7635650635 86.0651321411 13.948931694 21.193397522 27.9315319061 35.2135009766 44.7438278198 55.2821807861 64.8081359863 72.0853729248 78.8236694336 86.0705108643 13.9489383698 21.1934700012 27.9316635132 35.2136230469 44.7438697815 55.2821235657 64.808013916 72.0852279663 78.8235931396 86.0705108643 13.9543819427 21.2538757324 28.0456466675 35.3306121826 44.7915992737 55.2341842651 64.6909332275 71.9713592529 78.7633514404 86.0651092529 13.9629859924 21.373872757 28.2962551117 35.6260490417 44.9222679138 55.1029129028 64.3953094482 71.7210159302 78.6437301636 86.056602478 13.9660339355 21.5542545319 28.7546977997 36.2171630859 45.2052078247 54.8186225891 63.8039550781 71.2631607056 78.4640884399 86.0536270142 13.9743385315 21.7681026459 29.4357509613 37.2228050232 45.6498947144 54.3718109131 62.7976074219 70.583366394 78.2512435913 86.0454101562 
13.9742527008 21.7674884796 29.4339027405 37.2200164795 45.6486968994 54.3730163574 62.800403595 70.5851974487 78.2518615723 86.0454940796 13.9659900665 21.553653717 28.7527618408 36.214553833 45.2039718628 54.8198699951 63.8065643311 71.2650909424 78.4646835327 86.0536575317 13.9629173279 21.3733291626 28.2947673798 35.623840332 44.9208145142 55.1043586731 64.3975143433 71.7224960327 78.64427948 86.0566940308 13.9543046951 21.2533969879 28.044260025 35.3280105591 44.7895469666 55.2362480164 64.6935272217 71.9727401733 78.7638244629 86.0651855469 13.9488677979 21.1930541992 27.9303226471 35.2104415894 44.7415466309 55.2844619751 64.8111953735 72.0865707397 78.8239974976 86.0705795288 13.9488735199 21.1931266785 27.9304485321 35.2105674744 44.7416038513 55.2844085693 64.8110656738 72.08644104 78.823928833 86.07056427 13.9543247223 21.2536087036 28.0446720123 35.328453064 44.7897262573 55.2360725403 64.6930923462 71.9723205566 78.7636108398 86.0651702881 13.962937355 21.3737125397 28.2956123352 35.6248931885 44.9213066101 55.1038665771 64.3964614868 71.7216415405 78.6438827515 86.0566558838 13.9659900665 21.5541629791 28.7543144226 36.2165985107 45.2049369812 54.8188972473 63.8045196533 71.2635421753 78.4641799927 86.0536727905 13.9743070602 21.7680454254 29.4355602264 37.2225646973 45.6497879028 54.3719139099 62.7978477478 70.5835418701 78.2513122559 86.0454483032 
13.9742498398 21.7674770355 29.4338760376 37.2199783325 45.6486816406 54.3730278015 62.8004302979 70.5852203369 78.2518615723 86.0454940796 13.9659852982 21.5536384583 28.7526988983 36.2144737244 45.2039299011 54.8199043274 63.806640625 71.2651519775 78.4646911621 86.0536727905 13.9629125595 21.3733062744 28.2946777344 35.6236763 44.9206886292 55.1044845581 64.3976669312 71.7225952148 78.6442871094 86.0566940308 13.9542989731 21.2533550262 28.0441169739 35.327709198 44.7892684937 55.2365188599 64.6938171387 71.9728775024 78.7638702393 86.0651931763 13.9488582611 21.1929969788 27.9301433563 35.2100028992 44.7412223816 55.2847900391 64.811630249 72.0867538452 78.8240509033 86.0705871582 13.9488658905 21.1930713654 27.930273056 35.2101287842 44.7412719727 55.2847366333 64.8115081787 72.0866165161 78.8239822388 86.0705795288 13.9543161392 21.2535686493 28.0445270538 35.3281555176 44.7894554138 55.2363433838 64.6933822632 71.9724731445 78.7636566162 86.0651702881 13.962931633 21.3736820221 28.2955188751 35.6247253418 44.9211845398 55.1039924622 64.3966140747 71.7217483521 78.643913269 86.0566711426 13.9659862518 21.5541477203 28.7542552948 36.2165260315 45.2048950195 54.818939209 63.8045883179 71.2636032104 78.4641876221 86.0536804199 13.9743051529 21.7680339813 29.4355297089 37.2225265503 45.6497802734 54.3719215393 62.7978897095 70.5835647583 78.2513122559 86.0454406738 
13.9742469788 21.7674751282 29.4338703156 37.2199668884 45.6486740112 54.3730316162 62.8004493713 70.5852279663 78.2518692017 86.0454940796 13.9659833908 21.5536327362 28.7526817322 36.2144470215 45.203918457 54.8199272156 63.8066635132 71.2651824951 78.4646987915 86.0536727905 13.9629106522 21.3732967377 28.2946414948 35.6236228943 44.9206581116 55.1045227051 64.3977355957 71.7226257324 78.6443099976 86.056678772 13.9542970657 21.2533416748 28.0440673828 35.3276290894 44.7891998291 55.2365951538 64.6939086914 71.9729309082 78.7638931274 86.0652008057 13.9488554001 21.19298172 27.9300842285 35.2098770142 44.7411308289 55.2848854065 64.8117599487 72.0868225098 78.8240737915 86.0705871582 13.9488639832 21.1930503845 27.9302062988 35.2099990845 44.7411804199 55.2848320007 64.811630249 72.0866775513 78.8239974976 86.0705871582 13.9543161392 21.2535514832 28.0444774628 35.3280677795 44.7893791199 55.2364120483 64.6934738159 71.9725189209 78.763671875 86.0651779175 13.9629278183 21.3736724854 28.2954902649 35.6246795654 44.9211502075 55.1040229797 64.3966674805 71.7217636108 78.6439285278 86.0566635132 13.9659843445 21.5541419983 28.754240036 36.2164993286 45.2048835754 54.8189544678 63.8046150208 71.263633728 78.4641952515 86.0536804199 13.9743022919 21.7680301666 29.4355278015 37.2225189209 45.649772644 54.371925354 62.7978973389 70.5835723877 78.2513198853 86.0454406738 
13.9742450714 21.7674751282 29.4338645935 37.2199668884 45.6486740112 54.3730392456 62.8004570007 70.5852355957 78.2518692017 86.0454940796 13.9659824371 21.5536289215 28.7526664734 36.214427948 45.2039070129 54.8199310303 63.806678772 71.2651748657 78.4646987915 86.0536727905 13.9629106522 21.3732872009 28.2946186066 35.6235923767 44.9206428528 55.1045379639 64.3977584839 71.7226486206 78.6443023682 86.056678772 13.9542942047 21.253326416 28.0440368652 35.3275756836 44.7891693115 55.2366294861 64.6939620972 71.9729537964 78.7639007568 86.0652008057 13.9488563538 21.1929645538 27.9300479889 35.2098045349 44.7410964966 55.2849235535 64.8118286133 72.0868453979 78.8240890503 86.0705871582 13.9488630295 21.1930351257 27.9301757812 35.2099227905 44.7411384583 55.284866333 64.811706543 72.0867156982 78.8240127563 86.0705871582 13.9543142319 21.2535381317 28.0444469452 35.3280181885 44.789352417 55.2364425659 64.6935272217 71.9725494385 78.7636795044 86.0651779175 13.9629278183 21.373664856 28.2954673767 35.6246490479 44.921131134 55.1040458679 64.3966903687 71.7218093872 78.643951416 86.0566635132 13.9659843445 21.5541381836 28.7542266846 36.2164764404 45.204875946 54.8189582825 63.8046379089 71.2636413574 78.4641952515 86.0536804199 13.9743013382 21.7680301666 29.4355201721 37.2225151062 45.649772644 54.3719367981 62.797908783 70.5835876465 78.2513198853 86.0454406738 
13.9742469788 21.7674713135 29.4338607788 37.219959259 45.6486701965 54.3730392456 62.8004570007 70.5852432251 78.2518692017 86.045501709 13.9659824371 21.5536231995 28.752658844 36.2144165039 45.2039031982 54.8199386597 63.8067016602 71.2651977539 78.4647293091 86.0536727905 13.9629106522 21.3732795715 28.2945995331 35.6235694885 44.9206199646 55.1045570374 64.3977813721 71.7226638794 78.6443252563 86.056678772 13.9542942047 21.2533187866 28.044008255 35.3275299072 44.7891464233 55.2366485596 64.6940002441 71.972984314 78.7639083862 86.0652008057 13.9488563538 21.1929512024 27.9300136566 35.2097511292 44.7410774231 55.2849502563 64.8118896484 72.0868682861 78.8240966797 86.0705871582 13.9488611221 21.1930236816 27.9301433563 35.2098808289 44.7411193848 55.2848930359 64.8117675781 72.0867385864 78.8240203857 86.0705871582 13.9543132782 21.2535305023 28.0444202423 35.3279724121 44.7893295288 55.2364692688 64.6935653687 71.9725799561 78.7636871338 86.0651702881 13.962928772 21.3736572266 28.2954463959 35.624622345 44.9211158752 55.1040534973 64.3967208862 71.7218093872 78.6439437866 86.0566635132 13.9659843445 21.5541324615 28.7542152405 36.216468811 45.2048721313 54.8189620972 63.8046455383 71.2636489868 78.4642105103 86.0536804199 13.9743013382 21.7680263519 29.4355163574 37.2224960327 45.6497650146 54.3719406128 62.7979049683 70.5835800171 78.2513122559 86.0454483032 
