1.00000011921 1.0 1.00056529045 1.06705212593 1.10949897766 1.10947179794 1.06698429585 1.0 1.0 1.0 1.0 1.0 1.057472229 1.14602935314 1.16944229603 1.16942381859 1.1459659338 1.03875470161 1.0 1.0 1.00000011921 1.04003155231 1.11946153641 1.17112898827 1.18470561504 1.18469047546 1.17108404636 1.10066246986 1.04005074501 1.0 1.0 1.07680773735 1.1430478096 1.17905414104 1.18913555145 1.18912220001 1.17901659012 1.13028180599 1.07682323456 1.0 1.0 1.09515452385 1.15163803101 1.18184483051 1.19047927856 1.1904668808 1.18181049824 1.14122903347 1.09516298771 1.0 1.0 1.09514510632 1.15163195133 1.18184220791 1.19047772884 1.19046545029 1.18180787563 1.14122235775 1.09515345097 1.0 1.00000011921 1.07677829266 1.14302742481 1.17904520035 1.1891297102 1.18911647797 1.17900753021 1.13025867939 1.07679390907 1.0 1.0 1.0319185257 1.11290693283 1.170093894 1.1844086647 1.18439304829 1.17004728317 1.09168803692 1.031935215 1.0 1.00000011921 0.999999940395 1.05739665031 1.14595806599 1.16938841343 1.16936993599 1.14589500427 1.03868246078 1.0 0.999999940395 0.999999940395 1.0 1.00053226948 1.06688666344 1.10932838917 1.10930120945 1.06681883335 1.00000011921 1.00000011921 1.0 
1.00000011921 1.0 1.00056529045 1.06705212593 1.10968470573 1.10965704918 1.06698429585 1.0 1.0 1.0 1.0 1.0 1.057472229 1.16132521629 1.222859025 1.22282600403 1.16124224663 1.03875470161 1.0 1.0 1.00000011921 1.04003155231 1.12585735321 1.24260735512 1.29627108574 1.29623377323 1.2425236702 1.10100018978 1.04005074501 1.0 1.0 1.07680773735 1.16924667358 1.27428877354 1.31619095802 1.31615412235 1.27420699596 1.1405980587 1.07682323456 1.0 1.0 1.09601068497 1.19196736813 1.28648889065 1.32260775566 1.32257294655 1.28641033173 1.16126990318 1.09601950645 1.0 1.0 1.09600090981 1.19195878506 1.28648293018 1.32260358334 1.32256889343 1.28640413284 1.1612612009 1.0960098505 1.0 1.00000011921 1.07677829266 1.16921877861 1.27426719666 1.31617486477 1.31613814831 1.27418553829 1.14057016373 1.07679390907 1.0 1.0 1.0319185257 1.11514103413 1.23175060749 1.29009211063 1.29005360603 1.23166370392 1.09168803692 1.031935215 1.0 1.00000011921 0.999999940395 1.05739665031 1.16124272346 1.22277343273 1.22274041176 1.16115987301 1.03868246078 1.0 0.999999940395 0.999999940395 1.0 1.00053226948 1.06688666344 1.10951173306 1.1094840765 1.06681883335 1.00000011921 1.00000011921 1.0 
1.00000011921 1.0 1.00056529045 1.06705212593 1.10968470573 1.10965704918 1.06698429585 1.0 1.0 1.0 1.0 1.0 1.057472229 1.16132521629 1.22286105156 1.2228281498 1.16124224663 1.03875470161 1.0 1.0 1.00000011921 1.04003155231 1.12585735321 1.24631500244 1.3221539259 1.32211983204 1.24623632431 1.10100018978 1.04005074501 1.0 1.0 1.07680773735 1.16924667358 1.29062473774 1.35770261288 1.35766553879 1.29054784775 1.1405980587 1.07682323456 1.0 1.0 1.09601068497 1.19196736813 1.31020581722 1.37049460411 1.37045800686 1.310131073 1.16126990318 1.09601950645 1.0 1.0 1.09600090981 1.19195878506 1.31019854546 1.3704893589 1.37045252323 1.31012392044 1.1612612009 1.0960098505 1.0 1.00000011921 1.07677829266 1.16921877861 1.29060316086 1.35768413544 1.35764694214 1.29052615166 1.14057016373 1.07679390907 1.0 1.0 1.0319185257 1.11514103413 1.23239946365 1.30824422836 1.30820953846 1.23231446743 1.09168803692 1.031935215 1.0 1.00000011921 0.999999940395 1.05739665031 1.16124272346 1.2227755785 1.22274255753 1.16115987301 1.03868246078 1.0 0.999999940395 0.999999940395 1.0 1.00053226948 1.06688666344 1.10951173306 1.1094840765 1.06681883335 1.00000011921 1.00000011921 1.0 
1.00000011921 1.0 1.00056529045 1.06705212593 1.10968470573 1.10965704918 1.06698429585 1.0 1.0 1.0 1.0 1.0 1.057472229 1.16132521629 1.22286105156 1.2228281498 1.16124224663 1.03875470161 1.0 1.0 1.00000011921 1.04003155231 1.12585735321 1.24631500244 1.3249232769 1.32489109039 1.24623632431 1.10100018978 1.04005074501 1.0 1.0 1.07680773735 1.16924667358 1.29192113876 1.36628842354 1.36625421047 1.291847229 1.1405980587 1.07682323456 1.0 1.0 1.09601068497 1.19196736813 1.31382262707 1.38211405277 1.38208007812 1.31375014782 1.16126990318 1.09601950645 1.0 1.0 1.09600090981 1.19195878506 1.31381571293 1.38210880756 1.38207471371 1.31374299526 1.1612612009 1.0960098505 1.0 1.00000011921 1.07677829266 1.16921877861 1.29190087318 1.36627006531 1.36623597145 1.2918266058 1.14057016373 1.07679390907 1.0 1.0 1.0319185257 1.11514103413 1.23239946365 1.30880355835 1.30877006054 1.23231446743 1.09168803692 1.031935215 1.0 1.00000011921 0.999999940395 1.05739665031 1.16124272346 1.2227755785 1.22274255753 1.16115987301 1.03868246078 1.0 0.999999940395 0.999999940395 1.0 1.00053226948 1.06688666344 1.10951173306 1.1094840765 1.06681883335 1.00000011921 1.00000011921 1.0 
1.00000011921 1.0 1.00056529045 1.06705212593 1.10968470573 1.10965704918 1.06698429585 1.0 1.0 1.0 1.0 1.0 1.057472229 1.16132521629 1.22286105156 1.2228281498 1.16124224663 1.03875470161 1.0 1.0 1.00000011921 1.04003155231 1.12585735321 1.24631500244 1.32499778271 1.32496583462 1.24623632431 1.10100018978 1.04005074501 1.0 1.0 1.07680773735 1.16924667358 1.2919280529 1.36802685261 1.36799347401 1.29185414314 1.1405980587 1.07682323456 1.0 1.0 1.09601068497 1.19196736813 1.31444144249 1.38491642475 1.38488352299 1.31436932087 1.16126990318 1.09601950645 1.0 1.0 1.09600090981 1.19195878506 1.31443452835 1.38491106033 1.38487815857 1.31436216831 1.1612612009 1.0960098505 1.0 1.00000011921 1.07677829266 1.16921877861 1.29190778732 1.36800861359 1.36797523499 1.29183363914 1.14057016373 1.07679390907 1.0 1.0 1.0319185257 1.11514103413 1.23239946365 1.30880355835 1.30877006054 1.23231446743 1.09168803692 1.031935215 1.0 1.00000011921 0.999999940395 1.05739665031 1.16124272346 1.2227755785 1.22274255753 1.16115987301 1.03868246078 1.0 0.999999940395 0.999999940395 1.0 1.00053226948 1.06688666344 1.10951173306 1.1094840765 1.06681883335 1.00000011921 1.00000011921 1.0 
1.00000011921 1.0 1.00056529045 1.06705212593 1.10968470573 1.10965704918 1.06698429585 1.0 1.0 1.0 1.0 1.0 1.057472229 1.16132521629 1.22286105156 1.2228281498 1.16124224663 1.03875470161 1.0 1.0 1.00000011921 1.04003155231 1.12585735321 1.24631500244 1.32499778271 1.32496583462 1.24623632431 1.10100018978 1.04005074501 1.0 1.0 1.07680773735 1.16924667358 1.2919280529 1.36841452122 1.36838150024 1.29185414314 1.1405980587 1.07682323456 1.0 1.0 1.09601068497 1.19196736813 1.31455731392 1.38566172123 1.38562917709 1.3144851923 1.16126990318 1.09601950645 1.0 1.0 1.09600090981 1.19195878506 1.31455028057 1.38565635681 1.38562357426 1.31447815895 1.1612612009 1.0960098505 1.0 1.00000011921 1.07677829266 1.16921877861 1.29190778732 1.36839675903 1.36836326122 1.29183363914 1.14057016373 1.07679390907 1.0 1.0 1.0319185257 1.11514103413 1.23239946365 1.30880355835 1.30877006054 1.23231446743 1.09168803692 1.031935215 1.0 1.00000011921 0.999999940395 1.05739665031 1.16124272346 1.2227755785 1.22274255753 1.16115987301 1.03868246078 1.0 0.999999940395 0.999999940395 1.0 1.00053226948 1.06688666344 1.10951173306 1.1094840765 1.06681883335 1.00000011921 1.00000011921 1.0 
1.00000011921 1.0 1.00056529045 1.06705212593 1.10968470573 1.10965704918 1.06698429585 1.0 1.0 1.0 1.0 1.0 1.057472229 1.16132521629 1.22286105156 1.2228281498 1.16124224663 1.03875470161 1.0 1.0 1.00000011921 1.04003155231 1.12585735321 1.24631500244 1.32499778271 1.32496583462 1.24623632431 1.10100018978 1.04005074501 1.0 1.0 1.07680773735 1.16924667358 1.2919280529 1.36851394176 1.36848068237 1.29185414314 1.1405980587 1.07682323456 1.0 1.0 1.09601068497 1.19196736813 1.31458055973 1.38588488102 1.38585221767 1.31450855732 1.16126990318 1.09601950645 1.0 1.0 1.09600090981 1.19195878506 1.3145737648 1.38587939739 1.38584685326 1.31450164318 1.1612612009 1.0960098505 1.0 1.00000011921 1.07677829266 1.16921877861 1.29190778732 1.36849558353 1.36846256256 1.29183363914 1.14057016373 1.07679390907 1.0 1.0 1.0319185257 1.11514103413 1.23239946365 1.30880355835 1.30877006054 1.23231446743 1.09168803692 1.031935215 1.0 1.00000011921 0.999999940395 1.05739665031 1.16124272346 1.2227755785 1.22274255753 1.16115987301 1.03868246078 1.0 0.999999940395 0.999999940395 1.0 1.00053226948 1.06688666344 1.10951173306 1.1094840765 1.06681883335 1.00000011921 1.00000011921 1.0 
