14.003909111 13.7852830887 13.0123758316 11.8235387802 11.1365289688 11.137348175 11.8259391785 13.0150718689 13.7863769531 14.0039453506 21.9926185608 21.6197566986 20.5741443634 19.1154975891 18.233039856 18.2341327667 19.1185207367 20.577545166 21.6213817596 21.9927883148 29.9796009064 29.5487270355 28.6545009613 27.4909667969 26.781332016 26.7822189331 27.4934062958 28.6572666168 29.5503387451 29.979883194 37.9829177856 37.6627082825 37.0818061829 36.3771591187 35.9513206482 35.9518585205 36.3786125183 37.0835342407 37.6638183594 37.9831619263 45.9996185303 45.8830871582 45.6834869385 45.451499939 45.3111801147 45.3113594055 45.4519844055 45.6840629578 45.8834762573 45.9997177124 54.0204238892 54.1375350952 54.3381309509 54.5712814331 54.7123031616 54.7121238708 54.5707969666 54.3375511169 54.137134552 54.0203323364 62.037109375 62.3577728271 62.93957901 63.6454048157 64.0719680786 64.0714263916 63.6439590454 62.9378395081 62.3566474915 62.0368652344 70.0403823853 70.4713516235 71.3662338257 72.5307769775 73.2410583496 73.2401733398 72.5283432007 71.3634338379 70.4697418213 70.0400924683 78.02734375 78.3998565674 79.4453353882 80.9041595459 81.7865753174 81.7854919434 80.9011383057 79.4419250488 78.398223877 78.0271759033 86.0160675049 86.2342987061 87.0059432983 88.1926574707 88.878578186 88.8777618408 88.1902618408 87.0032577515 86.2332077026 86.0160369873 
14.0029830933 13.7813091278 13.0094442368 11.8186845779 11.1277341843 11.1285572052 11.821097374 13.0121421814 13.7824039459 14.0030260086 21.9916362762 21.6132144928 20.5603580475 19.0854873657 18.1825180054 18.1836395264 19.0885677338 20.563785553 21.6148548126 21.9918136597 29.9786930084 29.5405883789 28.6322097778 27.4365215302 26.6765804291 26.6775588989 27.4390735626 28.6350288391 29.5422229767 29.9789867401 37.9822311401 37.6555633545 37.0596542358 36.3176765442 35.8478469849 35.8484535217 36.3192558289 37.0614356995 37.6566925049 37.9824790955 45.9993553162 45.8802375793 45.6743431091 45.4255905151 45.2699508667 45.2701454163 45.4261169434 45.674949646 45.8806419373 45.9994506836 54.0206871033 54.1403961182 54.3473129272 54.5973205566 54.7537345886 54.7535324097 54.5967941284 54.3467025757 54.1399917603 54.0205917358 62.0377998352 62.3649215698 62.9617462158 63.7049407959 64.1755523682 64.1749420166 63.7033538818 62.9599533081 62.3637809753 62.0375518799 70.0412979126 70.4794921875 71.3884887695 72.5851745605 73.3457336426 73.3447494507 72.582611084 71.3856658936 70.4778518677 70.0409927368 78.0283203125 78.4063720703 79.4590835571 80.9341125488 81.8369827271 81.8358612061 80.9310302734 79.4556655884 78.4047470093 78.0281524658 86.016998291 86.2382736206 87.0088577271 88.1974563599 88.887298584 88.8864746094 88.1950531006 87.0061645508 86.2371749878 86.0169448853 
14.0029840469 13.7813100815 13.009437561 11.8186683655 11.1277141571 11.1285381317 11.8210811615 13.012134552 13.7824058533 14.0030269623 21.9916362762 21.6132125854 20.5603466034 19.0854701996 18.1824932098 18.1836185455 19.0885505676 20.5637741089 21.6148509979 21.9918136597 29.9786930084 29.5405845642 28.6322002411 27.4364948273 26.6765556335 26.6775283813 27.4390506744 28.6350193024 29.5422210693 29.9789867401 37.9822311401 37.6555557251 37.0596504211 36.3176651001 35.847820282 35.8484306335 36.3192405701 37.0614318848 37.6566886902 37.9824790955 45.9993553162 45.8802337646 45.6743392944 45.4255752563 45.2699279785 45.2701339722 45.4261054993 45.6749458313 45.8806381226 45.9994506836 54.0206871033 54.1403923035 54.3473243713 54.597328186 54.7537498474 54.7535514832 54.5967941284 54.3467063904 54.1399879456 54.0205917358 62.0377998352 62.3649215698 62.9617462158 63.7049446106 64.1755828857 64.1749725342 63.7033615112 62.9599609375 62.36378479 62.0375518799 70.0412979126 70.4794921875 71.3884963989 72.5851974487 73.3457565308 73.3447799683 72.5826339722 71.3856811523 70.4778518677 70.0409927368 78.0283203125 78.4063873291 79.4590911865 80.934135437 81.8370056152 81.8358840942 80.9310455322 79.4556732178 78.4047546387 78.0281524658 86.016998291 86.2382736206 87.0088500977 88.1974563599 88.8873138428 88.8864974976 88.1950531006 87.0061798096 86.2371749878 86.0169448853 
14.0029830933 13.7813072205 13.009431839 11.8186531067 11.1276912689 11.1285142899 11.821064949 13.0121259689 13.7824020386 14.0030269623 21.9916362762 21.6132106781 20.560338974 19.0854473114 18.1824684143 18.18359375 19.0885276794 20.5637645721 21.6148529053 21.9918136597 29.9786930084 29.5405845642 28.6321907043 27.4364738464 26.6765289307 26.6775074005 27.439031601 28.6350078583 29.5422229767 29.9789867401 37.9822311401 37.6555557251 37.0596351624 36.3176460266 35.8477859497 35.8483963013 36.3192253113 37.0614204407 37.6566925049 37.9824790955 45.9993553162 45.8802337646 45.6743392944 45.4255752563 45.2699127197 45.2701187134 45.4261016846 45.674949646 45.8806381226 45.9994506836 54.0206871033 54.1403923035 54.3473243713 54.5973358154 54.7537651062 54.7535705566 54.5968055725 54.3467178345 54.1399879456 54.0205917358 62.0377998352 62.3649291992 62.9617576599 63.7049751282 64.1756134033 64.1750030518 63.7033882141 62.9599685669 62.3637886047 62.0375518799 70.0412979126 70.4794921875 71.3885269165 72.5852050781 73.3457717896 73.3447952271 72.5826568604 71.3856887817 70.4778594971 70.0409927368 78.0283203125 78.4063873291 79.4591064453 80.934135437 81.8370361328 81.8359146118 80.9310455322 79.4556808472 78.4047470093 78.0281524658 86.016998291 86.2382736206 87.0088653564 88.1974868774 88.8873443604 88.8865203857 88.1950836182 87.006187439 86.2371826172 86.0169448853 
14.0029830933 13.7813062668 13.0094213486 11.8186359406 11.1276683807 11.1284942627 11.8210487366 13.0121202469 13.7824029922 14.0030269623 21.9916362762 21.6132087708 20.5603275299 19.0854282379 18.1824436188 18.1835670471 19.0885124207 20.5637531281 21.6148490906 21.9918136597 29.9786930084 29.5405788422 28.632183075 27.4364566803 26.6765041351 26.6774787903 27.4390125275 28.6350078583 29.5422153473 29.9789867401 37.9822311401 37.6555519104 37.0596313477 36.3176193237 35.8477554321 35.848361969 36.3192024231 37.0614204407 37.6566886902 37.9824790955 45.9993553162 45.8802337646 45.6743278503 45.4255599976 45.2699012756 45.2700996399 45.4260902405 45.6749382019 45.8806381226 45.9994506836 54.0206871033 54.1403923035 54.347328186 54.5973472595 54.7537841797 54.7535820007 54.5968208313 54.3467178345 54.1399879456 54.0205917358 62.0377998352 62.3649291992 62.9617614746 63.7049865723 64.1756362915 64.1750335693 63.7034072876 62.9599761963 62.36378479 62.0375518799 70.0412979126 70.4794921875 71.3885116577 72.5852432251 73.3458023071 73.3448257446 72.5826797485 71.3857116699 70.4778671265 70.0409927368 78.0283203125 78.4063873291 79.4591293335 80.9341659546 81.8370437622 81.8359298706 80.9310836792 79.4556884766 78.4047470093 78.0281524658 86.016998291 86.2382736206 87.0088653564 88.1974945068 88.8873748779 88.8865356445 88.1950836182 87.006187439 86.2371826172 86.0169448853 
14.0029830933 13.7813034058 13.0094146729 11.8186187744 11.1276464462 11.1284694672 11.8210296631 13.0121126175 13.7824001312 14.0030269623 21.9916362762 21.6132068634 20.5603160858 19.0854091644 18.1824188232 18.1835422516 19.0884895325 20.563741684 21.6148452759 21.9918136597 29.9786930084 29.5405769348 28.6321640015 27.4364376068 26.6764755249 26.6774482727 27.438993454 28.6349925995 29.5422153473 29.9789867401 37.9822311401 37.6555480957 37.0596160889 36.3175964355 35.8477249146 35.8483352661 36.3191795349 37.0614089966 37.6566886902 37.9824790955 45.9993553162 45.8802375793 45.6743278503 45.4255485535 45.2698860168 45.2700843811 45.4260749817 45.6749305725 45.8806419373 45.9994506836 54.0206871033 54.1403961182 54.3473320007 54.5973587036 54.7537956238 54.7535934448 54.5968284607 54.3467254639 54.139995575 54.0205917358 62.0377998352 62.3649215698 62.9617767334 63.7050170898 64.1756744385 64.1750640869 63.7034263611 62.9599838257 62.36378479 62.0375518799 70.0412979126 70.4794998169 71.3885269165 72.5852508545 73.3458404541 73.3448562622 72.5826950073 71.3857040405 70.4778671265 70.0409927368 78.0283203125 78.4063949585 79.4591293335 80.9341888428 81.8370742798 81.8359603882 80.9311141968 79.455696106 78.4047546387 78.0281524658 86.016998291 86.2382736206 87.0088882446 88.1975250244 88.8873748779 88.8865585327 88.1951141357 87.006187439 86.2371826172 86.0169448853 
14.0029830933 13.7813043594 13.0094060898 11.8186016083 11.127623558 11.1284484863 11.8210134506 13.0121049881 13.7823982239 14.0030269623 21.9916362762 21.6132049561 20.5603046417 19.0853900909 18.182390213 18.1835155487 19.0884666443 20.5637302399 21.6148452759 21.9918136597 29.9786930084 29.5405731201 28.6321582794 27.4364147186 26.676448822 26.6774215698 27.4389648438 28.6349773407 29.5422115326 29.9789867401 37.9822311401 37.6555480957 37.0596122742 36.3175773621 35.8476867676 35.8482971191 36.3191604614 37.0614013672 37.6566848755 37.9824790955 45.9993591309 45.8802337646 45.6743240356 45.4255409241 45.2698745728 45.2700767517 45.4260635376 45.6749305725 45.8806419373 45.9994506836 54.0206832886 54.1404037476 54.3473320007 54.5973701477 54.7538108826 54.7536087036 54.5968399048 54.3467254639 54.1400032043 54.0205955505 62.0377998352 62.3649253845 62.9617919922 63.705039978 64.1756973267 64.1750946045 63.7034492493 62.9599914551 62.3637924194 62.0375518799 70.0412979126 70.4794998169 71.3885345459 72.5852813721 73.3458633423 73.3448867798 72.5827178955 71.3857116699 70.4778671265 70.0409927368 78.0283203125 78.4063949585 79.4591369629 80.9342041016 81.8371124268 81.8359909058 80.9311218262 79.4557189941 78.4047546387 78.0281524658 86.016998291 86.2382736206 87.008895874 88.1975479126 88.8874130249 88.8865890503 88.1951293945 87.0062026978 86.2371826172 86.0169448853 
