1.00000011921 1.0 0.99970459938 1.05194401741 1.10156059265 1.10152995586 1.05185985565 1.0 1.0 1.0 1.0 1.0 1.052272439 1.17931640148 1.25102090836 1.25098454952 1.17922568321 1.03813278675 1.0 1.0 1.00000011921 1.05053293705 1.12989604473 1.27068722248 1.32043278217 1.32039427757 1.2705925703 1.1099203825 1.05055356026 1.0 1.0 1.09100115299 1.17619609833 1.29891645908 1.33568513393 1.33564734459 1.29882788658 1.15437114239 1.09100842476 1.0 1.0 1.11218738556 1.19988703728 1.3092019558 1.34028542042 1.34024882317 1.30911850929 1.17729270458 1.11218559742 1.0 1.0 1.1121764183 1.19987797737 1.3091956377 1.34028172493 1.3402453661 1.30911254883 1.17728292942 1.11217463017 1.0 1.00000011921 1.0909678936 1.17616796494 1.29889535904 1.33567130566 1.33563351631 1.29880654812 1.15434110165 1.09097516537 1.0 1.0 1.04153442383 1.11781668663 1.2608435154 1.31634414196 1.31630432606 1.26074385643 1.09910786152 1.04155123234 1.0 1.00000011921 0.999999940395 1.05218923092 1.17922759056 1.25091862679 1.25088226795 1.17913687229 1.03805375099 1.0 0.999999940395 0.999999940395 1.0 0.999710798264 1.05180203915 1.10139739513 1.10136699677 1.0517179966 1.00000011921 1.00000011921 1.0 
1.00000011921 1.0 0.99970459938 1.05194401741 1.10156059265 1.10152995586 1.05185985565 1.0 1.0 1.0 1.0 1.0 1.052272439 1.17931640148 1.25120925903 1.25117337704 1.17922568321 1.03813278675 1.0 1.0 1.00000011921 1.05053293705 1.12989604473 1.28041374683 1.37212610245 1.37209331989 1.28033137321 1.1099203825 1.05055356026 1.0 1.0 1.09100115299 1.17619609833 1.32974469662 1.41619062424 1.41615414619 1.32966899872 1.15437114239 1.09100842476 1.0 1.0 1.11218738556 1.19988703728 1.35211575031 1.43169212341 1.43165409565 1.35204315186 1.17729270458 1.11218559742 1.0 1.0 1.1121764183 1.19987797737 1.35210895538 1.43168699741 1.43164896965 1.35203623772 1.17728292942 1.11217463017 1.0 1.00000011921 1.0909678936 1.17616796494 1.32972311974 1.41617238522 1.41613602638 1.32964730263 1.15434110165 1.09097516537 1.0 1.0 1.04153442383 1.11781668663 1.26405632496 1.35335814953 1.35332238674 1.26396405697 1.09910786152 1.04155123234 1.0 1.00000011921 0.999999940395 1.05218923092 1.17922759056 1.25110840797 1.25107240677 1.17913687229 1.03805375099 1.0 0.999999940395 0.999999940395 1.0 0.999710798264 1.05180203915 1.10139739513 1.10136699677 1.0517179966 1.00000011921 1.00000011921 1.0 
1.00000011921 1.0 0.99970459938 1.05194401741 1.10156059265 1.10152995586 1.05185985565 1.0 1.0 1.0 1.0 1.0 1.052272439 1.17931640148 1.25120925903 1.25117337704 1.17922568321 1.03813278675 1.0 1.0 1.00000011921 1.05053293705 1.12989604473 1.28041374683 1.37212610245 1.37209331989 1.28033137321 1.1099203825 1.05055356026 1.0 1.0 1.09100115299 1.17619609833 1.32974469662 1.41693127155 1.4168959856 1.32966899872 1.15437114239 1.09100842476 1.0 1.0 1.11218738556 1.19988703728 1.35211575031 1.43336081505 1.43332433701 1.35204315186 1.17729270458 1.11218559742 1.0 1.0 1.1121764183 1.19987797737 1.35210895538 1.43335568905 1.43331933022 1.35203623772 1.17728292942 1.11217463017 1.0 1.00000011921 1.0909678936 1.17616796494 1.32972311974 1.41691303253 1.41687774658 1.32964730263 1.15434110165 1.09097516537 1.0 1.0 1.04153442383 1.11781668663 1.26405632496 1.35335814953 1.35332238674 1.26396405697 1.09910786152 1.04155123234 1.0 1.00000011921 0.999999940395 1.05218923092 1.17922759056 1.25110840797 1.25107240677 1.17913687229 1.03805375099 1.0 0.999999940395 0.999999940395 1.0 0.999710798264 1.05180203915 1.10139739513 1.10136699677 1.0517179966 1.00000011921 1.00000011921 1.0 
1.00000011921 1.0 0.99970459938 1.05194401741 1.10156059265 1.10152995586 1.05185985565 1.0 1.0 1.0 1.0 1.0 1.052272439 1.17931640148 1.25120925903 1.25117337704 1.17922568321 1.03813278675 1.0 1.0 1.00000011921 1.05053293705 1.12989604473 1.28041374683 1.37212610245 1.37209331989 1.28033137321 1.1099203825 1.05055356026 1.0 1.0 1.09100115299 1.17619609833 1.32974469662 1.41694045067 1.41690504551 1.32966899872 1.15437114239 1.09100842476 1.0 1.0 1.11218738556 1.19988703728 1.35211575031 1.43337094784 1.4333344698 1.35204315186 1.17729270458 1.11218559742 1.0 1.0 1.1121764183 1.19987797737 1.35210895538 1.43336582184 1.4333293438 1.35203623772 1.17728292942 1.11217463017 1.0 1.00000011921 1.0909678936 1.17616796494 1.32972311974 1.41692233086 1.4168869257 1.32964730263 1.15434110165 1.09097516537 1.0 1.0 1.04153442383 1.11781668663 1.26405632496 1.35335814953 1.35332238674 1.26396405697 1.09910786152 1.04155123234 1.0 1.00000011921 0.999999940395 1.05218923092 1.17922759056 1.25110840797 1.25107240677 1.17913687229 1.03805375099 1.0 0.999999940395 0.999999940395 1.0 0.999710798264 1.05180203915 1.10139739513 1.10136699677 1.0517179966 1.00000011921 1.00000011921 1.0 
1.00000011921 1.0 0.99970459938 1.05194401741 1.10156059265 1.10152995586 1.05185985565 1.0 1.0 1.0 1.0 1.0 1.052272439 1.17931640148 1.25120925903 1.25117337704 1.17922568321 1.03813278675 1.0 1.0 1.00000011921 1.05053293705 1.12989604473 1.28041374683 1.37212610245 1.37209331989 1.28033137321 1.1099203825 1.05055356026 1.0 1.0 1.09100115299 1.17619609833 1.32974469662 1.41694903374 1.41691374779 1.32966899872 1.15437114239 1.09100842476 1.0 1.0 1.11218738556 1.19988703728 1.35211575031 1.43338048458 1.43334412575 1.35204315186 1.17729270458 1.11218559742 1.0 1.0 1.1121764183 1.19987797737 1.35210895538 1.43337547779 1.43333911896 1.35203623772 1.17728292942 1.11217463017 1.0 1.00000011921 1.0909678936 1.17616796494 1.32972311974 1.41693091393 1.41689562798 1.32964730263 1.15434110165 1.09097516537 1.0 1.0 1.04153442383 1.11781668663 1.26405632496 1.35335814953 1.35332238674 1.26396405697 1.09910786152 1.04155123234 1.0 1.00000011921 0.999999940395 1.05218923092 1.17922759056 1.25110840797 1.25107240677 1.17913687229 1.03805375099 1.0 0.999999940395 0.999999940395 1.0 0.999710798264 1.05180203915 1.10139739513 1.10136699677 1.0517179966 1.00000011921 1.00000011921 1.0 
1.00000011921 1.0 0.99970459938 1.05194401741 1.10156059265 1.10152995586 1.05185985565 1.0 1.0 1.0 1.0 1.0 1.052272439 1.17931640148 1.25120925903 1.25117337704 1.17922568321 1.03813278675 1.0 1.0 1.00000011921 1.05053293705 1.12989604473 1.28041374683 1.37212610245 1.37209331989 1.28033137321 1.1099203825 1.05055356026 1.0 1.0 1.09100115299 1.17619609833 1.32974469662 1.41695761681 1.41692233086 1.32966899872 1.15437114239 1.09100842476 1.0 1.0 1.11218738556 1.19988703728 1.35211575031 1.43338990211 1.43335342407 1.35204315186 1.17729270458 1.11218559742 1.0 1.0 1.1121764183 1.19987797737 1.35210895538 1.43338477612 1.43334841728 1.35203623772 1.17728292942 1.11217463017 1.0 1.00000011921 1.0909678936 1.17616796494 1.32972311974 1.41693949699 1.41690409184 1.32964730263 1.15434110165 1.09097516537 1.0 1.0 1.04153442383 1.11781668663 1.26405632496 1.35335814953 1.35332238674 1.26396405697 1.09910786152 1.04155123234 1.0 1.00000011921 0.999999940395 1.05218923092 1.17922759056 1.25110840797 1.25107240677 1.17913687229 1.03805375099 1.0 0.999999940395 0.999999940395 1.0 0.999710798264 1.05180203915 1.10139739513 1.10136699677 1.0517179966 1.00000011921 1.00000011921 1.0 
1.00000011921 1.0 0.99970459938 1.05194401741 1.10156059265 1.10152995586 1.05185985565 1.0 1.0 1.0 1.0 1.0 1.052272439 1.17931640148 1.25120925903 1.25117337704 1.17922568321 1.03813278675 1.0 1.0 1.00000011921 1.05053293705 1.12989604473 1.28041374683 1.37212610245 1.37209331989 1.28033137321 1.1099203825 1.05055356026 1.0 1.0 1.09100115299 1.17619609833 1.32974469662 1.41696619987 1.41693079472 1.32966899872 1.15437114239 1.09100842476 1.0 1.0 1.11218738556 1.19988703728 1.35211575031 1.43339943886 1.43336284161 1.35204327106 1.17729270458 1.11218559742 1.0 1.0 1.1121764183 1.19987797737 1.35210895538 1.43339419365 1.43335795403 1.35203635693 1.17728292942 1.11217463017 1.0 1.00000011921 1.0909678936 1.17616796494 1.32972311974 1.41694784164 1.41691279411 1.32964730263 1.15434110165 1.09097516537 1.0 1.0 1.04153442383 1.11781668663 1.26405632496 1.35335814953 1.35332238674 1.26396405697 1.09910786152 1.04155123234 1.0 1.00000011921 0.999999940395 1.05218923092 1.17922759056 1.25110840797 1.25107240677 1.17913687229 1.03805375099 1.0 0.999999940395 0.999999940395 1.0 0.999710798264 1.05180203915 1.10139739513 1.10136699677 1.0517179966 1.00000011921 1.00000011921 1.0 
