2.25930666924 3.93774247169 6.89091968536 9.6974363327 11.1904153824 11.188659668 9.69215679169 6.88328027725 3.93122911453 2.25901722908 2.27437400818 5.14910840988 9.82518386841 14.3335828781 16.7516479492 16.7487697601 14.3250923157 9.81305217743 5.13843727112 2.27371120453 2.29049015045 6.03211164474 11.8066062927 17.3234272003 20.3861999512 20.382478714 17.3127784729 11.7918405533 6.01851511002 2.28946208954 2.30438375473 6.60344409943 12.9816627502 19.0384140015 22.4158916473 22.4117546082 19.0266819 12.9654483795 6.58818483353 2.30307579041 2.31204462051 6.87703990936 13.5305194855 19.81366539 23.3141307831 23.3098297119 19.8014984131 13.5136613846 6.86100912094 2.3105905056 2.31203532219 6.87672281265 13.5298843384 19.812789917 23.3131198883 23.3088188171 19.8006229401 13.5130281448 6.86069583893 2.31058144569 2.30435729027 6.60246610641 12.9796943665 19.0356063843 22.4126243591 22.4084854126 19.0238723755 12.9634809494 6.58720827103 2.30304956436 2.29045033455 6.03028249741 11.8027420044 17.3176860809 20.3793106079 20.3755912781 17.3070430756 11.7879829407 6.01669311523 2.28942346573 2.2743370533 5.14642953873 9.81880187988 14.3238096237 16.7397651672 16.7368869781 14.3153266907 9.80667972565 5.13576841354 2.27367520332 2.2592689991 3.9343957901 6.882625103 9.68396377563 11.1744737625 11.1727218628 9.67869186401 6.87499713898 3.92789435387 2.2589802742 
2.2593960762 3.90666007996 6.83239078522 9.62844944 11.118637085 11.1168880463 9.6231803894 6.82479476929 3.9002468586 2.25911235809 2.27416110039 5.11383676529 9.76296424866 14.2605419159 16.6802062988 16.6773223877 14.2520532608 9.75088119507 5.10326480865 2.27351140976 2.29003930092 5.99884748459 11.7489738464 17.25847435 20.3444538116 20.3406658173 17.2477931976 11.7342576981 5.98533535004 2.28902888298 2.30390334129 6.57520294189 12.9340620041 18.9957637787 22.4416809082 22.4373931885 18.9838962555 12.9178876877 6.56001281738 2.30261278152 2.31161189079 6.852684021 13.4901504517 19.7941589355 23.3882637024 23.3837757111 19.7817897797 13.473323822 6.83671045303 2.31017446518 2.31160259247 6.85236215591 13.4895124435 19.7932472229 23.3871917725 23.3827056885 19.7808799744 13.4726858139 6.83639192581 2.31016516685 2.30387639999 6.57421207428 12.9320650101 18.9928836823 22.438249588 22.4339599609 18.9810180664 12.9158964157 6.55902290344 2.30258655548 2.28999996185 5.99700880051 11.7450895309 17.252702713 20.3374214172 20.3336334229 17.2420272827 11.7303771973 5.98350477219 2.28899049759 2.27412486076 5.11115980148 9.75658035278 14.2507667542 16.668302536 16.6654224396 14.2422847748 9.74450778961 5.10059690475 2.27347612381 2.2593588829 3.90333890915 6.82412862778 9.61501502991 11.1027383804 11.1009912491 9.60975551605 6.81654405594 3.89693689346 2.25907635689 
2.25939583778 3.90667200089 6.83241701126 9.62848472595 11.1186761856 11.1169281006 9.62321567535 6.82482099533 3.90025830269 2.25911259651 2.27416110039 5.11385345459 9.76299762726 14.2605886459 16.6802558899 16.6773719788 14.2520999908 9.75091552734 5.10328102112 2.2735118866 2.29003953934 5.99886751175 11.7490158081 17.2585372925 20.3445148468 20.3407268524 17.2478542328 11.7343006134 5.98535680771 2.2890291214 2.30390381813 6.57522678375 12.9341087341 18.9958305359 22.4417572021 22.4374675751 18.98396492 12.9179391861 6.5600361824 2.30261349678 2.31161284447 6.85271024704 13.4902057648 19.7942333221 23.3883609772 23.3838729858 19.781867981 13.4733762741 6.83673715591 2.31017494202 2.31160354614 6.85238838196 13.4895658493 19.7933197021 23.3872871399 23.3827991486 19.780954361 13.4727401733 6.83641719818 2.31016540527 2.30387687683 6.5742354393 12.9321146011 18.9929504395 22.4383239746 22.4340362549 18.9810886383 12.9159469604 6.5590467453 2.3025867939 2.29000020027 5.99702978134 11.7451295853 17.2527561188 20.3374843597 20.3336963654 17.2420806885 11.7304210663 5.98352527618 2.28899073601 2.27412486076 5.11117696762 9.75661373138 14.2508125305 16.6683521271 16.665473938 14.2423305511 9.74454116821 5.10061407089 2.27347636223 2.2593588829 3.90335035324 6.82415437698 9.61505031586 11.1027774811 11.1010303497 9.609790802 6.81657028198 3.89694857597 2.25907659531 
2.25939583778 3.90668487549 6.83244514465 9.6285238266 11.1187210083 11.1169710159 9.62325572968 6.82484960556 3.90027070045 2.25911259651 2.27416133881 5.11387205124 9.76303768158 14.260641098 16.680311203 16.6774291992 14.2521514893 9.75095462799 5.10330057144 2.27351212502 2.29003977776 5.99889135361 11.7490615845 17.2585964203 20.3445835114 20.340795517 17.2479152679 11.7343482971 5.98538017273 2.28902959824 2.30390453339 6.57525348663 12.9341630936 18.9959049225 22.4418392181 22.4375495911 18.9840373993 12.9179935455 6.56006336212 2.30261349678 2.3116133213 6.85273933411 13.4902629852 19.7943172455 23.3884620667 23.3839740753 19.7819480896 13.4734354019 6.83676576614 2.31017541885 2.31160402298 6.85241794586 13.4896240234 19.7934036255 23.3873901367 23.3829040527 19.781036377 13.4727973938 6.83644676208 2.31016635895 2.30387783051 6.57426261902 12.9321670532 18.9930267334 22.4384040833 22.4341163635 18.9811630249 12.9159975052 6.55907344818 2.30258774757 2.29000043869 5.99705266953 11.7451753616 17.2528171539 20.3375511169 20.3337650299 17.242143631 11.7304668427 5.9835486412 2.28899073601 2.2741253376 5.11119556427 9.75665378571 14.25086689 16.6684112549 16.6655311584 14.2423820496 9.74457931519 5.10063266754 2.27347660065 2.2593588829 3.90336298943 6.82418203354 9.6150894165 11.1028213501 11.1010742188 9.60982990265 6.81659793854 3.89696121216 2.25907635689 
2.25939583778 3.90669679642 6.83247327805 9.62856292725 11.1187648773 11.1170129776 9.62329292297 6.82487726212 3.90028333664 2.25911235809 2.27416157722 5.11389064789 9.76307487488 14.2606906891 16.6803665161 16.677482605 14.2522010803 9.75099182129 5.10331869125 2.27351212502 2.29004001617 5.99891328812 11.7491064072 17.2586574554 20.3446521759 20.3408641815 17.2479782104 11.7343921661 5.98540210724 2.28902959824 2.30390524864 6.57528018951 12.9342155457 18.9959774017 22.4419212341 22.4376335144 18.9841117859 12.9180450439 6.56008958817 2.30261445045 2.31161427498 6.85276889801 13.4903230667 19.7943973541 23.3885669708 23.3840808868 19.7820281982 13.4734916687 6.83679533005 2.31017637253 2.31160497665 6.85244703293 13.4896831512 19.7934856415 23.3874969482 23.3830089569 19.7811164856 13.4728536606 6.83647584915 2.31016731262 2.30387854576 6.57429027557 12.932220459 18.99310112 22.4384918213 22.4342002869 18.9812335968 12.9160499573 6.55910015106 2.30258846283 2.29000115395 5.99707555771 11.7452201843 17.2528800964 20.3376178741 20.3338336945 17.2422084808 11.7305116653 5.98357105255 2.28899168968 2.2741253376 5.11121368408 9.756690979 14.2509145737 16.6684646606 16.6655845642 14.2424325943 9.74461746216 5.10065078735 2.27347683907 2.2593588829 3.90337538719 6.82421064377 9.61512947083 11.1028642654 11.1011171341 9.60986804962 6.8166270256 3.89697337151 2.25907659531 
2.25939583778 3.90670895576 6.83249998093 9.6285982132 11.1188058853 11.1170558929 9.62333011627 6.82490253448 3.90029525757 2.25911259651 2.27416181564 5.11390733719 9.7631111145 14.2607393265 16.6804218292 16.6775379181 14.2522506714 9.75102710724 5.10333538055 2.27351212502 2.29004073143 5.99893522263 11.7491474152 17.2587203979 20.3447151184 20.3409290314 17.2480392456 11.7344369888 5.98542356491 2.28903031349 2.30390572548 6.57530593872 12.9342679977 18.996049881 22.4420108795 22.4377193451 18.9841842651 12.918097496 6.56011390686 2.30261468887 2.31161499023 6.85279560089 13.4903783798 19.7944793701 23.3886699677 23.3841819763 19.7821102142 13.4735488892 6.8368229866 2.31017708778 2.31160569191 6.85247421265 13.4897403717 19.7935657501 23.3875961304 23.383108139 19.7812004089 13.4729118347 6.83650302887 2.31016778946 2.30387878418 6.57431507111 12.9322738647 18.9931716919 22.4385757446 22.4342880249 18.9813079834 12.9161024094 6.55912446976 2.30258893967 2.29000139236 5.99709796906 11.745265007 17.2529430389 20.3376808167 20.333896637 17.2422676086 11.7305583954 5.9835934639 2.28899168968 2.2741253376 5.11123085022 9.75672531128 14.2509641647 16.6685180664 16.6656398773 14.2424821854 9.74465274811 5.10066843033 2.27347683907 2.25935912132 3.9033870697 6.82423782349 9.61516475677 11.1029071808 11.1011600494 9.60990524292 6.81665229797 3.89698553085 2.25907635689 
2.25939583778 3.90672039986 6.83252620697 9.62863731384 11.1188468933 11.1170978546 9.62336826324 6.8249297142 3.90030670166 2.25911259651 2.27416205406 5.11392498016 9.76314926147 14.2607927322 16.680475235 16.6775932312 14.2523021698 9.75106334686 5.10335302353 2.27351212502 2.29004096985 5.99895811081 11.7491950989 17.2587795258 20.344783783 20.3409976959 17.2480983734 11.7344799042 5.98544597626 2.28903079033 2.30390620232 6.57533168793 12.9343204498 18.9961223602 22.4420928955 22.4378032684 18.9842567444 12.9181480408 6.5601401329 2.30261540413 2.31161594391 6.85282516479 13.4904356003 19.7945594788 23.3887767792 23.3842887878 19.7821941376 13.4736061096 6.83685207367 2.31017780304 2.31160640717 6.85250329971 13.4897937775 19.7936458588 23.3877010345 23.3832168579 19.7812824249 13.4729690552 6.83653211594 2.31016850471 2.30387949944 6.57434082031 12.9323244095 18.9932460785 22.438659668 22.4343700409 18.9813804626 12.9161539078 6.5591506958 2.3025894165 2.29000163078 5.99711990356 11.7453117371 17.2530040741 20.3377494812 20.3339653015 17.2423305511 11.7306022644 5.98361539841 2.28899240494 2.27412557602 5.11124849319 9.75676345825 14.2510156631 16.6685733795 16.6656913757 14.2425336838 9.74468994141 5.10068559647 2.2734773159 2.25935912132 3.90339875221 6.8242650032 9.61520290375 11.1029481888 11.1012010574 9.60994338989 6.81667900085 3.89699649811 2.25907659531 
