1.00000011921 1.0 0.999111235142 1.06309258938 1.10721647739 1.10719037056 1.0630300045 1.0 1.0 1.0 1.0 1.0 1.05370855331 1.15825998783 1.21795463562 1.2179248333 1.15817940235 1.02935683727 1.0 1.0 1.00000011921 1.03155601025 1.127825737 1.2417601347 1.30659425259 1.30656147003 1.24168419838 1.09840452671 1.03157281876 1.0 1.0 1.0722900629 1.17203938961 1.28124022484 1.33637201786 1.33633697033 1.2811653614 1.1395431757 1.07230770588 1.0 1.0 1.09260654449 1.1947286129 1.29787790775 1.34699034691 1.34695649147 1.29780590534 1.1603410244 1.09261631966 1.0 1.0 1.09259712696 1.19471991062 1.29787099361 1.34698522091 1.34695148468 1.29779934883 1.16033256054 1.09260678291 1.0 1.00000011921 1.07226157188 1.1720123291 1.28121829033 1.33635377884 1.3363186121 1.2811434269 1.13951659203 1.07227921486 1.0 1.0 1.02144086361 1.11614608765 1.22829139233 1.29583621025 1.29580235481 1.2282115221 1.08774530888 1.02145791054 1.0 1.00000011921 0.999999940395 1.05364012718 1.1581786871 1.21787285805 1.21784293652 1.15809822083 1.02928876877 1.0 0.999999940395 0.999999940395 1.0 0.999129414558 1.06295585632 1.10706365108 1.10703742504 1.06289339066 1.00000011921 1.00000011921 1.0 
1.00000011921 1.0 0.999111235142 1.06309258938 1.10721647739 1.10719037056 1.0630300045 1.0 1.0 1.0 1.0 1.0 1.05370855331 1.15825998783 1.21795463562 1.2179248333 1.15817940235 1.02935683727 1.0 1.0 1.00000011921 1.03155601025 1.127825737 1.24193120003 1.31638777256 1.31635856628 1.24185633659 1.09840452671 1.03157281876 1.0 1.0 1.0722900629 1.17203938961 1.28731513023 1.3585780859 1.3585473299 1.28724563122 1.1395431757 1.07230770588 1.0 1.0 1.09260654449 1.1947286129 1.30972254276 1.37543737888 1.37540709972 1.30965518951 1.1603410244 1.09261631966 1.0 1.0 1.09259712696 1.19471991062 1.30971539021 1.37543177605 1.37540149689 1.30964815617 1.16033256054 1.09260678291 1.0 1.00000011921 1.07226157188 1.1720123291 1.28729450703 1.35855996609 1.35852909088 1.28722500801 1.13951659203 1.07227921486 1.0 1.0 1.02144086361 1.11614608765 1.22829139233 1.3006247282 1.30059421062 1.2282115221 1.08774530888 1.02145791054 1.0 1.00000011921 0.999999940395 1.05364012718 1.1581786871 1.21787285805 1.21784293652 1.15809822083 1.02928876877 1.0 0.999999940395 0.999999940395 1.0 0.999129414558 1.06295585632 1.10706365108 1.10703742504 1.06289339066 1.00000011921 1.00000011921 1.0 
1.00000011921 1.0 0.999111235142 1.06309258938 1.10721647739 1.10719037056 1.0630300045 1.0 1.0 1.0 1.0 1.0 1.05370855331 1.15825998783 1.21795463562 1.2179248333 1.15817940235 1.02935683727 1.0 1.0 1.00000011921 1.03155601025 1.127825737 1.24193120003 1.31639325619 1.31636416912 1.24185633659 1.09840452671 1.03157281876 1.0 1.0 1.0722900629 1.17203938961 1.28731572628 1.3596380949 1.35960745811 1.28724622726 1.1395431757 1.07230770588 1.0 1.0 1.09260654449 1.1947286129 1.31019449234 1.37725269794 1.37722313404 1.31012749672 1.1603410244 1.09261631966 1.0 1.0 1.09259712696 1.19471991062 1.31018733978 1.37724721432 1.37721765041 1.31012046337 1.16033256054 1.09260678291 1.0 1.00000011921 1.07226157188 1.1720123291 1.28729498386 1.35961961746 1.35958921909 1.28722548485 1.13951659203 1.07227921486 1.0 1.0 1.02144086361 1.11614608765 1.22829139233 1.3006247282 1.30059421062 1.2282115221 1.08774530888 1.02145791054 1.0 1.00000011921 0.999999940395 1.05364012718 1.1581786871 1.21787285805 1.21784293652 1.15809822083 1.02928876877 1.0 0.999999940395 0.999999940395 1.0 0.999129414558 1.06295585632 1.10706365108 1.10703742504 1.06289339066 1.00000011921 1.00000011921 1.0 
1.00000011921 1.0 0.999111235142 1.06309258938 1.10721647739 1.10719037056 1.0630300045 1.0 1.0 1.0 1.0 1.0 1.05370855331 1.15825998783 1.21795463562 1.2179248333 1.15817940235 1.02935683727 1.0 1.0 1.00000011921 1.03155601025 1.127825737 1.24193120003 1.31639325619 1.31636416912 1.24185633659 1.09840452671 1.03157281876 1.0 1.0 1.0722900629 1.17203938961 1.28731572628 1.35976028442 1.35972988605 1.28724622726 1.1395431757 1.07230770588 1.0 1.0 1.09260654449 1.1947286129 1.31024217606 1.37750852108 1.37747883797 1.31017506123 1.1603410244 1.09261631966 1.0 1.0 1.09259712696 1.19471991062 1.31023514271 1.37750291824 1.37747347355 1.3101682663 1.16033256054 1.09260678291 1.0 1.00000011921 1.07226157188 1.1720123291 1.28729498386 1.3597420454 1.35971188545 1.28722548485 1.13951659203 1.07227921486 1.0 1.0 1.02144086361 1.11614608765 1.22829139233 1.3006247282 1.30059421062 1.2282115221 1.08774530888 1.02145791054 1.0 1.00000011921 0.999999940395 1.05364012718 1.1581786871 1.21787285805 1.21784293652 1.15809822083 1.02928876877 1.0 0.999999940395 0.999999940395 1.0 0.999129414558 1.06295585632 1.10706365108 1.10703742504 1.06289339066 1.00000011921 1.00000011921 1.0 
1.00000011921 1.0 0.999111235142 1.06309258938 1.10721647739 1.10719037056 1.0630300045 1.0 1.0 1.0 1.0 1.0 1.05370855331 1.15825998783 1.21795463562 1.2179248333 1.15817940235 1.02935683727 1.0 1.0 1.00000011921 1.03155601025 1.127825737 1.24193120003 1.31639325619 1.31636416912 1.24185633659 1.09840452671 1.03157281876 1.0 1.0 1.0722900629 1.17203938961 1.28731572628 1.35978722572 1.35975670815 1.28724622726 1.1395431757 1.07230770588 1.0 1.0 1.09260654449 1.1947286129 1.31025230885 1.37756848335 1.37753880024 1.31018519402 1.1603410244 1.09261631966 1.0 1.0 1.09259712696 1.19471991062 1.31024515629 1.37756299973 1.37753343582 1.31017816067 1.16033256054 1.09260678291 1.0 1.00000011921 1.07226157188 1.1720123291 1.28729498386 1.35976910591 1.35973858833 1.28722548485 1.13951659203 1.07227921486 1.0 1.0 1.02144086361 1.11614608765 1.22829139233 1.3006247282 1.30059421062 1.2282115221 1.08774530888 1.02145791054 1.0 1.00000011921 0.999999940395 1.05364012718 1.1581786871 1.21787285805 1.21784293652 1.15809822083 1.02928876877 1.0 0.999999940395 0.999999940395 1.0 0.999129414558 1.06295585632 1.10706365108 1.10703742504 1.06289339066 1.00000011921 1.00000011921 1.0 
1.00000011921 1.0 0.999111235142 1.06309258938 1.10721647739 1.10719037056 1.0630300045 1.0 1.0 1.0 1.0 1.0 1.05370855331 1.15825998783 1.21795463562 1.2179248333 1.15817940235 1.02935683727 1.0 1.0 1.00000011921 1.03155601025 1.127825737 1.24193120003 1.31639325619 1.31636416912 1.24185633659 1.09840452671 1.03157281876 1.0 1.0 1.0722900629 1.17203938961 1.28731572628 1.35979890823 1.35976839066 1.28724622726 1.1395431757 1.07230770588 1.0 1.0 1.09260654449 1.1947286129 1.31025850773 1.37759065628 1.37756121159 1.31019127369 1.1603410244 1.09261631966 1.0 1.0 1.09259712696 1.19471991062 1.31025147438 1.37758529186 1.37755572796 1.31018447876 1.16033256054 1.09260678291 1.0 1.00000011921 1.07226157188 1.1720123291 1.28729498386 1.35978066921 1.35975039005 1.28722548485 1.13951659203 1.07227921486 1.0 1.0 1.02144086361 1.11614608765 1.22829139233 1.3006247282 1.30059421062 1.2282115221 1.08774530888 1.02145791054 1.0 1.00000011921 0.999999940395 1.05364012718 1.1581786871 1.21787285805 1.21784293652 1.15809822083 1.02928876877 1.0 0.999999940395 0.999999940395 1.0 0.999129414558 1.06295585632 1.10706365108 1.10703742504 1.06289339066 1.00000011921 1.00000011921 1.0 
1.00000011921 1.0 0.999111235142 1.06309258938 1.10721647739 1.10719037056 1.0630300045 1.0 1.0 1.0 1.0 1.0 1.05370855331 1.15825998783 1.21795463562 1.2179248333 1.15817940235 1.02935683727 1.0 1.0 1.00000011921 1.03155601025 1.127825737 1.24193120003 1.31639325619 1.31636416912 1.24185633659 1.09840452671 1.03157281876 1.0 1.0 1.0722900629 1.17203938961 1.28731572628 1.35980737209 1.35977697372 1.28724622726 1.1395431757 1.07230770588 1.0 1.0 1.09260654449 1.1947286129 1.3102645874 1.37760353088 1.37757396698 1.31019771099 1.1603410244 1.09261631966 1.0 1.0 1.09259712696 1.19471991062 1.31025755405 1.37759816647 1.37756872177 1.31019067764 1.16033256054 1.09260678291 1.0 1.00000011921 1.07226157188 1.1720123291 1.28729498386 1.35978925228 1.35975885391 1.28722548485 1.13951659203 1.07227921486 1.0 1.0 1.02144086361 1.11614608765 1.22829139233 1.3006247282 1.30059421062 1.2282115221 1.08774530888 1.02145791054 1.0 1.00000011921 0.999999940395 1.05364012718 1.1581786871 1.21787285805 1.21784293652 1.15809822083 1.02928876877 1.0 0.999999940395 0.999999940395 1.0 0.999129414558 1.06295585632 1.10706365108 1.10703742504 1.06289339066 1.00000011921 1.00000011921 1.0 
