2.25797986984 3.87283468246 6.70311260223 9.43843460083 11.0232439041 11.0213661194 9.43288612366 6.69582366943 3.86656022072 2.25771188736 2.27287340164 5.0860710144 9.64927768707 14.3044567108 17.0237026215 17.0204544067 14.2948331833 9.63742828369 5.07562065125 2.27223348618 2.28970074654 6.00729608536 11.7273340225 17.5157489777 21.0556335449 21.0512714386 17.5034236908 11.7126379013 5.9938211441 2.28868341446 2.3044230938 6.60941171646 12.9802436829 19.3831977844 23.324930191 23.3199977875 19.3694915771 12.963971138 6.59417581558 2.30311083794 2.31258535385 6.90093851089 13.5719766617 20.2370433807 24.3321628571 24.3270263672 20.2228069305 13.5549879074 6.88487577438 2.31111836433 2.31257557869 6.90059995651 13.5712928772 20.2360725403 24.3310317993 24.3258953094 20.2218360901 13.5543060303 6.88453912735 2.31110835075 2.3043949604 6.60837268829 12.9781255722 19.3801174164 23.321264267 23.3163337708 19.3664093018 12.9618549347 6.59313869476 2.30308294296 2.28965902328 6.00538063049 11.7232398987 17.5095386505 21.0479469299 21.0435848236 17.497220993 11.7085504532 5.99191236496 2.28864240646 2.27283477783 5.08332681656 9.64270210266 14.2940196991 17.0106811523 17.007434845 14.284403801 9.6308631897 5.07288646698 2.27219605446 2.25794434547 3.86955499649 6.69498586655 9.42516517639 11.0071134567 11.0052404404 9.41962909698 6.68770885468 3.863291502 2.25767707825 
2.25811672211 3.85594129562 6.6757068634 9.40988826752 10.9925022125 10.9906272888 9.40434741974 6.66842508316 3.84971809387 2.25785136223 2.27283549309 5.06775283813 9.6223192215 14.2752790451 16.9907627106 16.9875183105 14.2656669617 9.61047172546 5.05734968185 2.27220273018 2.28948664665 5.98872613907 11.6985940933 17.4829959869 21.0322284698 21.0278358459 17.4706707001 11.6839151382 5.97529792786 2.28847956657 2.30410718918 6.59072399139 12.9491357803 19.348154068 23.3221855164 23.3171806335 19.3343849182 12.9328870773 6.57553195953 2.30280613899 2.31222748756 6.88227701187 13.539352417 20.2031936646 24.3414115906 24.3361778259 20.1888656616 13.5223941803 6.86625862122 2.31077313423 2.3122177124 6.88193798065 13.5386686325 20.2022209167 24.3402633667 24.3350315094 20.1878948212 13.5217142105 6.86592292786 2.31076359749 2.30407905579 6.58968400955 12.9470205307 19.3450660706 23.3184833527 23.3134746552 19.3313026428 12.9307746887 6.57449579239 2.30277872086 2.28944540024 5.98681116104 11.6945085526 17.4768009186 21.0244884491 21.0200939178 17.4644794464 11.6798334122 5.97338819504 2.28843855858 2.2727971077 5.0650100708 9.61574268341 14.2648496628 16.9777469635 16.9745063782 14.2552452087 9.60390663147 5.05461645126 2.27216553688 2.25808167458 3.85267138481 6.6675825119 9.3966178894 10.9763803482 10.9745082855 9.39108848572 6.66031265259 3.84646010399 2.25781726837 
2.25812244415 3.85522055626 6.67454862595 9.40869426727 10.9912176132 10.9893436432 9.40315341949 6.6672668457 3.84899973869 2.25785732269 2.27283358574 5.06697559357 9.62119579315 14.2740793228 16.9894199371 16.9861774445 14.2644681931 9.60934925079 5.05657577515 2.27220129967 2.28947782516 5.98793792725 11.6973962784 17.4816646576 21.0310516357 21.0266532898 17.4693374634 11.682718277 5.97450971603 2.28847122192 2.30409359932 6.58992481232 12.9478225708 19.3466129303 23.322063446 23.3170547485 19.3328475952 12.9315719604 6.57473564148 2.30279350281 2.31221222878 6.88146781921 13.5379333496 20.2015953064 24.3419914246 24.3367519379 20.1872596741 13.5209751129 6.86545181274 2.31075811386 2.31220221519 6.88112926483 13.5372495651 20.2006187439 24.340839386 24.335603714 20.1862850189 13.5202970505 6.86511564255 2.31074857712 2.30406546593 6.58888530731 12.9457101822 19.3435287476 23.3183555603 23.3133468628 19.3297615051 12.9294614792 6.57369852066 2.30276560783 2.28943657875 5.98602294922 11.6933107376 17.4754695892 21.0233135223 21.0189170837 17.4631500244 11.6786375046 5.97260141373 2.28843092918 2.27279543877 5.06423330307 9.61462116241 14.2636489868 16.9764022827 16.9731636047 14.2540464401 9.6027841568 5.05384159088 2.27216434479 2.25808739662 3.8519513607 6.66642427444 9.39542102814 10.9750947952 10.9732236862 9.38989257812 6.6591553688 3.84574174881 2.25782299042 
2.25812315941 3.85513925552 6.67442512512 9.40857315063 10.9910907745 10.9892158508 9.40303230286 6.66714191437 3.84891843796 2.25785779953 2.27283382416 5.0668926239 9.62108802795 14.2739715576 16.9893035889 16.9860610962 14.2643604279 9.60923957825 5.05649137497 2.27220129967 2.28947710991 5.9878578186 11.6972846985 17.481552124 21.0309619904 21.0265636444 17.4692268372 11.6826095581 5.97442913055 2.28847026825 2.30409264565 6.58984518051 12.9477005005 19.3464851379 23.3221302032 23.3171195984 19.3327178955 12.9314546585 6.57465648651 2.30279254913 2.31221103668 6.88138961792 13.5378007889 20.2014560699 24.3421649933 24.3369235992 20.187122345 13.5208425522 6.86537408829 2.31075692177 2.3122010231 6.8810505867 13.5371189117 20.2004833221 24.3410129547 24.3357772827 20.1861495972 13.5201635361 6.86503791809 2.31074738503 2.30406427383 6.58880615234 12.9455881119 19.3433990479 23.3184223175 23.3134098053 19.3296318054 12.9293441772 6.57361888885 2.302765131 2.28943562508 5.98594331741 11.6932029724 17.4753551483 21.0232200623 21.018825531 17.4630355835 11.6785268784 5.97252225876 2.28842973709 2.27279543877 5.06414985657 9.61451053619 14.2635440826 16.9762859344 16.9730472565 14.2539405823 9.60267448425 5.05375957489 2.27216410637 2.2580883503 3.85187005997 6.66630029678 9.39530181885 10.9749679565 10.9730968475 9.38977146149 6.6590294838 3.84566092491 2.25782418251 
2.25812339783 3.85513043404 6.67441701889 9.40857410431 10.9910945892 10.9892206192 9.40303421021 6.66713476181 3.84890890121 2.25785803795 2.27283382416 5.06688785553 9.62109375 14.2739868164 16.9893226624 16.986082077 14.264377594 9.60924625397 5.05648708344 2.2722017765 2.28947687149 5.98785877228 11.6972990036 17.4815807343 21.0310001373 21.0266036987 17.46925354 11.6826210022 5.97443056107 2.28847050667 2.30409264565 6.58984851837 12.9477157593 19.3465156555 23.3222179413 23.3172054291 19.3327503204 12.9314689636 6.57465934753 2.30279254913 2.31221103668 6.88139486313 13.5378160477 20.2014923096 24.3422851562 24.3370437622 20.1871566772 13.5208597183 6.86537981033 2.31075716019 2.31220126152 6.88105535507 13.5371341705 20.2005195618 24.3411369324 24.3358974457 20.1861858368 13.5201797485 6.86504268646 2.31074738503 2.30406451225 6.58880996704 12.9456033707 19.3434371948 23.3185100555 23.3134994507 19.329668045 12.9293575287 6.57362222672 2.30276536942 2.28943610191 5.98594331741 11.6932144165 17.4753818512 21.0232582092 21.018863678 17.4630641937 11.6785402298 5.97252225876 2.28842997551 2.27279567719 5.06414556503 9.61451625824 14.2635602951 16.9763050079 16.9730682373 14.2539567947 9.60268115997 5.05375528336 2.27216434479 2.2580883503 3.85186100006 6.66629266739 9.3953037262 10.9749736786 10.9731006622 9.38977241516 6.65902233124 3.84565138817 2.25782418251 
2.25812339783 3.85513496399 6.67443180084 9.40859794617 10.9911241531 10.9892492294 9.40305805206 6.66714811325 3.84891414642 2.25785827637 2.27283406258 5.06689834595 9.62111949921 14.2740287781 16.9893703461 16.9861297607 14.2644195557 9.6092710495 5.05649709702 2.2722017765 2.28947710991 5.98787403107 11.6973361969 17.4816360474 21.0310630798 21.0266647339 17.4693088531 11.6826581955 5.97444629669 2.28847050667 2.30409312248 6.58986759186 12.9477596283 19.3465766907 23.322309494 23.3172950745 19.3328113556 12.9315099716 6.57467842102 2.30279302597 2.31221175194 6.88141584396 13.537861824 20.2015609741 24.3423957825 24.3371543884 20.1872215271 13.520904541 6.86539936066 2.31075787544 2.31220197678 6.88107585907 13.5371799469 20.200586319 24.3412475586 24.3360099792 20.186252594 13.5202236176 6.86506223679 2.31074810028 2.30406522751 6.58882904053 12.945646286 19.3434925079 23.3185997009 23.3135871887 19.3297271729 12.9293985367 6.57364225388 2.30276560783 2.28943610191 5.98596000671 11.6932497025 17.4754333496 21.0233230591 21.0189266205 17.4631156921 11.6785755157 5.97253847122 2.28842997551 2.2727959156 5.06415605545 9.61454296112 14.2636013031 16.9763526917 16.9731140137 14.2539968491 9.60270595551 5.0537648201 2.27216458321 2.25808858871 3.85186553001 6.6663069725 9.39532661438 10.9750013351 10.9731302261 9.38979721069 6.65903568268 3.84565639496 2.25782442093 
2.25812363625 3.8551428318 6.674451828 9.40862846375 10.9911584854 10.9892845154 9.40308856964 6.66716957092 3.8489215374 2.25785827637 2.27283430099 5.06691265106 9.62115097046 14.2740755081 16.9894237518 16.9861812592 14.2644634247 9.60930347443 5.0565123558 2.27220225334 2.28947782516 5.98789405823 11.6973791122 17.4816970825 21.0311355591 21.0267410278 17.4693717957 11.6826982498 5.97446537018 2.28847098351 2.30409359932 6.58989095688 12.9478092194 19.3466510773 23.3224010468 23.3173885345 19.3328819275 12.9315576553 6.57470178604 2.30279350281 2.31221246719 6.8814406395 13.5379133224 20.2016410828 24.3425006866 24.3372631073 20.1873016357 13.5209550858 6.86542463303 2.31075835228 2.31220245361 6.88110160828 13.5372304916 20.2006645203 24.3413562775 24.3361186981 20.1863307953 13.520275116 6.86508750916 2.31074881554 2.30406546593 6.58885145187 12.9456968307 19.3435649872 23.318693161 23.3136825562 19.3297977448 12.9294490814 6.5736656189 2.30276608467 2.28943657875 5.98597860336 11.6932907104 17.4754981995 21.023393631 21.0189990997 17.4631786346 11.6786174774 5.97255897522 2.28843045235 2.27279615402 5.06417036057 9.61457443237 14.2636470795 16.9764041901 16.9731655121 14.2540426254 9.60273838043 5.05377960205 2.27216506004 2.25808858871 3.85187292099 6.66632795334 9.39535522461 10.9750366211 10.9731645584 9.38982772827 6.65905666351 3.84566378593 2.25782418251 
