1.00000011921 1.0 0.999935686588 1.036257267 1.08431637287 1.08428680897 1.03618621826 1.0 1.0 1.0 1.0 1.0 1.04205715656 1.18412959576 1.26175713539 1.26172363758 1.18404495716 1.03140950203 1.0 1.0 1.00000011921 1.04830682278 1.12572705746 1.29635739326 1.37932181358 1.37928032875 1.29627227783 1.10672450066 1.04832673073 1.0 1.0 1.09105324745 1.17740750313 1.34204339981 1.41068124771 1.41063332558 1.34195291996 1.15559375286 1.09105920792 1.0 1.0 1.11383771896 1.20402419567 1.36012542248 1.42059743404 1.42054843903 1.36003386974 1.18109571934 1.11383366585 1.0 1.0 1.11382627487 1.20401465893 1.36011838913 1.42059254646 1.42054367065 1.3600269556 1.18108570576 1.11382198334 1.0 1.00000011921 1.09101891518 1.1773775816 1.3420214653 1.4106631279 1.41061520576 1.34193086624 1.15556275845 1.09102487564 1.0 1.0 1.03909993172 1.11213469505 1.2790375948 1.36660158634 1.36655950546 1.27894937992 1.09458470345 1.03911793232 1.0 1.00000011921 0.999999940395 1.04197597504 1.184045434 1.26165401936 1.26162040234 1.18396067619 1.0313346386 1.0 0.999999940395 0.999999940395 1.0 0.9999371171 1.03613626957 1.08417034149 1.08414065838 1.03606557846 1.00000011921 1.00000011921 1.0 
1.00000011921 1.0 0.999935686588 1.036257267 1.08431637287 1.08428680897 1.03618621826 1.0 1.0 1.0 1.0 1.0 1.04205715656 1.18412959576 1.26175713539 1.26172363758 1.18404495716 1.03140950203 1.0 1.0 1.00000011921 1.04830682278 1.12572705746 1.29880642891 1.40150570869 1.40147221088 1.29872822762 1.10672450066 1.04832673073 1.0 1.0 1.09105324745 1.17740750313 1.35469174385 1.44654929638 1.44651114941 1.35461676121 1.15559375286 1.09105920792 1.0 1.0 1.11383771896 1.20402419567 1.37786388397 1.46188426018 1.46184515953 1.37779033184 1.18109571934 1.11383366585 1.0 1.0 1.11382627487 1.20401465893 1.37785792351 1.4618793726 1.46184039116 1.37778425217 1.18108570576 1.11382198334 1.0 1.00000011921 1.09101891518 1.1773775816 1.35466873646 1.44653105736 1.44649291039 1.35459387302 1.15556275845 1.09102487564 1.0 1.0 1.03909993172 1.11213469505 1.27935004234 1.38087725639 1.38084304333 1.27926504612 1.09458470345 1.03911793232 1.0 1.00000011921 0.999999940395 1.04197597504 1.184045434 1.26165401936 1.26162040234 1.18396067619 1.0313346386 1.0 0.999999940395 0.999999940395 1.0 0.9999371171 1.03613626957 1.08417034149 1.08414065838 1.03606557846 1.00000011921 1.00000011921 1.0 
1.00000011921 1.0 0.999935686588 1.036257267 1.08431637287 1.08428680897 1.03618621826 1.0 1.0 1.0 1.0 1.0 1.04205715656 1.18412959576 1.26175713539 1.26172363758 1.18404495716 1.03140950203 1.0 1.0 1.00000011921 1.04830682278 1.12572705746 1.29880642891 1.40224409103 1.40221095085 1.29872822762 1.10672450066 1.04832673073 1.0 1.0 1.09105324745 1.17740750313 1.35484492779 1.44847309589 1.44843578339 1.35477018356 1.15559375286 1.09105920792 1.0 1.0 1.11383771896 1.20402419567 1.37854456902 1.46434867382 1.46431028843 1.37847220898 1.18109571934 1.11383366585 1.0 1.0 1.11382627487 1.20401465893 1.37853860855 1.46434402466 1.46430552006 1.3784661293 1.18108570576 1.11382198334 1.0 1.00000011921 1.09101891518 1.1773775816 1.3548220396 1.44845485687 1.44841742516 1.35474729538 1.15556275845 1.09102487564 1.0 1.0 1.03909993172 1.11213469505 1.27935004234 1.38100159168 1.38096785545 1.27926504612 1.09458470345 1.03911793232 1.0 1.00000011921 0.999999940395 1.04197597504 1.184045434 1.26165401936 1.26162040234 1.18396067619 1.0313346386 1.0 0.999999940395 0.999999940395 1.0 0.9999371171 1.03613626957 1.08417034149 1.08414065838 1.03606557846 1.00000011921 1.00000011921 1.0 
1.00000011921 1.0 0.999935686588 1.036257267 1.08431637287 1.08428680897 1.03618621826 1.0 1.0 1.0 1.0 1.0 1.04205715656 1.18412959576 1.26175713539 1.26172363758 1.18404495716 1.03140950203 1.0 1.0 1.00000011921 1.04830682278 1.12572705746 1.29880642891 1.40230059624 1.40226781368 1.29872822762 1.10672450066 1.04832673073 1.0 1.0 1.09105324745 1.17740750313 1.35484492779 1.44870281219 1.44866573811 1.35477018356 1.15559375286 1.09105920792 1.0 1.0 1.11383771896 1.20402419567 1.37861561775 1.46466755867 1.4646294117 1.37854349613 1.18109571934 1.11383366585 1.0 1.0 1.11382627487 1.20401465893 1.37860965729 1.4646627903 1.46462452412 1.37853741646 1.18108570576 1.11382198334 1.0 1.00000011921 1.09101891518 1.1773775816 1.3548220396 1.44868457317 1.44864737988 1.35474729538 1.15556275845 1.09102487564 1.0 1.0 1.03909993172 1.11213469505 1.27935004234 1.38100159168 1.38096785545 1.27926504612 1.09458470345 1.03911793232 1.0 1.00000011921 0.999999940395 1.04197597504 1.184045434 1.26165401936 1.26162040234 1.18396067619 1.0313346386 1.0 0.999999940395 0.999999940395 1.0 0.9999371171 1.03613626957 1.08417034149 1.08414065838 1.03606557846 1.00000011921 1.00000011921 1.0 
1.00000011921 1.0 0.999935686588 1.036257267 1.08431637287 1.08428680897 1.03618621826 1.0 1.0 1.0 1.0 1.0 1.04205715656 1.18412959576 1.26175713539 1.26172363758 1.18404495716 1.03140950203 1.0 1.0 1.00000011921 1.04830682278 1.12572705746 1.29880642891 1.40231144428 1.40227842331 1.29872822762 1.10672450066 1.04832673073 1.0 1.0 1.09105324745 1.17740750313 1.35484492779 1.448751688 1.44871449471 1.35477018356 1.15559375286 1.09105920792 1.0 1.0 1.11383771896 1.20402419567 1.37863337994 1.46473789215 1.46469986439 1.3785610199 1.18109571934 1.11383366585 1.0 1.0 1.11382627487 1.20401465893 1.37862718105 1.46473324299 1.46469497681 1.37855494022 1.18108570576 1.11382198334 1.0 1.00000011921 1.09101891518 1.1773775816 1.3548220396 1.44873332977 1.44869589806 1.35474729538 1.15556275845 1.09102487564 1.0 1.0 1.03909993172 1.11213469505 1.27935004234 1.38100159168 1.38096785545 1.27926504612 1.09458470345 1.03911793232 1.0 1.00000011921 0.999999940395 1.04197597504 1.184045434 1.26165401936 1.26162040234 1.18396067619 1.0313346386 1.0 0.999999940395 0.999999940395 1.0 0.9999371171 1.03613626957 1.08417034149 1.08414065838 1.03606557846 1.00000011921 1.00000011921 1.0 
1.00000011921 1.0 0.999935686588 1.036257267 1.08431637287 1.08428680897 1.03618621826 1.0 1.0 1.0 1.0 1.0 1.04205715656 1.18412959576 1.26175713539 1.26172363758 1.18404495716 1.03140950203 1.0 1.0 1.00000011921 1.04830682278 1.12572705746 1.29880642891 1.40231823921 1.40228521824 1.29872822762 1.10672450066 1.04832673073 1.0 1.0 1.09105324745 1.17740750313 1.35484492779 1.44876945019 1.4487323761 1.35477018356 1.15559375286 1.09105920792 1.0 1.0 1.11383771896 1.20402419567 1.37864303589 1.46476304531 1.46472477913 1.37857091427 1.18109571934 1.11383366585 1.0 1.0 1.11382627487 1.20401465893 1.37863695621 1.46475815773 1.46472012997 1.37856483459 1.18108570576 1.11382198334 1.0 1.00000011921 1.09101891518 1.1773775816 1.3548220396 1.44875121117 1.44871389866 1.35474729538 1.15556275845 1.09102487564 1.0 1.0 1.03909993172 1.11213469505 1.27935004234 1.38100159168 1.38096785545 1.27926504612 1.09458470345 1.03911793232 1.0 1.00000011921 0.999999940395 1.04197597504 1.184045434 1.26165401936 1.26162040234 1.18396067619 1.0313346386 1.0 0.999999940395 0.999999940395 1.0 0.9999371171 1.03613626957 1.08417034149 1.08414065838 1.03606557846 1.00000011921 1.00000011921 1.0 
1.00000011921 1.0 0.999935686588 1.036257267 1.08431637287 1.08428680897 1.03618621826 1.0 1.0 1.0 1.0 1.0 1.04205715656 1.18412959576 1.26175713539 1.26172363758 1.18404495716 1.03140950203 1.0 1.0 1.00000011921 1.04830682278 1.12572705746 1.29880642891 1.40232503414 1.40229213238 1.29872822762 1.10672450066 1.04832673073 1.0 1.0 1.09105324745 1.17740750313 1.35484492779 1.44878017902 1.44874298573 1.35477018356 1.15559375286 1.09105920792 1.0 1.0 1.11383771896 1.20402419567 1.37865173817 1.46477723122 1.46473884583 1.37857949734 1.18109571934 1.11383366585 1.0 1.0 1.11382627487 1.20401465893 1.37864553928 1.46477234364 1.46473419666 1.37857341766 1.18108570576 1.11382198334 1.0 1.00000011921 1.09101891518 1.1773775816 1.3548220396 1.44876194 1.44872462749 1.35474729538 1.15556275845 1.09102487564 1.0 1.0 1.03909993172 1.11213469505 1.27935004234 1.38100159168 1.38096785545 1.27926504612 1.09458470345 1.03911793232 1.0 1.00000011921 0.999999940395 1.04197597504 1.184045434 1.26165401936 1.26162040234 1.18396067619 1.0313346386 1.0 0.999999940395 0.999999940395 1.0 0.9999371171 1.03613626957 1.08417034149 1.08414065838 1.03606557846 1.00000011921 1.00000011921 1.0 
