13.9803886414 21.7459449768 29.3719081879 37.2315368652 45.6832466125 54.3383293152 62.7891082764 70.6471405029 78.2732925415 86.039352417 13.9746761322 21.5215358734 28.6821327209 36.4577026367 45.3788528442 54.6441993713 63.5637817383 71.3358001709 78.4966812134 86.0449905396 13.9766263962 21.3514633179 28.2769126892 36.0376853943 45.2023963928 54.8215026855 63.984161377 71.7406768799 78.6660003662 86.0429992676 13.9707603455 21.2416877747 28.0647926331 35.8365097046 45.1173019409 54.9070014954 64.1855010986 71.9526290894 78.7755050659 86.0487823486 13.9669342041 21.1925086975 27.9749469757 35.7550468445 45.0831680298 54.9412918091 64.2670516968 72.042427063 78.8245620728 86.0525588989 13.9669380188 21.1925640106 27.9750404358 35.7551307678 45.0831985474 54.9412536621 64.2669525146 72.0423278809 78.824508667 86.0525588989 13.9707756042 21.2418670654 28.0651264191 35.8368148804 45.1174278259 54.9068756104 64.1852111816 71.9523086548 78.7753143311 86.0487670898 13.9766349792 21.3518238068 28.2776451111 36.0384025574 45.2026977539 54.8211975098 63.9834442139 71.7399597168 78.6656417847 86.043006897 13.9746685028 21.5220222473 28.6835899353 36.459236145 45.3794822693 54.6435623169 63.5622444153 71.3343582153 78.4962158203 86.0449905396 13.9804420471 21.7465801239 29.3737258911 37.2338867188 45.684135437 54.3374290466 62.7867584229 70.6453094482 78.2726669312 86.0392913818 
13.972369194 21.741317749 29.3572540283 37.1837463379 45.6502990723 54.3714141846 62.8368530273 70.6617355347 78.2779388428 86.0473480225 13.963602066 21.5147857666 28.6340732574 36.3011245728 45.2867889404 54.7366905212 63.7202835083 71.3836517334 78.5034408569 86.0560379028 13.9631090164 21.3272247314 28.1648788452 35.7803192139 45.0680427551 54.9564781189 64.2415313721 71.8523406982 78.6901168823 86.0564956665 13.9535102844 21.1934528351 27.9082298279 35.5303421021 44.9661064148 55.0588912964 64.4917449951 72.108795166 78.8235092163 86.0659790039 13.9464645386 21.1270580292 27.7885875702 35.4316520691 44.9272117615 55.0979881287 64.5905532837 72.2283782959 78.8897323608 86.0729675293 13.946472168 21.1271343231 27.7887248993 35.4317550659 44.9272499084 55.0979423523 64.5904464722 72.2282562256 78.8896408081 86.0729522705 13.9535360336 21.193687439 27.908662796 35.5307121277 44.966255188 55.0587463379 64.4913864136 72.1083602905 78.8232727051 86.0659637451 13.9631233215 21.3276386261 28.1657428741 35.7812309265 45.0684242249 54.9561042786 64.2406158447 71.8514785767 78.6896972656 86.0564804077 13.9636011124 21.5153007507 28.6356830597 36.3029556274 45.287563324 54.735912323 63.7184448242 71.3820495605 78.5029296875 86.0560455322 13.9724292755 21.7419319153 29.359079361 37.1862373352 45.6513061523 54.3704032898 62.8343582153 70.6598892212 78.2773284912 86.0472946167 
13.9716434479 21.7433013916 29.3616542816 37.1860580444 45.6505470276 54.3711700439 62.8345336914 70.6573181152 78.275970459 86.0480804443 13.9624700546 21.5182342529 28.6386165619 36.29712677 45.2806968689 54.7428016663 63.7242431641 71.3791046143 78.5 86.0571594238 13.9617757797 21.3295230865 28.1624183655 35.7545280457 45.0425567627 54.9820785522 64.267250061 71.8547821045 78.687828064 86.0578231812 13.9521064758 21.1947364807 27.8977413177 35.4711914062 44.9241447449 55.1010475159 64.5508117676 72.1192169189 78.8222351074 86.0673751831 13.945063591 21.127986908 27.7737598419 35.3532791138 44.8776168823 55.1478042603 64.6688461304 72.2430877686 78.8888092041 86.0743713379 13.9450721741 21.1280632019 27.7739086151 35.3534049988 44.8776626587 55.1477584839 64.6687164307 72.2429428101 78.8887329102 86.0743560791 13.9521312714 21.1949729919 27.8981838226 35.4716339111 44.9243164062 55.1008720398 64.5503845215 72.1187667847 78.8219985962 86.0673522949 13.9617872238 21.3299446106 28.1633052826 35.7555198669 45.0429840088 54.9816589355 64.266242981 71.8538894653 78.6874084473 86.057800293 13.9624710083 21.5187492371 28.6402282715 36.2989845276 45.2815055847 54.7419929504 63.7223815918 71.3774795532 78.4994812012 86.0571670532 13.971704483 21.7439060211 29.3634624481 37.1885528564 45.6515464783 54.3701553345 62.8320388794 70.6555099487 78.2753677368 86.0480270386 
13.9715518951 21.7435760498 29.3622570038 37.1864356995 45.6506271362 54.3711013794 62.8341598511 70.6567230225 78.2756958008 86.0481796265 13.9623298645 21.5187263489 28.6393184662 36.2969245911 45.2802505493 54.7432441711 63.7244491577 71.3784103394 78.4995193481 86.0573120117 13.9615974426 21.3297958374 28.1621761322 35.7519187927 45.0396156311 54.9850273132 64.2698364258 71.8550109863 78.6875534058 86.0579986572 13.9518938065 21.1945838928 27.8955554962 35.4624481201 44.9160194397 55.1092185974 64.5595169067 72.121383667 78.8223876953 86.0675888062 13.9448432922 21.1276912689 27.7707862854 35.3388214111 44.8665618896 55.1589012146 64.6832733154 72.246055603 78.8890914917 86.0745773315 13.944852829 21.1277713776 27.7709350586 35.3389587402 44.8666191101 55.1588516235 64.6831359863 72.2459030151 78.8890075684 86.0745697021 13.9519176483 21.1948204041 27.8960018158 35.4629020691 44.9162025452 55.1090316772 64.5590744019 72.1209411621 78.8221435547 86.067565918 13.9616117477 21.3302192688 28.1630744934 35.7529182434 45.0400619507 54.9845809937 64.2688446045 71.854133606 78.6871185303 86.0579681396 13.9623289108 21.519241333 28.6409378052 36.2987823486 45.2810554504 54.7424354553 63.7225952148 71.3767929077 78.4990005493 86.0573196411 13.9716119766 21.7441768646 29.3640613556 37.1889266968 45.6516342163 54.3700790405 62.8316650391 70.6549224854 78.2750930786 86.0481185913 
13.971531868 21.7436161041 29.3623485565 37.1864738464 45.6506271362 54.3710899353 62.8341140747 70.6566390991 78.2756576538 86.0481872559 13.9623012543 21.5188045502 28.6394042969 36.2968559265 45.280166626 54.7433395386 63.7245254517 71.3783111572 78.4994354248 86.0573348999 13.9615602493 21.3298168182 28.162065506 35.7514076233 45.0391845703 54.9854736328 64.2703552246 71.8551254272 78.6875305176 86.0580368042 13.9518527985 21.1944961548 27.8950119019 35.4606704712 44.9142723083 55.1109733582 64.5613098145 72.121925354 78.8224716187 86.0676345825 13.9447965622 21.1275444031 27.7699680328 35.3355674744 44.8638954163 55.1615867615 64.6865310669 72.2468643188 78.8892364502 86.0746231079 13.9448041916 21.1276245117 27.770116806 35.3357086182 44.8639450073 55.1615333557 64.6863861084 72.2467193604 78.8891677856 86.0746078491 13.9518766403 21.1947307587 27.8954582214 35.4611282349 44.9144592285 55.110786438 64.5608444214 72.1214981079 78.822227478 86.0676116943 13.9615774155 21.330242157 28.1629600525 35.7524108887 45.0396308899 54.9850273132 64.2693481445 71.8542556763 78.6871109009 86.0580215454 13.9623012543 21.5193214417 28.6410236359 36.2987174988 45.2809715271 54.7425270081 63.7226715088 71.3767089844 78.498916626 86.0573272705 13.9715938568 21.7442207336 29.3641490936 37.1889724731 45.6516342163 54.3700790405 62.8316192627 70.6548309326 78.2750549316 86.0481338501 
13.9715280533 21.7436256409 29.3623600006 37.1864738464 45.6506271362 54.3710899353 62.8341178894 70.6566238403 78.2756500244 86.0481872559 13.9622955322 21.5188159943 28.6394138336 36.2968254089 45.2801437378 54.7433624268 63.7245483398 71.3783187866 78.4994277954 86.0573425293 13.9615545273 21.3298149109 28.1620121002 35.7512664795 45.0390853882 54.9855728149 64.2705078125 71.855178833 78.6875305176 86.0580444336 13.9518413544 21.1944561005 27.8948364258 35.4601974487 44.9138259888 55.1114234924 64.5617752075 72.1221160889 78.8225097656 86.0676345825 13.9447813034 21.1274814606 27.7697029114 35.3346633911 44.8631515503 55.1623420715 64.6874160767 72.2471466064 78.8893127441 86.0746459961 13.9447898865 21.1275596619 27.7698497772 35.3348083496 44.8632049561 55.1622810364 64.6872787476 72.2469940186 78.8892288208 86.0746383667 13.9518661499 21.194694519 27.8952827454 35.4606552124 44.9140167236 55.1112289429 64.5613250732 72.1216659546 78.8222579956 86.0676193237 13.9615678787 21.3302326202 28.1629161835 35.7522735596 45.0395278931 54.9851303101 64.269493103 71.8543014526 78.6870956421 86.058013916 13.9622945786 21.5193309784 28.6410312653 36.2986793518 45.2809486389 54.7425498962 63.7226867676 71.376701355 78.4989242554 86.0573425293 13.9715900421 21.7442264557 29.3641624451 37.1889724731 45.6516265869 54.3700714111 62.8316192627 70.6548156738 78.2750473022 86.0481262207 
13.9715270996 21.7436218262 29.3623561859 37.1864738464 45.6506271362 54.3710899353 62.8341140747 70.6566238403 78.2756500244 86.0482025146 13.9622936249 21.5188140869 28.6394062042 36.2968063354 45.2801361084 54.7433662415 63.724571228 71.3783187866 78.4994277954 86.0573425293 13.9615516663 21.3298015594 28.1619815826 35.7512054443 45.0390434265 54.9856109619 64.2705535889 71.8552017212 78.6875228882 86.0580368042 13.951836586 21.1944313049 27.8947563171 35.4600372314 44.9136924744 55.1115570068 64.5619354248 72.1221847534 78.8225326538 86.0676498413 13.9447784424 21.1274452209 27.7695846558 35.3343544006 44.8629074097 55.1625785828 64.6877288818 72.247253418 78.8893356323 86.0746459961 13.9447879791 21.1275253296 27.7697315216 35.3344917297 44.8629684448 55.1625213623 64.6875839233 72.2471084595 78.8892593384 86.0746383667 13.9518623352 21.1946659088 27.8952026367 35.4604988098 44.9138832092 55.111366272 64.5614776611 72.1217422485 78.8222885132 86.0676345825 13.9615659714 21.3302230835 28.1628780365 35.7522125244 45.0394897461 54.9851570129 64.2695465088 71.8543167114 78.6871261597 86.0580215454 13.9622926712 21.519329071 28.6410255432 36.298664093 45.2809410095 54.7425613403 63.7227172852 71.376701355 78.4989242554 86.0573348999 13.9715890884 21.7442245483 29.364156723 37.1889648438 45.6516304016 54.3700790405 62.8316192627 70.6548156738 78.2750396729 86.0481414795 
