14.0110359192 13.8241558075 13.0819330215 11.8999824524 11.177116394 11.1779527664 11.902545929 13.0844869614 13.8251991272 14.011013031 21.9990844727 21.6708374023 20.6555900574 19.1974487305 18.3361568451 18.3371906281 19.2004699707 20.658946991 21.672334671 21.9992027283 29.9840087891 29.5761833191 28.7281780243 27.6243076324 26.9377326965 26.9386005402 27.6266689301 28.7307701111 29.5777435303 29.9842567444 37.9853897095 37.6822128296 37.1502342224 36.4848060608 36.0674667358 36.0680007935 36.4862289429 37.1518173218 37.6832618713 37.9856109619 46.0006713867 45.8922119141 45.7116279602 45.4909324646 45.3526382446 45.3528175354 45.4913978577 45.7121620178 45.8925819397 46.0007553101 54.0193786621 54.128364563 54.3098449707 54.5316543579 54.6706428528 54.670463562 54.5311813354 54.3093223572 54.1280021667 54.0192909241 62.0346374512 62.3382339478 62.8710708618 63.5376205444 63.9556503296 63.955116272 63.536190033 62.8694915771 62.3371887207 62.034412384 70.0359725952 70.4438552856 71.2925643921 72.3974761963 73.0846557617 73.0837860107 72.395111084 71.2899475098 70.4423065186 70.0357208252 78.0208816528 78.3487930298 79.3638153076 80.8223724365 81.6837539673 81.682723999 80.8193435669 79.3604354858 78.3472976685 78.0207595825 86.0089416504 86.1954727173 86.9365692139 88.1160888672 88.8379211426 88.8370819092 88.11353302 86.9340133667 86.194442749 86.008972168 
14.0042285919 13.7903308868 13.0384683609 11.8231306076 11.0638885498 11.064786911 11.8257923126 13.0410737991 13.7914037704 14.0042610168 21.9914588928 21.6171150208 20.5423107147 18.9591808319 17.9556274414 17.9568710327 18.9626274109 20.5458698273 21.618730545 21.9916439056 29.9762210846 29.5115966797 28.5719051361 27.3031349182 26.468120575 26.4691829681 27.3059597015 28.5748119354 29.5133209229 29.9765357971 37.9788131714 37.6259613037 37.0113754272 36.2314071655 35.7263031006 35.7269554138 36.2331161499 37.0132026672 37.627155304 37.979095459 45.998046875 45.8692741394 45.6569480896 45.3973274231 45.231388092 45.2316055298 45.3978881836 45.6575660706 45.8697052002 45.9981575012 54.0220031738 54.1514129639 54.3647994995 54.6257171631 54.7924919128 54.7922782898 54.6251564026 54.3641700745 54.1509895325 54.0218963623 62.0412216187 62.3945465088 63.0100898743 63.7913589478 64.2973175049 64.2966537476 63.789642334 63.0082473755 62.3933563232 62.0409393311 70.0437698364 70.5084228516 71.4487762451 72.7186279297 73.5543670654 73.5532989502 72.7158050537 71.445854187 70.5066986084 70.0434570312 78.028503418 78.4024581909 79.4769287109 81.060256958 82.0636901855 82.0624465942 81.0568084717 79.4733428955 78.4008636475 78.0283126831 86.0157470703 86.2292556763 86.9798431396 88.1925735474 88.9505767822 88.9496917725 88.1899108887 86.9772644043 86.2281723022 86.0157089233 
14.00390625 13.78901577 13.0378351212 11.82289505 11.0637893677 11.0646877289 11.8255548477 13.0404405594 13.7900915146 14.0039405823 21.9911136627 21.615070343 20.5388717651 18.9525661469 17.9448738098 17.9461193085 18.9560241699 20.5424423218 21.6166858673 21.9912967682 29.97590065 29.509147644 28.566198349 27.2899227142 26.4414272308 26.4425201416 27.2927818298 28.5691204071 29.5108795166 29.9762210846 37.9785728455 37.6238327026 37.0056114197 36.2157287598 35.6942100525 35.6948890686 36.2174873352 37.0074501038 37.625038147 37.9788513184 45.997959137 45.8684082031 45.6544342041 45.39012146 45.217880249 45.2181053162 45.3906974792 45.6550636292 45.8688430786 45.9980621338 54.0220909119 54.1522789001 54.3673286438 54.6329689026 54.8060684204 54.8058395386 54.6323776245 54.3666954041 54.1518478394 54.021987915 62.0414581299 62.3966751099 63.0158691406 63.8070373535 64.3294296265 64.3287506104 63.805267334 63.0140190125 62.3954658508 62.041179657 70.0440750122 70.5108718872 71.454460144 72.7318267822 73.5810165405 73.5799179077 72.7289657593 71.4515533447 70.5091400146 70.0437545776 78.0288467407 78.404510498 79.4803466797 81.0668411255 82.074432373 82.0731735229 81.0633926392 79.476776123 78.4029083252 78.0286636353 86.0160675049 86.2305679321 86.9804611206 88.1928024292 88.950668335 88.9497680664 88.1901473999 86.9778900146 86.2294921875 86.0160446167 
14.0038957596 13.7889719009 13.0378074646 11.8228702545 11.0637674332 11.0646657944 11.8255290985 13.0404100418 13.7900457382 14.0039319992 21.9911060333 21.6150054932 20.5387535095 18.9523448944 17.9445343018 17.9457836151 18.9557991028 20.5423221588 21.6166210175 21.9912910461 29.9758911133 29.5090675354 28.5660018921 27.2894897461 26.4406604767 26.4417552948 27.292345047 28.5689277649 29.5107936859 29.9762115479 37.9785614014 37.6237564087 37.0054092407 36.2151641846 35.692855835 35.6935348511 36.2169265747 37.0072402954 37.624961853 37.9788398743 45.9979553223 45.8683853149 45.6543464661 45.3898048401 45.2171516418 45.217376709 45.3903846741 45.6549682617 45.8688087463 45.9980583191 54.0220947266 54.1523132324 54.3674201965 54.6332855225 54.8068008423 54.8065719604 54.6326942444 54.3667793274 54.1518783569 54.021987915 62.0414733887 62.3967628479 63.0160713196 63.8076019287 64.3307952881 64.3301086426 63.8058395386 63.0142288208 62.3955535889 62.0411911011 70.0440826416 70.5109558105 71.4546585083 72.7322540283 73.5817871094 73.5806884766 72.7293930054 71.451751709 70.509223938 70.043762207 78.0288543701 78.4045791626 79.48046875 81.0670776367 82.0747528076 82.0735092163 81.0636138916 79.476890564 78.4029693604 78.0286712646 86.0160827637 86.2306060791 86.980506897 88.1928329468 88.9506835938 88.9497909546 88.1901702881 86.9779129028 86.2295303345 86.0160522461 
14.0038948059 13.7889680862 13.0377922058 11.8228435516 11.0637302399 11.0646286011 11.8255023956 13.0403966904 13.7900409698 14.0039319992 21.991104126 21.6149978638 20.538734436 18.952299118 17.9444770813 17.9457263947 18.9557571411 20.5423030853 21.6166152954 21.9912910461 29.9758892059 29.5090579987 28.5659751892 27.289434433 26.4405727386 26.4416713715 27.2922935486 28.5688934326 29.5107879639 29.9762077332 37.9785614014 37.6237487793 37.0053825378 36.2151069641 35.6927375793 35.6934165955 36.2168731689 37.0072212219 37.6249504089 37.9788398743 45.9979553223 45.8683776855 45.6543273926 45.3897743225 45.2170829773 45.2173042297 45.3903579712 45.6549491882 45.8688011169 45.9980583191 54.022102356 54.1523208618 54.3674278259 54.6333084106 54.8068695068 54.806640625 54.6327285767 54.3667945862 54.1518821716 54.021987915 62.0414733887 62.3967666626 63.0161018372 63.8076553345 64.3309020996 64.3302230835 63.8058929443 63.0142402649 62.3955574036 62.0411911011 70.0440826416 70.5109710693 71.4547042847 72.7323226929 73.5818786621 73.5807800293 72.7294616699 71.4517669678 70.5092391968 70.043762207 78.0288543701 78.4045791626 79.4804916382 81.0671157837 82.0748214722 82.0735702515 81.0636520386 79.4769058228 78.402961731 78.0286712646 86.0160827637 86.2306060791 86.9805221558 88.1928482056 88.9507446289 88.9498443604 88.1902008057 86.977935791 86.2295227051 86.0160522461 
14.0038948059 13.7889680862 13.0377807617 11.8228187561 11.0636959076 11.0645971298 11.8254776001 13.0403852463 13.7900419235 14.0039310455 21.991104126 21.6149921417 20.5387172699 18.9522666931 17.9444351196 17.945684433 18.9557266235 20.5422859192 21.616607666 21.9912910461 29.9758892059 29.5090522766 28.5659580231 27.289396286 26.4405250549 26.441619873 27.2922554016 28.5688743591 29.5107841492 29.9762077332 37.9785614014 37.6237411499 37.0053672791 36.2150764465 35.6926803589 35.693359375 36.216835022 37.0072097778 37.6249542236 37.9788398743 45.9979515076 45.8683776855 45.6543273926 45.3897590637 45.2170600891 45.2172813416 45.3903427124 45.6549530029 45.8688011169 45.9980545044 54.022102356 54.1523208618 54.3674354553 54.6333122253 54.806892395 54.8066711426 54.6327323914 54.3668060303 54.1518859863 54.021987915 62.0414733887 62.3967628479 63.0161056519 63.8076972961 64.3309555054 64.3302841187 63.8059310913 63.0142555237 62.3955612183 62.0411911011 70.0440826416 70.5109710693 71.4547195435 72.7323455811 73.5819168091 73.5808334351 72.7294921875 71.4517822266 70.5092315674 70.043762207 78.0288543701 78.4045791626 79.4805145264 81.0671539307 82.0748596191 82.0736083984 81.0636825562 79.4769287109 78.4029693604 78.0286712646 86.0160827637 86.2306137085 86.9805374146 88.1928634644 88.9507598877 88.9498672485 88.1902084351 86.9779434204 86.2295303345 86.0160522461 
14.0038957596 13.7889661789 13.037771225 11.8227930069 11.0636606216 11.0645608902 11.8254528046 13.0403747559 13.7900409698 14.0039319992 21.991104126 21.6149921417 20.5387001038 18.9522342682 17.9443912506 17.9456386566 18.9556941986 20.5422725677 21.6166038513 21.9912910461 29.9758892059 29.5090522766 28.5659389496 27.289358139 26.4404697418 26.4415683746 27.2922229767 28.5688667297 29.5107803345 29.9762077332 37.9785614014 37.6237373352 37.0053520203 36.215045929 35.6926269531 35.6933097839 36.2168045044 37.007194519 37.6249504089 37.9788398743 45.9979515076 45.8683776855 45.6543159485 45.3897476196 45.2170410156 45.2172622681 45.3903274536 45.6549453735 45.8688011169 45.9980545044 54.022102356 54.1523208618 54.3674354553 54.6333389282 54.8069114685 54.8066864014 54.6327514648 54.366809845 54.1518783569 54.021987915 62.0414733887 62.396774292 63.0161247253 63.807723999 64.3310089111 64.3303375244 63.8059577942 63.0142707825 62.3955688477 62.0411911011 70.0440826416 70.5109634399 71.4547195435 72.732383728 73.5819702148 73.580871582 72.7295150757 71.4518127441 70.5092315674 70.043762207 78.0288543701 78.4045791626 79.4805450439 81.0671844482 82.0749053955 82.0736541748 81.0637207031 79.4769515991 78.4029693604 78.0286712646 86.0160827637 86.2306137085 86.9805526733 88.1928939819 88.9507980347 88.9499053955 88.190246582 86.9779434204 86.2295303345 86.0160522461 
