1.00000011921 1.0 1.00000011921 1.05649399757 1.1064016819 1.10637164116 1.05642080307 1.0 1.0 1.0 1.0 1.0 1.04573047161 1.17271304131 1.23938453197 1.23934864998 1.17262351513 1.0254149437 1.0 1.0 1.00000011921 1.03875696659 1.12765824795 1.26375949383 1.34578466415 1.34575033188 1.26367664337 1.104565382 1.03877735138 1.0 1.0 1.08290743828 1.17307794094 1.30887818336 1.38315749168 1.38311803341 1.30880105495 1.14878582954 1.0829205513 1.0 1.0 1.10463762283 1.19588553905 1.32896029949 1.39610743523 1.39606654644 1.32888221741 1.17102873325 1.10464131832 1.0 1.0 1.10462725163 1.19587683678 1.32895362377 1.3961019516 1.39606118202 1.32887578011 1.17101943493 1.1046308279 1.0 1.00000011921 1.08287632465 1.17305123806 1.30885779858 1.38313913345 1.3830999136 1.30878067017 1.14875757694 1.08288955688 1.0 1.0 1.02701318264 1.11502742767 1.24946916103 1.32991361618 1.3298779726 1.24937856197 1.09255123138 1.02703404427 1.0 1.00000011921 0.999999940395 1.04565691948 1.1726205349 1.23929011822 1.23925423622 1.17253112793 1.02534067631 1.0 0.999999940395 0.999999940395 1.0 1.00000011921 1.05634486675 1.10622668266 1.10619652271 1.05627179146 1.00000011921 1.00000011921 1.0 
1.00000011921 1.0 1.00000011921 1.05649399757 1.1064016819 1.10637164116 1.05642080307 1.0 1.0 1.0 1.0 1.0 1.04573047161 1.17271304131 1.23938453197 1.23934864998 1.17262351513 1.0254149437 1.0 1.0 1.00000011921 1.03875696659 1.12765824795 1.26375949383 1.34662187099 1.34658873081 1.26367664337 1.104565382 1.03877735138 1.0 1.0 1.08290743828 1.17307794094 1.30891025066 1.39021503925 1.39018034935 1.3088337183 1.14878582954 1.0829205513 1.0 1.0 1.10463762283 1.19588553905 1.33049070835 1.40713942051 1.40710401535 1.33041787148 1.17102873325 1.10464131832 1.0 1.0 1.10462725163 1.19587683678 1.33048415184 1.40713405609 1.40709877014 1.33041131496 1.17101943493 1.1046308279 1.0 1.00000011921 1.08287632465 1.17305123806 1.30888986588 1.39019703865 1.39016246796 1.30881333351 1.14875757694 1.08288955688 1.0 1.0 1.02701318264 1.11502742767 1.24946916103 1.32991361618 1.3298779726 1.24937856197 1.09255123138 1.02703404427 1.0 1.00000011921 0.999999940395 1.04565691948 1.1726205349 1.23929011822 1.23925423622 1.17253112793 1.02534067631 1.0 0.999999940395 0.999999940395 1.0 1.00000011921 1.05634486675 1.10622668266 1.10619652271 1.05627179146 1.00000011921 1.00000011921 1.0 
1.00000011921 1.0 1.00000011921 1.05649399757 1.1064016819 1.10637164116 1.05642080307 1.0 1.0 1.0 1.0 1.0 1.04573047161 1.17271304131 1.23938453197 1.23934864998 1.17262351513 1.0254149437 1.0 1.0 1.00000011921 1.03875696659 1.12765824795 1.26375949383 1.34662187099 1.34658873081 1.26367664337 1.104565382 1.03877735138 1.0 1.0 1.08290743828 1.17307794094 1.30891025066 1.39022576809 1.3901911974 1.3088337183 1.14878582954 1.0829205513 1.0 1.0 1.10463762283 1.19588553905 1.33049380779 1.4071637392 1.40712845325 1.33042109013 1.17102873325 1.10464131832 1.0 1.0 1.10462725163 1.19587683678 1.33048725128 1.407158494 1.40712308884 1.33041465282 1.17101943493 1.1046308279 1.0 1.00000011921 1.08287632465 1.17305123806 1.30888986588 1.39020764828 1.39017319679 1.30881333351 1.14875757694 1.08288955688 1.0 1.0 1.02701318264 1.11502742767 1.24946916103 1.32991361618 1.3298779726 1.24937856197 1.09255123138 1.02703404427 1.0 1.00000011921 0.999999940395 1.04565691948 1.1726205349 1.23929011822 1.23925423622 1.17253112793 1.02534067631 1.0 0.999999940395 0.999999940395 1.0 1.00000011921 1.05634486675 1.10622668266 1.10619652271 1.05627179146 1.00000011921 1.00000011921 1.0 
1.00000011921 1.0 1.00000011921 1.05649399757 1.1064016819 1.10637164116 1.05642080307 1.0 1.0 1.0 1.0 1.0 1.04573047161 1.17271304131 1.23938453197 1.23934864998 1.17262351513 1.0254149437 1.0 1.0 1.00000011921 1.03875696659 1.12765824795 1.26375949383 1.34662187099 1.34658873081 1.26367664337 1.104565382 1.03877735138 1.0 1.0 1.08290743828 1.17307794094 1.30891025066 1.39023804665 1.39020359516 1.3088337183 1.14878582954 1.0829205513 1.0 1.0 1.10463762283 1.19588553905 1.33049976826 1.40717732906 1.4071418047 1.33042681217 1.17102873325 1.10464131832 1.0 1.0 1.10462725163 1.19587683678 1.33049309254 1.40717220306 1.4071366787 1.33042037487 1.17101943493 1.1046308279 1.0 1.00000011921 1.08287632465 1.17305123806 1.30888986588 1.39022028446 1.39018571377 1.30881333351 1.14875757694 1.08288955688 1.0 1.0 1.02701318264 1.11502742767 1.24946916103 1.32991361618 1.3298779726 1.24937856197 1.09255123138 1.02703404427 1.0 1.00000011921 0.999999940395 1.04565691948 1.1726205349 1.23929011822 1.23925423622 1.17253112793 1.02534067631 1.0 0.999999940395 0.999999940395 1.0 1.00000011921 1.05634486675 1.10622668266 1.10619652271 1.05627179146 1.00000011921 1.00000011921 1.0 
1.00000011921 1.0 1.00000011921 1.05649399757 1.1064016819 1.10637164116 1.05642080307 1.0 1.0 1.0 1.0 1.0 1.04573047161 1.17271304131 1.23938453197 1.23934864998 1.17262351513 1.0254149437 1.0 1.0 1.00000011921 1.03875696659 1.12765824795 1.26375949383 1.34662187099 1.34658873081 1.26367664337 1.104565382 1.03877735138 1.0 1.0 1.08290743828 1.17307794094 1.30891025066 1.39024972916 1.39021527767 1.3088337183 1.14878582954 1.0829205513 1.0 1.0 1.10463762283 1.19588553905 1.3305054903 1.4071906805 1.40715527534 1.33043289185 1.17102873325 1.10464131832 1.0 1.0 1.10462725163 1.19587683678 1.330499053 1.4071855545 1.40715026855 1.33042645454 1.17101943493 1.1046308279 1.0 1.00000011921 1.08287632465 1.17305123806 1.30888986588 1.39023184776 1.39019727707 1.30881333351 1.14875757694 1.08288955688 1.0 1.0 1.02701318264 1.11502742767 1.24946916103 1.32991361618 1.3298779726 1.24937856197 1.09255123138 1.02703404427 1.0 1.00000011921 0.999999940395 1.04565691948 1.1726205349 1.23929011822 1.23925423622 1.17253112793 1.02534067631 1.0 0.999999940395 0.999999940395 1.0 1.00000011921 1.05634486675 1.10622668266 1.10619652271 1.05627179146 1.00000011921 1.00000011921 1.0 
1.00000011921 1.0 1.00000011921 1.05649399757 1.1064016819 1.10637164116 1.05642080307 1.0 1.0 1.0 1.0 1.0 1.04573047161 1.17271304131 1.23938453197 1.23934864998 1.17262351513 1.0254149437 1.0 1.0 1.00000011921 1.03875696659 1.12765824795 1.26375949383 1.34662187099 1.34658873081 1.26367664337 1.104565382 1.03877735138 1.0 1.0 1.08290743828 1.17307794094 1.30891025066 1.39026129246 1.39022672176 1.3088337183 1.14878582954 1.0829205513 1.0 1.0 1.10463762283 1.19588553905 1.33051168919 1.40720438957 1.40716910362 1.33043897152 1.17102873325 1.10464131832 1.0 1.0 1.10462725163 1.19587683678 1.33050513268 1.40719914436 1.40716385841 1.33043265343 1.17101943493 1.1046308279 1.0 1.00000011921 1.08287632465 1.17305123806 1.30888986588 1.39024353027 1.39020895958 1.30881333351 1.14875757694 1.08288955688 1.0 1.0 1.02701318264 1.11502742767 1.24946916103 1.32991361618 1.3298779726 1.24937856197 1.09255123138 1.02703404427 1.0 1.00000011921 0.999999940395 1.04565691948 1.1726205349 1.23929011822 1.23925423622 1.17253112793 1.02534067631 1.0 0.999999940395 0.999999940395 1.0 1.00000011921 1.05634486675 1.10622668266 1.10619652271 1.05627179146 1.00000011921 1.00000011921 1.0 
1.00000011921 1.0 1.00000011921 1.05649399757 1.1064016819 1.10637164116 1.05642080307 1.0 1.0 1.0 1.0 1.0 1.04573047161 1.17271304131 1.23938453197 1.23934864998 1.17262351513 1.0254149437 1.0 1.0 1.00000011921 1.03875696659 1.12765824795 1.26375949383 1.34662187099 1.34658873081 1.26367664337 1.104565382 1.03877735138 1.0 1.0 1.08290743828 1.17307794094 1.30891025066 1.39027297497 1.39023828506 1.3088337183 1.14878582954 1.0829205513 1.0 1.0 1.10463762283 1.19588553905 1.3305182457 1.40721809864 1.40718269348 1.33044564724 1.17102873325 1.10464131832 1.0 1.0 1.10462725163 1.19587683678 1.33051168919 1.40721297264 1.40717756748 1.33043920994 1.17101943493 1.1046308279 1.0 1.00000011921 1.08287632465 1.17305123806 1.30888986588 1.39025509357 1.39022040367 1.30881333351 1.14875757694 1.08288955688 1.0 1.0 1.02701318264 1.11502742767 1.24946916103 1.32991361618 1.3298779726 1.24937856197 1.09255123138 1.02703404427 1.0 1.00000011921 0.999999940395 1.04565691948 1.1726205349 1.23929011822 1.23925423622 1.17253112793 1.02534067631 1.0 0.999999940395 0.999999940395 1.0 1.00000011921 1.05634486675 1.10622668266 1.10619652271 1.05627179146 1.00000011921 1.00000011921 1.0 
