0.984522938728 1.01031517982 1.03901278973 1.1236897707 1.18585824966 1.18583285809 1.12362587452 1.03584074974 1.01031339169 0.984637796879 0.979452431202 1.04419100285 1.12321460247 1.28060734272 1.36499416828 1.36496210098 1.28052651882 1.09908676147 1.04418718815 0.979578852654 0.977958202362 1.12030220032 1.22727191448 1.39938139915 1.48824608326 1.48820400238 1.39929354191 1.19989454746 1.1203109026 0.978068292141 0.976582050323 1.17436695099 1.2849162817 1.44873857498 1.52423584461 1.52418649197 1.44864523411 1.25673818588 1.17435526848 0.976664364338 0.975735247135 1.20195448399 1.31353521347 1.46865510941 1.53636598587 1.53631496429 1.46856105328 1.28528559208 1.20193052292 0.975803077221 0.975736379623 1.20194339752 1.31352555752 1.46864748001 1.53636014462 1.53630924225 1.46855330467 1.28527581692 1.20191931725 0.975804328918 0.976585626602 1.17433321476 1.28488612175 1.44871497154 1.52421474457 1.52416563034 1.4486219883 1.25670826435 1.17432177067 0.976668000221 0.977792561054 1.10522449017 1.21025002003 1.38035094738 1.47388339043 1.47383999825 1.3802614212 1.18315279484 1.10523629189 0.977905213833 0.97945702076 1.04411113262 1.12312459946 1.28050982952 1.36489152908 1.36485958099 1.2804287672 1.09900283813 1.04410743713 0.979583323002 0.984542310238 1.01025640965 1.03892147541 1.12353038788 1.18568825722 1.18566274643 1.1234664917 1.0357503891 1.0102545023 0.984657108784 
0.984434127808 1.00868439674 1.03678536415 1.1210038662 1.18277943134 1.18275475502 1.12094140053 1.03357076645 1.00868368149 0.984547317028 0.979331851006 1.04208743572 1.12087845802 1.27786660194 1.36201047897 1.36197924614 1.27778756618 1.09672009945 1.04208409786 0.97945690155 0.977766990662 1.11795771122 1.22488260269 1.3968307972 1.49654078484 1.49650537968 1.39674556255 1.19753098488 1.11796545982 0.977876186371 0.976292252541 1.17202663422 1.28273284435 1.45232212543 1.54586148262 1.54582321644 1.45224022865 1.25467586517 1.17201340199 0.976374030113 0.975362956524 1.19970226288 1.31161570549 1.4773004055 1.56422746181 1.56418776512 1.47722125053 1.2835688591 1.19967579842 0.975430548191 0.975364327431 1.19969129562 1.31160604954 1.47729301453 1.56422162056 1.56418180466 1.47721397877 1.28355932236 1.19966459274 0.975431859493 0.976296007633 1.17199313641 1.28270280361 1.45229923725 1.54584169388 1.54580318928 1.45221745968 1.25464630127 1.17197966576 0.976377904415 0.977607607841 1.10287308693 1.20777785778 1.37749361992 1.47608101368 1.47604548931 1.37740778923 1.18070352077 1.10288405418 0.977719306946 0.979336380959 1.04200839996 1.12078905106 1.27776908875 1.36190629005 1.36187517643 1.27769005299 1.09663665295 1.04200530052 0.979461491108 0.984453439713 1.00862681866 1.03669452667 1.120844841 1.18260967731 1.18258500099 1.12078249454 1.03348147869 1.00862622261 0.984566569328 
0.98443377018 1.00867986679 1.03677904606 1.12099671364 1.1827712059 1.18274652958 1.12093424797 1.03356468678 1.00867903233 0.984547078609 0.979331493378 1.04208159447 1.12087213993 1.27785921097 1.36200225353 1.3619710207 1.27778017521 1.09671342373 1.04207825661 0.979456484318 0.977766394615 1.11795139313 1.22487580776 1.39682292938 1.49653172493 1.49649643898 1.39673769474 1.19752454758 1.11795938015 0.977875709534 0.976291298866 1.17202091217 1.28272736073 1.45231819153 1.54592704773 1.54588854313 1.45223641396 1.25467061996 1.17200756073 0.976373076439 0.975361645222 1.19969701767 1.31161201 1.47730457783 1.56446516514 1.56442558765 1.47722578049 1.28356587887 1.199670434 0.97542911768 0.975362956524 1.199685812 1.31160247326 1.47729718685 1.56445932388 1.5644197464 1.47721838951 1.28355634212 1.19965934753 0.975430548191 0.976295173168 1.17198729515 1.28269731998 1.45229530334 1.54590702057 1.54586863518 1.45221352577 1.25464129448 1.17197394371 0.976376891136 0.9776070714 1.10286688805 1.20777106285 1.37748599052 1.47607314587 1.4760376215 1.37739992142 1.18069660664 1.10287773609 0.977718830109 0.979336023331 1.04200279713 1.12078273296 1.27776157856 1.36189818382 1.36186718941 1.27768266201 1.09663009644 1.04199945927 0.97946113348 0.984452962875 1.0086222887 1.03668832779 1.12083756924 1.18260157108 1.18257677555 1.12077522278 1.0334751606 1.00862157345 0.98456633091 
0.984433591366 1.00868010521 1.03677964211 1.12099790573 1.18277287483 1.18274831772 1.12093555927 1.03356528282 1.00867950916 0.984547078609 0.979331314564 1.04208242893 1.12087321281 1.27786064148 1.36200404167 1.36197280884 1.27778172493 1.09671425819 1.04207897186 0.979456424713 0.977766156197 1.11795282364 1.22487747669 1.39682495594 1.49653363228 1.49649810791 1.39673984051 1.19752573967 1.11796057224 0.977875649929 0.976291060448 1.17202234268 1.28272950649 1.45232093334 1.54593658447 1.54589796066 1.45223927498 1.25467276573 1.17200887203 0.976372897625 0.975361406803 1.1996986866 1.31161415577 1.47730898857 1.56447553635 1.56443583965 1.47722995281 1.28356790543 1.19967210293 0.975428879261 0.975362718105 1.19968748093 1.31160473824 1.4773015976 1.56446957588 1.56443011761 1.47722268105 1.28355836868 1.19966113567 0.975430309772 0.976294875145 1.17198872566 1.28269946575 1.45229792595 1.54591655731 1.54587817192 1.45221626759 1.25464320183 1.17197525501 0.976376771927 0.977607011795 1.10286796093 1.20777261257 1.37748789787 1.47607541084 1.47603976727 1.37740194798 1.18069815636 1.10287868977 0.977718770504 0.979335963726 1.04200351238 1.12078380585 1.27776324749 1.36190021038 1.36186885834 1.27768409252 1.0966309309 1.04200017452 0.979461073875 0.984452962875 1.00862252712 1.03668904305 1.12083899975 1.18260300159 1.18257856369 1.12077653408 1.03347587585 1.00862193108 0.984566152096 
0.984433591366 1.00868046284 1.03678059578 1.12099909782 1.18277454376 1.18274998665 1.12093663216 1.03356587887 1.00867986679 0.984547019005 0.979331254959 1.04208314419 1.1208742857 1.27786207199 1.36200582981 1.36197459698 1.27778315544 1.09671545029 1.04207968712 0.979456365108 0.977766156197 1.11795377731 1.2248789072 1.39682710171 1.49653553963 1.49650025368 1.39674174786 1.19752717018 1.11796176434 0.977875471115 0.976290941238 1.17202401161 1.28273105621 1.45232355595 1.54594492912 1.54590654373 1.45224189758 1.25467455387 1.17201042175 0.976372718811 0.975361227989 1.19970035553 1.31161630154 1.47731482983 1.56448554993 1.56444609165 1.47723555565 1.28357005119 1.19967389107 0.975428760052 0.975362598896 1.19968914986 1.31160676479 1.47730755806 1.56447982788 1.56444048882 1.47722840309 1.28356051445 1.1996628046 0.975430190563 0.976294517517 1.17199039459 1.28270113468 1.45230042934 1.54592490196 1.54588675499 1.45221877098 1.25464487076 1.17197716236 0.976376533508 0.977606773376 1.10286915302 1.20777404308 1.37748992443 1.47607731819 1.47604203224 1.37740397453 1.18069958687 1.10288000107 0.97771859169 0.979335784912 1.04200434685 1.12078475952 1.277764678 1.3619017601 1.36187052727 1.27768552303 1.09663212299 1.0420011282 0.979461014271 0.984452843666 1.00862300396 1.03668963909 1.12084019184 1.18260467052 1.18258011341 1.12077760696 1.0334764719 1.00862240791 0.9845662117 
0.984433531761 1.00868093967 1.0367808342 1.12100017071 1.18277609348 1.18275141716 1.12093782425 1.03356659412 1.00868022442 0.984546899796 0.979331195354 1.04208374023 1.12087523937 1.27786374092 1.36200737953 1.3619761467 1.27778470516 1.09671640396 1.04208052158 0.979456305504 0.977765977383 1.11795496941 1.22488033772 1.39682888985 1.49653756618 1.49650216103 1.3967436552 1.19752860069 1.11796271801 0.977875292301 0.97629070282 1.1720252037 1.28273320198 1.45232594013 1.54595375061 1.54591536522 1.45224428177 1.25467634201 1.17201185226 0.976372480392 0.975361049175 1.19970202446 1.31161856651 1.47732269764 1.56449580193 1.56445598602 1.47724354267 1.28357219696 1.19967532158 0.975428640842 0.975362360477 1.199690938 1.31160902977 1.47731518745 1.56449007988 1.5644505024 1.4772361517 1.28356266022 1.19966447353 0.975429952145 0.976294398308 1.17199170589 1.28270304203 1.45230293274 1.54593360424 1.54589545727 1.45222151279 1.25464689732 1.17197835445 0.976376354694 0.977606773376 1.1028701067 1.20777547359 1.37749147415 1.47607970238 1.47604417801 1.37740564346 1.18070089817 1.10288095474 0.97771859169 0.979335725307 1.04200482368 1.12078583241 1.27776622772 1.36190342903 1.3618721962 1.27768707275 1.09663295746 1.04200172424 0.979460954666 0.984452843666 1.0086234808 1.03669023514 1.1208409071 1.18260622025 1.18258154392 1.12077879906 1.03347706795 1.00862276554 0.984566032887 
0.984433412552 1.0086812973 1.03678166866 1.12100148201 1.18277752399 1.18275296688 1.12093901634 1.03356695175 1.00868058205 0.984546840191 0.979331076145 1.04208445549 1.12087619305 1.27786493301 1.36200928688 1.36197781563 1.27778589725 1.09671723843 1.04208111763 0.979456067085 0.977765798569 1.11795604229 1.22488164902 1.3968307972 1.49653959274 1.49650430679 1.39674556255 1.1975300312 1.11796379089 0.977875053883 0.976290643215 1.17202687263 1.28273487091 1.45232844353 1.54596245289 1.54592418671 1.45224678516 1.25467836857 1.17201340199 0.976372480392 0.975360751152 1.19970369339 1.31162071228 1.47733175755 1.56450605392 1.56446647644 1.47725260258 1.28357446194 1.19967722893 0.975428283215 0.975362181664 1.19969272614 1.31161117554 1.47732412815 1.56450021267 1.56446063519 1.47724533081 1.28356492519 1.19966614246 0.975429832935 0.976294457912 1.17199337482 1.28270506859 1.45230543613 1.54594242573 1.54590392113 1.45222377777 1.25464868546 1.17197990417 0.97637629509 0.977606594563 1.10287129879 1.20777690411 1.37749350071 1.47608149052 1.47604608536 1.37740755081 1.18070209026 1.10288214684 0.977718234062 0.979335606098 1.04200553894 1.12078678608 1.27776730061 1.36190509796 1.36187410355 1.27768838406 1.09663367271 1.04200232029 0.979460716248 0.984452724457 1.00862383842 1.0366910696 1.12084245682 1.18260788918 1.18258321285 1.12077987194 1.03347754478 1.00862312317 0.984566032887 
