13.9749708176 21.7619457245 29.4159317017 37.2138290405 45.6476821899 54.3740310669 62.806640625 70.6031494141 78.2573928833 86.0447692871 13.9648094177 21.5373840332 28.6957187653 36.1971168518 45.2150001526 54.8087997437 63.8241424561 71.3219223022 78.4809646606 86.0548400879 13.9654121399 21.3452453613 28.1811943054 35.6152381897 44.954158783 55.070892334 64.4063873291 71.8359298706 78.6720809937 86.0541992188 13.9556150436 21.2022914886 27.9219722748 35.3410606384 44.8414573669 55.1841125488 64.6808013916 72.0949707031 78.8146896362 86.0638809204 13.9476222992 21.136724472 27.8125743866 35.2382087708 44.8019981384 55.2237663269 64.7837677002 72.204284668 78.8800888062 86.0718002319 13.9476299286 21.1367988586 27.8126945496 35.2383155823 44.8020401001 55.2237243652 64.7836532593 72.2041625977 78.8800125122 86.0718002319 13.9556427002 21.2025337219 27.9223766327 35.3414497375 44.8416061401 55.1839637756 64.6804199219 72.0945510864 78.8144378662 86.0638580322 13.9654216766 21.3456954956 28.1821060181 35.6162452698 44.9545936584 55.0704536438 64.4053878784 71.8350372314 78.6716384888 86.0541915894 13.9648132324 21.5379066467 28.6974830627 36.1991996765 45.2159233093 54.8078727722 63.8220672607 71.3201599121 78.4804382324 86.0548477173 13.9750328064 21.7625350952 29.4176654816 37.2164993286 45.648815155 54.3728942871 62.8039703369 70.6014251709 78.2568054199 86.0447158813 
13.9746055603 21.7629928589 29.4181137085 37.2163467407 45.6488304138 54.3728790283 62.8041229248 70.6009750366 78.2563400269 86.045135498 13.9642982483 21.5402183533 28.7006587982 36.2006759644 45.2157554626 54.8080444336 63.8205833435 71.316986084 78.4781265259 86.0553512573 13.9648914337 21.3490943909 28.1872959137 35.6160621643 44.9490814209 55.0759811401 64.4055404663 71.8298568726 78.6682357788 86.0547180176 13.9550580978 21.2062950134 27.9267501831 35.3319511414 44.8227615356 55.2028961182 64.6898422241 72.0901641846 78.8106842041 86.0644454956 13.9469909668 21.1403007507 27.8150863647 35.2183227539 44.7751197815 55.2507514954 64.8035583496 72.2017593384 78.8765182495 86.0724411011 13.9470005035 21.1403751373 27.8152122498 35.2184448242 44.7751731873 55.250705719 64.8034362793 72.2016296387 78.876449585 86.0724334717 13.9550857544 21.2065353394 27.9271564484 35.3323745728 44.8229408264 55.2027206421 64.6894226074 72.0897674561 78.8104400635 86.064414978 13.9649038315 21.3495426178 28.188205719 35.6170883179 44.9495544434 55.0755081177 64.4045181274 71.8289260864 78.6678009033 86.0547103882 13.9643011093 21.5407371521 28.702413559 36.2027549744 45.2166824341 54.8071136475 63.8185081482 71.3152313232 78.4776077271 86.0553359985 13.9746646881 21.7635726929 29.4198417664 37.2190093994 45.6499557495 54.3717384338 62.8014602661 70.5992507935 78.2557678223 86.0450744629 
13.9746055603 21.7629928589 29.4181137085 37.2163467407 45.6488265991 54.3728713989 62.8041229248 70.6009750366 78.2563400269 86.045135498 13.9642982483 21.5402183533 28.7006568909 36.2006721497 45.2157516479 54.8080444336 63.8205795288 71.3169784546 78.4781188965 86.0553512573 13.9648914337 21.3490905762 28.1872940063 35.6160621643 44.9490776062 55.0759849548 64.4055557251 71.829864502 78.668258667 86.0547180176 13.9550580978 21.2062950134 27.9267406464 35.331943512 44.8227539062 55.2028999329 64.6898498535 72.090171814 78.8106842041 86.0644454956 13.9469909668 21.140296936 27.8150787354 35.2183189392 44.7751159668 55.2507514954 64.803565979 72.2017669678 78.8765258789 86.0724411011 13.9470005035 21.1403713226 27.8152046204 35.2184410095 44.7751655579 55.2507019043 64.8034439087 72.2016448975 78.876449585 86.0724334717 13.9550857544 21.2065315247 27.927148819 35.3323669434 44.8229370117 55.2027168274 64.6894226074 72.0897750854 78.8104553223 86.064414978 13.9649038315 21.3495388031 28.1881999969 35.6170806885 44.9495506287 55.0755157471 64.4045257568 71.8289337158 78.6678085327 86.0547103882 13.9643011093 21.5407371521 28.702413559 36.2027511597 45.2166824341 54.8071136475 63.8185119629 71.3152313232 78.4776153564 86.0553359985 13.9746646881 21.7635726929 29.419839859 37.2190055847 45.6499519348 54.3717384338 62.8014564514 70.5992507935 78.2557678223 86.0450744629 
13.9746055603 21.7629871368 29.4181137085 37.2163314819 45.6488265991 54.372882843 62.8041305542 70.600982666 78.2563400269 86.045135498 13.9642982483 21.5402126312 28.7006416321 36.2006607056 45.2157478333 54.8080482483 63.8205986023 71.3169937134 78.4781265259 86.0553512573 13.9648895264 21.3490810394 28.1872673035 35.6160354614 44.9490776062 55.0759849548 64.4055709839 71.8298721313 78.6682510376 86.054725647 13.9550571442 21.206281662 27.9267177582 35.3319168091 44.8227462769 55.202911377 64.6898727417 72.0902175903 78.8107070923 86.0644454956 13.9469900131 21.1402816772 27.8150577545 35.2182884216 44.7751083374 55.2507705688 64.8035888672 72.201789856 78.8765411377 86.0724411011 13.9469995499 21.1403579712 27.8151779175 35.2184104919 44.7751502991 55.2507247925 64.8034591675 72.2016601562 78.8764648438 86.0724334717 13.9550848007 21.2065200806 27.9271259308 35.3323440552 44.8229255676 55.2027320862 64.689453125 72.089805603 78.8104629517 86.0644226074 13.9649028778 21.3495330811 28.1881866455 35.6170578003 44.9495391846 55.0755195618 64.404548645 71.828956604 78.6678009033 86.0547103882 13.9643011093 21.5407352448 28.7023983002 36.2027397156 45.2166748047 54.8071212769 63.8185272217 71.315246582 78.4776077271 86.0553359985 13.9746665955 21.7635688782 29.419839859 37.2189979553 45.6499481201 54.3717498779 62.8014678955 70.5992584229 78.2557678223 86.0450744629 
13.9746055603 21.7629852295 29.4181060791 37.2163314819 45.6488265991 54.3728904724 62.8041343689 70.600982666 78.2563552856 86.045135498 13.9642982483 21.5402069092 28.700630188 36.2006416321 45.2157402039 54.8080596924 63.8206176758 71.3170089722 78.4781341553 86.0553512573 13.9648895264 21.3490753174 28.1872463226 35.6160240173 44.9490661621 55.0759925842 64.4056015015 71.8298797607 78.668258667 86.054725647 13.9550571442 21.2062721252 27.9266929626 35.3318939209 44.8227310181 55.202922821 64.6898956299 72.0902328491 78.8107147217 86.0644454956 13.9469890594 21.1402683258 27.8150234222 35.2182617188 44.7750930786 55.2507781982 64.8036193848 72.2018280029 78.8765487671 86.0724411011 13.9469985962 21.1403427124 27.8151473999 35.2183837891 44.7751502991 55.2507247925 64.8034973145 72.2016906738 78.8764724731 86.0724411011 13.955083847 21.2065086365 27.9271011353 35.3323173523 44.8229103088 55.2027435303 64.6894836426 72.0898284912 78.8104705811 86.0644226074 13.9649038315 21.3495197296 28.188167572 35.6170425415 44.9495353699 55.0755271912 64.4045791626 71.8289642334 78.6678237915 86.0547103882 13.9643001556 21.540725708 28.7023887634 36.2027244568 45.21667099 54.8071289062 63.8185348511 71.3152542114 78.4776153564 86.0553359985 13.9746656418 21.7635669708 29.419834137 37.2189903259 45.6499481201 54.3717536926 62.8014793396 70.5992507935 78.2557678223 86.0450744629 
13.9746055603 21.7629833221 29.4181022644 37.2163200378 45.648815155 54.3728866577 62.804145813 70.6009902954 78.2563552856 86.045135498 13.964299202 21.5402011871 28.7006149292 36.200630188 45.2157325745 54.808052063 63.8206329346 71.317024231 78.4781417847 86.0553512573 13.96489048 21.349067688 28.1872310638 35.6159934998 44.949054718 55.0760002136 64.4056091309 71.8299026489 78.6682739258 86.0547103882 13.9550552368 21.2062587738 27.9266681671 35.331867218 44.8227233887 55.2029304504 64.6899261475 72.0902557373 78.8107223511 86.0644454956 13.9469909668 21.1402587891 27.8149986267 35.2182350159 44.7750854492 55.2507858276 64.8036422729 72.2018585205 78.8765640259 86.0724411011 13.9470005035 21.140335083 27.8151245117 35.2183570862 44.7751350403 55.2507324219 64.803527832 72.2017288208 78.8764877319 86.0724411011 13.9550848007 21.2064971924 27.9270744324 35.3322944641 44.8228988647 55.2027549744 64.6895065308 72.0898513794 78.8104934692 86.0644226074 13.9649028778 21.3495121002 28.1881446838 35.6170120239 44.9495201111 55.0755386353 64.404586792 71.8290023804 78.6678237915 86.0547103882 13.9643001556 21.5407218933 28.7023735046 36.202709198 45.2166671753 54.8071250916 63.8185501099 71.3152618408 78.4776306152 86.0553359985 13.9746656418 21.7635669708 29.4198284149 37.2189826965 45.6499443054 54.3717536926 62.8014793396 70.5992584229 78.2557678223 86.0450744629 
13.9746055603 21.7629814148 29.418094635 37.2163085938 45.6488113403 54.3728942871 62.8041610718 70.6009902954 78.2563552856 86.045135498 13.964299202 21.5401973724 28.7006072998 36.2006187439 45.2157363892 54.8080596924 63.8206443787 71.3170394897 78.4781570435 86.0553512573 13.9648895264 21.3490562439 28.1872081757 35.6159820557 44.9490470886 55.0760154724 64.405632019 71.8299331665 78.6682891846 86.0547103882 13.9550561905 21.2062454224 27.9266471863 35.3318328857 44.8227157593 55.2029380798 64.6899490356 72.0902786255 78.8107376099 86.0644378662 13.9469900131 21.1402435303 27.8149700165 35.2182006836 44.7750778198 55.2508049011 64.8036727905 72.2018661499 78.8765792847 86.0724411011 13.9469976425 21.1403179169 27.8150959015 35.2183227539 44.7751274109 55.2507476807 64.8035507202 72.2017364502 78.8765029907 86.0724411011 13.955083847 21.2064838409 27.9270553589 35.3322601318 44.82289505 55.2027587891 64.6895294189 72.0898742676 78.8105010986 86.0644073486 13.9649019241 21.3495044708 28.1881256104 35.6169967651 44.9495162964 55.0755386353 64.4046096802 71.8290023804 78.6678314209 86.0547027588 13.964302063 21.5407161713 28.7023658752 36.2026939392 45.2166633606 54.8071365356 63.8185691833 71.3152770996 78.477645874 86.0553359985 13.9746665955 21.7635650635 29.4198207855 37.2189750671 45.6499404907 54.371761322 62.8014907837 70.5992660522 78.2557754517 86.0450744629 
