0.984156668186 1.02139437199 1.0603197813 1.14897012711 1.21554851532 1.21551764011 1.14889979362 1.05653584003 1.02138411999 0.984289646149 0.979090452194 1.05930745602 1.1391736269 1.2866294384 1.34902882576 1.34898924828 1.28653085232 1.10453188419 1.05929064751 0.979225516319 0.978538572788 1.12168478966 1.24612903595 1.36236763 1.41321778297 1.41317105293 1.36226511002 1.21188783646 1.12169146538 0.978655576706 0.977108001709 1.18176805973 1.29484224319 1.39144182205 1.43426191807 1.43421638012 1.39134097099 1.26438140869 1.18178427219 0.977203369141 0.975961923599 1.20897209644 1.31530880928 1.40280163288 1.44138991833 1.44134509563 1.40270209312 1.28699064255 1.20897722244 0.976045668125 0.975963294506 1.20896136761 1.31529915333 1.40279436111 1.44138431549 1.44133961201 1.40269494057 1.28698050976 1.2089663744 0.976047158241 0.977112531662 1.18173539639 1.29481101036 1.39141714573 1.43424129486 1.4341956377 1.39131641388 1.26434981823 1.18175184727 0.977207899094 0.978270590305 1.10228526592 1.2307677269 1.35509121418 1.4085085392 1.40846133232 1.35498631001 1.19415318966 1.10229814053 0.97838973999 0.979093372822 1.05922567844 1.139092803 1.2865306139 1.34891963005 1.34888041019 1.28643214703 1.10446345806 1.05920898914 0.979228377342 0.984178364277 1.02132463455 1.06020998955 1.1488275528 1.21538043022 1.21534979343 1.14875710011 1.05642235279 1.02131438255 0.98431122303 
0.983845710754 1.00887203217 1.04097151756 1.12348973751 1.1882443428 1.18821835518 1.12342619896 1.03745734692 1.00887024403 0.983966767788 0.978549301624 1.04252123833 1.11679804325 1.26983428001 1.35006558895 1.35003304482 1.26975107193 1.08307492733 1.04250776768 0.978673696518 0.977668941021 1.10234296322 1.22977590561 1.38047599792 1.46305966377 1.46302378178 1.38039064407 1.19165074825 1.10234308243 0.977776288986 0.975939273834 1.16235506535 1.29095375538 1.42914390564 1.50629734993 1.50625956059 1.42906165123 1.25179886818 1.16235423088 0.976021409035 0.974497556686 1.19120526314 1.32027232647 1.4512437582 1.52309596539 1.52305817604 1.45116508007 1.28072273731 1.19119024277 0.974565565586 0.97449940443 1.19119501114 1.32026219368 1.45123648643 1.52309012413 1.52305245399 1.45115733147 1.28071320057 1.19118022919 0.974567294121 0.975944757462 1.16232454777 1.29092371464 1.42912101746 1.50627779961 1.50623977184 1.42903864384 1.251770854 1.1623237133 0.976026892662 0.977431178093 1.08303630352 1.21012592316 1.36381042004 1.44718956947 1.44715321064 1.36372363567 1.17169821262 1.08304333687 0.977541148663 0.978552699089 1.04244720936 1.11672258377 1.26974594593 1.34997105598 1.34993863106 1.26966285706 1.08301138878 1.04243385792 0.978677153587 0.983867704868 1.00881421566 1.04087615013 1.12335526943 1.18808233738 1.18805623055 1.12329161167 1.03735661507 1.00881242752 0.983988523483 
0.98389172554 1.0085362196 1.04032588005 1.12247407436 1.18701171875 1.18698608875 1.12241101265 1.03684484959 1.00853455067 0.984012186527 0.978617548943 1.04192960262 1.11589407921 1.26877367496 1.34886872768 1.34883642197 1.26869082451 1.08223116398 1.04191625118 0.97874122858 0.977762818336 1.10149097443 1.22856998444 1.37922167778 1.46171498299 1.46167933941 1.37913715839 1.19053840637 1.10149097443 0.977869451046 0.976056814194 1.16133630276 1.2895128727 1.42774343491 1.50478315353 1.50474596024 1.42766165733 1.25048243999 1.16133511066 0.976138234138 0.974627554417 1.19010317326 1.31871259212 1.44973802567 1.52190804482 1.52187168598 1.44965958595 1.27930414677 1.19008803368 0.974694848061 0.974629342556 1.19009327888 1.31870257854 1.44973051548 1.52190232277 1.52186584473 1.44965207577 1.27929449081 1.19007825851 0.9746966362 0.976062119007 1.16130590439 1.289483428 1.42772078514 1.50476372242 1.5047262907 1.42763924599 1.25045454502 1.1613047123 0.976143717766 0.977525055408 1.08221197128 1.2089574337 1.36257624626 1.44585680962 1.4458206892 1.36249005795 1.17061781883 1.082218647 0.977634310722 0.978620767593 1.0418561697 1.11581921577 1.26868569851 1.34877479076 1.34874248505 1.26860308647 1.08216786385 1.04184293747 0.978744506836 0.983913600445 1.00847899914 1.04023134708 1.12234091759 1.18685126305 1.18682551384 1.12227773666 1.0367449522 1.00847744942 0.984033942223 
0.983892440796 1.00853061676 1.04031515121 1.12245702744 1.18699097633 1.18696522713 1.12239396572 1.03683459759 1.00852894783 0.984012782574 0.978618621826 1.04191958904 1.11587882042 1.26875567436 1.34884858131 1.34881615639 1.26867294312 1.08221685886 1.0419062376 0.978742480278 0.977764368057 1.10147666931 1.22854971886 1.37920033932 1.46169221401 1.46165645123 1.37911581993 1.1905194521 1.1014765501 0.977871119976 0.976058840752 1.1613188982 1.28948819637 1.42771947384 1.50475776196 1.50472044945 1.42763781548 1.25046026707 1.16131782532 0.976140260696 0.974629938602 1.1900844574 1.31868612766 1.44971227646 1.52188098431 1.52184462547 1.44963395596 1.27927994728 1.19006943703 0.974697113037 0.974631726742 1.19007432461 1.31867611408 1.44970464706 1.52187538147 1.52183890343 1.44962632656 1.27927005291 1.19005918503 0.974699020386 0.97606420517 1.16128849983 1.28945922852 1.42769694328 1.50473821163 1.50470089912 1.42761516571 1.25043237209 1.16128754616 0.976145744324 0.977526724339 1.0821980238 1.20893764496 1.36255538464 1.44583415985 1.44579803944 1.36246919632 1.17059922218 1.08220481873 0.977635979652 0.978621959686 1.04184615612 1.11580395699 1.26866781712 1.34875464439 1.34872221947 1.26858508587 1.08215355873 1.04183280468 0.978745698929 0.983914315701 1.0084733963 1.04022061825 1.12232387066 1.18683063984 1.18680477142 1.12226068974 1.0367347002 1.00847172737 0.984034538269 
0.983892381191 1.00853133202 1.04031646252 1.1224591732 1.18699371815 1.18696796894 1.1223962307 1.03683578968 1.0085297823 0.984012961388 0.978618621826 1.04192090034 1.11588084698 1.26875817776 1.34885132313 1.34881901741 1.26867520809 1.08221876621 1.04190766811 0.978742301464 0.977764248848 1.10147845745 1.22855222225 1.37920308113 1.46169507504 1.46165943146 1.37911868095 1.19052183628 1.10147845745 0.977871060371 0.976058423519 1.16132116318 1.28949129581 1.42772269249 1.50476121902 1.50472354889 1.42764091492 1.25046312809 1.1613202095 0.976140022278 0.974629461765 1.19008696079 1.31868958473 1.44971561432 1.52188467979 1.52184820175 1.44963729382 1.27928292751 1.19007182121 0.974696755409 0.974631309509 1.19007706642 1.31867945194 1.44970822334 1.52187883854 1.52184247971 1.44962966442 1.27927327156 1.19006168842 0.974698603153 0.976063907146 1.16129088402 1.28946208954 1.42769992352 1.5047416687 1.50470399857 1.42761838436 1.25043547153 1.16128969193 0.976145386696 0.97752648592 1.08219981194 1.20893990993 1.36255824566 1.44583725929 1.44580101967 1.36247193813 1.17060160637 1.08220672607 0.977635741234 0.978621900082 1.04184746742 1.11580598354 1.26867008209 1.34875714779 1.34872484207 1.26858735085 1.08215534687 1.0418343544 0.978745698929 0.983914315701 1.00847411156 1.04022192955 1.12232589722 1.18683314323 1.18680751324 1.12226295471 1.03673613071 1.00847256184 0.984034538269 
0.983892321587 1.00853228569 1.04031825066 1.12246179581 1.1869969368 1.18697106838 1.12239873409 1.03683745861 1.00853061676 0.984012722969 0.978618443012 1.04192245007 1.11588335037 1.26876080036 1.34885442257 1.34882175922 1.26867818832 1.08222091198 1.04190909863 0.97874212265 0.977763950825 1.10148060322 1.22855532169 1.37920641899 1.46169877052 1.46166312695 1.37912201881 1.19052481651 1.10148072243 0.977870643139 0.976058244705 1.16132390499 1.28949558735 1.42772626877 1.50476503372 1.50472760201 1.4276446104 1.25046646595 1.16132259369 0.976139783859 0.974629163742 1.19008994102 1.31869363785 1.44971966743 1.52188897133 1.52185237408 1.44964122772 1.27928650379 1.19007480145 0.974696397781 0.974631071091 1.19007980824 1.31868362427 1.44971203804 1.52188301086 1.52184665203 1.44963371754 1.27927672863 1.19006466866 0.97469830513 0.976063609123 1.16129350662 1.28946614265 1.42770373821 1.50474560261 1.50470817089 1.42762196064 1.25043857098 1.16129231453 0.976145148277 0.977526128292 1.08220183849 1.20894300938 1.3625613451 1.44584071636 1.44580447674 1.36247503757 1.17060422897 1.08220875263 0.977635324001 0.978621542454 1.04184901714 1.11580836773 1.26867294312 1.34876024723 1.3487278223 1.26859009266 1.08215761185 1.04183578491 0.978745520115 0.983914136887 1.00847506523 1.04022359848 1.12232851982 1.18683648109 1.18681073189 1.12226545811 1.03673779964 1.0084733963 0.98403429985 
0.983892202377 1.00853312016 1.04031980038 1.12246453762 1.18700015545 1.18697440624 1.12240147591 1.03683900833 1.00853145123 0.98401260376 0.978618144989 1.041924119 1.11588573456 1.26876366138 1.3488574028 1.34882509708 1.26868093014 1.08222329617 1.04191088676 0.978741943836 0.977763652802 1.1014829874 1.22855865955 1.37920975685 1.46170222759 1.46166658401 1.37912523746 1.19052767754 1.10148286819 0.97787040472 0.976057887077 1.16132640839 1.28949928284 1.42772996426 1.50476896763 1.50473153591 1.42764830589 1.25047004223 1.16132545471 0.976139366627 0.974628984928 1.19009280205 1.31869757175 1.44972336292 1.52189302444 1.52185666561 1.44964504242 1.27929055691 1.19007754326 0.974696218967 0.974630713463 1.19008278847 1.31868755817 1.44971573353 1.5218873024 1.52185082436 1.44963753223 1.27928113937 1.19006752968 0.974698007107 0.976063251495 1.16129612923 1.28946971893 1.42770719528 1.50474953651 1.5047121048 1.42762565613 1.25044214725 1.16129505634 0.976144731045 0.977525889874 1.08220410347 1.20894634724 1.36256468296 1.44584417343 1.44580793381 1.36247837543 1.17060720921 1.08221101761 0.977635025978 0.97862136364 1.04185056686 1.11581075191 1.26867556572 1.34876334667 1.34873116016 1.26859295368 1.08216011524 1.04183721542 0.978745281696 0.983914136887 1.00847578049 1.04022526741 1.12233150005 1.18683981895 1.18681395054 1.12226819992 1.03673934937 1.00847423077 0.98403429985 
