14.0053281784 13.7926540375 13.0165834427 11.8358068466 11.160074234 11.1608829498 11.8381662369 13.0192975998 13.7937431335 14.0053510666 21.9941921234 21.6340122223 20.5957813263 19.1615142822 18.3113441467 18.3123855591 19.1644363403 20.5991706848 21.6356010437 21.9943466187 29.9807872772 29.5585289001 28.6735706329 27.5411014557 26.8620758057 26.8629322052 27.543422699 28.6763095856 29.5601196289 29.9810600281 37.9830856323 37.6660270691 37.0924186707 36.4130744934 36.0028343201 36.0033569336 36.4144706726 37.0941085815 37.6671333313 37.9833335876 45.9995803833 45.8838043213 45.6869926453 45.4638748169 45.3285217285 45.3286933899 45.4643440247 45.6875762939 45.8841972351 45.999671936 54.0204696655 54.1368141174 54.334602356 54.5588378906 54.6948852539 54.6947059631 54.5583724976 54.3340263367 54.1364250183 54.0203666687 62.0369338989 62.3544235229 62.9289512634 63.6094436646 64.0203704834 64.0198516846 63.608039856 62.9272422791 62.3533172607 62.036693573 70.0391921997 70.4615325928 71.3471069336 72.4806365967 73.1602706909 73.1594161987 72.4783096313 71.3443832397 70.4599380493 70.0389175415 78.0257720947 78.385597229 79.4237060547 80.8581771851 81.7083587646 81.707321167 80.8552703857 79.4203186035 78.3840255737 78.0256195068 86.0146560669 86.2269515991 87.0017700195 88.1804656982 88.855178833 88.8543701172 88.1781158447 86.9990539551 86.2258682251 86.0146331787 
14.0039958954 13.7869148254 13.012471199 11.8275318146 11.1446714401 11.1454877853 11.829911232 13.0151796341 13.7880029678 14.0040283203 21.9927749634 21.6242904663 20.5747528076 19.1151752472 18.2320327759 18.2331352234 19.1181869507 20.5781803131 21.6259021759 21.9929409027 29.9795036316 29.5466384888 28.6402606964 27.4584960938 26.7167186737 26.7176704407 27.4609889984 28.6430702209 29.5482673645 29.9797916412 37.9821205139 37.6558380127 37.0610580444 36.3285255432 35.8733406067 35.8739242554 36.3300666809 37.0628318787 37.6569709778 37.9823760986 45.9992027283 45.8796691895 45.6735115051 45.4293479919 45.2787818909 45.2789802551 45.4298591614 45.6741218567 45.8800735474 45.9992980957 54.0208435059 54.1409683228 54.3481445312 54.5935401917 54.7448577881 54.7446594238 54.5930213928 54.3475418091 54.1405601501 54.0207481384 62.0379066467 62.3646354675 62.9603347778 63.6940727234 64.1500167847 64.1494216919 63.692527771 62.9585533142 62.3634986877 62.0376548767 70.0404815674 70.4734115601 71.3804016113 72.5631637573 73.305557251 73.3045959473 72.5606765747 71.3776168823 70.471786499 70.0401916504 78.0271911621 78.3953094482 79.444694519 80.9044342041 81.7874908447 81.7863922119 80.9014282227 79.4412536621 78.3937149048 78.0270309448 86.0159912109 86.2326812744 87.0058517456 88.1886672974 88.870475769 88.8696594238 88.1862945557 87.0031433105 86.231590271 86.0159606934 
14.0039453506 13.786693573 13.0122966766 11.8272333145 11.1441793442 11.1449966431 11.8296136856 13.0150060654 13.7877826691 14.0039806366 21.9927177429 21.6239070892 20.5739326477 19.1135158539 18.2294788361 18.2305793762 19.1165275574 20.5773601532 21.6255149841 21.9928836823 29.9794578552 29.5461425781 28.638879776 27.4553318024 26.7112941742 26.7122516632 27.4578285217 28.6416950226 29.5477771759 29.9797439575 37.9820823669 37.6553878784 37.0596084595 36.3244171143 35.8658599854 35.8664550781 36.3259544373 37.0613975525 37.6565246582 37.982334137 45.9991874695 45.8794822693 45.6728401184 45.4271697998 45.2753677368 45.2755622864 45.4276885986 45.6734466553 45.8798866272 45.9992904663 54.02085495 54.1411514282 54.3488311768 54.5957183838 54.7482910156 54.7480926514 54.5952072144 54.3482208252 54.1407470703 54.0207633972 62.0379447937 62.3650817871 62.9617805481 63.6981735229 64.1574859619 64.1568984985 63.6966400146 62.9599838257 62.3639373779 62.0376968384 70.0405273438 70.4739074707 71.3817901611 72.5663299561 73.3109741211 73.310005188 72.5638275146 71.3789749146 70.4722747803 70.0402374268 78.0272445679 78.3957061768 79.4455184937 80.9060897827 81.7900390625 81.7889480591 80.9030685425 79.4420776367 78.3940963745 78.0270843506 86.0160369873 86.2329025269 87.0060348511 88.1889724731 88.8709640503 88.8701553345 88.1865921021 87.003326416 86.231803894 86.0160064697 
14.0039415359 13.7866706848 13.0122699738 11.8271884918 11.1441116333 11.1449289322 11.8295688629 13.0149774551 13.7877578735 14.0039749146 21.9927120209 21.6238670349 20.5738391876 19.1133441925 18.2292251587 18.2303276062 19.116355896 20.5772705078 21.6254768372 21.9928779602 29.9794425964 29.5460910797 28.6387367249 27.4550132751 26.7108058929 26.7117595673 27.4575195312 28.6415538788 29.5477218628 29.9797344208 37.9820785522 37.6553421021 37.0594558716 36.3239860535 35.8650817871 35.8656692505 36.3255348206 37.0612373352 37.6564750671 37.9823303223 45.9991836548 45.8794631958 45.6727676392 45.4269218445 45.2749710083 45.2751693726 45.4274330139 45.6733703613 45.8798713684 45.9992828369 54.0208587646 54.1411781311 54.3488998413 54.5959777832 54.7486877441 54.7484893799 54.5954589844 54.3482894897 54.1407699585 54.0207595825 62.037940979 62.3651275635 62.9619293213 63.6986160278 64.1582794189 64.1576919556 63.6970596313 62.960144043 62.3639907837 62.0376930237 70.0405273438 70.4739685059 71.3819351196 72.5666427612 73.3114624023 73.310508728 72.5641326904 71.3791046143 70.4723358154 70.0402374268 78.0272521973 78.3957519531 79.4455947876 80.90625 81.7902908325 81.7891998291 80.9032440186 79.4421691895 78.3941268921 78.0270843506 86.0160369873 86.232925415 87.0060653687 88.1890182495 88.8710250854 88.8702087402 88.1866455078 87.0033569336 86.231842041 86.0160064697 
14.0039405823 13.7866659164 13.0122566223 11.8271656036 11.1440811157 11.144900322 11.8295450211 13.0149679184 13.7877540588 14.0039749146 21.9927120209 21.6238574982 20.5738182068 19.1132984161 18.2291641235 18.2302646637 19.1163139343 20.5772514343 21.6254653931 21.9928798676 29.9794464111 29.5460834503 28.6387023926 27.4549446106 26.7107028961 26.7116565704 27.4574508667 28.6415252686 29.547712326 29.9797363281 37.9820785522 37.6553230286 37.0594177246 36.3238945007 35.8649253845 35.8655204773 36.3254394531 37.0612030029 37.6564598083 37.9823303223 45.9991836548 45.8794593811 45.6727485657 45.426864624 45.2748947144 45.2750854492 45.4273796082 45.6733551025 45.879863739 45.9992828369 54.0208587646 54.1411781311 54.3489151001 54.5960235596 54.7487678528 54.7485694885 54.5955085754 54.3483047485 54.1407699585 54.0207595825 62.0379486084 62.3651351929 62.9619598389 63.6987037659 64.1584396362 64.1578445435 63.6971549988 62.9601745605 62.3640022278 62.0376968384 70.0405349731 70.4739685059 71.3819656372 72.5667037964 73.3115539551 73.3106002808 72.5642089844 71.3791503906 70.4723358154 70.0402374268 78.0272521973 78.3957519531 79.4456176758 80.9063110352 81.7903594971 81.7892608643 80.9032897949 79.442199707 78.3941421509 78.0270843506 86.0160369873 86.232925415 87.006072998 88.1890563965 88.8710632324 88.8702392578 88.186668396 87.0033569336 86.231842041 86.0160064697 
14.0039415359 13.7866640091 13.0122509003 11.8271465302 11.1440582275 11.1448755264 11.8295278549 13.0149583817 13.7877531052 14.0039768219 21.9927120209 21.6238555908 20.573802948 19.1132698059 18.2291316986 18.2302303314 19.1162853241 20.5772342682 21.6254634857 21.9928798676 29.9794464111 29.5460777283 28.6386833191 27.4549121857 26.7106494904 26.7116069794 27.4574146271 28.6415042877 29.5477104187 29.9797363281 37.9820785522 37.6553230286 37.0593986511 36.3238525391 35.8648643494 35.8654594421 36.3253974915 37.0611839294 37.656463623 37.9823303223 45.9991836548 45.8794555664 45.6727409363 45.4268493652 45.2748680115 45.275062561 45.4273643494 45.6733474731 45.879863739 45.9992828369 54.0208587646 54.1411781311 54.3489151001 54.5960464478 54.7487945557 54.7485961914 54.5955276489 54.3483276367 54.1407699585 54.0207595825 62.0379486084 62.3651390076 62.9619827271 63.6987419128 64.1585006714 64.1579055786 63.6972045898 62.9601821899 62.3640060425 62.0376968384 70.0405349731 70.4739685059 71.381980896 72.5667572021 73.3116149902 73.3106536865 72.564239502 71.3791732788 70.4723358154 70.0402374268 78.0272521973 78.3957519531 79.4456329346 80.9063415527 81.7903900146 81.7892837524 80.9033203125 79.4422073364 78.3941421509 78.0270843506 86.0160369873 86.232925415 87.0060806274 88.1890563965 88.8710784912 88.8702697754 88.1866836548 87.0033721924 86.2318496704 86.0160064697 
14.0039415359 13.7866611481 13.0122394562 11.8271303177 11.144033432 11.1448516846 11.8295087814 13.0149488449 13.7877492905 14.0039768219 21.9927101135 21.6238498688 20.5737934113 19.1132469177 18.2290973663 18.2301979065 19.1162586212 20.5772209167 21.625459671 21.9928798676 29.9794464111 29.5460720062 28.638671875 27.4548854828 26.7106113434 26.7115688324 27.4573879242 28.6414852142 29.5477027893 29.9797363281 37.9820785522 37.6553230286 37.0593910217 36.3238220215 35.864818573 35.8654136658 36.3253707886 37.0611724854 37.6564559937 37.9823303223 45.9991836548 45.8794555664 45.6727333069 45.4268417358 45.274848938 45.2750434875 45.4273490906 45.6733360291 45.879863739 45.9992828369 54.0208587646 54.1411781311 54.3489265442 54.5960655212 54.7488136292 54.7486190796 54.5955429077 54.3483276367 54.1407699585 54.0207595825 62.0379486084 62.365146637 62.9620018005 63.6987762451 64.158531189 64.1579437256 63.6972198486 62.9602088928 62.3640136719 62.0376968384 70.0405349731 70.4739837646 71.382019043 72.5667724609 73.3116531372 73.3106918335 72.5642700195 71.379196167 70.4723510742 70.0402450562 78.0272521973 78.3957595825 79.4456710815 80.9063644409 81.7904205322 81.78931427 80.9033432007 79.4422302246 78.3941421509 78.0270843506 86.0160369873 86.232925415 87.0060806274 88.1890792847 88.8711090088 88.8702850342 88.1866912842 87.0033798218 86.2318496704 86.0160064697 
