13.9804611206 21.7527542114 29.3884162903 37.2262611389 45.6770172119 54.3445739746 62.7943458557 70.6306152344 78.2665100098 86.0392837524 13.9750671387 21.5345058441 28.7080497742 36.4333572388 45.3641777039 54.6589508057 63.588104248 71.3098373413 78.483757019 86.0446090698 13.9764223099 21.3653678894 28.3187408447 36.0169754028 45.1868476868 54.8371086121 64.0048370361 71.6988296509 78.6521453857 86.0431976318 13.969540596 21.259765625 28.116268158 35.8224830627 45.103313446 54.9210395813 64.1994781494 71.9011230469 78.7575302124 86.0500030518 13.9655685425 21.2129421234 28.0298290253 35.7445220947 45.0702323914 54.9542770386 64.2775039673 71.9875183105 78.8042297363 86.0539169312 13.9655723572 21.2129955292 28.0299263 35.7446022034 45.0702705383 54.9542427063 64.2774124146 71.9874191284 78.8041915894 86.0539169312 13.9695568085 21.2599391937 28.1165885925 35.8227729797 45.1034393311 54.920917511 64.1991882324 71.9008102417 78.7573547363 86.049987793 13.976433754 21.3657207489 28.3194236755 36.0176696777 45.1871604919 54.8368110657 64.0041351318 71.6981430054 78.6517944336 86.0431976318 13.9750566483 21.5349807739 28.7095127106 36.4349060059 45.364818573 54.6582984924 63.5865592957 71.3083877563 78.4832763672 86.0446090698 13.9805135727 21.753370285 29.3901863098 37.2286529541 45.6779251099 54.3436584473 62.7919578552 70.6288528442 78.2658996582 86.0392303467 
13.9719600677 21.7446327209 29.3677539825 37.1800918579 45.6459083557 54.3758239746 62.8404960632 70.6512298584 78.2746429443 86.0477752686 13.9631538391 21.5192070007 28.6434574127 36.2778358459 45.2699584961 54.7535896301 63.7435302734 71.3742599487 78.4990310669 86.0564956665 13.961971283 21.3303871155 28.1791877747 35.7490463257 45.0439147949 54.9807167053 64.2727203369 71.8380279541 78.6869812012 86.0576171875 13.9523134232 21.2042655945 27.9359264374 35.4977073669 44.9422683716 55.0828514099 64.5243148804 72.0810699463 78.8127670288 86.0671691895 13.9460945129 21.1454658508 27.8312778473 35.4010887146 44.9044494629 55.1208457947 64.6210327148 72.1856460571 78.8713989258 86.0733261108 13.9461011887 21.145532608 27.8313903809 35.4011917114 44.9044837952 55.120803833 64.6209411621 72.1855316162 78.8713302612 86.0733184814 13.952334404 21.2044754028 27.9363098145 35.4980697632 44.9424095154 55.0827064514 64.5239486694 72.0806732178 78.8125534058 86.0671539307 13.9619894028 21.330789566 28.1800270081 35.7499732971 45.0443000793 54.9803276062 64.2717971802 71.8371963501 78.6865921021 86.0575866699 13.9631509781 21.5197200775 28.6450805664 36.2796974182 45.2707710266 54.7527809143 63.7416687012 71.3726272583 78.4985122681 86.0564804077 13.9720191956 21.7452373505 29.3695449829 37.1826133728 45.6469268799 54.3747940063 62.8379669189 70.6494522095 78.2740402222 86.047706604 
13.9713411331 21.7458057404 29.3701477051 37.1814994812 45.6460952759 54.375629425 62.8390693665 70.6488342285 78.273475647 86.0483779907 13.9622545242 21.5216884613 28.6463031769 36.2751541138 45.2662124634 54.7573547363 63.7461929321 71.3714141846 78.4965515137 86.0573806763 13.9608726501 21.3318920135 28.1773433685 35.7312164307 45.0230140686 55.0017204285 64.2905044556 71.8398590088 78.6854858398 86.0587081909 13.9508838654 21.2026157379 27.9236812592 35.449054718 44.9004821777 55.1248168945 64.5728607178 72.0932693481 78.8143920898 86.0685882568 13.9443597794 21.1405982971 27.8089523315 35.3301811218 44.8527603149 55.1727714539 64.6918411255 72.2079162598 78.8762512207 86.0750656128 13.9443664551 21.1406669617 27.8090801239 35.3303108215 44.8528022766 55.1727180481 64.6917114258 72.2077713013 78.8761825562 86.0750732422 13.9509086609 21.2028388977 27.9240951538 35.4494972229 44.9006576538 55.1246414185 64.5724182129 72.0928649902 78.8141708374 86.0685653687 13.9608926773 21.3323020935 28.1782073975 35.7321968079 45.0234489441 55.0012664795 64.2895126343 71.8390045166 78.6850662231 86.0587005615 13.9622545242 21.5221996307 28.6479263306 36.2770347595 45.267036438 54.756526947 63.7443122864 71.3697814941 78.4960403442 86.0573806763 13.9714012146 21.7464027405 29.3719329834 37.1840209961 45.6471214294 54.3746032715 62.8365516663 70.6470489502 78.2728729248 86.0483322144 
13.9713258743 21.7458972931 29.3703804016 37.1817359924 45.646194458 54.3755302429 62.8388290405 70.6485977173 78.2733764648 86.0484085083 13.9622344971 21.5218963623 28.6467170715 36.2754859924 45.2663040161 54.7572631836 63.7458648682 71.3710098267 78.4963378906 86.0574111938 13.9608459473 21.3321475983 28.177816391 35.7314224243 45.0229225159 55.0018043518 64.2902908325 71.8393859863 78.685218811 86.0587387085 13.9508533478 21.2028369904 27.9239692688 35.4485549927 44.8992462158 55.1260604858 64.573348999 72.0929794312 78.8141784668 86.0686187744 13.9443187714 21.1407413483 27.8089504242 35.3285827637 44.8497543335 55.17578125 64.6934280396 72.2079162598 78.8761062622 86.0751037598 13.9443273544 21.1408138275 27.8090801239 35.3287162781 44.8498077393 55.1757240295 64.6932907104 72.2077713013 78.8760299683 86.0751037598 13.950876236 21.2030582428 27.9243850708 35.4489974976 44.899433136 55.125869751 64.5729217529 72.0925598145 78.813949585 86.0686035156 13.9608650208 21.3325576782 28.1786766052 35.7324066162 45.0233688354 55.0013580322 64.2892990112 71.8385543823 78.6848220825 86.0587158203 13.9622344971 21.5224094391 28.6483459473 36.2773628235 45.267124176 54.756439209 63.7439880371 71.3693771362 78.4958343506 86.0574035645 13.9713869095 21.7464942932 29.3721656799 37.184261322 45.6472167969 54.3745079041 62.8362998962 70.6468353271 78.2727890015 86.0483322144 
13.9713258743 21.7458972931 29.3703784943 37.1817398071 45.646194458 54.3755302429 62.8388290405 70.6486053467 78.2733764648 86.0484085083 13.9622335434 21.5218887329 28.6467132568 36.2754821777 45.2663002014 54.7572669983 63.7458648682 71.3710098267 78.4963531494 86.0574111938 13.9608478546 21.3321418762 28.1778049469 35.7314109802 45.0229225159 55.0018043518 64.2903060913 71.8394165039 78.6852340698 86.0587387085 13.9508543015 21.2028312683 27.9239597321 35.4485435486 44.8992462158 55.1260643005 64.5733718872 72.0930099487 78.8141784668 86.0686187744 13.9443206787 21.1407375336 27.8089370728 35.3285636902 44.8497467041 55.1758003235 64.6934509277 72.2079238892 78.8761062622 86.0751037598 13.9443283081 21.1408100128 27.8090667725 35.3286972046 44.8497924805 55.175743103 64.6933135986 72.2077789307 78.8760452271 86.0751037598 13.950876236 21.2030506134 27.9243736267 35.4489860535 44.8994293213 55.1258773804 64.5729293823 72.092590332 78.8139572144 86.0686035156 13.9608650208 21.3325538635 28.1786651611 35.7323989868 45.0233612061 55.0013542175 64.28931427 71.8385467529 78.6848144531 86.0587081909 13.9622325897 21.5223999023 28.6483345032 36.2773551941 45.267124176 54.7564430237 63.7439880371 71.3693695068 78.4958267212 86.0574035645 13.9713869095 21.7464981079 29.3721618652 37.184261322 45.6472129822 54.3745040894 62.8363037109 70.6468276978 78.2727890015 86.0483322144 
13.971326828 21.7458953857 29.3703727722 37.1817321777 45.6461868286 54.375541687 62.8388366699 70.6486206055 78.2733764648 86.0484085083 13.9622335434 21.5218811035 28.6467018127 36.2754669189 45.2662963867 54.757270813 63.7458839417 71.3710174561 78.4963607788 86.0574111938 13.9608478546 21.3321323395 28.1777896881 35.731388092 45.0229072571 55.0018119812 64.2903289795 71.8394012451 78.6852416992 86.0587387085 13.9508523941 21.2028217316 27.9239292145 35.4485168457 44.8992271423 55.1260757446 64.5733947754 72.0930328369 78.814201355 86.0686187744 13.9443187714 21.1407241821 27.8089046478 35.3285255432 44.8497085571 55.1758270264 64.6934814453 72.2079620361 78.8761291504 86.0751037598 13.9443273544 21.1407966614 27.8090343475 35.3286590576 44.8497619629 55.1757736206 64.6933517456 72.2078170776 78.8760604858 86.0751037598 13.950876236 21.2030448914 27.9243469238 35.4489555359 44.8994102478 55.1258926392 64.5729598999 72.0926132202 78.8139648438 86.0686035156 13.9608669281 21.3325443268 28.1786460876 35.7323760986 45.0233573914 55.0013618469 64.2893371582 71.8385772705 78.6848297119 86.0587081909 13.9622325897 21.5223960876 28.6483287811 36.27734375 45.2671165466 54.7564468384 63.7440071106 71.3693847656 78.49584198 86.0574035645 13.9713869095 21.7464942932 29.3721561432 37.1842498779 45.6472129822 54.3745117188 62.836315155 70.6468505859 78.2727966309 86.0483322144 
13.9713249207 21.7458934784 29.3703594208 37.1817245483 45.6461830139 54.3755493164 62.838848114 70.6486206055 78.2733764648 86.0484085083 13.9622325897 21.5218791962 28.6466884613 36.2754516602 45.2662887573 54.757270813 63.7458953857 71.3710403442 78.4963684082 86.0574111938 13.9608488083 21.3321228027 28.1777629852 35.7313690186 45.022895813 55.00182724 64.2903518677 71.8394317627 78.6852416992 86.0587387085 13.9508533478 21.2028102875 27.9239006042 35.4484863281 44.8992195129 55.1260871887 64.5734329224 72.0930480957 78.814201355 86.0686187744 13.944316864 21.140712738 27.8088684082 35.3284873962 44.8496856689 55.1758613586 64.6935195923 72.2079772949 78.8761444092 86.0751037598 13.9443254471 21.1407852173 27.8089962006 35.3286209106 44.84973526 55.1758041382 64.6933822632 72.2078399658 78.8760757446 86.0751037598 13.950876236 21.2030315399 27.9243202209 35.448928833 44.8994064331 55.1259078979 64.5729980469 72.092628479 78.8139801025 86.0686035156 13.9608678818 21.33253479 28.1786289215 35.7323493958 45.023349762 55.0013809204 64.2893600464 71.8385925293 78.6848220825 86.0587081909 13.962231636 21.5223922729 28.648311615 36.2773361206 45.2671127319 54.7564430237 63.7440261841 71.369392395 78.49584198 86.0574035645 13.9713859558 21.7464904785 29.3721446991 37.1842460632 45.6472053528 54.3745231628 62.8363265991 70.6468505859 78.2727966309 86.0483322144 
