2.25721263885 4.15135002136 7.27213096619 10.1214513779 11.6196928024 11.6179447174 10.1161365509 7.26426076889 4.14417505264 2.25688529015 2.27553081512 5.39329242706 10.2011585236 14.7585735321 17.1067008972 17.1039505005 14.7502269745 10.1887903214 5.3819975853 2.27476239204 2.29228329659 6.25818967819 12.1691761017 17.647108078 20.5400829315 20.5366134644 17.6369152069 12.1541976929 6.24408245087 2.29112911224 2.30525231361 6.82346343994 13.335650444 19.2526416779 22.4250431061 22.4211997986 19.2414875031 13.3193016052 6.80768823624 2.30381965637 2.31231284142 7.09416627884 13.8713302612 19.9697303772 23.257194519 23.2531986237 19.9581813812 13.854393959 7.07763910294 2.310734272 2.31230449677 7.09385538101 13.8707208633 19.9689216614 23.2562580109 23.2522640228 19.9573745728 13.8537893295 7.07733058929 2.31072592735 2.30522751808 6.82249164581 13.3337144852 19.2500362396 22.4220066071 22.4181671143 19.2388858795 13.3173666 6.80671787262 2.30379581451 2.29224514961 6.25639724731 12.1653347015 17.6416740417 20.533662796 20.5301952362 17.6314849854 12.1503610611 6.24229669571 2.29109168053 2.27548646927 5.39056396484 10.1948204041 14.7489423752 17.0952186584 17.0924663544 14.7406053543 10.1824655533 5.37928056717 2.2747194767 2.25717067719 4.14785337448 7.26367712021 10.1077718735 11.603553772 11.6018095016 10.1024646759 7.255818367 4.14069032669 2.25684475899 
2.25835204124 3.92306518555 6.85375213623 9.63896846771 11.1405305862 11.1387634277 9.63367652893 6.84618091583 3.91660165787 2.25807309151 2.27472567558 5.1485786438 9.77998924255 14.3168392181 16.7788848877 16.7759475708 14.3082056046 9.76791954041 5.13795614243 2.27405285835 2.29132699966 6.03004169464 11.7934322357 17.3645191193 20.4909496307 20.4871406555 17.3536605835 11.7786455154 6.01651096344 2.29028439522 2.30536985397 6.61053276062 13.0009317398 19.1231765747 22.5759925842 22.5717468262 19.1111965179 12.9846534729 6.59526586533 2.30404686928 2.31317424774 6.89152908325 13.5662555695 19.9223937988 23.5023345947 23.49792099 19.9099712372 13.5493106842 6.87546777725 2.31170415878 2.31316494942 6.89120388031 13.5656051636 19.9214859009 23.5012931824 23.4968757629 19.9090633392 13.5486631393 6.87514400482 2.31169509888 2.30534243584 6.60952949524 12.9989013672 19.1202850342 22.5726242065 22.5683746338 19.1083068848 12.9826250076 6.59426498413 2.3040201664 2.29128670692 6.02820491791 11.7894802094 17.3586521149 20.4838905334 20.4800834656 17.3477935791 11.7746953964 6.01467990875 2.29024505615 2.27468585968 5.14583158493 9.77356433868 14.306927681 16.766784668 16.7638511658 14.2983007431 9.76150798798 5.13521957397 2.27401399612 2.25831437111 3.91971921921 6.84548521042 9.62552165985 11.1245632172 11.1227989197 9.62023925781 6.83792495728 3.91326761246 2.25803732872 
2.25841808319 3.88997340202 6.78940677643 9.5604801178 11.057217598 11.0554561615 9.55520629883 6.78188753128 3.88361740112 2.25814604759 2.27444767952 5.10893011093 9.70734596252 14.228392601 16.6888160706 16.685880661 14.2197685242 9.69534015656 5.09842300415 2.27378988266 2.29071545601 5.98964309692 11.7204027176 17.276309967 20.4185714722 20.4147148132 17.2654342651 11.7056837082 5.9762172699 2.28969359398 2.30463337898 6.57258796692 12.9324970245 19.0470523834 22.5512676239 22.5469074249 19.0349788666 12.9162826538 6.55741691589 2.30333304405 2.31243896484 6.8563337326 13.5032196045 19.8605594635 23.5115451813 23.5069885254 19.847984314 13.4863386154 6.84035730362 2.31099200249 2.31242918968 6.85600471497 13.5025615692 19.8596324921 23.5104598999 23.5059013367 19.8470573425 13.4856824875 6.84002971649 2.31098198891 2.30460619926 6.57157564163 12.9304485321 19.0441169739 22.5477848053 22.5434246063 19.0320472717 12.9142398834 6.5564084053 2.30330657959 2.29067587852 5.98780345917 11.7164392471 17.2704296112 20.4114131927 20.4075603485 17.2595539093 11.7017278671 5.97438430786 2.28965497017 2.27440881729 5.10619068146 9.70093250275 14.2184925079 16.6767158508 16.6737823486 14.2098770142 9.68893718719 5.09569358826 2.27375173569 2.25838160515 3.8866584301 6.78118371964 9.5470905304 11.041311264 11.0395517349 9.54182529449 6.77367782593 3.88031339645 2.25811052322 
2.25841856003 3.88862323761 6.78666162491 9.55697917938 11.0534248352 11.0516624451 9.55170631409 6.77914714813 3.88227128983 2.25814676285 2.2744333744 5.10719442368 9.70402336121 14.2241668701 16.6843509674 16.6814174652 14.2155437469 9.69202518463 5.0966925621 2.2737762928 2.29068446159 5.98773908615 11.716796875 17.2716598511 20.4138431549 20.409986496 17.2607841492 11.7020845413 5.97431993484 2.28966403008 2.30459332466 6.57067203522 12.9288663864 19.0424442291 22.5472450256 22.5428829193 19.0303668976 12.9126567841 6.5555062294 2.30329465866 2.31239676476 6.85447692871 13.4997348785 19.8563117981 23.5096511841 23.5050849915 19.8437328339 13.4828557968 6.83850574493 2.31095051765 2.31238746643 6.85414791107 13.4990768433 19.8553791046 23.5085601807 23.5039920807 19.8428058624 13.4822015762 6.83817863464 2.31094098091 2.30456638336 6.56965970993 12.926817894 19.0395088196 22.5437583923 22.5393924713 19.0274353027 12.9106111526 6.5544962883 2.30326771736 2.29064488411 5.98589992523 11.7128391266 17.2657814026 20.4066867828 20.4028301239 17.254907608 11.6981306076 5.97248697281 2.28962492943 2.27439451218 5.10445547104 9.69760894775 14.2142715454 16.672252655 16.6693210602 14.2056531906 9.68562030792 5.09396314621 2.27373838425 2.2583823204 3.8853096962 6.77844285965 9.54358959198 11.037519455 11.0357618332 9.5383272171 6.77093839645 3.87896990776 2.25811171532 
2.25841879845 3.88863253593 6.78668165207 9.55700778961 11.0534534454 11.051692009 9.55173301697 6.77916622162 3.88228130341 2.25814723969 2.27443361282 5.10720729828 9.70405006409 14.2242059708 16.6843910217 16.6814575195 14.2155818939 9.69204807281 5.09670543671 2.27377653122 2.29068446159 5.98775529861 11.7168292999 17.2717037201 20.4138889313 20.410030365 17.2608280182 11.7021150589 5.97433567047 2.28966403008 2.30459403992 6.57069015503 12.9289007187 19.0424919128 22.5473022461 22.5429344177 19.0304164886 12.9126911163 6.55552482605 2.30329489708 2.31239724159 6.85449647903 13.4997720718 19.8563652039 23.5097122192 23.5051460266 19.843788147 13.4828939438 6.83852529526 2.31095123291 2.31238770485 6.85416650772 13.4991140366 19.8554344177 23.5086212158 23.5040550232 19.8428592682 13.4822387695 6.83819723129 2.31094169617 2.30456662178 6.56967830658 12.9268522263 19.0395565033 22.5438098907 22.5394439697 19.0274810791 12.9106454849 6.55451393127 2.3032681942 2.29064512253 5.9859161377 11.7128686905 17.2658214569 20.4067344666 20.402879715 17.2549514771 11.6981611252 5.9725022316 2.28962492943 2.2743947506 5.10446882248 9.69763755798 14.214307785 16.672290802 16.6693611145 14.2056922913 9.68564510345 5.09397649765 2.27373838425 2.25838208199 3.88531923294 6.77846288681 9.54361915588 11.0375480652 11.0357894897 9.53835678101 6.77095746994 3.87897896767 2.25811171532 
2.25841879845 3.88865375519 6.78672981262 9.55706977844 11.0535259247 11.0517625809 9.55179786682 6.77921390533 3.88230228424 2.25814723969 2.27443408966 5.10723781586 9.70411491394 14.2242879868 16.6844825745 16.6815471649 14.2156677246 9.69211196899 5.09673595428 2.2737762928 2.29068565369 5.98779201508 11.7169036865 17.2718048096 20.4139957428 20.4101390839 17.260931015 11.7021875381 5.9743719101 2.28966498375 2.30459451675 6.5707321167 12.9289836884 19.0426063538 22.5474224091 22.5430583954 19.0305309296 12.9127779007 6.55556774139 2.30329537392 2.31239843369 6.85454177856 13.4998598099 19.8564872742 23.5098552704 23.5052890778 19.8439102173 13.4829854965 6.83857011795 2.310952425 2.31238889694 6.85421228409 13.4992017746 19.855556488 23.508764267 23.5041999817 19.8429832458 13.4823303223 6.83824300766 2.31094312668 2.30456757545 6.56972026825 12.9269371033 19.0396709442 22.5439357758 22.5395698547 19.02759552 12.9107303619 6.55455684662 2.30326890945 2.29064559937 5.98595333099 11.7129430771 17.265920639 20.4068393707 20.4029846191 17.2550506592 11.6982355118 5.97253990173 2.28962564468 2.27439498901 5.10449981689 9.69770050049 14.214392662 16.6723842621 16.6694507599 14.2057762146 9.68570613861 5.09400749207 2.27373862267 2.25838208199 3.88534021378 6.77850961685 9.54368019104 11.0376214981 11.0358629227 9.53841781616 6.77100563049 3.87899971008 2.25811171532 
2.25841879845 3.88867473602 6.78677558899 9.55713272095 11.0535926819 11.0518312454 9.55185890198 6.77925920486 3.88232350349 2.2581474781 2.27443408966 5.1072678566 9.70417499542 14.2243700027 16.6845664978 16.6816329956 14.2157459259 9.69217205048 5.09676551819 2.27377676964 2.29068613052 5.98782920837 11.7169752121 17.2719020844 20.414100647 20.4102458954 17.2610263824 11.7022609711 5.97440910339 2.28966569901 2.30459547043 6.57077312469 12.9290657043 19.0427150726 22.5475463867 22.5431804657 19.0306415558 12.9128580093 6.55560779572 2.30329608917 2.31239938736 6.85458660126 13.4999494553 19.8566131592 23.5099983215 23.5054321289 19.8440361023 13.4830722809 6.83861398697 2.31095314026 2.31239008904 6.85425662994 13.4992923737 19.8556842804 23.5089073181 23.5043430328 19.8431053162 13.4824171066 6.83828639984 2.31094384193 2.30456829071 6.56976079941 12.9270200729 19.0397834778 22.5440597534 22.5396938324 19.0277099609 12.9108133316 6.55459785461 2.30326986313 2.29064655304 5.98599004745 11.7130146027 17.2660198212 20.4069423676 20.4030895233 17.2551517487 11.698307991 5.97257757187 2.28962659836 2.27439522743 5.10452890396 9.69776153564 14.2144708633 16.6724700928 16.6695365906 14.2058572769 9.68577003479 5.09403705597 2.27373862267 2.25838208199 3.88536095619 6.77855539322 9.54374504089 11.037689209 11.0359306335 9.53848075867 6.77104997635 3.87902092934 2.25811171532 
