13.9881839752 21.7528800964 29.4008903503 37.2018928528 45.6504096985 54.3712692261 62.8184814453 70.6181793213 78.2663650513 86.0315628052 13.9926652908 21.5240116119 28.6926174164 36.2764778137 45.2593269348 54.7642059326 63.7444763184 71.3251342773 78.4942016602 86.0270233154 14.0017747879 21.3261680603 28.2284145355 35.7236480713 45.0098991394 55.0147857666 64.2975540161 71.78881073 78.6912307739 86.0178604126 13.9993801117 21.1865005493 27.9675178528 35.4334373474 44.8864860535 55.1387786865 64.5879440308 72.0494766235 78.8305435181 86.0201416016 13.9958982468 21.1197452545 27.8487529755 35.3141174316 44.8388366699 55.1866531372 64.7073745728 72.1681365967 78.8971557617 86.0235595703 13.9959068298 21.1198272705 27.8488941193 35.314250946 44.838886261 55.1865959167 64.707244873 72.1679840088 78.897064209 86.0235443115 13.9993896484 21.1867542267 27.9679775238 35.4339179993 44.8866767883 55.1385917664 64.5874710083 72.0490036011 78.8302993774 86.0201568604 14.0017690659 21.3266048431 28.2292919159 35.7246551514 45.0103378296 55.0143470764 64.2965393066 71.7879638672 78.6907806396 86.0178833008 13.9926338196 21.5245361328 28.6941299438 36.2782783508 45.2601394653 54.7633895874 63.7426643372 71.3236236572 78.4936828613 86.0270614624 13.9882030487 21.7534751892 29.4026317596 37.2044067383 45.6514282227 54.3702354431 62.815952301 70.6164093018 78.2657852173 86.0315475464 
13.98802948 21.7529468536 29.400806427 37.2015647888 45.6502227783 54.3714523315 62.8187980652 70.6182632446 78.2663116455 86.0317001343 13.9924621582 21.5241451263 28.6922512054 36.2751426697 45.258441925 54.765083313 63.7457923889 71.3254852295 78.4940719604 86.0272064209 14.001537323 21.3259658813 28.2269687653 35.7194976807 45.0061950684 55.0185012817 64.3016891479 71.7902603149 78.6914215088 86.0181045532 13.9990758896 21.1854953766 27.9636974335 35.4228401184 44.8776016235 55.1477050781 64.598526001 72.053276062 78.8315505981 86.0204772949 13.9955348969 21.1179523468 27.8425998688 35.2972488403 44.8269958496 55.198551178 64.7242202759 72.1742630005 78.8989257812 86.0239486694 13.9955387115 21.1180362701 27.8427524567 35.2974014282 44.8270454407 55.1984863281 64.7240524292 72.174118042 78.8988494873 86.0239334106 13.99908638 21.1857585907 27.9641685486 35.4233474731 44.8778076172 55.1474952698 64.5980148315 72.0527954102 78.8312683105 86.0204467773 14.0015296936 21.3264122009 28.2278442383 35.7205200195 45.0066452026 55.0180625916 64.3006668091 71.7893981934 78.6910018921 86.0181274414 13.9924316406 21.5246677399 28.6937675476 36.2769622803 45.2592544556 54.7642860413 63.743976593 71.3239822388 78.4935379028 86.0272674561 13.9880514145 21.7535381317 29.4025421143 37.204082489 45.6512413025 54.3704223633 62.8162765503 70.6165008545 78.2657089233 86.0317001343 
13.9880237579 21.7529449463 29.4007968903 37.2015571594 45.6502075195 54.3714675903 62.8187980652 70.6182556152 78.2663040161 86.0317153931 13.9924564362 21.5241413116 28.6922359467 36.2751045227 45.2584190369 54.7651062012 63.7458343506 71.3255157471 78.4940795898 86.0272293091 14.001531601 21.3259563446 28.2269172668 35.719379425 45.0061149597 55.018573761 64.3018112183 71.7903137207 78.6914520264 86.018119812 13.9990653992 21.1854572296 27.9635639191 35.4225463867 44.8773422241 55.1479454041 64.5988235474 72.0534057617 78.8315811157 86.0204849243 13.9955224991 21.1178913116 27.8423843384 35.2967033386 44.8266220093 55.1989173889 64.7247772217 72.1744766235 78.8989868164 86.02394104 13.9955291748 21.1179714203 27.8425331116 35.2968482971 44.8266677856 55.1988601685 64.7246170044 72.174331665 78.8989105225 86.02394104 13.9990797043 21.185716629 27.9640369415 35.4230537415 44.8775444031 55.1477508545 64.5983123779 72.0529403687 78.8313293457 86.0204467773 14.0015277863 21.3263988495 28.2277927399 35.7204093933 45.0065689087 55.0181312561 64.30078125 71.7894515991 78.6910171509 86.018119812 13.9924259186 21.5246677399 28.6937484741 36.2769165039 45.2592315674 54.7642974854 63.7440223694 71.3239746094 78.4935455322 86.0272674561 13.9880475998 21.7535324097 29.4025382996 37.2040672302 45.6512336731 54.3704376221 62.8162879944 70.6165084839 78.2657165527 86.0317153931 
13.9880237579 21.7529392242 29.4007930756 37.20154953 45.6502113342 54.3714675903 62.8188247681 70.6182556152 78.2663040161 86.0317153931 13.9924564362 21.5241374969 28.6922206879 36.2750892639 45.2584037781 54.76512146 63.7458534241 71.3255081177 78.4940719604 86.0272293091 14.0015296936 21.3259449005 28.2268943787 35.7193565369 45.0060997009 55.0185890198 64.3018264771 71.7903289795 78.6914520264 86.018119812 13.9990673065 21.1854438782 27.9635314941 35.4224891663 44.8773155212 55.1479911804 64.5988769531 72.0534439087 78.8315963745 86.0204772949 13.9955253601 21.1178741455 27.8423366547 35.2966041565 44.8265609741 55.1989707947 64.7248687744 72.1745529175 78.899017334 86.02394104 13.9955291748 21.1179561615 27.8424873352 35.296749115 44.8266220093 55.1989135742 64.7247161865 72.1743927002 78.8989257812 86.02394104 13.9990777969 21.1857032776 27.9640026093 35.4230003357 44.8775138855 55.1477737427 64.5983734131 72.0529632568 78.8313446045 86.0204467773 14.0015258789 21.3263912201 28.2277736664 35.7203826904 45.0065612793 55.0181465149 64.3008041382 71.7894744873 78.6910324097 86.0181350708 13.9924259186 21.5246639252 28.6937408447 36.2769012451 45.2592201233 54.7642974854 63.7440299988 71.3240127563 78.4935531616 86.0272674561 13.9880456924 21.7535305023 29.4025344849 37.2040672302 45.6512336731 54.3704376221 62.8162918091 70.6165084839 78.2657241821 86.0317153931 
13.9880218506 21.7529430389 29.4007892609 37.2015419006 45.6502075195 54.3714637756 62.8188209534 70.618270874 78.2663116455 86.0317153931 13.9924554825 21.5241374969 28.6922092438 36.2750816345 45.2583999634 54.7651138306 63.7458610535 71.3255233765 78.4940872192 86.0272293091 14.0015296936 21.3259391785 28.2268791199 35.7193412781 45.0060882568 55.018611908 64.3018493652 71.7903518677 78.6914520264 86.018119812 13.9990663528 21.1854362488 27.9635028839 35.422454834 44.8772926331 55.1480178833 64.5989227295 72.0534591675 78.8316116333 86.0204772949 13.9955234528 21.1178569794 27.8423042297 35.2965507507 44.8265380859 55.1990013123 64.7249298096 72.1745681763 78.8990325928 86.02394104 13.9955291748 21.1179428101 27.8424530029 35.2966995239 44.8266067505 55.1989364624 64.7247619629 72.1744232178 78.8989562988 86.02394104 13.9990758896 21.1856956482 27.9639720917 35.4229621887 44.877494812 55.1477966309 64.5983886719 72.0529937744 78.8313674927 86.0204467773 14.0015239716 21.3263835907 28.2277526855 35.7203598022 45.0065460205 55.0181541443 64.3008346558 71.7894821167 78.6910171509 86.0181350708 13.9924259186 21.5246639252 28.6937294006 36.2768936157 45.2592086792 54.7643127441 63.7440452576 71.324005127 78.4935531616 86.0272674561 13.9880456924 21.753534317 29.4025325775 37.2040557861 45.6512260437 54.3704376221 62.8163032532 70.6165084839 78.2657165527 86.0317153931 
13.9880218506 21.7529411316 29.4007892609 37.2015304565 45.6501998901 54.3714637756 62.8188438416 70.6182632446 78.2663040161 86.0317153931 13.9924564362 21.5241298676 28.6922016144 36.2750663757 45.2583999634 54.7651329041 63.745880127 71.3255386353 78.4940872192 86.0272445679 14.0015306473 21.3259372711 28.2268657684 35.7193145752 45.0060844421 55.018611908 64.3018722534 71.7903823853 78.6914520264 86.0181350708 13.9990653992 21.1854228973 27.9634799957 35.4224281311 44.8772735596 55.1480178833 64.5989456177 72.0535049438 78.8316192627 86.0204772949 13.9955224991 21.1178455353 27.8422794342 35.2965049744 44.8265304565 55.1990127563 64.7249755859 72.1745910645 78.8990325928 86.02394104 13.9955272675 21.1179256439 27.842420578 35.2966575623 44.8265800476 55.1989517212 64.7248153687 72.1744537354 78.8989562988 86.0239257812 13.9990777969 21.1856822968 27.9639472961 35.4229240417 44.8774871826 55.1478118896 64.5984344482 72.053024292 78.8313751221 86.0204467773 14.0015239716 21.3263759613 28.2277374268 35.7203407288 45.0065460205 55.0181617737 64.3008651733 71.7894973755 78.6910171509 86.0181350708 13.9924259186 21.5246601105 28.6937198639 36.2768859863 45.2592124939 54.7643203735 63.7440643311 71.3240203857 78.4935531616 86.0272674561 13.9880466461 21.7535266876 29.4025230408 37.2040519714 45.6512260437 54.3704452515 62.8163032532 70.6165237427 78.2657241821 86.0317153931 
13.9880228043 21.7529392242 29.4007816315 37.2015266418 45.6501998901 54.371471405 62.8188438416 70.6182785034 78.2663040161 86.0317153931 13.9924564362 21.5241260529 28.6921863556 36.2750549316 45.2583961487 54.7651290894 63.745880127 71.3255386353 78.494102478 86.0272445679 14.0015296936 21.325925827 28.2268409729 35.7193031311 45.006072998 55.0186271667 64.3018951416 71.7903823853 78.6914672852 86.0181350708 13.9990663528 21.1854133606 27.9634571075 35.4223899841 44.8772544861 55.1480445862 64.5989837646 72.053527832 78.8316345215 86.0204772949 13.9955234528 21.1178340912 27.8422393799 35.2964668274 44.8265113831 55.1990356445 64.7250137329 72.1746292114 78.8990478516 86.02394104 13.9955272675 21.1179141998 27.8423881531 35.2966117859 44.8265647888 55.1989784241 64.7248458862 72.1744689941 78.8989715576 86.0239257812 13.9990777969 21.18567276 27.963924408 35.4228935242 44.8774604797 55.1478347778 64.5984649658 72.0530471802 78.8313674927 86.0204467773 14.0015239716 21.3263683319 28.2277202606 35.7203216553 45.0065231323 55.0181732178 64.3008804321 71.7895278931 78.6910324097 86.0181350708 13.9924278259 21.5246582031 28.6937084198 36.2768745422 45.2592086792 54.7643203735 63.7440681458 71.3240356445 78.4935684204 86.0272674561 13.9880466461 21.7535266876 29.4025192261 37.2040519714 45.6512336731 54.3704528809 62.8163108826 70.6165237427 78.2657241821 86.0317153931 
