0.987192571163 1.01352393627 1.03555583954 1.12303519249 1.19718277454 1.19354903698 1.1131439209 1.03455007076 1.0119073391 0.991330981255 0.983025610447 1.04899930954 1.11942994595 1.29411077499 1.3878237009 1.38255691528 1.28228497505 1.11000430584 1.04682862759 0.988406062126 0.981076717377 1.12928378582 1.21071994305 1.39298343658 1.49796772003 1.49109756947 1.37974262238 1.20053935051 1.12213289738 0.986751556396 0.977872431278 1.18844568729 1.27203905582 1.45258998871 1.54945123196 1.54328787327 1.43854522705 1.26181793213 1.18135988712 0.983941197395 0.975891470909 1.21702599525 1.30176198483 1.47828567028 1.56580293179 1.56033813953 1.46386599541 1.29145884514 1.20998442173 0.982089221478 0.975861608982 1.21569740772 1.30033695698 1.4770629406 1.56520164013 1.55969655514 1.46264743805 1.29002177715 1.20871520042 0.982068061829 0.977772891521 1.18452048302 1.26777100563 1.44860637188 1.54667937756 1.5404150486 1.4345703125 1.25754392147 1.17743599415 0.983868062496 0.980900943279 1.12268197536 1.2036639452 1.38554286957 1.49008405209 1.48332667351 1.37241280079 1.19354975224 1.11549603939 0.986631453037 0.982946932316 1.04804241657 1.1103553772 1.28368985653 1.37483811378 1.36978089809 1.27204346657 1.1010351181 1.04573845863 0.988394021988 0.987431585789 1.01287460327 1.0341796875 1.10295891762 1.17233192921 1.16888701916 1.09413897991 1.03322696686 1.01131892204 0.991567790508 
0.987178683281 1.01335978508 1.03534591198 1.12278568745 1.19688618183 1.19325315952 1.11289680004 1.03433775902 1.01174592972 0.991313278675 0.983011722565 1.04879295826 1.1192060709 1.29383444786 1.38751208782 1.38224315643 1.28200614452 1.10977888107 1.04662191868 0.988390266895 0.981060802937 1.12904822826 1.21047341824 1.39268016815 1.49763464928 1.49074566364 1.37943232059 1.20029294491 1.1218971014 0.986737787724 0.977848231792 1.18820369244 1.27179563046 1.45236158371 1.55156600475 1.54467701912 1.43831586838 1.26157915592 1.1811170578 0.983924329281 0.97585862875 1.21678817272 1.30154621601 1.47814249992 1.57015120983 1.56373727322 1.46374714375 1.29125237465 1.20974707603 0.982067584991 0.975828707218 1.21545875072 1.30011796951 1.47689950466 1.56938743591 1.56294584274 1.4625120163 1.28981125355 1.20847702026 0.982046306133 0.977748930454 1.18427717686 1.26752138138 1.44835364819 1.54832100868 1.54137563705 1.43431866169 1.2572991848 1.17719221115 0.983851253986 0.980885565281 1.12244641781 1.20341479778 1.38523495197 1.48977136612 1.48299348354 1.37209868431 1.19330108166 1.115260005 0.98661762476 0.982933461666 1.04783594608 1.11013221741 1.28341698647 1.37453556061 1.36947584152 1.27176892757 1.10080981255 1.04553186893 0.988378345966 0.987417757511 1.01271128654 1.03396761417 1.10271000862 1.17204260826 1.168597579 1.09389185905 1.03301286697 1.01115775108 0.991550147533 
0.987178623676 1.01336038113 1.03534662724 1.12278735638 1.19688820839 1.19325470924 1.11289846897 1.03433847427 1.01174616814 0.991313278675 0.983011603355 1.04879367352 1.11920702457 1.293836236 1.38751411438 1.38224482536 1.28200817108 1.10977983475 1.04662299156 0.988390386105 0.981060683727 1.12904953957 1.21047508717 1.39268219471 1.49763727188 1.49074780941 1.37943458557 1.20029461384 1.1218982935 0.986737549305 0.977847993374 1.18820488453 1.2717975378 1.4523640871 1.55157637596 1.54468107224 1.43831849098 1.2615814209 1.18111896515 0.983924210072 0.975858211517 1.21678996086 1.3015486002 1.47814583778 1.57016146183 1.56374764442 1.46375012398 1.29125452042 1.20974886417 0.982067227364 0.9758284688 1.21546065807 1.30011987686 1.4769026041 1.5693975687 1.56295609474 1.46251499653 1.28981375694 1.20847892761 0.982046127319 0.977748632431 1.18427860737 1.26752328873 1.44835639 1.54832577705 1.54137802124 1.43432128429 1.25730109215 1.17719388008 0.983851134777 0.980885326862 1.12244796753 1.2034163475 1.38523745537 1.4897736311 1.48299574852 1.37210059166 1.19330275059 1.11526143551 0.986617386341 0.982933461666 1.04783666134 1.11013317108 1.28341841698 1.37453699112 1.36947774887 1.27177047729 1.10081124306 1.04553282261 0.988378465176 0.987417578697 1.01271164417 1.03396832943 1.10271120071 1.17204415798 1.16859924793 1.09389293194 1.03301358223 1.01115822792 0.991550147533 
0.987178504467 1.01336097717 1.03534710407 1.12278854847 1.19688975811 1.1932567358 1.11289966106 1.03433954716 1.01174676418 0.991313517094 0.983011543751 1.04879438877 1.11920833588 1.29383790493 1.38751602173 1.38224697113 1.28200948238 1.10978114605 1.04662382603 0.988390147686 0.981060504913 1.12905073166 1.21047651768 1.39268481731 1.49763977528 1.49075031281 1.37943673134 1.20029616356 1.12189972401 0.9867374897 0.977847754955 1.18820679188 1.27179920673 1.4523665905 1.55158650875 1.54468810558 1.43832111359 1.26158332825 1.18112051487 0.983923971653 0.975858032703 1.21679186821 1.30155110359 1.47814881802 1.57017183304 1.56375777721 1.46375334263 1.2912569046 1.20975077152 0.982067108154 0.975828111172 1.215462327 1.30012214184 1.47690570354 1.56940793991 1.56296646595 1.46251821518 1.28981590271 1.20848071575 0.982045948505 0.977748453617 1.18428015709 1.26752531528 1.4483590126 1.54833471775 1.54138100147 1.43432378769 1.2573029995 1.17719566822 0.983850836754 0.980885148048 1.1224489212 1.20341813564 1.38523972034 1.4897762537 1.48299813271 1.37210297585 1.1933041811 1.1152626276 0.986617386341 0.982933104038 1.04783761501 1.11013448238 1.2834199667 1.37453901768 1.36947989464 1.27177214622 1.10081219673 1.04553377628 0.988378226757 0.987417638302 1.01271212101 1.03396904469 1.10271263123 1.1720457077 1.16860091686 1.09389436245 1.03301429749 1.01115870476 0.991550028324 
0.987178444862 1.0133613348 1.03534805775 1.12278974056 1.19689166546 1.19325852394 1.11290109158 1.03434002399 1.0117470026 0.991313397884 0.983011543751 1.04879534245 1.11920928955 1.29383957386 1.38751780987 1.38224864006 1.2820110321 1.10978221893 1.04662454128 0.988390088081 0.981060445309 1.12905204296 1.21047794819 1.39268672466 1.49764192104 1.49075269699 1.37943899632 1.20029771328 1.12190067768 0.98673760891 0.977847635746 1.18820822239 1.27180123329 1.45236945152 1.55159747601 1.54469716549 1.43832361698 1.26158511639 1.18112182617 0.983923852444 0.975857913494 1.21679353714 1.30155301094 1.47815179825 1.57018208504 1.56376802921 1.46375644207 1.29125916958 1.20975220203 0.98206692934 0.975828051567 1.21546435356 1.30012428761 1.47690832615 1.5694180727 1.56297624111 1.46252131462 1.28981804848 1.20848250389 0.982045650482 0.977748334408 1.18428146839 1.26752722263 1.44836163521 1.54834330082 1.5413838625 1.4343265295 1.25730502605 1.17719721794 0.983850777149 0.980885088444 1.12245023251 1.20341932774 1.38524150848 1.48977828026 1.48300051689 1.37210512161 1.19330573082 1.11526381969 0.986617207527 0.982933282852 1.04783833027 1.11013543606 1.28342187405 1.37454128265 1.36948180199 1.27177345753 1.10081326962 1.04553461075 0.988378226757 0.987417697906 1.01271271706 1.03396952152 1.10271418095 1.17204749584 1.168602705 1.09389579296 1.03301501274 1.01115906239 0.991550087929 
0.987178325653 1.01336181164 1.03534865379 1.12279117107 1.19689333439 1.19326019287 1.11290228367 1.03434073925 1.01174747944 0.991313159466 0.983011424541 1.0487960577 1.11921000481 1.29384088516 1.38751959801 1.38225054741 1.28201258183 1.10978317261 1.04662525654 0.988390028477 0.98106020689 1.12905335426 1.2104793787 1.39268898964 1.49764454365 1.49075496197 1.37944102287 1.20029902458 1.12190198898 0.986737430096 0.977847456932 1.18820953369 1.27180349827 1.45237183571 1.55160796642 1.54470610619 1.43832600117 1.26158714294 1.1811234951 0.983923792839 0.975857496262 1.21679532528 1.30155539513 1.47815477848 1.57019269466 1.563778162 1.46375930309 1.29126155376 1.20975422859 0.982066571712 0.975827753544 1.21546602249 1.30012643337 1.47691166401 1.56942796707 1.56298625469 1.46252429485 1.28982031345 1.20848441124 0.982045352459 0.977748215199 1.18428337574 1.2675293684 1.44836425781 1.54835236073 1.54138827324 1.43432915211 1.25730729103 1.17719864845 0.983850538731 0.980885028839 1.12245118618 1.20342099667 1.38524401188 1.48978114128 1.48300278187 1.37210738659 1.19330704212 1.11526501179 0.986617267132 0.982933163643 1.04783928394 1.11013627052 1.28342330456 1.37454307079 1.36948359013 1.27177524567 1.10081446171 1.04553556442 0.988378226757 0.987417459488 1.01271295547 1.03397035599 1.10271537304 1.17204928398 1.16860437393 1.09389674664 1.033015728 1.01115953922 0.991550207138 
0.987178385258 1.01336216927 1.03534948826 1.12279248238 1.19689500332 1.19326162338 1.11290371418 1.03434145451 1.01174795628 0.991313159466 0.983011305332 1.04879701138 1.11921131611 1.2938426733 1.38752162457 1.38225245476 1.28201425076 1.10978412628 1.046626091 0.988390147686 0.981060147285 1.12905466557 1.21048080921 1.39269113541 1.49764692783 1.49075710773 1.37944293022 1.2003005743 1.12190318108 0.986737430096 0.977847158909 1.18821144104 1.27180540562 1.45237469673 1.55161774158 1.54471576214 1.43832886219 1.2615891695 1.18112492561 0.98392355442 0.975857138634 1.21679699421 1.30155777931 1.47815799713 1.57020282745 1.56378793716 1.46376228333 1.2912633419 1.20975577831 0.982066392899 0.975827515125 1.215467453 1.30012905598 1.47691464424 1.56943833828 1.56299626827 1.46252739429 1.28982245922 1.20848596096 0.98204511404 0.977747917175 1.18428456783 1.26753139496 1.44836640358 1.54836130142 1.54139459133 1.43433153629 1.25730895996 1.17720031738 0.983850419521 0.980884730816 1.1224527359 1.20342230797 1.38524591923 1.48978340626 1.48300468922 1.37210929394 1.19330823421 1.11526620388 0.986617147923 0.982932984829 1.04783987999 1.11013734341 1.28342497349 1.37454485893 1.36948561668 1.2717769146 1.10081517696 1.04553627968 0.988378345966 0.987417578697 1.01271355152 1.03397071362 1.10271680355 1.17205095291 1.16860604286 1.09389805794 1.03301632404 1.01115989685 0.991550207138 
