1.0 1.0 1.0 1.03260421753 1.09012889862 1.08756029606 1.02688610554 1.00000011921 1.00000011921 1.00000011921 1.0 1.00003254414 1.03696346283 1.1867762804 1.27861273289 1.27350604534 1.17590844631 1.03221559525 1.00000011921 1.00000011921 1.0 1.04932272434 1.11005854607 1.28164577484 1.37229442596 1.3676058054 1.26946377754 1.10288619995 1.044480443 1.00000011921 1.0 1.09685480595 1.16480791569 1.33253848553 1.40649938583 1.40280354023 1.32166421413 1.15651416779 1.09161031246 1.0 1.0 1.12125325203 1.1924738884 1.3513481617 1.41647982597 1.41335773468 1.34150898457 1.18374550343 1.11576259136 1.0 1.0 1.12021541595 1.19114851952 1.35060286522 1.41621422768 1.41306185722 1.34068715572 1.18245780468 1.11474812031 1.0 1.0 1.09384799004 1.16100811958 1.32969772816 1.40510857105 1.4013260603 1.31864237785 1.15283274651 1.08867931366 1.00000011921 1.00000011921 1.04493367672 1.10452747345 1.27479767799 1.3674454689 1.36265349388 1.26247739792 1.09753441811 1.04023325443 1.00000011921 1.00000011921 1.00000011921 1.03159737587 1.17770183086 1.26564610004 1.26076281071 1.16727626324 1.02729558945 1.00000011921 1.00000011921 1.00000011921 1.00000011921 1.00000011921 1.02457106113 1.07523238659 1.07298493385 1.02005064487 1.00000011921 1.00000011921 1.00000011921 
1.0 1.0 1.0 1.03260421753 1.09012889862 1.08756029606 1.02688610554 1.00000011921 1.00000011921 1.00000011921 1.0 1.00003254414 1.03696346283 1.1867762804 1.27890229225 1.27358400822 1.17590844631 1.03221559525 1.00000011921 1.00000011921 1.0 1.04932272434 1.11005854607 1.28258693218 1.39344882965 1.38625192642 1.26969146729 1.10288619995 1.044480443 1.00000011921 1.0 1.09685480595 1.16480791569 1.34330368042 1.4441255331 1.43713092804 1.32948303223 1.15651416779 1.09161031246 1.0 1.0 1.12125325203 1.1924738884 1.36835479736 1.46006131172 1.45361816883 1.35493540764 1.18374550343 1.11576259136 1.0 1.0 1.12021541595 1.19114851952 1.36716365814 1.45943021774 1.4529531002 1.35372149944 1.18245780468 1.11474812031 1.0 1.0 1.09384799004 1.16100811958 1.33906114101 1.44124245644 1.43417847157 1.32527410984 1.15283274651 1.08867931366 1.00000011921 1.00000011921 1.04493367672 1.10452747345 1.27510046959 1.38549113274 1.37836945057 1.2624835968 1.09753441811 1.04023325443 1.00000011921 1.00000011921 1.00000011921 1.03159737587 1.17770183086 1.26564610004 1.26076281071 1.16727626324 1.02729558945 1.00000011921 1.00000011921 1.00000011921 1.00000011921 1.00000011921 1.02457106113 1.07523238659 1.07298493385 1.02005064487 1.00000011921 1.00000011921 1.00000011921 
1.0 1.0 1.0 1.03260421753 1.09012889862 1.08756029606 1.02688610554 1.00000011921 1.00000011921 1.00000011921 1.0 1.00003254414 1.03696346283 1.1867762804 1.27890229225 1.27358400822 1.17590844631 1.03221559525 1.00000011921 1.00000011921 1.0 1.04932272434 1.11005854607 1.28258693218 1.39397823811 1.38666129112 1.26969146729 1.10288619995 1.044480443 1.00000011921 1.0 1.09685480595 1.16480791569 1.34331083298 1.44605433941 1.43877971172 1.32948303223 1.15651416779 1.09161031246 1.0 1.0 1.12125325203 1.1924738884 1.36878073215 1.46252846718 1.45578837395 1.35526549816 1.18374550343 1.11576259136 1.0 1.0 1.12021541595 1.19114851952 1.36755979061 1.46185827255 1.45508503914 1.3540173769 1.18245780468 1.11474812031 1.0 1.0 1.09384799004 1.16100811958 1.33906114101 1.44303154945 1.43569278717 1.32527410984 1.15283274651 1.08867931366 1.00000011921 1.00000011921 1.04493367672 1.10452747345 1.27510046959 1.38576769829 1.37854528427 1.2624835968 1.09753441811 1.04023325443 1.00000011921 1.00000011921 1.00000011921 1.03159737587 1.17770183086 1.26564610004 1.26076281071 1.16727626324 1.02729558945 1.00000011921 1.00000011921 1.00000011921 1.00000011921 1.00000011921 1.02457106113 1.07523238659 1.07298493385 1.02005064487 1.00000011921 1.00000011921 1.00000011921 
1.0 1.0 1.0 1.03260421753 1.09012889862 1.08756029606 1.02688610554 1.00000011921 1.00000011921 1.00000011921 1.0 1.00003254414 1.03696346283 1.1867762804 1.27890229225 1.27358400822 1.17590844631 1.03221559525 1.00000011921 1.00000011921 1.0 1.04932272434 1.11005854607 1.28258693218 1.39399755001 1.38666987419 1.26969146729 1.10288619995 1.044480443 1.00000011921 1.0 1.09685480595 1.16480791569 1.34331083298 1.44628310204 1.43896627426 1.32948303223 1.15651416779 1.09161031246 1.0 1.0 1.12125325203 1.1924738884 1.36880803108 1.46283447742 1.45605397224 1.3552929163 1.18374550343 1.11576259136 1.0 1.0 1.12021541595 1.19114851952 1.36758422852 1.46215820312 1.4553450346 1.35403800011 1.18245780468 1.11474812031 1.0 1.0 1.09384799004 1.16100811958 1.33906114101 1.44324123859 1.43586111069 1.32527410984 1.15283274651 1.08867931366 1.00000011921 1.00000011921 1.04493367672 1.10452747345 1.27510046959 1.38576769829 1.37854528427 1.2624835968 1.09753441811 1.04023325443 1.00000011921 1.00000011921 1.00000011921 1.03159737587 1.17770183086 1.26564610004 1.26076281071 1.16727626324 1.02729558945 1.00000011921 1.00000011921 1.00000011921 1.00000011921 1.00000011921 1.02457106113 1.07523238659 1.07298493385 1.02005064487 1.00000011921 1.00000011921 1.00000011921 
1.0 1.0 1.0 1.03260421753 1.09012889862 1.08756029606 1.02688610554 1.00000011921 1.00000011921 1.00000011921 1.0 1.00003254414 1.03696346283 1.1867762804 1.27890229225 1.27358400822 1.17590844631 1.03221559525 1.00000011921 1.00000011921 1.0 1.04932272434 1.11005854607 1.28258693218 1.39399850368 1.38666963577 1.26969146729 1.10288619995 1.044480443 1.00000011921 1.0 1.09685480595 1.16480791569 1.34331083298 1.44633436203 1.43900740147 1.32948303223 1.15651416779 1.09161031246 1.0 1.0 1.12125325203 1.1924738884 1.36881709099 1.4629021883 1.45611357689 1.35530424118 1.18374550343 1.11576259136 1.0 1.0 1.12021541595 1.19114851952 1.36759316921 1.46222484112 1.45540308952 1.35404706001 1.18245780468 1.11474812031 1.0 1.0 1.09384799004 1.16100811958 1.33906114101 1.44328832626 1.43589842319 1.32527410984 1.15283274651 1.08867931366 1.00000011921 1.00000011921 1.04493367672 1.10452747345 1.27510046959 1.38576769829 1.37854528427 1.2624835968 1.09753441811 1.04023325443 1.00000011921 1.00000011921 1.00000011921 1.03159737587 1.17770183086 1.26564610004 1.26076281071 1.16727626324 1.02729558945 1.00000011921 1.00000011921 1.00000011921 1.00000011921 1.00000011921 1.02457106113 1.07523238659 1.07298493385 1.02005064487 1.00000011921 1.00000011921 1.00000011921 
1.0 1.0 1.0 1.03260421753 1.09012889862 1.08756029606 1.02688610554 1.00000011921 1.00000011921 1.00000011921 1.0 1.00003254414 1.03696346283 1.1867762804 1.27890229225 1.27358400822 1.17590844631 1.03221559525 1.00000011921 1.00000011921 1.0 1.04932272434 1.11005854607 1.28258693218 1.39400315285 1.38667333126 1.26969146729 1.10288619995 1.044480443 1.00000011921 1.0 1.09685480595 1.16480791569 1.34331083298 1.44635570049 1.43902540207 1.32948303223 1.15651416779 1.09161031246 1.0 1.0 1.12125325203 1.1924738884 1.36882674694 1.4629291296 1.45613837242 1.35531544685 1.18374550343 1.11576259136 1.0 1.0 1.12021541595 1.19114851952 1.36760342121 1.46225094795 1.45542728901 1.35405755043 1.18245780468 1.11474812031 1.0 1.0 1.09384799004 1.16100811958 1.33906114101 1.44330871105 1.43591570854 1.32527410984 1.15283274651 1.08867931366 1.00000011921 1.00000011921 1.04493367672 1.10452747345 1.27510046959 1.38576769829 1.37854528427 1.2624835968 1.09753441811 1.04023325443 1.00000011921 1.00000011921 1.00000011921 1.03159737587 1.17770183086 1.26564610004 1.26076281071 1.16727626324 1.02729558945 1.00000011921 1.00000011921 1.00000011921 1.00000011921 1.00000011921 1.02457106113 1.07523238659 1.07298493385 1.02005064487 1.00000011921 1.00000011921 1.00000011921 
1.0 1.0 1.0 1.03260421753 1.09012889862 1.08756029606 1.02688610554 1.00000011921 1.00000011921 1.00000011921 1.0 1.00003254414 1.03696346283 1.1867762804 1.27890229225 1.27358400822 1.17590844631 1.03221559525 1.00000011921 1.00000011921 1.0 1.04932272434 1.11005854607 1.28258693218 1.39401173592 1.38668191433 1.26969146729 1.10288619995 1.044480443 1.00000011921 1.0 1.09685480595 1.16480791569 1.34331083298 1.44637060165 1.43903899193 1.32948303223 1.15651416779 1.09161031246 1.0 1.0 1.12125325203 1.1924738884 1.36883735657 1.46294593811 1.45615434647 1.35532724857 1.18374550343 1.11576259136 1.0 1.0 1.12021541595 1.19114851952 1.36761415005 1.46226763725 1.45544362068 1.35406887531 1.18245780468 1.11474812031 1.0 1.0 1.09384799004 1.16100811958 1.33906114101 1.44332313538 1.43592882156 1.32527410984 1.15283274651 1.08867931366 1.00000011921 1.00000011921 1.04493367672 1.10452747345 1.27510046959 1.38576769829 1.37854528427 1.2624835968 1.09753441811 1.04023325443 1.00000011921 1.00000011921 1.00000011921 1.03159737587 1.17770183086 1.26564610004 1.26076281071 1.16727626324 1.02729558945 1.00000011921 1.00000011921 1.00000011921 1.00000011921 1.00000011921 1.02457106113 1.07523238659 1.07298493385 1.02005064487 1.00000011921 1.00000011921 1.00000011921 
