2.23892211914 4.22864818573 7.40854215622 10.2578439713 11.6821908951 11.6804714203 10.2524280548 7.40051937103 4.22111034393 2.23852300644 2.23666000366 5.45179462433 10.2978334427 14.6313304901 16.7819538116 16.7793121338 14.6231336594 10.2854576111 5.44022703171 2.23582625389 2.2369761467 6.2848649025 12.1444282532 17.2843055725 19.9112796783 19.9079990387 17.2744350433 12.1296443939 6.27062702179 2.23572826385 2.23844122887 6.80892658234 13.2118835449 18.7505893707 21.6303482056 21.6267318726 18.73985672 13.1958808899 6.79320049286 2.23688030243 2.23939085007 7.05553197861 13.6918840408 19.3972454071 22.383102417 22.3793334961 19.3861541748 13.6753664017 7.03915262222 2.23766875267 2.23939013481 7.05523347855 13.6913089752 19.3964691162 22.3821983337 22.3784389496 19.3853816986 13.6747865677 7.03885269165 2.23766875267 2.23843789101 6.80798053741 13.210018158 18.7480621338 21.6274032593 21.6237850189 18.737329483 13.1940088272 6.79225444794 2.23687744141 2.23697328568 6.28317785263 12.1408891678 17.2793655396 19.9054603577 19.9021835327 17.269487381 12.1260995865 6.26894044876 2.23572587967 2.23666167259 5.44928789139 10.2920217514 14.6227998734 16.7719020844 16.7692584991 14.6145925522 10.2796421051 5.43772315979 2.23582959175 2.23893070221 4.22515821457 7.40013360977 10.244641304 11.6669216156 11.6651763916 10.2392063141 7.39211177826 4.21762800217 2.23853302002 
2.24207878113 4.04481506348 7.07597112656 9.89330387115 11.3432178497 11.3414478302 9.88785171509 7.06818199158 4.03780221939 2.24173331261 2.23963427544 5.26296806335 9.96709918976 14.3381233215 16.6222000122 16.6193389893 14.3295907974 9.95496463776 5.25188112259 2.23889255524 2.24113702774 6.12869691849 11.8703336716 17.1643657684 20.0143642426 20.0107650757 17.1538143158 11.8557081223 6.11484670639 2.23998594284 2.24468541145 6.68967008591 13.0050764084 18.7849006653 21.9162082672 21.9122257233 18.7733573914 12.9890727997 6.67426681519 2.24320864677 2.24677467346 6.95638942719 13.5317983627 19.512556076 22.756029129 22.7518997192 19.5006198883 13.5151777267 6.94027328491 2.24513101578 2.24677252769 6.95606374741 13.5311594009 19.511680603 22.755027771 22.7508926392 19.4997463226 13.5145339966 6.9399471283 2.24512839317 2.24467778206 6.68864965439 13.0030508041 18.7820701599 21.9129219055 21.9089431763 18.7705249786 12.9870443344 6.67324829102 2.24320149422 2.24112915993 6.12690877914 11.8666324615 17.1589679718 20.0079727173 20.0043697357 17.1484165192 11.8520021439 6.11306333542 2.23997855186 2.23963618279 5.2604136467 9.96119594574 14.3292417526 16.6114940643 16.6086292267 14.3207006454 9.94905567169 5.24933004379 2.23889541626 2.2420873642 4.04142713547 7.06770896912 9.88017940521 11.3279218674 11.3261194229 9.87470722198 7.0599193573 4.03442239761 2.24174213409 
2.24274802208 4.0008392334 6.99519014359 9.80121707916 11.2504749298 11.2487020493 9.79577445984 6.98745822906 3.99395728111 2.24241375923 2.24018478394 5.21450996399 9.88276767731 14.2482881546 16.5423965454 16.5395183563 14.239739418 9.87069416046 5.20354747772 2.23946666718 2.24147605896 6.08467054367 11.7946138382 17.0975456238 20.0013313293 19.9976158142 17.0869045258 11.780040741 6.07092428207 2.24035573006 2.24517989159 6.65597629547 12.9477930069 18.7659492493 21.9977645874 21.99360466 18.7541694641 12.9318256378 6.64064645767 2.24372887611 2.24779343605 6.93169736862 13.4895381927 19.531621933 22.8938293457 22.889497757 19.5193786621 13.472943306 6.91563987732 2.24616622925 2.24778962135 6.93135976791 13.4888772964 19.5306968689 22.8927516937 22.8884181976 19.5184516907 13.4722805023 6.9153008461 2.24616336823 2.24517083168 6.6549282074 12.9457197189 18.7630023956 21.9942779541 21.9901180267 18.7512130737 12.9297494888 6.63960027695 2.24372053146 2.24146819115 6.08286428452 11.7908706665 17.0920619965 19.9947032928 19.990983963 17.0814151764 11.7762956619 6.06911802292 2.24034786224 2.24018716812 5.2119550705 9.87685489655 14.2393798828 16.531621933 16.5287361145 14.2308139801 9.86477851868 5.20099496841 2.23946928978 2.24275636673 3.99748134613 6.98696804047 9.78813457489 11.235200882 11.2333946228 9.78266620636 6.97923517227 3.99060559273 2.24242329597 
2.2428483963 3.99404835701 6.98267364502 9.78677940369 11.2357301712 11.2339553833 9.78133106232 6.97495126724 3.98718476295 2.24251651764 2.24026656151 5.20688343048 9.86943149567 14.2336626053 16.5286312103 16.5257549286 14.225107193 9.85736656189 5.19593954086 2.23955225945 2.24152374268 6.07756614685 11.7822713852 17.085559845 19.9934806824 19.9897499084 17.0749149323 11.7677116394 6.06383609772 2.24040722847 2.24521708488 6.6504573822 12.9386663437 18.7609786987 22.008846283 22.004655838 18.7491664886 12.9227104187 6.63513851166 2.24377036095 2.24783730507 6.92768859863 13.4835977554 19.5350608826 22.9214115143 22.9170379639 19.5227661133 13.4670057297 6.91163825989 2.24621486664 2.24783444405 6.92734766006 13.4829311371 19.5341243744 22.9203128815 22.9159412384 19.5218257904 13.4663391113 6.91129732132 2.24621200562 2.24520850182 6.64940500259 12.9365854263 18.7579994202 22.0053081512 22.001115799 18.7461872101 12.9206256866 6.63408851624 2.24376249313 2.24151539803 6.07575702667 11.7785234451 17.0800647736 19.9868221283 19.9830856323 17.0694160461 11.7639598846 6.06202745438 2.24039983749 2.24026966095 5.20432758331 9.86351776123 14.2247505188 16.5178546906 16.5149669647 14.2161827087 9.85144996643 5.19338750839 2.23955583572 2.24285697937 3.99069428444 6.97445774078 9.77370262146 11.2204561234 11.2186489105 9.76823425293 6.9667339325 3.98383975029 2.24252557755 
2.24286532402 3.99290966988 6.98057937622 9.78435897827 11.233253479 11.2314844131 9.77891731262 6.97285890579 3.9860496521 2.24253320694 2.2402806282 5.2056016922 9.86719226837 14.2311992645 16.5262966156 16.5234165192 14.2226467133 9.85512828827 5.1946606636 2.23956680298 2.24153161049 6.07637166977 11.7801914215 17.0835037231 19.9919376373 19.9882068634 17.0728569031 11.7656345367 6.06264400482 2.24041652679 2.24522328377 6.64955568314 12.9371871948 18.7601547241 22.0105228424 22.0063285828 18.7483444214 12.9212274551 6.63423919678 2.2437775135 2.24784612656 6.92708587646 13.4827671051 19.535982132 22.9269561768 22.9225749969 19.5236778259 13.466176033 6.91103649139 2.24622440338 2.2478427887 6.92674398422 13.4821014404 19.5350399017 22.9258518219 22.9214687347 19.5227279663 13.4655065536 6.91069412231 2.24622106552 2.2452147007 6.64850282669 12.9350996017 18.7571773529 22.006975174 22.0027770996 18.7453651428 12.9191408157 6.63318824768 2.24376964569 2.24152350426 6.07456254959 11.7764415741 17.0780086517 19.9852714539 19.9815406799 17.0673503876 11.7618818283 6.06083488464 2.24040913582 2.24028301239 5.20304632187 9.86128139496 14.2222881317 16.5155143738 16.5126266479 14.213722229 9.84921360016 5.19210720062 2.23956990242 2.24287366867 3.9895567894 6.97236251831 9.77128696442 11.2179841995 11.2161798477 9.76582336426 6.96464347839 3.9827041626 2.24254250526 
2.2428689003 3.99267268181 6.98014879227 9.78386974335 11.2327575684 11.2309846878 9.77842521667 6.97242832184 3.98581409454 2.24253702164 2.24028301239 5.20533800125 9.8667383194 14.2307052612 16.5258331299 16.5229492188 14.2221517563 9.85467624664 5.19439840317 2.239569664 2.24153327942 6.07613182068 11.7797765732 17.0830993652 19.9916362762 19.987909317 17.0724506378 11.7652187347 6.06240224838 2.24041819572 2.2452249527 6.64938402176 12.9369125366 18.7600383759 22.0109081268 22.0067119598 18.7482261658 12.9209527969 6.6340675354 2.24377942085 2.24784803391 6.9269862175 13.4826526642 19.5362968445 22.9283542633 22.9239711761 19.5239944458 13.4660615921 6.9109377861 2.24622607231 2.24784421921 6.92664384842 13.4819860458 19.535358429 22.9272480011 22.9228649139 19.5230426788 13.4653921127 6.91059494019 2.24622344971 2.24521565437 6.64833211899 12.9348268509 18.7570590973 22.007358551 22.0031547546 18.7452430725 12.9188680649 6.63301563263 2.24377155304 2.24152517319 6.07432079315 11.7760257721 17.0775966644 19.9849720001 19.9812374115 17.0669460297 11.7614679337 6.06059455872 2.24041080475 2.24028563499 5.20278215408 9.86082649231 14.2217950821 16.5150432587 16.5121555328 14.2132282257 9.84875965118 5.19184494019 2.23957252502 2.24287748337 3.98932003975 6.97193384171 9.77079677582 11.2174844742 11.2156801224 9.76532745361 6.96421289444 3.98246860504 2.24254608154 
2.24286961555 3.99261856079 6.98005533218 9.78376579285 11.2326536179 11.2308797836 9.77832126617 6.97233438492 3.98575997353 2.24253797531 2.24028372765 5.20528125763 9.86664485931 14.2306098938 16.5257434845 16.5228652954 14.2220535278 9.85458278656 5.19434070587 2.23957037926 2.24153351784 6.07608270645 11.7797021866 17.0830364227 19.9916000366 19.9878768921 17.0723896027 11.7651443481 6.06235551834 2.24041891098 2.24522519112 6.64935827255 12.9368801117 18.7600631714 22.0110626221 22.0068645477 18.748249054 12.920923233 6.63404321671 2.24377989769 2.24784874916 6.92698335648 13.482670784 19.5364627838 22.928817749 22.9244365692 19.5241565704 13.4660806656 6.91093397141 2.24622750282 2.24784517288 6.9266409874 13.482006073 19.5355205536 22.9277153015 22.923330307 19.5232067108 13.4654111862 6.91059112549 2.24622392654 2.24521589279 6.64830636978 12.9347934723 18.7570838928 22.0075092316 22.0033073425 18.745267868 12.9188375473 6.63298940659 2.24377179146 2.24152588844 6.07427120209 11.7759494781 17.0775356293 19.9849376678 19.9812068939 17.0668811798 11.7613916397 6.060546875 2.24041152 2.24028658867 5.2027258873 9.86073112488 14.2216978073 16.5149593353 16.5120716095 14.2131319046 9.84866333008 5.19178819656 2.2395734787 2.24287843704 3.98926568031 6.97183942795 9.77068996429 11.2173814774 11.2155761719 9.76522731781 6.96411800385 3.98241400719 2.2425467968 
