13.988067627 21.7504711151 29.3929710388 37.2006416321 45.6501655579 54.3715057373 62.8197517395 70.6260681152 78.2687759399 86.0316848755 13.9923267365 21.5195007324 28.6765861511 36.2768821716 45.2648696899 54.7586402893 63.7441139221 71.3410873413 78.4987182617 86.0273666382 14.0021858215 21.3190689087 28.198802948 35.7296218872 45.0226593018 55.0019760132 64.2916641235 71.818397522 78.6982879639 86.0174636841 13.9995679855 21.1723041534 27.9342937469 35.4471511841 44.9046554565 55.1205329895 64.5743255615 72.0826797485 78.8446884155 86.0199737549 13.9955301285 21.1028423309 27.8154296875 35.3325462341 44.8597793579 55.1656227112 64.6890487671 72.2014389038 78.9139938354 86.0239334106 13.9955387115 21.1029205322 27.815568924 35.3326759338 44.8598213196 55.1655654907 64.688911438 72.2013168335 78.9139022827 86.02394104 13.999581337 21.1725711823 27.934753418 35.4476127625 44.9048500061 55.1203422546 64.5738754272 72.0822219849 78.8444137573 86.0199584961 14.0021781921 21.3195285797 28.1996898651 35.7306137085 45.0230865479 55.0015525818 64.2906799316 71.8175125122 78.6977996826 86.0175018311 13.9922914505 21.5200328827 28.678155899 36.2786865234 45.2656555176 54.7578430176 63.7422943115 71.3395309448 78.4981842041 86.027381897 13.9880943298 21.7510738373 29.394733429 37.2031822205 45.6511878967 54.3704910278 62.8172111511 70.6243057251 78.268157959 86.0316390991 
13.9878616333 21.7509803772 29.3939285278 37.2015151978 45.6504440308 54.3712310791 62.8188705444 70.6251068115 78.2682876587 86.031867981 13.9920387268 21.5205459595 28.6782131195 36.2773132324 45.2645683289 54.7589378357 63.7436752319 71.3394775391 78.4976730347 86.0276565552 14.00187397 21.3202323914 28.2001667023 35.727558136 45.0193977356 55.005241394 64.2937240601 71.8170547485 78.6970901489 86.0177612305 13.9992074966 21.1730632782 27.9340801239 35.4379348755 44.8932609558 55.1319694519 64.5835266113 72.0828933716 78.8439178467 86.0203323364 13.9951105118 21.1029243469 27.8128452301 35.3149147034 44.842880249 55.1825942993 64.7066345215 72.2040252686 78.9139022827 86.0243530273 13.9951152802 21.1030063629 27.8129882812 35.3150558472 44.8429374695 55.1825256348 64.706489563 72.2038726807 78.91381073 86.0243453979 13.9992227554 21.1733341217 27.9345493317 35.4384155273 44.8934669495 55.1317710876 64.5830307007 72.0824050903 78.8436584473 86.0203094482 14.0018672943 21.3206958771 28.2010555267 35.7285575867 45.0198402405 55.0048027039 64.2927246094 71.8161468506 78.6966552734 86.0177841187 13.9920082092 21.5210800171 28.6797847748 36.2791137695 45.2653617859 54.758140564 63.7418861389 71.337890625 78.4971389771 86.0276870728 13.9878864288 21.7515716553 29.3956890106 37.204044342 45.6514663696 54.3702049255 62.8163146973 70.6233291626 78.2676849365 86.0318603516 
13.9878616333 21.7509765625 29.3939285278 37.2015151978 45.6504478455 54.3712272644 62.8188781738 70.6251068115 78.2682571411 86.031867981 13.9920396805 21.5205421448 28.6782131195 36.2773017883 45.2645683289 54.7589302063 63.743686676 71.3394775391 78.4976730347 86.0276565552 14.00187397 21.3202285767 28.2001571655 35.7275390625 45.0193901062 55.0052566528 64.2937469482 71.8170623779 78.6971054077 86.0177612305 13.999209404 21.1730556488 27.9340591431 35.4379119873 44.893245697 55.1319847107 64.5835418701 72.0828933716 78.8439331055 86.0203323364 13.9951086044 21.1029148102 27.8128242493 35.3148803711 44.8428535461 55.1826057434 64.7066650391 72.2040481567 78.9139175415 86.0243530273 13.9951133728 21.1030006409 27.8129673004 35.3150291443 44.8429069519 55.1825561523 64.7065200806 72.2039108276 78.9138259888 86.0243453979 13.9992218018 21.1733264923 27.9345283508 35.4383926392 44.8934593201 55.1317710876 64.5830612183 72.0824356079 78.8436584473 86.0203094482 14.0018672943 21.320690155 28.20104599 35.7285499573 45.0198364258 55.0048103333 64.2927474976 71.8161621094 78.696647644 86.0177841187 13.9920072556 21.521074295 28.6797733307 36.2791099548 45.2653617859 54.7581481934 63.7418899536 71.3379058838 78.4971389771 86.0276870728 13.9878854752 21.7515716553 29.3956775665 37.2040481567 45.6514663696 54.3702011108 62.8163337708 70.6233215332 78.2676849365 86.0318603516 
13.987859726 21.7509746552 29.3939208984 37.2015075684 45.6504440308 54.3712272644 62.8188819885 70.6251144409 78.2682571411 86.031867981 13.9920396805 21.5205421448 28.6781978607 36.2772941589 45.2645568848 54.7589378357 63.7436981201 71.3394927979 78.4976882935 86.0276565552 14.00187397 21.3202209473 28.2001438141 35.7275314331 45.0193786621 55.0052642822 64.2937393188 71.8170700073 78.6971206665 86.0177612305 13.9992084503 21.1730442047 27.9340381622 35.4378890991 44.8932380676 55.1319999695 64.5835723877 72.0829238892 78.8439483643 86.0203323364 13.9951095581 21.1029052734 27.812795639 35.3148536682 44.8428344727 55.1826438904 64.706703186 72.2040710449 78.9139251709 86.0243530273 13.9951133728 21.1029891968 27.8129482269 35.314994812 44.8428916931 55.1825790405 64.7065505981 72.2039260864 78.913848877 86.0243453979 13.9992246628 21.1733188629 27.9345149994 35.4383735657 44.893447876 55.1317825317 64.5830841064 72.0824508667 78.8436660767 86.0203094482 14.0018692017 21.320684433 28.2010269165 35.7285385132 45.0198287964 55.0048179626 64.2927398682 71.8161621094 78.6966552734 86.0177841187 13.9920053482 21.5210723877 28.679769516 36.2790985107 45.2653541565 54.7581520081 63.7418937683 71.3379211426 78.4971389771 86.0276870728 13.9878854752 21.7515678406 29.3956737518 37.204044342 45.6514625549 54.3702049255 62.8163414001 70.623336792 78.2676849365 86.0318603516 
13.987859726 21.7509727478 29.3939094543 37.2015075684 45.6504364014 54.3712348938 62.8188858032 70.6251373291 78.2682723999 86.0318756104 13.9920415878 21.5205383301 28.678194046 36.2772903442 45.2645606995 54.7589492798 63.7437095642 71.3394927979 78.4977035522 86.0276489258 14.0018730164 21.3202190399 28.20013237 35.7275161743 45.0193748474 55.0052642822 64.2937698364 71.8170928955 78.6971206665 86.0177612305 13.999209404 21.17304039 27.9340229034 35.4378662109 44.8932304382 55.1320075989 64.5835952759 72.0829391479 78.8439559937 86.0203323364 13.9951105118 21.102891922 27.8127765656 35.3148231506 44.8428153992 55.1826438904 64.7067184448 72.2041015625 78.9139328003 86.0243530273 13.9951133728 21.1029777527 27.8129196167 35.3149719238 44.8428726196 55.1825904846 64.7065734863 72.2039413452 78.9138641357 86.0243453979 13.9992227554 21.1733112335 27.9344940186 35.4383506775 44.8934402466 55.1318054199 64.583114624 72.0824813843 78.8436737061 86.0203094482 14.0018672943 21.3206768036 28.2010173798 35.728515625 45.0198249817 55.0048294067 64.2927703857 71.816192627 78.696647644 86.0177841187 13.9920063019 21.521068573 28.6797618866 36.2790908813 45.2653541565 54.7581520081 63.7419128418 71.3379211426 78.4971466064 86.0276870728 13.9878864288 21.7515716553 29.3956718445 37.2040328979 45.6514625549 54.3702049255 62.8163452148 70.6233520508 78.2676849365 86.0318603516 
13.9878616333 21.7509708405 29.3939094543 37.201499939 45.6504440308 54.3712348938 62.818901062 70.6251373291 78.2682723999 86.0318756104 13.9920415878 21.5205383301 28.6781845093 36.2772750854 45.2645606995 54.7589492798 63.7437133789 71.3395080566 78.4976730347 86.0276489258 14.00187397 21.3202095032 28.2001132965 35.7274971008 45.019367218 55.0052680969 64.2937698364 71.8171005249 78.6971206665 86.0177612305 13.999209404 21.1730289459 27.9340000153 35.4378395081 44.8932151794 55.1320228577 64.5836257935 72.0829696655 78.8439483643 86.0203323364 13.9951114655 21.1028823853 27.8127479553 35.3147926331 44.8428001404 55.1826667786 64.7067489624 72.2041168213 78.9139556885 86.0243530273 13.9951133728 21.1029663086 27.8129005432 35.3149414062 44.8428573608 55.1826095581 64.7065963745 72.2039794922 78.9138565063 86.0243453979 13.9992237091 21.1732997894 27.9344749451 35.4383277893 44.8934211731 55.1318206787 64.5831298828 72.0824813843 78.8436889648 86.0203094482 14.001865387 21.3206691742 28.2010059357 35.7285079956 45.0198173523 55.0048332214 64.2927703857 71.8162078857 78.6966629028 86.0177841187 13.9920082092 21.521068573 28.6797504425 36.2790756226 45.2653503418 54.7581634521 63.7419166565 71.3379364014 78.4971389771 86.0276870728 13.9878873825 21.7515659332 29.3956680298 37.2040252686 45.6514625549 54.3702125549 62.8163566589 70.623336792 78.2676849365 86.0318603516 
13.9878616333 21.7509651184 29.393907547 37.2014923096 45.6504364014 54.3712348938 62.8189163208 70.6251373291 78.2682800293 86.0318756104 13.9920425415 21.520526886 28.6781711578 36.2772712708 45.2645530701 54.7589530945 63.7437171936 71.3395080566 78.4976882935 86.0276489258 14.0018758774 21.3202095032 28.2000980377 35.727481842 45.0193557739 55.0052719116 64.2937927246 71.8171157837 78.6971359253 86.0177688599 13.9992103577 21.1730213165 27.9339809418 35.4378166199 44.8931922913 55.1320304871 64.5836334229 72.0829849243 78.8439788818 86.0203323364 13.9951095581 21.1028671265 27.8127288818 35.3147544861 44.8427848816 55.1826858521 64.70677948 72.2041320801 78.9139709473 86.0243530273 13.9951133728 21.1029548645 27.8128757477 35.3149032593 44.8428497314 55.1826248169 64.7066345215 72.2039871216 78.9138641357 86.0243453979 13.9992227554 21.17329216 27.9344520569 35.4383125305 44.893409729 55.1318206787 64.5831375122 72.0825119019 78.8437042236 86.0203094482 14.0018672943 21.3206672668 28.2009868622 35.7284851074 45.0198097229 55.0048446655 64.2927856445 71.8162231445 78.6966705322 86.0177993774 13.9920063019 21.5210647583 28.6797428131 36.2790718079 45.2653465271 54.7581672668 63.7419281006 71.3379364014 78.4971466064 86.0276794434 13.9878873825 21.7515640259 29.3956623077 37.2040290833 45.6514549255 54.3702125549 62.8163490295 70.6233673096 78.2676849365 86.031867981 
