14.0066652298 13.7894420624 13.0268507004 11.810628891 11.0659170151 11.066824913 11.8133392334 13.0294713974 13.7906541824 14.006688118 21.9959392548 21.6259059906 20.5669384003 19.0316772461 18.0877532959 18.0889778137 19.0350627899 20.5704612732 21.6276512146 21.9961414337 29.9811649323 29.5217609406 28.6004981995 27.3833847046 26.6045246124 26.6055526733 27.3861255646 28.6033401489 29.5235404968 29.9815235138 37.9811897278 37.6268768311 37.0270957947 36.2806968689 35.8078956604 35.8085365295 36.2823600769 37.0288925171 37.6281013489 37.9815368652 45.9984893799 45.8686637878 45.6618690491 45.4136962891 45.2581367493 45.2583465576 45.4142379761 45.6624755859 45.8690948486 45.9986152649 54.0215530396 54.1520233154 54.3598251343 54.6092567444 54.765586853 54.7653656006 54.6087036133 54.3592300415 54.1516036987 54.0214157104 62.0388298035 62.3936004639 62.9942855835 63.7419204712 64.2155151367 64.2148895264 63.7402610779 62.9924964905 62.3923683167 62.0384864807 70.0388183594 70.4982376099 71.4201812744 72.6383285522 73.4178848267 73.416847229 72.6356048584 71.4173202515 70.4964523315 70.0384597778 78.0240249634 78.3937149048 79.4524993896 80.9880981445 81.9320907593 81.9308624268 80.9847259521 79.44896698 78.3919525146 78.0238189697 86.0133132935 86.2301712036 86.991569519 88.2054595947 88.9492034912 88.9482574463 88.2027359009 86.9889526367 86.2289352417 86.0132827759 
14.0064544678 13.7888326645 13.0276355743 11.8128032684 11.0685434341 11.0694522858 11.8155107498 13.030251503 13.7900447845 14.0064792633 21.9957389832 21.6249027252 20.5659065247 19.0292778015 18.0828533173 18.0840797424 19.0326709747 20.5694236755 21.6266479492 21.9959392548 29.9809932709 29.5205192566 28.5977554321 27.375957489 26.5888557434 26.5899066925 27.3787155151 28.6005973816 29.5222949982 29.9813537598 37.9810676575 37.625705719 37.0238075256 36.2704124451 35.7849159241 35.7855644226 36.2721061707 37.0256080627 37.6269378662 37.9814033508 45.9984359741 45.8681564331 45.660320282 45.4084205627 45.24766922 45.2478790283 45.4089813232 45.6609268188 45.8685951233 45.9985694885 54.0216178894 54.1525192261 54.3613929749 54.6145439148 54.7761192322 54.7759056091 54.613986969 54.360786438 54.1520957947 54.0214653015 62.0389595032 62.3947601318 62.9975776672 63.752204895 64.2385101318 64.2378463745 63.75050354 62.9957771301 62.3935432434 62.0386161804 70.0389938354 70.4994659424 71.4228820801 72.6457595825 73.4334945679 73.432472229 72.6429901123 71.4200515747 70.4976959229 70.0386276245 78.0242233276 78.3947296143 79.4535293579 80.9905166626 81.9369735718 81.9357223511 80.987121582 79.4499816895 78.3929519653 78.024017334 86.0135192871 86.230758667 86.9907913208 88.2032699585 88.9465408325 88.9455947876 88.2005386353 86.9881668091 86.2295608521 86.0134887695 
14.0064544678 13.7888307571 13.0276260376 11.812789917 11.068526268 11.069434166 11.8154973984 13.0302438736 13.7900438309 14.0064811707 21.9957389832 21.6248989105 20.5658950806 19.0292606354 18.0828342438 18.0840606689 19.0326538086 20.5694179535 21.6266517639 21.9959392548 29.9809932709 29.5205154419 28.5977497101 27.3759422302 26.5888347626 26.589887619 27.378704071 28.6005954742 29.5222911835 29.9813537598 37.9810676575 37.625705719 37.023815155 36.2703971863 35.7848815918 35.7855377197 36.2720909119 37.0256004333 37.6269264221 37.9814033508 45.9984359741 45.8681564331 45.6603126526 45.408416748 45.2476463318 45.2478485107 45.4089660645 45.6609191895 45.8685951233 45.9985694885 54.0216178894 54.1525154114 54.3613929749 54.6145515442 54.7761268616 54.7759208679 54.6140022278 54.360786438 54.1520957947 54.0214653015 62.0389595032 62.3947563171 62.9975776672 63.7522239685 64.2385253906 64.2378768921 63.7505187988 62.9957771301 62.3935470581 62.0386161804 70.0389938354 70.4994735718 71.4229049683 72.6457748413 73.4335098267 73.4324874878 72.6429977417 71.4200668335 70.4976959229 70.0386276245 78.0242233276 78.3947143555 79.4535140991 80.9905090332 81.9369888306 81.9357376099 80.987121582 79.4499893188 78.3929519653 78.024017334 86.0135192871 86.230758667 86.9907836914 88.2032775879 88.9465713501 88.9456176758 88.200553894 86.9881668091 86.2295608521 86.0134887695 
14.0064544678 13.7888269424 13.0276222229 11.8127727509 11.0685052872 11.0694122314 11.8154811859 13.0302352905 13.7900419235 14.0064811707 21.9957389832 21.6248989105 20.5658874512 19.0292434692 18.0828113556 18.0840377808 19.0326385498 20.5694084167 21.6266460419 21.9959392548 29.9809932709 29.5205078125 28.5977420807 27.3759212494 26.588809967 26.5898571014 27.3786888123 28.6005897522 29.5222873688 29.9813537598 37.9810676575 37.625705719 37.0237998962 36.2703819275 35.7848625183 35.7855072021 36.2720832825 37.0255889893 37.6269340515 37.9814033508 45.9984359741 45.8681564331 45.6603126526 45.408405304 45.247631073 45.247833252 45.4089660645 45.6609268188 45.868598938 45.9985694885 54.0216178894 54.1525154114 54.3614044189 54.6145591736 54.7761573792 54.7759246826 54.6139984131 54.3608016968 54.1520957947 54.0214653015 62.0389595032 62.3947601318 62.9975852966 63.7522277832 64.2385559082 64.2379074097 63.7505455017 62.9957885742 62.393535614 62.0386161804 70.0389938354 70.4994812012 71.4229202271 72.6457901001 73.433555603 73.4325027466 72.6430130005 71.4200668335 70.4976959229 70.0386276245 78.024230957 78.3947143555 79.4535522461 80.9905319214 81.9370193481 81.9357681274 80.9871368408 79.4499969482 78.3929672241 78.024017334 86.0135192871 86.230758667 86.9907836914 88.2032928467 88.9465942383 88.9456634521 88.2005691528 86.9881744385 86.2295608521 86.0134887695 
14.0064544678 13.7888269424 13.0276126862 11.8127574921 11.06848526 11.0693941116 11.8154659271 13.0302314758 13.7900419235 14.0064811707 21.9957389832 21.6248950958 20.5658798218 19.0292224884 18.0827865601 18.0840148926 19.032623291 20.56939888 21.6266441345 21.9959392548 29.9809932709 29.5205059052 28.5977325439 27.3759040833 26.5887813568 26.589838028 27.378660202 28.6005802155 29.5222873688 29.9813537598 37.9810676575 37.6256980896 37.0237922668 36.270362854 35.7848320007 35.7854804993 36.2720603943 37.0255851746 37.6269302368 37.9814033508 45.9984359741 45.8681564331 45.6603012085 45.4083938599 45.2476119995 45.2478294373 45.4089508057 45.6609191895 45.8685951233 45.9985694885 54.0216178894 54.1525154114 54.3613929749 54.614566803 54.7761573792 54.7759361267 54.6140136719 54.3607978821 54.15209198 54.0214653015 62.0389595032 62.3947753906 62.997592926 63.7522544861 64.2385940552 64.2379302979 63.7505531311 62.9957847595 62.3935508728 62.0386161804 70.0389938354 70.4994888306 71.4229202271 72.6458053589 73.4335708618 73.4325332642 72.6430435181 71.4200668335 70.4977035522 70.0386276245 78.024230957 78.3947296143 79.4535522461 80.9905548096 81.9370346069 81.935798645 80.9871444702 79.450012207 78.3929672241 78.024017334 86.0135192871 86.230758667 86.990814209 88.2033157349 88.9466018677 88.9456634521 88.2005691528 86.9881668091 86.2295608521 86.0134887695 
14.0064563751 13.7888269424 13.0276069641 11.8127412796 11.0684652328 11.0693731308 11.8154506683 13.0302248001 13.7900400162 14.0064811707 21.9957389832 21.6248950958 20.565864563 19.0292072296 18.0827655792 18.0839920044 19.0326004028 20.5693912506 21.6266441345 21.9959392548 29.9809932709 29.5205039978 28.5977210999 27.3758850098 26.5887641907 26.5898094177 27.3786468506 28.6005630493 29.5222854614 29.9813537598 37.9810676575 37.625705719 37.0237846375 36.2703361511 35.7848014832 35.7854537964 36.2720451355 37.0255813599 37.6269302368 37.9814033508 45.9984359741 45.8681488037 45.6603050232 45.4083824158 45.2476081848 45.2478218079 45.408946991 45.6609230042 45.8685951233 45.9985694885 54.0216178894 54.1525154114 54.3614082336 54.6145820618 54.7761726379 54.7759590149 54.6140213013 54.3607940674 54.1520881653 54.0214653015 62.0389595032 62.39478302 62.9976005554 63.7522850037 64.2386169434 64.2379608154 63.7505683899 62.9958000183 62.3935546875 62.0386161804 70.0389938354 70.4995040894 71.4229431152 72.6458282471 73.4336013794 73.4325485229 72.6430587769 71.4200820923 70.4977111816 70.0386276245 78.024230957 78.3947143555 79.4535522461 80.9905776978 81.9370651245 81.9358139038 80.9871826172 79.4500274658 78.3929672241 78.024017334 86.0135192871 86.2307662964 86.990814209 88.203338623 88.9466171265 88.9456863403 88.2005844116 86.9881896973 86.2295608521 86.0134887695 
14.0064563751 13.7888250351 13.0276012421 11.8127260208 11.0684452057 11.0693540573 11.8154354095 13.0302143097 13.7900362015 14.0064811707 21.9957389832 21.6248950958 20.5658588409 19.0291881561 18.0827445984 18.0839691162 19.032579422 20.5693836212 21.6266403198 21.9959392548 29.9809932709 29.5205001831 28.5977096558 27.3758640289 26.5887374878 26.5897827148 27.3786277771 28.6005516052 29.5222835541 29.9813537598 37.9810676575 37.6256980896 37.0237770081 36.2703285217 35.7847709656 35.7854270935 36.2720298767 37.0255737305 37.6269226074 37.9814033508 45.9984359741 45.8681488037 45.6603050232 45.4083824158 45.2475852966 45.2478065491 45.4089431763 45.6609191895 45.868598938 45.9985694885 54.0216178894 54.1525230408 54.361415863 54.6145858765 54.7761802673 54.7759666443 54.6140289307 54.3608093262 54.1520881653 54.0214653015 62.0389595032 62.3947753906 62.9976081848 63.7522888184 64.2386550903 64.2379989624 63.7505912781 62.9958076477 62.3935470581 62.0386161804 70.0389938354 70.49949646 71.4229507446 72.6458282471 73.4336242676 73.4325790405 72.6430740356 71.4200897217 70.4977035522 70.0386276245 78.024230957 78.3947219849 79.4535827637 80.9906005859 81.9370803833 81.9358444214 80.9871902466 79.4500198364 78.3929672241 78.024017334 86.0135192871 86.230758667 86.990814209 88.2033538818 88.9466323853 88.9457092285 88.2006149292 86.9881896973 86.2295608521 86.0134887695 
